[
  {
    "Default": {
      "$type": "ConfigAbility",
      /// @desc 脉冲元素 - 首领获得冲击波能力 - Affix-ID: 6118
      "abilityName": "MonsterAffix_LowImpulse_Water",
      // 周期以自身为中心触发一次脉冲波，对处于一定高度以下的玩家造成水元素伤害。
      "isDynamicAbility": true,
      "onAdded": [
        {
          "$type": "ApplyModifier",
          "modifierName": "UNIQUE_GeneralSkill_LowImpulse_Water_Effect_Ver2",
          "predicates": [
            {
              "$type": "ByEntityTypes",
              "entityTypes": ["Monster"]
            }
          ]
        },
        {
          "$type": "SetSystemValueToOverrideMap",
          "key": "GeneralSkill_ElementLevelCo",
          "type": "ElementLevelCo"
        }
      ],
      "onKill": [
        {
          "$type": "RemoveUniqueModifier",
          "modifierName": "UNIQUE_GeneralSkill_LowImpulse_Water_Ver2"
        },
        {
          "$type": "RemoveUniqueModifier",
          "modifierName": "UNIQUE_GeneralSkill_LowImpulse_Water_Effect_Ver2"
        },
        {
          "$type": "RemoveModifier",
          "modifierName": "GeneralSkill_LowImpulse_Water_Alert"
        }
      ],
      "abilityMixins": [
        {
          "$type": "AttachToAIAlertnessMixin",
          "alertness": [1, 2],
          "modifierName": "UNIQUE_GeneralSkill_LowImpulse_Water_Ver2"
        }
      ],
      "modifiers": {
        "UNIQUE_GeneralSkill_LowImpulse_Water_Effect_Ver2": {
          "isUnique": true,
          "onAdded": [
            {
              "$type": "AttachEffect",
              "effectPattern": "Eff_Monster_GeneralSkill_LowImpulse_FootCircle"
            },
            {
              "$type": "AddGlobalValue",
              "value": 1,
              "key": "_GENERALSKILL_LowImpulse_Tag"
            }
          ]
        },
        "UNIQUE_GeneralSkill_LowImpulse_Water_Ver2": {
          "isUnique": true,
          "thinkInterval": 15,
          "onThinkInterval": [
            {
              "$type": "ApplyModifier",
              "modifierName": "GeneralSkill_LowImpulse_Water_Alert"
            }
          ]
        },
        "GeneralSkill_LowImpulse_Water_Alert": {
          "duration": 4,
          "onAdded": [
            {
              "$type": "AttachEffect",
              "effectPattern": "Eff_Monster_GeneralSkill_LowImpulse_Water_Alert"
            },
            {
              "$type": "AttachEffect",
              "effectPattern": "Eff_Monster_GeneralSkill_LowImpulse_Water_Area"
            }
          ],
          "onRemoved": [
            {
              "$type": "FireEffect",
              "effectPattern": "Eff_Monster_GeneralSkill_LowImpulse_Water_DamageWave",
              "predicates": [
                {
                  "$type": "ByTargetHPRatio",
                  "target": "Self",
                  "HPRatio": 0,
                  "logic": "Greater"
                }
              ]
            },
            {
              "$type": "TriggerAttackEvent",
              "targetType": "Enemy",
              "attackEvent": {
                "attackPattern": {
                  "$type": "ConfigAttackCircle",
                  "triggerType": "TriggerNoRepeat",
                  "height": 1.2,
                  "fanAngle": 360.0,
                  "radius": 15.0,
                  "born": {
                    "$type": "ConfigBornBySelf"
                  }
                },
                "attackInfo": {
                  "attackProperty": {
                    "damagePercentage": 0.0,
                    "damageExtra": "%GeneralSkill_ElementLevelCo*%GeneralSkill_LowImpulse",
                    "strikeType": "Default",
                    "attackType": "Range",
                    "elementType": "Water",
                    "elementDurability": 25,
                    "enBreak": 100.0,
                    "ignoreAttackerProperty": true
                  },
                  "hitPattern": {
                    "onHitEffectName": "default",
                    "hitImpulseType": "LV2",
                    "hitHaltTime": 0,
                    "hitHaltTimeScale": 0
                  }
                }
              },
              "predicates": [
                {
                  "$type": "ByTargetHPRatio",
                  "target": "Self",
                  "HPRatio": 0,
                  "logic": "Greater"
                }
              ]
            }
          ]
        }
      },
      "abilitySpecials": {
        "GeneralSkill_ElementLevelCo": 0,
        "GeneralSkill_LowImpulse": 4
      }
    }
  },
  {
    "Default": {
      "$type": "ConfigAbility",
      /// @desc 脉冲元素 - 首领获得冲击波能力 - Affix-ID: 6119
      "abilityName": "MonsterAffix_LowImpulse_Electric",
      // 周期以自身为中心触发一次脉冲波，对处于一定高度以下的玩家造成雷元素伤害。
      "isDynamicAbility": true,
      "onAdded": [
        {
          "$type": "ApplyModifier",
          "modifierName": "UNIQUE_GeneralSkill_LowImpulse_Electric_Effect_Ver2",
          "predicates": [
            {
              "$type": "ByEntityTypes",
              "entityTypes": ["Monster"]
            }
          ]
        },
        {
          "$type": "SetSystemValueToOverrideMap",
          "key": "GeneralSkill_ElementLevelCo",
          "type": "ElementLevelCo"
        }
      ],
      "onKill": [
        {
          "$type": "RemoveUniqueModifier",
          "modifierName": "UNIQUE_GeneralSkill_LowImpulse_Electric_Ver2"
        },
        {
          "$type": "RemoveUniqueModifier",
          "modifierName": "UNIQUE_GeneralSkill_LowImpulse_Electric_Effect_Ver2"
        },
        {
          "$type": "RemoveModifier",
          "modifierName": "GeneralSkill_LowImpulse_Electric_Alert"
        }
      ],
      "abilityMixins": [
        {
          "$type": "AttachToAIAlertnessMixin",
          "alertness": [1, 2],
          "modifierName": "UNIQUE_GeneralSkill_LowImpulse_Electric_Ver2"
        }
      ],
      "modifiers": {
        "UNIQUE_GeneralSkill_LowImpulse_Electric_Effect_Ver2": {
          "isUnique": true,
          "onAdded": [
            {
              "$type": "AttachEffect",
              "effectPattern": "Eff_Monster_GeneralSkill_LowImpulse_FootCircle"
            },
            {
              "$type": "AddGlobalValue",
              "value": 1,
              "key": "_GENERALSKILL_LowImpulse_Tag"
            }
          ]
        },
        "UNIQUE_GeneralSkill_LowImpulse_Electric_Ver2": {
          "isUnique": true,
          "onAdded": [
            {
              "$type": "AttachEffect",
              "effectPattern": "Eff_Monster_GeneralSkill_LowImpulse_FootCircle"
            },
            {
              "$type": "AddGlobalValue",
              "value": 1,
              "key": "_GENERALSKILL_LowImpulse_Tag"
            }
          ],
          "thinkInterval": 15,
          "onThinkInterval": [
            {
              "$type": "ApplyModifier",
              "modifierName": "GeneralSkill_LowImpulse_Electric_Alert"
            }
          ]
        },
        "GeneralSkill_LowImpulse_Electric_Alert": {
          "duration": 4,
          "onAdded": [
            {
              "$type": "AttachEffect",
              "effectPattern": "Eff_Monster_GeneralSkill_LowImpulse_Electric_Alert"
            },
            {
              "$type": "AttachEffect",
              "effectPattern": "Eff_Monster_GeneralSkill_LowImpulse_Electric_Area"
            }
          ],
          "onRemoved": [
            {
              "$type": "FireEffect",
              "effectPattern": "Eff_Monster_GeneralSkill_LowImpulse_Electric_DamageWave",
              "predicates": [
                {
                  "$type": "ByTargetHPRatio",
                  "target": "Self",
                  "HPRatio": 0,
                  "logic": "Greater"
                }
              ]
            },
            {
              "$type": "TriggerAttackEvent",
              "targetType": "Enemy",
              "attackEvent": {
                "attackPattern": {
                  "$type": "ConfigAttackCircle",
                  "triggerType": "TriggerNoRepeat",
                  "height": 1.2,
                  "fanAngle": 360.0,
                  "radius": 15.0,
                  "born": {
                    "$type": "ConfigBornBySelf"
                  }
                },
                "attackInfo": {
                  "attackProperty": {
                    "damagePercentage": 0.0,
                    "damageExtra": "%GeneralSkill_ElementLevelCo*%GeneralSkill_LowImpulse",
                    "strikeType": "Default",
                    "attackType": "Range",
                    "elementType": "Electric",
                    "elementDurability": 25,
                    "enBreak": 100.0,
                    "ignoreAttackerProperty": true
                  },
                  "hitPattern": {
                    "onHitEffectName": "default",
                    "hitImpulseType": "LV2",
                    "hitHaltTime": 0,
                    "hitHaltTimeScale": 0
                  }
                }
              },
              "predicates": [
                {
                  "$type": "ByTargetHPRatio",
                  "target": "Self",
                  "HPRatio": 0,
                  "logic": "Greater"
                }
              ]
            }
          ]
        }
      },
      "abilitySpecials": {
        "GeneralSkill_ElementLevelCo": 0,
        "GeneralSkill_LowImpulse": 4
      }
    }
  },
  {
    "Default": {
      "$type": "ConfigAbility",
      /// @desc 远程光环机制：首领脚底下有个圆环，如果玩家在环外，发落雷攻击玩家。 Affix-ID: 6120
      "abilityName": "MonsterAffix_ElecDamage_ThunderArea",
      "isDynamicAbility": true,
      "onAdded": [
        {
          "$type": "ApplyModifier",
          "modifierName": "UNIQUE_GeneralSkill_ElecDamage_ThunderArea_Host_Ver2",
          "predicates": [
            {
              "$type": "ByEntityTypes",
              "entityTypes": ["Monster"]
            }
          ]
        },
        {
          "$type": "SetSystemValueToOverrideMap",
          "key": "ElementLevelCo",
          "type": "ElementLevelCo"
        }
      ],
      "onKill": [
        {
          "$type": "RemoveUniqueModifier",
          "modifierName": "UNIQUE_GeneralSkill_ElecDamage_ThunderArea_Host_Ver2"
        }
      ],
      "modifiers": {
        "UNIQUE_GeneralSkill_ElecDamage_ThunderArea_Host_Ver2": {
          "isUnique": true,
          "onAdded": [
            {
              "$type": "AddGlobalValue",
              "value": 1,
              "key": "_MONSTESR_GeneralSkill_ElecDamage_ThunderArea_OwnerTag"
            },
            {
              "$type": "AttachEffect",
              "effectPattern": "Eff_Monster_GeneralSkill_ElecDamage_ThunderArea_FootCircle"
            },
            {
              "$type": "AttachEffect",
              "effectPattern": "Eff_Monster_GeneralSkill_ElecDamage_ThunderArea_InnerCircle"
            }
          ],
          "thinkInterval": 0.25,
          "onThinkInterval": [
            {
              "$type": "ApplyModifier",
              "target": "AllTeams",
              "modifierName": "UNIQUE_GeneralSkill_ElecDamage_ThunderArea_DamageTrigger_Ver2",
              "predicates": [
                {
                  "$type": "ByTargetPositionToSelfPosition",
                  "compareType": "XZ",
                  "value": 8,
                  "logic": "Greater"
                },
                {
                  "$type": "ByTargetPositionToSelfPosition",
                  "compareType": "XZ",
                  "value": 20,
                  "logic": "Lesser"
                },
                {
                  "$type": "ByTargetPositionToSelfPosition",
                  "compareType": "Y",
                  "value": 20,
                  "logic": "Lesser"
                }
              ]
            },
            {
              "$type": "ApplyModifier",
              "target": "AllPlayerAvatars",
              "modifierName": "GeneralSkill_ElecDamage_ThunderArea_TeamRemover",
              "predicates": [
                {
                  "$type": "ByAny",
                  "predicates": [
                    {
                      "$type": "ByTargetPositionToSelfPosition",
                      "compareType": "XZ",
                      "value": 8,
                      "logic": "LesserOrEqual"
                    },
                    {
                      "$type": "ByTargetPositionToSelfPosition",
                      "compareType": "XZ",
                      "value": 20,
                      "logic": "GreaterOrEqual"
                    }
                  ]
                }
              ]
            }
          ],
          "onRemoved": [
            {
              "$type": "AddGlobalValue",
              "value": -1,
              "key": "_MONSTESR_GeneralSkill_ElecDamage_ThunderArea_OwnerTag"
            }
          ]
        },
        "GeneralSkill_ElecDamage_ThunderArea_TeamRemover": {
          "duration": 0.1,
          "stacking": "Unique",
          "onAdded": [
            {
              "$type": "RemoveUniqueModifier",
              "modifierName": "UNIQUE_GeneralSkill_ElecDamage_ThunderArea_Team_Ver2",
              "target": "Team"
            }
          ]
        },
        "UNIQUE_GeneralSkill_ElecDamage_ThunderArea_Team_Ver2": {
          "isUnique": true,
          "stacking": "Unique",
          "onAdded": [
            {
              "$type": "AttachEffect",
              "effectPattern": "Eff_SceneObj_ThunderStorm_Gathering"
            },
            {
              "$type": "ApplyModifier",
              "modifierName": "UNIQUE_GeneralSkill_ElecDamage_ThunderArea_DamageMask_Ver2"
            },
            {
              "$type": "AddGlobalValue",
              "value": 1,
              "key": "_MONSTER_GeneralSkill_ElecDamage_ThunderArea_HasEffect",
              "useLimitRange": true,
              "maxValue": 1,
              "minValue": 0
            }
          ],
          "thinkInterval": 1,
          "onThinkInterval": [
            {
              "$type": "AddGlobalValue",
              "value": -1,
              "key": "_MONSTER_GeneralSkill_ElecDamage_ThunderArea_HasOwner",
              "useLimitRange": true,
              "maxValue": 1,
              "minValue": 0
            },
            {
              "$type": "Predicated",
              "otherTargets": {
                "$type": "SelectTargetsByShape",
                "shapeName": "CircleR20",
                "centerBasedOn": "CurLocalAvatar",
                "campTargetType": "Alliance",
                "campBasedOn": "Caster"
              },
              "targetPredicates": [
                {
                  "$type": "ByTargetGlobalValue",
                  "target": "Target",
                  "key": "_MONSTESR_GeneralSkill_ElecDamage_ThunderArea_OwnerTag",
                  "value": 1,
                  "compareType": "Equal"
                }
              ],
              "successActions": [
                {
                  "$type": "AddGlobalValue",
                  "value": 1,
                  "key": "_MONSTER_GeneralSkill_ElecDamage_ThunderArea_HasOwner",
                  "useLimitRange": true,
                  "maxValue": 1,
                  "minValue": 0
                }
              ]
            },
            {
              "$type": "RemoveUniqueModifier",
              "modifierName": "UNIQUE_GeneralSkill_ElecDamage_ThunderArea_Team_Ver2",
              "predicates": [
                {
                  "$type": "ByTargetGlobalValue",
                  "key": "_MONSTER_GeneralSkill_ElecDamage_ThunderArea_HasOwner",
                  "target": "Self",
                  "value": 0,
                  "compareType": "NoneOrEqual"
                }
              ]
            }
          ],
          "onRemoved": [
            {
              "$type": "RemoveUniqueModifier",
              "modifierName": "UNIQUE_GeneralSkill_ElecDamage_ThunderArea_DamageMask_Ver2"
            },
            {
              "$type": "AddGlobalValue",
              "value": -1,
              "key": "_MONSTER_GeneralSkill_ElecDamage_ThunderArea_HasEffect",
              "useLimitRange": true,
              "maxValue": 1,
              "minValue": 0
            }
          ]
        },
        "UNIQUE_GeneralSkill_ElecDamage_ThunderArea_DamageMask_Ver2": {
          "duration": 2,
          "isUnique": true,
          "stacking": "Unique",
          "onAdded": [
            {
              "$type": "AddGlobalValue",
              "value": 1,
              "key": "_MONSTER_GeneralSkill_ElecDamage_ThunderArea_DamageMask",
              "useLimitRange": true,
              "maxValue": 1,
              "minValue": 0
            }
          ],
          "onRemoved": [
            {
              "$type": "AddGlobalValue",
              "value": -1,
              "key": "_MONSTER_GeneralSkill_ElecDamage_ThunderArea_DamageMask",
              "useLimitRange": true,
              "maxValue": 1,
              "minValue": 0
            }
          ]
        },
        "UNIQUE_GeneralSkill_ElecDamage_ThunderArea_DamageTrigger_Ver2": {
          "duration": 2,
          "isUnique": true,
          "stacking": "Unique",
          "onAdded": [
            {
              "$type": "ApplyModifier",
              "modifierName": "UNIQUE_GeneralSkill_ElecDamage_ThunderArea_Team_Ver2",
              "predicates": [
                {
                  "$type": "ByTargetGlobalValue",
                  "key": "_MONSTESR_GeneralSkill_ElecDamage_ThunderArea_HasEffect",
                  "target": "Self",
                  "value": 0,
                  "compareType": "NoneOrEqual"
                },
                {
                  "$type": "ByTargetPositionToSelfPosition",
                  "target": "Applier",
                  "compareType": "XZ",
                  "value": 20,
                  "logic": "Lesser"
                }
              ]
            },
            {
              "$type": "AddGlobalValue",
              "value": -1,
              "key": "_MONSTESR_GeneralSkill_ElecDamage_ThunderArea_HasOwner",
              "useLimitRange": true,
              "maxValue": 1,
              "minValue": 0
            },
            {
              "$type": "Predicated",
              "otherTargets": {
                "$type": "SelectTargetsByShape",
                "shapeName": "CircleR20",
                "centerBasedOn": "CurLocalAvatar",
                "campTargetType": "Alliance",
                "campBasedOn": "Caster"
              },
              "targetPredicates": [
                {
                  "$type": "ByTargetGlobalValue",
                  "target": "Target",
                  "key": "_MONSTESR_GeneralSkill_ElecDamage_ThunderArea_OwnerTag",
                  "value": 1,
                  "compareType": "Equal"
                },
                {
                  "$type": "ByTargetPositionToSelfPosition",
                  "compareType": "XZ",
                  "value": 8,
                  "logic": "Greater"
                }
              ],
              "successActions": [
                {
                  "$type": "DamageByAttackValue",
                  "attacker": "Caster",
                  "target": "CurLocalAvatar",
                  "attackInfo": {
                    "attackProperty": {
                      "ignoreAttackerProperty": true,
                      "damageExtra": "%ThunderArea_Ratio*%ElementLevelCo",
                      "strikeType": "None",
                      "elementType": "Electric",
                      "elementDurability": 25,
                      "enBreak": 0
                    },
                    "hitPattern": {
                      "onHitEffectName": "",
                      "hitImpulseType": "LV0",
                      "retreatType": "ByHitDirection",
                      "hitHaltTime": 0.0,
                      "hitHaltTimeScale": 0.0,
                      "muteHitText": false
                    },
                    "forceCameraShake": false
                  }
                },
                {
                  "$type": "FireEffect",
                  "effectPattern": "Eff_SceneObj_ThunderStorm_Blast",
                  "target": "CurLocalAvatar"
                },
                {
                  "$type": "AddGlobalValue",
                  "value": 1,
                  "key": "_MONSTER_GeneralSkill_ElecDamage_ThunderArea_HasOwner",
                  "useLimitRange": true,
                  "maxValue": 1,
                  "minValue": 0
                }
              ],
              "predicates": [
                {
                  "$type": "ByTargetGlobalValue",
                  "target": "Self",
                  "key": "_MONSTER_GeneralSkill_ElecDamage_ThunderArea_DamageMask",
                  "value": 0,
                  "compareType": "NoneOrEqual"
                },
                {
                  "$type": "ByTargetGlobalValue",
                  "key": "_MONSTER_GeneralSkill_ElecDamage_ThunderArea_HasEffect",
                  "target": "Self",
                  "value": 1,
                  "compareType": "Equal"
                }
              ]
            },
            {
              "$type": "RemoveUniqueModifier",
              "modifierName": "UNIQUE_GeneralSkill_ElecDamage_ThunderArea_Team_Ver2",
              "predicates": [
                {
                  "$type": "ByTargetGlobalValue",
                  "key": "_MONSTER_GeneralSkill_ElecDamage_ThunderArea_HasOwner",
                  "target": "Self",
                  "value": 0,
                  "compareType": "NoneOrEqual"
                },
                {
                  "$type": "ByTargetGlobalValue",
                  "target": "Self",
                  "key": "_MONSTER_GeneralSkill_ElecDamage_ThunderArea_DamageMask",
                  "value": 0,
                  "compareType": "NoneOrEqual"
                },
                {
                  "$type": "ByTargetGlobalValue",
                  "key": "_MONSTER_GeneralSkill_ElecDamage_ThunderArea_HasEffect",
                  "target": "Self",
                  "value": 0,
                  "compareType": "NoneOrEqual"
                }
              ]
            }
          ]
        }
      },
      "abilitySpecials": {
        "ElementLevelCo": 0,
        "ThunderArea_Ratio": 3
      }
    }
  },
  //////////////////////
  //
  // 3.2奇趣妙园   4182~4184
  //
  /////////////////////
  {
    "Default": {
      "$type": "ConfigAbility",
      "abilityName": "MonsterAffix_Property_ForCharAmusement_Shield",
      "isDynamicAbility": true,
      "onAdded": [
        {
          "$type": "AttachModifier",
          "modifierName": "UNIQUE_MonsterAffix_Property_ForCharAmusement_Shield"
        }
      ],
      "modifiers": {
        "UNIQUE_MonsterAffix_Property_ForCharAmusement_Shield": {
          "stacking": "Unique",
          "isUnique": true,
          "properties": {
            "Actor_MaxHPRatio": "%HPRatio",
            "Actor_AttackRatio": "%AttackRatio",
            "Actor_PhysicalSubHurtDelta": "%SubHurtDelta_AllType",
            "Actor_FireSubHurtDelta": "%SubHurtDelta_AllType",
            "Actor_ElecSubHurtDelta": "%SubHurtDelta_AllType",
            "Actor_IceSubHurtDelta": "%SubHurtDelta_AllType",
            "Actor_WaterSubHurtDelta": "%SubHurtDelta_AllType",
            "Actor_GrassSubHurtDelta": "%SubHurtDelta_AllType",
            "Actor_WindSubHurtDelta": "%SubHurtDelta_AllType",
            "Actor_RockSubHurtDelta": "%SubHurtDelta_AllType"
          },
          "onAdded": [
            {
              "$type": "SetGlobalValue",
              "key": "_MONSTER_ForCharAmusement_Shield",
              "value": 1
            }
          ]
        }
      },
      "abilitySpecials": {
        "HPRatio": 0,
        "AttackRatio": 0,
        "SubHurtDelta_AllType": 0
      }
    }
  },
  {
    "Default": {
      "$type": "ConfigAbility",
      "abilityName": "MonsterAffix_Property_ForCharAmusement_Chain",
      "isDynamicAbility": true,
      "onAdded": [
        {
          "$type": "AttachModifier",
          "modifierName": "UNIQUE_MonsterAffix_Property_ForCharAmusement_Chain"
        }
      ],
      "modifiers": {
        "UNIQUE_MonsterAffix_Property_ForCharAmusement_Chain": {
          "stacking": "Unique",
          "isUnique": true,
          "properties": {
            "Actor_MaxHPRatio": "%HPRatio",
            "Actor_AttackRatio": "%AttackRatio",
            "Actor_PhysicalSubHurtDelta": "%SubHurtDelta_AllType",
            "Actor_FireSubHurtDelta": "%SubHurtDelta_AllType",
            "Actor_ElecSubHurtDelta": "%SubHurtDelta_AllType",
            "Actor_IceSubHurtDelta": "%SubHurtDelta_AllType",
            "Actor_WaterSubHurtDelta": "%SubHurtDelta_AllType",
            "Actor_GrassSubHurtDelta": "%SubHurtDelta_AllType",
            "Actor_WindSubHurtDelta": "%SubHurtDelta_AllType",
            "Actor_RockSubHurtDelta": "%SubHurtDelta_AllType"
          }
        }
      },
      "abilitySpecials": {
        "HPRatio": 0,
        "AttackRatio": 0,
        "SubHurtDelta_AllType": 0
      }
    }
  },
  {
    "Default": {
      "$type": "ConfigAbility",
      "abilityName": "MonsterAffix_Property_ForCharAmusement_FastKill",
      "isDynamicAbility": true,
      "onAdded": [
        {
          "$type": "AttachModifier",
          "modifierName": "UNIQUE_MonsterAffix_Property_ForCharAmusement_FastKill"
        }
      ],
      "modifiers": {
        "UNIQUE_MonsterAffix_Property_ForCharAmusement_FastKill": {
          "stacking": "Unique",
          "isUnique": true,
          "properties": {
            "Actor_MaxHPRatio": "%HPRatio",
            "Actor_AttackRatio": "%AttackRatio",
            "Actor_PhysicalSubHurtDelta": "%SubHurtDelta_AllType",
            "Actor_FireSubHurtDelta": "%SubHurtDelta_AllType",
            "Actor_ElecSubHurtDelta": "%SubHurtDelta_AllType",
            "Actor_IceSubHurtDelta": "%SubHurtDelta_AllType",
            "Actor_WaterSubHurtDelta": "%SubHurtDelta_AllType",
            "Actor_GrassSubHurtDelta": "%SubHurtDelta_AllType",
            "Actor_WindSubHurtDelta": "%SubHurtDelta_AllType",
            "Actor_RockSubHurtDelta": "%SubHurtDelta_AllType"
          }
        }
      },
      "abilitySpecials": {
        "HPRatio": 0,
        "AttackRatio": 0,
        "SubHurtDelta_AllType": 0
      }
    }
  },
  //////////////////////////////////////////////////////////////////////////////////////////////////
  //
  //  3.4 连线地城_连线 判断Team身上的Value获得增伤
  //
  //////////////////////////////////////////////////////////////////////////////////////////////////
  {
    "Default": {
      "$type": "ConfigAbility",
      "abilityName": "MonsterAffix_ActivityTeamChainV3.4_UpDamage",
      "isDynamicAbility": true,
      "abilitySpecials": {
        "DamageUp": 0
      },
      "abilityMixins": [
        {
          "$type": "AttachModifierToGlobalValueMixin",
          "globalValueTarget": "Team",
          "globalValueKey": "_IN_HIGH_TIDE_V3.4",
          "valueSteps": [-0.5, 0.5, 1.5],
          "modifierNameSteps": ["Crazy_In_Peace", "Crazy_DamageUp"]
        }
      ],
      "modifiers": {
        "Crazy_In_Peace": {},
        "Crazy_DamageUp": {
          "properties": {
            "Actor_AddHurtDelta": "%DamageUp"
          }
        }
      }
    }
  },
  //////////////////////////////////////////////////////////////////////////////////////////////////
  //
  //  3.4 连线地城_连线 阵眼怪
  //
  //////////////////////////////////////////////////////////////////////////////////////////////////
  {
    "Default": {
      "$type": "ConfigAbility",
      "abilityName": "MonsterAffix_ActivityTeamChainV3.4_Master",
      "isDynamicAbility": true,
      "onAdded": [
        {
          "$type": "SetGlobalValue",
          "key": "_IS_TEAMCHAIN_MASTER_V3.4",
          "value": 1
        },
        {
          "$type": "ApplyModifier",
          "modifierName": "MonsterAffix_ActivityTeamChain_MasterEffect"
        }
      ],
      "abilityMixins": [
        {
          "$type": "ServerCreateGadgetOnKillMixin",
          "gadgetIDList": [44000553],
          "campID": 1001,
          "campTargetType": "Enemy"
        }
      ],
      "modifiers": {
        "MonsterAffix_ActivityTeamChain_MasterEffect": {
          "onAdded": [
            {
              "$type": "AttachEffect",
              "effectPattern": "Eff_Monster_Common_MarkPowerful"
            }
          ]
        }
      },
      "onKill": [
        {
          "$type": "SetGlobalValue",
          "key": "_IS_TEAMCHAIN_MASTER_V3.4",
          "value": 0
        }
      ]
    }
  },
  //////////////////////////////////////////////////////////////////////////////////////////////////
  //
  //  3.4 连线地城_连线 从属怪
  //
  //////////////////////////////////////////////////////////////////////////////////////////////////
  {
    "Default": {
      "$type": "ConfigAbility",
      "abilityName": "MonsterAffix_ActivityTeamChainV3.4_Slave",
      "isDynamicAbility": true,
      "abilitySpecials": {
        "DamageUp": 0,
        "SubHurtUp": 0,
        "HealThinkinverval": 0,
        "HealPercent": 0
      },
      "onAdded": [
        {
          "$type": "ApplyModifier",
          "modifierName": "MonsterAffix_ActivityTeamChainV3.4_LinkHandler"
        }
      ],
      "abilityMixins": [
        // {
        // 	"$type": "AttachModifierToGlobalValueMixin",
        // 	"otherTargets":{
        // 		"$type": "SelectTargetsByShape",
        // 		"campBasedOn": "Self",
        // 		"campTargetType": "AllExceptSelf",
        // 		"centerBasedOn": "Self",
        // 		"shapeName": "CircleR50"
        // 	},
        // 	"globalValueKey": "_IS_TEAMCHAIN_MASTER_V3.4",
        // 	"valueSteps": [-0.5,0.5,1.5],
        // 	"modifierNameSteps": ["No_ActionEmpty","PowerUp_Buff"]
        // }
      ],
      "modifiers": {
        "No_ActionEmpty": {},
        "PowerUp_Buff": {
          "duration": 1.2,
          "properties": {
            "Actor_FireAddHurtDelta": "%DamageUp",
            "Actor_ElecAddHurtDelta": "%DamageUp",
            "Actor_WaterAddHurtDelta": "%DamageUp",
            "Actor_GrassAddHurtDelta": "%DamageUp",
            "Actor_WindAddHurtDelta": "%DamageUp",
            "Actor_IceAddHurtDelta": "%DamageUp",
            "Actor_RockAddHurtDelta": "%DamageUp",
            "Actor_PhysicalAddHurtDelta": "%DamageUp",
            "Actor_PhysicalSubHurtDelta": "%SubHurtUp",
            "Actor_FireSubHurtDelta": "%SubHurtUp",
            "Actor_ElecSubHurtDelta": "%SubHurtUp",
            "Actor_WaterSubHurtDelta": "%SubHurtUp",
            "Actor_GrassSubHurtDelta": "%SubHurtUp",
            "Actor_WindSubHurtDelta": "%SubHurtUp",
            "Actor_IceSubHurtDelta": "%SubHurtUp",
            "Actor_RockSubHurtDelta": "%SubHurtUp"
          },
          "thinkInterval": "%HealThinkinverval",
          "onThinkInterval": [
            {
              "$type": "HealHP",
              "amountByCasterMaxHPRatio": "%HealPercent"
            },
            {
              "$type": "FireEffect",
              "effectPattern": "Eff_Monster_GeneralSkill_SelfHeal_HealEffect"
            }
          ]
        },
        "MonsterAffix_ActivityTeamChainV3.4_LinkHandler": {
          "thinkInterval": 1,
          "onThinkInterval": [
            {
              "$type": "Predicated",
              "otherTargets": {
                "$type": "SelectTargetsByShape",
                "campBasedOn": "Self",
                "campTargetType": "AllExceptSelf",
                "centerBasedOn": "Self",
                "shapeName": "CircleR50"
              },
              "targetPredicates": [
                {
                  "$type": "ByTargetGlobalValue",
                  "key": "_IS_TEAMCHAIN_MASTER_V3.4",
                  "value": 1,
                  "compareType": "Equal"
                }
              ],
              "successActions": [
                {
                  "$type": "ApplyModifier",
                  "target": "Target",
                  "modifierName": "MonsterAffix_ActivityTeamChainV3.4_Link"
                },
                {
                  "$type": "ApplyModifier",
                  "modifierName": "PowerUp_Buff"
                }
              ]
            }
          ]
        },
        "MonsterAffix_ActivityTeamChainV3.4_Link": {
          "duration": 2,
          "onAdded": [
            {
              "$type": "AttachEffect",
              "target": "Applier",
              "effectPattern": "Eff_Monster_Common_LinkEff_Recover",
              "setSelfAsEffectPluginTarget": true
            }
          ]
        }
      }
    }
  },
  //////////////////////////////////////////////////////////////////////////////////////////////////
  //
  //  3.4 连线地城_连线 关卡5隔山打牛
  //
  //////////////////////////////////////////////////////////////////////////////////////////////////
  {
    "Default": {
      "$type": "ConfigAbility",
      "abilityName": "MonsterAffix_ActivityTeamChainV3.4_HitOtherMonster",
      "isDynamicAbility": true,
      "abilitySpecials": {
        "DamageRatio": 0,
        "DamageCD": 0
      },
      "onAdded": [
        {
          "$type": "SetSystemValueToOverrideMap",
          "key": "DamageSystemValue",
          "type": "ElementLevelCo"
        },
        {
          "$type": "ApplyModifier",
          "modifierName": "MonsterAffix_ActivityTeamChainV3.4_HitOtherMonster"
        }
      ],
      "modifiers": {
        "MonsterAffix_ActivityTeamChainV3.4_HitOtherMonster": {
          "onBeingHit": [
            {
              "$type": "Predicated",
              "targetPredicates": [
                {
                  "$type": "ByTargetGlobalValue",
                  "key": "_CJB_IN_CDV3.4",
                  "value": 0,
                  "compareType": "NoneOrEqual"
                },
                {
                  "$type": "ByAttackTags",
                  "attackTags": [
                    "NormalAttack_01",
                    "NormalAttack_02",
                    "NormalAttack_03",
                    "NormalAttack_04",
                    "NormalAttack_05",
                    "NormalAttack_06",
                    "ExtraAttack",
                    "FallingAttack",
                    "Elemental_Art",
                    "Elemental_Burst"
                  ]
                }
              ],
              "successActions": [
                {
                  "$type": "ApplyModifier",
                  "otherTargets": {
                    "$type": "SelectTargetsByShape",
                    "campBasedOn": "Self",
                    "campTargetType": "Alliance",
                    "centerBasedOn": "Self",
                    "shapeName": "CircleR50"
                  },
                  "modifierName": "MonsterAffix_ActivityTeamChainV3.4_HitOtherMonsterDamage"
                },
                {
                  "$type": "ApplyModifier",
                  "target": "Self",
                  "modifierName": "MonsterAffix_ActivityTeamChainV3.4_HitOtherMonster_CD"
                }
              ]
            }
          ]
        },
        "MonsterAffix_ActivityTeamChainV3.4_HitOtherMonsterDamage": {
          "duration": 0.3,
          "onAdded": [
            {
              "$type": "FireEffect",
              "effectPattern": "Eff_EnergyDisk_ExtraAtkWave",
              "born": {
                "$type": "ConfigBornBySelf"
              }
            },
            {
              "$type": "DamageByAttackValue",
              "target": "Self",
              "born": {
                "$type": "ConfigBornByTarget",
                "offset": {
                  "x": 0.0,
                  "y": 1.0,
                  "z": 0.0
                }
              },
              "attackInfo": {
                "attackProperty": {
                  "ignoreAttackerProperty": true,
                  "trueDamage": true,
                  "damagePercentage": 0,
                  "damageExtra": "%DamageRatio*%ElementLevelCo",
                  "strikeType": "None",
                  "elementType": "None",
                  "elementDurability": 25,
                  "enBreak": 0
                },
                "hitPattern": {
                  "onHitEffectName": "",
                  "hitImpulseType": "LV0",
                  "retreatType": "ByHitDirection",
                  "hitHaltTime": 0.0,
                  "hitHaltTimeScale": 0.0,
                  "muteHitText": false
                },
                "forceCameraShake": false
              }
            }
          ]
        },
        "MonsterAffix_ActivityTeamChainV3.4_HitOtherMonster_CD": {
          "duration": "%DamageCD",
          "onAdded": [
            {
              "$type": "SetGlobalValue",
              "key": "_CJB_IN_CDV3.4",
              "value": 1
            }
          ],
          "onRemoved": [
            {
              "$type": "SetGlobalValue",
              "key": "_CJB_IN_CDV3.4",
              "value": 0
            }
          ]
        }
      }
    }
  }
]
