{
  ////////////////////////////////////////////////////////////////
  //
  //  Boar_RushAtk
  //
  ////////////////////////////////////////////////////////////////
  "Boar_RushAtk": {
    "$type": "ConfigGadget",
    "combat": {
      "property": {
        "useCreatorProperty": true, // 是否继承创造者的数值
        "denyLockOn": true,
        "canTriggerBullet": false,
        "isLockHP": true,
        "isGhostToAllied": true,
        "isGhostToEnemy": true
      },
      "beHit": {
        "hitBloodEffect": "",
        "muteAllHit": true,
        "muteAllHitEffect": true,
        "muteAllHitText": true
      }
    },
    "move": {
      "$type": "ConfigSurroundBulletMove",
      "speed": 13.5,
      "clockwise": true,
      "radius": 0.01,
      "traceOnYAxis": true,
      "destroyWhenTargetDie": true,
      "canBornInWater": true
      /*"$type" : "ConfigFollowMove",
			"target": "TargetEntity",
			"followRotation": true,
			"offset":
			{
				"x": 0.0,
				"y": 0.0,
				"z": 0.0,
			},
			"forward":
			{
				"x": 0.0,
				"y": 0.0,
				"z": 0.0,
			},*/
    },
    "timer": {
      "lifeInfinite": false,
      "lifeTime": 5.0
    },
    "gadget": {
      "$type": "ConfigBulletPattern",
      "collision": {
        "targetType": "Enemy",
        "triggerType": "TriggerOnce",
        "ignoreScene": true
      },
      "triggerActions": [
        {
          "$type": "ConfigGadgetTriggerAbility",
          "abilityName": "Boar_RushAtk_Attack"
        }
      ]
    },
    "abilities": [
      {
        "$type": "ConfigGadgetTriggerAbility",
        "abilityName": "Boar_RushAtk_Attack"
      }
    ]
  },
  ////////////////////////////////////////////////////////////////
  //
  //  Boar_Throw Big Snow Ball
  //
  ////////////////////////////////////////////////////////////////
  "Boar_BigSnowBall": {
    "$type": "ConfigGadget",
    "common": {
      "effectAttachShape": {
        "$type": "ConfigEffectAttachBox",
        "emitFrom": "Volume", //EmitFrom
        "scaleX": 1,
        "scaleY": 1,
        "scaleZ": 1
      },
      "affectedByWorld": true,
      "checkInSurface": true
    },
    "timer": {
      "lifeTime": 5
    },
    "combat": {
      "property": {
        "useCreatorProperty": true,
        "HP": 999999,
        "attack": 15.0,
        "defense": 999999,
        "weight": 60,
        "isLockHP": true,
        "canTriggerBullet": false
      },
      "combatLock": {
        "denyLockOn": true
      }
    },
    // 子弹线性移动
    "move": {
      "$type": "ConfigParabolaBulletMove",
      "canBornInWater": true,
      "speed": 40,
      "angleOffHor": 60,
      "gravityOfAcceleration": 40,
      "syncToRemote": true,
      "updateAngle": {
        "$type": "ConfigBulletMoveAngleByVelocity"
      },
      "correction": {
        "$type": "ConfigParabolaBulletMoveCorrection",
        "deviation": 1,
        "fixAngleOfVer": 5,
        "minSpeed": 4.0,
        "maxSpeed": 40
      }
    },
    // 子弹参数
    "gadget": {
      "$type": "ConfigBulletPattern",
      "collision": {
        "targetType": "Enemy",
        "triggerType": "TriggerOnce",
        "bornWithTriggerEnabled": false
      },
      "triggerActions": [
        {
          "$type": "ConfigGadgetTriggerAbility",
          "abilityName": "Animal_Boar_03_BigSnowBallExplode"
        }
      ]
    },
    "abilities": [
      {
        "abilityID": "Boar_SnowBallExplode",
        "abilityName": "Animal_Boar_03_BigSnowBallExplode"
      }
    ]
  },
  ////////////////////////////////////////////////////////////////
  //
  //  Boar_Throw Small Snow Ball
  //
  ////////////////////////////////////////////////////////////////
  "Boar_SmallSnowBall": {
    "$type": "ConfigGadget",
    "common": {
      "effectAttachShape": {
        "$type": "ConfigEffectAttachBox",
        "emitFrom": "Volume", //EmitFrom
        "scaleX": 1,
        "scaleY": 1,
        "scaleZ": 1
      },
      "affectedByWorld": true,
      "checkInSurface": true
    },
    "timer": {
      "lifeTime": 10
    },
    "combat": {
      "property": {
        "useCreatorProperty": true,
        "HP": 999999,
        "attack": 15.0,
        "defense": 999999,
        "weight": 60,
        "isLockHP": true,
        "canTriggerBullet": false
      },
      "combatLock": {
        "denyLockOn": true
      }
    },
    // 子弹线性移动
    "move": {
      "$type": "ConfigParabolaBulletMove",
      "canBornInWater": true,
      "speed": 30,
      "angleOffHor": 45,
      "gravityOfAcceleration": 40,
      "syncToRemote": true,
      "updateAngle": {
        "$type": "ConfigBulletMoveAngleByVelocity"
      },
      "correction": {
        "$type": "ConfigParabolaBulletMoveCorrection",
        "deviation": 5,
        "fixAngleOfVer": 15,
        "minSpeed": 6,
        "maxSpeed": 24.0
      }
    },
    // 子弹参数
    "gadget": {
      "$type": "ConfigBulletPattern",
      "collision": {
        "targetType": "Enemy",
        "triggerType": "TriggerOnce",
        "bornWithTriggerEnabled": false
      },
      "triggerActions": [
        {
          "$type": "ConfigGadgetTriggerAbility",
          "abilityName": "Animal_Boar_03_SmallSnowBallExplode"
        }
      ]
    },
    "abilities": [
      {
        "abilityID": "SnowBallExplode",
        "abilityName": "Animal_Boar_03_SmallSnowBallExplode"
      }
    ]
  },
  ////////////////////////////////////////////////////////////////
  //
  //  Boar_03 Rush Atk
  //
  ////////////////////////////////////////////////////////////////
  "Boar_03_RushAtk": {
    "$type": "ConfigGadget",
    "combat": {
      "property": {
        "useCreatorProperty": true, // 是否继承创造者的数值
        "isInvincible": true,
        "canTriggerBullet": false
      },
      "combatLock": {
        "denyLockOn": true
      },
      "beHit": {
        "hitBloodEffect": "",
        "muteAllHit": true,
        "muteAllHitEffect": true,
        "muteAllHitText": true
      }
    },
    // 生命周期管理
    "timer": {
      "lifeInfinite": false, //如果未触发是否一致存在
      "lifeTime": 1 //存在时间
    },
    "move": {
      "$type": "ConfigFollowMove",
      "target": "TargetEntity",
      "followRotation": true
    },
    "gadget": {
      "$type": "ConfigBulletPattern",
      "collision": {
        "targetType": "Enemy",
        "triggerType": "TriggerNoRepeat",
        "ignoreScene": true,
        "ccd": {
          "type": "Always"
        }
      },
      "triggerActions": [
        {
          "$type": "ConfigGadgetTriggerAbility",
          "abilityName": "Animal_Boar_03_RushAtkBulletDamage"
        }
      ]
    },
    "abilities": [
      {
        "abilityID": "RushAtk",
        "abilityName": "Animal_Boar_03_RushAtkBulletDamage"
      }
    ]
  },
  ////////////////////////////////////////////////////////////////
  //
  //  Boar IceDrop
  //
  ////////////////////////////////////////////////////////////////
  "Boar_SnowDrop": {
    "$type": "ConfigGadget",
    "combat": {
      "property": {
        "useCreatorProperty": true, // 是否继承创造者的数值
        "denyLockOn": true,
        "canTriggerBullet": false,
        "isLockHP": true,
        "isGhostToAllied": true,
        "isGhostToEnemy": true
      },
      "beHit": {
        "hitBloodEffect": "",
        "muteAllHit": true,
        "muteAllHitEffect": true,
        "muteAllHitText": true
      }
    },
    "timer": {
      "lifeInfinite": false,
      "lifeTime": 5.0
    },
    "abilities": [
      {
        "abilityID": "SnowDropAttack",
        "abilityName": "Animal_Boar_03_SnowDropAttack"
      }
    ]
  },
  ////////////////////////////////////////////////////////////////
  //
  //  Inu Shihandai GrassWall
  //
  ////////////////////////////////////////////////////////////////
  "Inu_Shihandai_GrassWall": {
    "$type": "ConfigGadget",
    "common": {
      "effectAttachShape": {
        "$type": "ConfigEffectAttachBox",
        "emitFrom": "Volume",
        "scaleX": 1.0,
        "scaleY": 1.0,
        "scaleZ": 1
      },
      "affectedByWorld": true,
      "checkInSurface": true,
      "mass": 5.0
    },
    //战斗参数
    "combat": {
      "property": {
        "useCreatorProperty": false,
        "HP": 99999,
        "defense": 999999,
        "isLockHP": true,
        "isGhostToAllied": true,
        "isGhostToEnemy": true,
        "canTriggerBullet": false
      },
      "combatLock": {
        "denyLockOn": true
      }
    },
    "timer": {
      "lifeInfinite": false, //如果未触发是否一致存在
      "lifeTime": 43 //存在时间
    },
    "abilities": [
      {
        "abilityName": "Animal_Inu_Shihandai_GrassWall"
      }
    ]
  },
  ////////////////////////////////////////////////////////////////
  //
  //  Inu Shihandai Invisible Wave
  //
  ////////////////////////////////////////////////////////////////
  "Inu_Shihandai_Invisible_Wave": {
    "$type": "ConfigGadget",
    "common": {
      "effectAttachShape": {
        "$type": "ConfigEffectAttachBox",
        "emitFrom": "Volume",
        "scaleX": 1.0,
        "scaleY": 1.0,
        "scaleZ": 1
      },
      "affectedByWorld": true,
      "checkInSurface": true,
      "mass": 5.0
    },
    //战斗参数
    "combat": {
      "property": {
        "useCreatorProperty": true,
        "HP": 9999,
        "defense": 999999,
        "isLockHP": true,
        "isGhostToAllied": true,
        "isGhostToEnemy": true,
        "canTriggerBullet": false
      },
      "combatLock": {
        "denyLockOn": true
      }
    },
    "timer": {
      "lifeInfinite": false, //如果未触发是否一致存在
      "lifeTime": 8 //存在时间
    },
    "abilities": [
      {
        "abilityName": "Animal_Inu_Shihandai_Invisible_Wave"
      }
    ]
  },
  ////////////////////////////////////////////////////////////////
  //
  //  Inu Shihandai Blink Hat
  //
  ////////////////////////////////////////////////////////////////
  "Inu_Shihandai_Blink_Hat": {
    "$type": "ConfigGadget",
    "common": {
      "effectAttachShape": {
        "$type": "ConfigEffectAttachBox",
        "emitFrom": "Volume",
        "scaleX": 1.0,
        "scaleY": 1.0,
        "scaleZ": 1
      },
      "affectedByWorld": true,
      "checkInSurface": true,
      "mass": 5.0
    },
    //战斗参数
    "combat": {
      "property": {
        "useCreatorProperty": true,
        "HP": 9999,
        "defense": 999999,
        "isLockHP": true,
        "isGhostToAllied": false,
        "isGhostToEnemy": true,
        "canTriggerBullet": false
      },
      "combatLock": {
        "denyLockOn": true
      }
    },
    "move": {
      "$type": "ConfigLinerBulletMove",
      "speed": 15
    },
    "timer": {
      "lifeInfinite": false, //如果未触发是否一致存在
      "lifeTime": 5 //存在时间
    },
    "gadget": {
      "$type": "ConfigBulletPattern",
      "collision": {
        "targetType": "All",
        "triggerType": "TriggerNoRepeat",
        "ignoreScene": false
      },
      "triggerActions": [
        {
          "$type": "ConfigGadgetTriggerAbility",
          "abilityName": "Animal_Inu_Shihandai_Blink_HatBullet"
        }
      ],
      "killByOther": true
    },
    "abilities": [
      {
        "abilityName": "Animal_Inu_Shihandai_Blink_HatBullet"
      }
    ]
  },
  ////////////////////////////////////////////////////////////////
  //
  //  Inu Shihandai Blink Hat Target Position
  //
  ////////////////////////////////////////////////////////////////
  "Inu_Shihandai_Blink_HatTargetPos": {
    "$type": "ConfigGadget",
    "common": {
      "effectAttachShape": {
        "$type": "ConfigEffectAttachBox",
        "emitFrom": "Volume",
        "scaleX": 1.0,
        "scaleY": 1.0,
        "scaleZ": 1
      },
      "affectedByWorld": true,
      "checkInSurface": true
    },
    //战斗参数
    "combat": {
      "property": {
        "useCreatorProperty": true,
        "HP": 9999,
        "defense": 999999,
        "isLockHP": true,
        "isGhostToAllied": false,
        "isGhostToEnemy": true,
        "canTriggerBullet": true
      },
      "combatLock": {
        "denyLockOn": true
      }
    },
    "timer": {
      "lifeInfinite": false, //如果未触发是否一致存在
      "lifeTime": 5 //存在时间
    },
    "abilities": [
      {
        "abilityName": "Animal_Inu_Shihandai_Blink_TargetPos"
      }
    ]
  },
  ////////////////////////////////////////////////////////////////
  //
  //  Inu Shihandai CounterAttack Blade
  //
  ////////////////////////////////////////////////////////////////
  "Inu_Shihandai_CounterAttackBlade": {
    "$type": "ConfigGadget",
    "common": {
      "effectAttachShape": {
        "$type": "ConfigEffectAttachBox",
        "emitFrom": "Volume",
        "scaleX": 1.0,
        "scaleY": 1.0,
        "scaleZ": 1
      },
      "affectedByWorld": true,
      "checkInSurface": true,
      "mass": 5.0
    },
    //战斗参数
    "combat": {
      "property": {
        "useCreatorProperty": true,
        "HP": 9999,
        "defense": 999999,
        "isLockHP": true,
        "isGhostToAllied": false,
        "isGhostToEnemy": true,
        "canTriggerBullet": false
      },
      "combatLock": {
        "denyLockOn": true
      }
    },
    "move": {
      "$type": "ConfigLinerBulletMove",
      "speed": 15
    },
    "timer": {
      "lifeInfinite": false, //如果未触发是否一致存在
      "lifeTime": 3 //存在时间
    },
    "gadget": {
      "$type": "ConfigBulletPattern",
      "collision": {
        "targetType": "Enemy",
        "triggerType": "TriggerNoRepeat",
        "ignoreScene": false
      },
      "triggerActions": [
        {
          "$type": "ConfigGadgetTriggerAbility",
          "abilityName": "Animal_Inu_Shihandai_Blink_CounterAttackBlade"
        }
      ],
      "killByOther": true
    },
    "abilities": [
      {
        "abilityName": "Animal_Inu_Shihandai_Blink_CounterAttackBlade"
      }
    ]
  },
  ////////////////////////////////////////////////////////////////
  //
  //  Inu Shihandai CounterAttack Blade
  //
  ////////////////////////////////////////////////////////////////
  "Inu_Shihandai_CounterAttackBladeBig": {
    "$type": "ConfigGadget",
    "common": {
      "effectAttachShape": {
        "$type": "ConfigEffectAttachBox",
        "emitFrom": "Volume",
        "scaleX": 1.0,
        "scaleY": 1.0,
        "scaleZ": 1
      },
      "affectedByWorld": true,
      "checkInSurface": true,
      "mass": 5.0
    },
    //战斗参数
    "combat": {
      "property": {
        "useCreatorProperty": true,
        "HP": 9999,
        "defense": 999999,
        "isLockHP": true,
        "isGhostToAllied": false,
        "isGhostToEnemy": true,
        "canTriggerBullet": false
      },
      "combatLock": {
        "denyLockOn": true
      }
    },
    "move": {
      "$type": "ConfigLinerBulletMove",
      "speed": 15
    },
    "timer": {
      "lifeInfinite": false, //如果未触发是否一致存在
      "lifeTime": 3.5 //存在时间
    },
    "gadget": {
      "$type": "ConfigBulletPattern",
      "collision": {
        "targetType": "All",
        "triggerType": "TriggerNoRepeat",
        "ignoreScene": false
      },
      "triggerActions": [
        {
          "$type": "ConfigGadgetTriggerAbility",
          "abilityName": "Animal_Inu_Shihandai_Blink_CounterAttackBladeBig"
        }
      ],
      "killByOther": true
    },
    "abilities": [
      {
        "abilityName": "Animal_Inu_Shihandai_Blink_CounterAttackBladeBig"
      }
    ]
  },
  ////////////////////////////////////////////////////////////////
  //
  //  Inu Shihandai Trick DogExplode
  //
  ////////////////////////////////////////////////////////////////
  "Inu_Shihandai_TrickDogExplode": {
    "$type": "ConfigGadget",
    "common": {
      "effectAttachShape": {
        "$type": "ConfigEffectAttachBox",
        "emitFrom": "Volume",
        "scaleX": 1.0,
        "scaleY": 1.0,
        "scaleZ": 1
      },
      "affectedByWorld": true,
      "checkInSurface": true
    },
    //战斗参数
    "combat": {
      "property": {
        "useCreatorProperty": true,
        "HP": 9999,
        "defense": 999999,
        "isLockHP": true,
        "isGhostToAllied": true,
        "isGhostToEnemy": true,
        "canTriggerBullet": false
      },
      "combatLock": {
        "denyLockOn": true
      }
    },
    "timer": {
      "lifeInfinite": false, //如果未触发是否一致存在
      "lifeTime": 5 //存在时间
    },
    "abilities": [
      {
        "abilityName": "Animal_Inu_Shihandai_TrickDogExplode"
      }
    ]
  },
  ////////////////////////////////////////////////////////////////
  //
  //  Inu Shihandai Boss Buff1 attack
  //
  ////////////////////////////////////////////////////////////////
  "Inu_Shihandai_BossBuff_Attack": {
    "$type": "ConfigGadget",
    "common": {
      "effectAttachShape": {
        "$type": "ConfigEffectAttachBox",
        "emitFrom": "Volume",
        "scaleX": 1.0,
        "scaleY": 1.0,
        "scaleZ": 1
      },
      "viewSize": 1,
      "affectedByWorld": true,
      "checkInSurface": true
    },
    "billboard": {
      "$type": "ConfigCombatBillboard",
      "offset": {
        "x": 0,
        "y": 0.7,
        "z": 0
      },
      "radiusOffset": 0.5,
      "enableSelfAdapt": false,
      "showDistance": 48,
      "showHPBar": true,
      "shieldBarOnly": true,
      "size": "Normal"
    },
    //战斗参数
    "combat": {
      "property": {
        "useCreatorProperty": true,
        "HP": 9999,
        "defense": 999999,
        "isLockHP": true,
        "isGhostToAllied": true,
        "isGhostToEnemy": false,
        "canTriggerBullet": false
      },
      "combatLock": {
        "denyLockOn": false,
        "lockType": "Avatar&Monster_Lv4"
      }
    },
    // "gadget" :
    // 	{
    // 		"$type" : "ConfigBulletPattern",
    // 		"collision" :
    // 		{
    // 			"targetType" : "All",
    // 			"triggerType" : "TriggerNoRepeat",
    // 			"ignoreScene" : false,
    // 		},
    // 		"triggerActions" :
    // 		[
    // 			{
    // 				"$type" : "ConfigGadgetTriggerAbility",
    // 				"abilityName" : "Animal_Inu_Shihandai_BossBuff_Attack",
    // 			},
    // 		],
    // 		"killByOther" : true,
    // 	},
    "field": {
      "concernType": "AllAvatars",
      "shape": "CircleR0_5",
      "startCheckTime": 0.0, //触发开始延时
      "checkInterval": 0.1, //触发间隔
      "triggerInfinite": true, //是否永远触发
      "lifeInfinite": false, //是否一致存在
      "lifeTime": 40 //存在时间
    },
    "timer": {
      "lifeInfinite": false, //如果未触发是否一致存在
      "lifeTime": 40 //存在时间
    },
    "abilities": [
      {
        "abilityName": "Animal_Inu_Shihandai_BossBuff_Attack"
      }
    ]
  },
  ////////////////////////////////////////////////////////////////
  //
  //  Inu Shihandai Boss Buff1 Defense
  //
  ////////////////////////////////////////////////////////////////
  "Inu_Shihandai_BossBuff_Defense": {
    "$type": "ConfigGadget",
    "common": {
      "effectAttachShape": {
        "$type": "ConfigEffectAttachBox",
        "emitFrom": "Volume",
        "scaleX": 1.0,
        "scaleY": 1.0,
        "scaleZ": 1
      },
      "affectedByWorld": true,
      "checkInSurface": true
    },
    //战斗参数
    "combat": {
      "property": {
        "useCreatorProperty": true,
        "HP": 9999,
        "defense": 999999,
        "isLockHP": true,
        "isGhostToAllied": true,
        "isGhostToEnemy": true,
        "canTriggerBullet": false
      },
      "combatLock": {
        "denyLockOn": true
      }
    },
    "field": {
      "concernType": "AllAvatars",
      "shape": "CircleR0_5",
      "startCheckTime": 0.0, //触发开始延时
      "checkInterval": 0.1, //触发间隔
      "triggerInfinite": true, //是否永远触发
      "lifeInfinite": false, //是否一致存在
      "lifeTime": 40 //存在时间
    },
    "timer": {
      "lifeInfinite": false, //如果未触发是否一致存在
      "lifeTime": 40 //存在时间
    },
    "abilities": [
      {
        "abilityName": "Animal_Inu_Shihandai_BossBuff_Defense"
      }
    ]
  },
  ////////////////////////////////////////////////////////////////
  //
  //  Inu Shihandai Boss Buff1 MoveSpeed
  //
  ////////////////////////////////////////////////////////////////
  "Inu_Shihandai_BossBuff_MoveSpeed": {
    "$type": "ConfigGadget",
    "common": {
      "effectAttachShape": {
        "$type": "ConfigEffectAttachBox",
        "emitFrom": "Volume",
        "scaleX": 1.0,
        "scaleY": 1.0,
        "scaleZ": 1
      },
      "affectedByWorld": true,
      "checkInSurface": true
    },
    //战斗参数
    "combat": {
      "property": {
        "useCreatorProperty": true,
        "HP": 9999,
        "defense": 999999,
        "isLockHP": true,
        "isGhostToAllied": true,
        "isGhostToEnemy": true,
        "canTriggerBullet": false
      },
      "combatLock": {
        "denyLockOn": true
      }
    },
    "field": {
      "concernType": "AllAvatars",
      "shape": "CircleR0_5",
      "startCheckTime": 0.0, //触发开始延时
      "checkInterval": 0.1, //触发间隔
      "triggerInfinite": true, //是否永远触发
      "lifeInfinite": false, //是否一致存在
      "lifeTime": 40 //存在时间
    },
    "timer": {
      "lifeInfinite": false, //如果未触发是否一致存在
      "lifeTime": 40 //存在时间
    },
    "abilities": [
      {
        "abilityName": "Animal_Inu_Shihandai_BossBuff_MoveSpeed"
      }
    ]
  },
  ////////////////////////////////////////////////////////////////
  //
  //  Inu Shihandai 远程剑气
  //
  ////////////////////////////////////////////////////////////////
  "Inu_Shihandai_RangeBlade": {
    "$type": "ConfigGadget",
    "common": {
      "effectAttachShape": {
        "$type": "ConfigEffectAttachBox",
        "emitFrom": "Volume",
        "scaleX": 1.0,
        "scaleY": 1.0,
        "scaleZ": 1
      },
      "affectedByWorld": true,
      "checkInSurface": true,
      "mass": 5.0
    },
    //战斗参数
    "combat": {
      "property": {
        "useCreatorProperty": true,
        "HP": 9999,
        "defense": 999999,
        "isLockHP": true,
        "isGhostToAllied": false,
        "isGhostToEnemy": false,
        "canTriggerBullet": false
      },
      "combatLock": {
        "denyLockOn": true
      }
    },
    "move": {
      "$type": "ConfigLinerBulletMove",
      "speed": 15
    },
    "timer": {
      "lifeInfinite": false, //如果未触发是否一致存在
      "lifeTime": 3.5 //存在时间
    },
    "gadget": {
      "$type": "ConfigBulletPattern",
      "collision": {
        "targetType": "Enemy",
        "triggerType": "TriggerNoRepeat",
        "ignoreScene": true
      },
      "triggerActions": [
        {
          "$type": "ConfigGadgetTriggerAbility",
          "abilityName": "Animal_Inu_Shihandai_Blink_RangeBlade"
        }
      ],
      "killByOther": true
    },
    "abilities": [
      {
        "abilityName": "Animal_Inu_Shihandai_Blink_RangeBlade"
      }
    ]
  },
  ////////////////////////////////////////////////////////////////
  //
  //  Inu Shihandai 冲刺子弹
  //
  ////////////////////////////////////////////////////////////////
  "Inu_Shihandai_RushBullet": {
    "$type": "ConfigGadget",
    "common": {
      "effectAttachShape": {
        "$type": "ConfigEffectAttachBox",
        "emitFrom": "Volume",
        "scaleX": 1.0,
        "scaleY": 1.0,
        "scaleZ": 1
      },
      "affectedByWorld": true,
      "checkInSurface": true,
      "mass": 5.0
    },
    //战斗参数
    "combat": {
      "property": {
        "useCreatorProperty": true,
        "HP": 9999,
        "defense": 999999,
        "isLockHP": true,
        "isGhostToAllied": false,
        "isGhostToEnemy": false,
        "canTriggerBullet": false
      },
      "combatLock": {
        "denyLockOn": true
      }
    },
    "move": {
      "$type": "ConfigFollowMove",
      "target": "TargetEntity",
      "followRotation": true
    },
    "timer": {
      "lifeInfinite": false, //如果未触发是否一致存在
      "lifeTime": 3 //存在时间
    },
    "gadget": {
      "$type": "ConfigBulletPattern",
      "collision": {
        "targetType": "All",
        "triggerType": "TriggerNoRepeat",
        "ignoreScene": true
      },
      "triggerActions": [
        {
          "$type": "ConfigGadgetTriggerAbility",
          "abilityName": "Animal_Inu_Shihandai_RushBullet"
        }
      ],
      "killByOther": true
    },
    "abilities": [
      {
        "abilityName": "Animal_Inu_Shihandai_RushBullet"
      }
    ]
  },
  ////////////////////////////////////////////////////////////////
  //
  //  boss战空气墙
  //
  ////////////////////////////////////////////////////////////////
  "Inu_Shihandai_AirWall": {
    "$type": "ConfigGadget",
    "hasModel": true,
    "model": {
      "attachEffect": "Eff_Animal_Inu_Shihandai_AirWall"
    }
  },
  ////////////////////////////////////////////////////////////////
  //
  //  Boltbug_Scarab_Ball
  //	圣金虫的球
  //
  ////////////////////////////////////////////////////////////////
  "Boltbug_Scarab_Ball": {
    "$type": "ConfigGadget",
    "common": {
      "effectAttachShape": {
        "$type": "ConfigEffectAttachBox",
        "emitFrom": "Volume",
        "scaleX": 1,
        "scaleY": 1,
        "scaleZ": 1
      },
      "scale": 1
    },
    "combat": {
      "property": {
        "useCreatorProperty": true, // 是否继承创造者的数值
        "HP": 999999,
        "attack": 10.0,
        "defense": 999999,
        "endureType": "Monster_Boss_Other",
        "isInvincible": false,
        "isLockHP": true,
        "isGhostToAllied": true,
        "isGhostToEnemy": false,
        "canTriggerBullet": true
      },
      "combatLock": {
        "denyLockOn": true,
        "lockType": "Gear_Lv3"
      },
      "beHit": {
        "hitBloodEffect": "",
        "muteAllHit": false,
        "muteAllHitEffect": false,
        "muteAllHitText": true
      }
    },
    // 生命周期管理
    "timer": {
      "lifeInfinite": false, //如果未触发是否一致存在
      "lifeTime": 10.0 //存在时间
    },
    // 子弹参数
    "gadget": {
      "$type": "ConfigBulletPattern",
      "collision": {
        "targetType": "Enemy",
        "triggerType": "TriggerNoRepeat",
        "ignoreScene": true
      },
      "triggerLifeOverActions": [
        {
          "$type": "ConfigGadgetTriggerAbility",
          "abilityName": "Boltbug_Scarab_Ball"
        }
      ],
      "dieDelayTime": 0.5
    },
    "abilities": [
      {
        "abilityName": "Boltbug_Scarab_Ball"
      }
    ]
  },
  ////////////////////////////////////////////////////////////////
  //
  //  Partner_Animal_Electrohercules_JumpAttack
  //  43805001
  //
  ////////////////////////////////////////////////////////////////
  "Partner_Animal_Electrohercules_JumpAttack": {
    "$type": "ConfigGadget",
    "combat": {
      "property": {
        "useCreatorProperty": true, // 是否继承创造者的数值
        "denyLockOn": true,
        "canTriggerBullet": false,
        "isLockHP": true,
        "isGhostToAllied": true,
        "isGhostToEnemy": true
      },
      "beHit": {
        "hitBloodEffect": "",
        "muteAllHit": true,
        "muteAllHitEffect": true,
        "muteAllHitText": true
      }
    },
    "move": {
      "$type": "ConfigFollowMove",
      "target": "TargetEntity",
      "followRotation": true
    },
    "timer": {
      "lifeInfinite": false,
      "lifeTime": 5.0
    },
    "gadget": {
      "$type": "ConfigBulletPattern",
      "colliderCheckOnInit": true,
      "killByOther": true,
      "collision": {
        "ccd": {
          "type": "Always",
          "detectCD": 0.0,
          "sortedHitResult": false
        },
        "targetType": "Enemy",
        "triggerType": "TriggerOnce",
        "ignoreScene": true
      },
      "triggerActions": [
        {
          "$type": "ConfigGadgetTriggerAbility",
          "abilityName": "Partner_Animal_Electrohercules_JumpForward_Attack"
        }
      ]
    },
    "abilities": [
      {
        "abilityName": "Partner_Animal_Electrohercules_JumpForward_Attack"
      }
    ]
  },
  ////////////////////////////////////////////////////////////////
  //
  //  Partner_Animal_Electrohercules_JumpAttack_CriticalTrigger
  //  43805002
  //
  ////////////////////////////////////////////////////////////////
  "Partner_Animal_Electrohercules_JumpAttack_CriticalTrigger": {
    "$type": "ConfigGadget",
    "combat": {
      "property": {
        "useCreatorProperty": true, // 是否继承创造者的数值
        "denyLockOn": true,
        "canTriggerBullet": false,
        "isLockHP": true,
        "isGhostToAllied": true,
        "isGhostToEnemy": true
      },
      "beHit": {
        "hitBloodEffect": "",
        "muteAllHit": true,
        "muteAllHitEffect": true,
        "muteAllHitText": true
      }
    },
    "move": {
      "$type": "ConfigFollowMove",
      "target": "TargetEntity",
      "followRotation": true
    },
    "timer": {
      "lifeInfinite": false,
      "lifeTime": 5.0
    },
    "gadget": {
      "$type": "ConfigBulletPattern",
      "colliderCheckOnInit": true,
      "killByOther": true,
      "collision": {
        "ccd": {
          "type": "Always",
          "detectCD": 0.0,
          "sortedHitResult": false
        },
        "targetType": "Enemy",
        "triggerType": "TriggerOnce",
        "ignoreScene": true
      },
      "triggerActions": [
        {
          "$type": "ConfigGadgetTriggerAbility",
          "abilityName": "Partner_Animal_Electrohercules_JumpForward_CriticalTrigger"
        }
      ]
    },
    "abilities": [
      {
        "abilityName": "Partner_Animal_Electrohercules_JumpForward_CriticalTrigger"
      }
    ]
  },
  ////////////////////////////////////////////////////////////////
  //
  //  Animal_Electrohercules_RangedAttack01_Attack
  //  43805003
  //
  ////////////////////////////////////////////////////////////////
  "Animal_Electrohercules_RangedAttack01_Attack": {
    "$type": "ConfigGadget",
    "common": {
      "effectAttachShape": {
        "$type": "ConfigEffectAttachBox",
        "emitFrom": "Volume",
        "scaleX": 1,
        "scaleY": 1,
        "scaleZ": 1
      },
      "scale": 1
    },
    "combat": {
      "property": {
        "useCreatorProperty": true, // 是否继承创造者的数值
        "HP": 999999,
        "attack": 10.0,
        "defense": 999999,
        "isInvincible": true,
        "isGhostToAllied": true,
        "isGhostToEnemy": true
      },
      "combatLock": {
        "denyLockOn": true
      },
      "beHit": {
        "hitBloodEffect": "",
        "muteAllHit": true,
        "muteAllHitEffect": true,
        "muteAllHitText": true
      }
    },
    // 子弹线性移动
    "move": {
      "$type": "ConfigLinerBulletMove",
      "speed": 25,
      "acceleration": 10,
      "updateAngle": {
        "$type": "ConfigBulletMoveAngleByVelocity"
      },
      "delay": 0.5,
      "canBornInWater": true
    },
    // 生命周期管理
    "timer": {
      "lifeInfinite": false, //如果未触发是否一致存在
      "lifeTime": 10.0 //存在时间
    },
    "abilities": [
      {
        "abilityName": "Animal_Electrohercules_Enemy_RangedAttack01_Attack"
      }
    ]
  },
  ////////////////////////////////////////////////////////////////
  //
  //  Animal_Electrohercules_MeleeAttack01_Attack
  //  43805004
  //
  ////////////////////////////////////////////////////////////////
  "Animal_Electrohercules_MeleeAttack01_Attack": {
    "$type": "ConfigGadget",
    "combat": {
      "property": {
        "useCreatorProperty": true, // 是否继承创造者的数值
        "denyLockOn": true,
        "canTriggerBullet": false,
        "isLockHP": true,
        "isGhostToAllied": true,
        "isGhostToEnemy": true
      },
      "beHit": {
        "hitBloodEffect": "",
        "muteAllHit": true,
        "muteAllHitEffect": true,
        "muteAllHitText": true
      }
    },
    "move": {
      "$type": "ConfigFollowMove",
      "target": "TargetEntity",
      "followRotation": true
    },
    "timer": {
      "lifeInfinite": false,
      "lifeTime": 5.0
    },
    "gadget": {
      "$type": "ConfigBulletPattern",
      "colliderCheckOnInit": true,
      "killByOther": true,
      "collision": {
        "ccd": {
          "type": "Always",
          "detectCD": 0.0,
          "sortedHitResult": false
        },
        "targetType": "Enemy",
        "triggerType": "TriggerOnce",
        "ignoreScene": true
      },
      "triggerActions": [
        {
          "$type": "ConfigGadgetTriggerAbility",
          "abilityName": "Animal_Electrohercules_MeleeAttack01_Attack"
        }
      ]
    },
    "abilities": [
      {
        "abilityName": "Animal_Electrohercules_MeleeAttack01_Attack"
      }
    ]
  },
  ////////////////////////////////////////////////////////////////
  //
  //  Bullet_Animal_Electrohercules_ElectricBall_OnGround
  //	43805005
  //
  ////////////////////////////////////////////////////////////////
  "Bullet_Animal_Electrohercules_ElectricBall_OnGround": {
    "$type": "ConfigGadget",
    "common": {
      "effectAttachShape": {
        "$type": "ConfigEffectAttachBox",
        "emitFrom": "Volume",
        "scaleX": 1,
        "scaleY": 1,
        "scaleZ": 1
      },
      "scale": 1
    },
    "combat": {
      "property": {
        "useCreatorProperty": true, // 是否继承创造者的数值
        "HP": 999999,
        "attack": 10.0,
        "defense": 999999,
        "endureType": "Monster_Boss_Other",
        "isInvincible": false,
        "isLockHP": true,
        "isGhostToAllied": true,
        "isGhostToEnemy": false,
        "canTriggerBullet": true
      },
      "combatLock": {
        "denyLockOn": false,
        "lockType": "Gear_Lv3"
      },
      "beHit": {
        "hitBloodEffect": "",
        "muteAllHit": false,
        "muteAllHitEffect": false,
        "muteAllHitText": true
      }
    },
    // 生命周期管理
    "timer": {
      "lifeInfinite": false, //如果未触发是否一致存在
      "lifeTime": 5.0 //存在时间
    },
    // 子弹参数
    "gadget": {
      "$type": "ConfigBulletPattern",
      "collision": {
        "targetType": "Enemy",
        "triggerType": "TriggerNoRepeat",
        "ignoreScene": true
      },
      "triggerLifeOverActions": [
        {
          "$type": "ConfigGadgetTriggerAbility",
          "abilityName": "Bullet_Animal_Electrohercules_ElectricBall_OnGround"
        }
      ],
      "dieDelayTime": 0.5
    },
    "abilities": [
      {
        "abilityName": "Bullet_Animal_Electrohercules_ElectricBall_OnGround"
      }
    ]
  },
  ////////////////////////////////////////////////////////////////
  //
  //  Bullet_Animal_Electrohercules_ElectricBall_Kicked
  //	43805006
  //
  ////////////////////////////////////////////////////////////////
  "Bullet_Animal_Electrohercules_ElectricBall_Kicked": {
    "$type": "ConfigGadget",
    "common": {
      "effectAttachShape": {
        "$type": "ConfigEffectAttachBox",
        "emitFrom": "Volume",
        "scaleX": 1,
        "scaleY": 1,
        "scaleZ": 1
      },
      "scale": 1
    },
    "combat": {
      "property": {
        "useCreatorProperty": true, // 是否继承创造者的数值
        "HP": 999999,
        "attack": 10.0,
        "defense": 999999,
        "isInvincible": true,
        "isGhostToAllied": true,
        "isGhostToEnemy": true,
        "canTriggerBullet": false
      },
      "combatLock": {
        "denyLockOn": true
      },
      "beHit": {
        "hitBloodEffect": "",
        "muteAllHit": true,
        "muteAllHitEffect": true,
        "muteAllHitText": true
      }
    },
    // 子弹线性移动
    "move": {
      "$type": "ConfigItanoCircusBulletMove",
      "delay": 0.0,
      "speed": 20.0,
      "acceleration": 0,
      "maxSpeed": 20,
      "minSpeed": 10,
      "guidanceSpeedChange": false,
      "itanoCircusStartAngler": 0,
      "guidanceDelay": 0.0,
      "anglerVelocity": 30.0,
      "guidanceDuration": 1.0,
      "guidanceMinAnglerVelocity": 30.0,
      "canBornInWater": true,
      "updateAngle": {
        "$type": "ConfigBulletMoveAngleByVelocity",
        "traceLerpCoef": 360
      },
      "stickToGround": {
        "$type": "ConfigMoveStickToGround",
        "heightToGround": 0.6,
        "flexibleRange": 0.25,
        "maxStepHeight": 20,
        "maxSlopeAngle": 60,
        "isStickToWater": true,
        "unstickWhenDownSlide": "Keep",
        "unstickWhenUpSlide": "Keep"
      }
    },
    // 生命周期管理
    "timer": {
      "lifeInfinite": false, //如果未触发是否一致存在
      "lifeTime": 2.0 //存在时间
    },
    // 子弹参数
    "gadget": {
      "$type": "ConfigBulletPattern",
      "collision": {
        "targetType": "AllExceptSelf",
        "triggerType": "TriggerOnce",
        "ignoreScene": false
      },
      "triggerActions": [
        {
          "$type": "ConfigGadgetTriggerAbility",
          "abilityName": "Bullet_Animal_Electrohercules_ElectricBall_Kicked"
        }
      ],
      "triggerLifeOverActions": [
        {
          "$type": "ConfigGadgetTriggerAbility",
          "abilityName": "Bullet_Animal_Electrohercules_ElectricBall_Kicked"
        }
      ]
    },
    "abilities": [
      {
        "abilityName": "Bullet_Animal_Electrohercules_ElectricBall_Kicked"
      }
    ]
  }
}
