{
  "Alhatham_ElementalArt_Bullet": {
    "$type": "ConfigGadget",
    "common": {
      "effectAttachShape": {
        "$type": "ConfigEffectAttachBox",
        "emitFrom": "Volume",
        "scaleX": 0.5,
        "scaleY": 0.5,
        "scaleZ": 1.0
      },
      "affectedByWorld": true
    },
    "combat": {
      "property": {
        "useCreatorProperty": true, // 是否继承创造者的数值
        "canTriggerBullet": false,
        "isInvincible": true
      },
      "combatLock": {
        "denyLockOn": true,
        "lockType": "Gadget_Lv1",
        "overrideRange": -1,
        "overrideNormalPri": -1,
        "overrideCombatPri": -1
      },
      "beHit": {
        "hitBloodEffect": "",
        "muteAllHit": true,
        "muteAllHitEffect": true,
        "muteAllHitText": true
      }
    },
    // 子弹线性移动
    "move": {
      "$type": "ConfigFollowMove",
      "target": "LocalAvatar",
      // "attachPoint" : "RootNode",
      "followRotation": true,
      "offset": {
        "x": 0.0,
        "y": 0.9,
        "z": 0.0
      },
      "forward": {
        "x": 0.0,
        "y": 0.0,
        "z": 1.0
      }
    },
    // 生命周期管理
    "timer": {
      "lifeInfinite": false, //如果未触发是否一致存在
      "lifeTime": 5.0 //存在时间
    },
    // 子弹参数
    "gadget": {
      "$type": "ConfigBulletPattern",
      "collision": {
        "targetType": "Enemy",
        "triggerType": "TriggerNoRepeat",
        "ignoreScene": true,
        "ccd": {
          "type": "Always"
        }
      },
      "triggerActions": [
        {
          "$type": "ConfigGadgetTriggerAbility",
          "abilityName": "Bullet_Alhatham_ElementalArt_Bullet"
        }
      ],
      "triggerLifeOverActions": []
    },
    "abilities": [
      {
        "abilityID": "Bullet_Alhatham_ElementalArt_Bullet",
        "abilityName": "Bullet_Alhatham_ElementalArt_Bullet"
      }
    ]
  },
  "Alhatham_ElementalBurst_Dummy": {
    "$type": "ConfigGadget",
    "common": {
      "effectAttachShape": {
        "$type": "ConfigEffectAttachBox",
        "emitFrom": "Volume",
        "scaleX": 1,
        "scaleY": 1,
        "scaleZ": 1
      }
    },
    "combat": {
      "property": {
        "useCreatorProperty": true,
        "useCreatorBuffedProperty": true, // 继承的数值是否使用创造者身上的buff带来的property进行计算，仅在useCreatorProperty为true，或useCreatorPropertyPartly有值时生效，说白了就是创生时主人的临时buff对它起不起效
        "canTriggerBullet": false,
        "isGhostToAllied": true,
        "isGhostToEnemy": true,
        "isInvincible": true
      },
      "combatLock": {
        "denyLockOn": true
      },
      "beHit": {
        "hitBloodEffect": "",
        "muteAllHit": true,
        "muteAllHitEffect": true,
        "muteAllHitText": true
      }
    },
    // 生命周期管理
    "timer": {
      // "lifeInfinite": false,		//如果未触发是否一致存在
      "lifeTime": 5.0 //存在时间
    },
    "abilities": [
      {
        "abilityID": "SkillObj_Alhatham_ElementalBurst_Dummy",
        "abilityName": "SkillObj_Alhatham_ElementalBurst_Dummy"
      }
    ]
  }
}
