[
  {
    "id": 1,
    "CDHFDOHBJDM": 50680101,
    "MBEHHDFPJPJ": 2579627204,
    "GCDNBLBDKJG": 3566607544,
    "JCEGEAFGCBN": 826544447,
    "CENAMCJNCCN": 4204524807,
    "AFGILBKPKCE": 678648743,
    "EBNFAFNAHFO": "UI_ActivityPhotoGraph_Img_PicSmall01",
    "ANEFKHJNHIE": "UI_ActivityPhotoGraph_Img_PicSmall01",
    "BFJPCKFAEKC": 100310001,
    "BFELDONDEMH": 3801962532,
    "MFCFCHCJDDK": [100320001, 100320003, 100320002, 0],
    "ECLLCHIEEMP": [2460005691, 1112138405, 2804116559, 4105374179],
    "openDay": 1,
    "watcherId": 15068001,
    "galleryId": 18001,
    "KDKCEHDDKAO": 9571,
    "KKNBFJKAFBP": 100310001,
    "BGCFHCEJFBD": 100320001,
    "FIAMAFABLJN": 3716031003,
    "KPILDNICGLD": [],
    "KKEGACFCKJC": [],
    "sceneID": 3
  },
  {
    "id": 2,
    "CDHFDOHBJDM": 50680102,
    "MBEHHDFPJPJ": 1861657852,
    "GCDNBLBDKJG": 4012561264,
    "JCEGEAFGCBN": 1238499871,
    "CENAMCJNCCN": 3180780447,
    "AFGILBKPKCE": 3357311831,
    "EBNFAFNAHFO": "UI_ActivityPhotoGraph_Img_PicSmall02",
    "ANEFKHJNHIE": "UI_ActivityPhotoGraph_Img_PicSmall02",
    "BFJPCKFAEKC": 100310002,
    "BFELDONDEMH": 4233621668,
    "MFCFCHCJDDK": [100320101, 100320103, 100320102, 0],
    "ECLLCHIEEMP": [1318567251, 475976149, 2312920167, 2267897147],
    "openDay": 1,
    "watcherId": 15068002,
    "galleryId": 18002,
    "KDKCEHDDKAO": 9572,
    "KKNBFJKAFBP": 100310002,
    "BGCFHCEJFBD": 100320101,
    "FIAMAFABLJN": 4281468371,
    "KPILDNICGLD": [],
    "KKEGACFCKJC": [],
    "sceneID": 3
  },
  {
    "id": 3,
    "CDHFDOHBJDM": 50680103,
    "MBEHHDFPJPJ": 1507285516,
    "GCDNBLBDKJG": 1524827040,
    "JCEGEAFGCBN": 1480906759,
    "CENAMCJNCCN": 2932621591,
    "AFGILBKPKCE": 2491401535,
    "EBNFAFNAHFO": "UI_ActivityPhotoGraph_Img_PicSmall03",
    "ANEFKHJNHIE": "UI_ActivityPhotoGraph_Img_PicSmall03",
    "BFJPCKFAEKC": 100310003,
    "BFELDONDEMH": 2849500972,
    "MFCFCHCJDDK": [100320201, 100320202, 100320203, 0],
    "ECLLCHIEEMP": [2098943659, 1445255293, 4138431911, 3313967731],
    "openDay": 2,
    "watcherId": 15068003,
    "galleryId": 18003,
    "KDKCEHDDKAO": 9573,
    "KKNBFJKAFBP": 100310003,
    "BGCFHCEJFBD": 100320201,
    "FIAMAFABLJN": 3745144603,
    "KPILDNICGLD": [],
    "KKEGACFCKJC": [],
    "sceneID": 3
  },
  {
    "id": 4,
    "CDHFDOHBJDM": 50680104,
    "MBEHHDFPJPJ": 1544297900,
    "GCDNBLBDKJG": 4188076928,
    "JCEGEAFGCBN": 1745828039,
    "CENAMCJNCCN": 259369087,
    "AFGILBKPKCE": 603228023,
    "EBNFAFNAHFO": "UI_ActivityPhotoGraph_Img_PicSmall04",
    "ANEFKHJNHIE": "UI_ActivityPhotoGraph_Img_PicSmall04",
    "BFJPCKFAEKC": 100310004,
    "BFELDONDEMH": 3858348444,
    "MFCFCHCJDDK": [100320301, 100320302, 100320303, 0],
    "ECLLCHIEEMP": [875228579, 901941061, 1472349295, 1504859611],
    "openDay": 2,
    "watcherId": 15068004,
    "galleryId": 18004,
    "KDKCEHDDKAO": 9574,
    "KKNBFJKAFBP": 100310004,
    "BGCFHCEJFBD": 100320301,
    "FIAMAFABLJN": 3463778531,
    "KPILDNICGLD": [],
    "KKEGACFCKJC": [],
    "sceneID": 3
  },
  {
    "id": 5,
    "CDHFDOHBJDM": 50680105,
    "MBEHHDFPJPJ": 1544128732,
    "GCDNBLBDKJG": 2461568856,
    "JCEGEAFGCBN": 341381575,
    "CENAMCJNCCN": 1032033591,
    "AFGILBKPKCE": 4219039447,
    "EBNFAFNAHFO": "UI_ActivityPhotoGraph_Img_PicSmall05",
    "ANEFKHJNHIE": "UI_ActivityPhotoGraph_Img_PicSmall05",
    "BFJPCKFAEKC": 100310005,
    "BFELDONDEMH": 2209893572,
    "MFCFCHCJDDK": [100320401, 100320402, 0, 0],
    "ECLLCHIEEMP": [203584819, 1491808181, 4291487391, 1508813899],
    "openDay": 3,
    "watcherId": 15068005,
    "galleryId": 18005,
    "KDKCEHDDKAO": 9575,
    "KKNBFJKAFBP": 100310005,
    "BGCFHCEJFBD": 100320401,
    "FIAMAFABLJN": 1794800459,
    "KPILDNICGLD": [],
    "KKEGACFCKJC": [],
    "sceneID": 3
  },
  {
    "id": 6,
    "CDHFDOHBJDM": 50680106,
    "MBEHHDFPJPJ": 1159231948,
    "GCDNBLBDKJG": 1897559584,
    "JCEGEAFGCBN": 2000419879,
    "CENAMCJNCCN": 31107391,
    "AFGILBKPKCE": 1118961263,
    "EBNFAFNAHFO": "UI_ActivityPhotoGraph_Img_PicSmall06",
    "ANEFKHJNHIE": "UI_ActivityPhotoGraph_Img_PicSmall06",
    "BFJPCKFAEKC": 100310006,
    "BFELDONDEMH": 61293772,
    "MFCFCHCJDDK": [100320501, 100320502, 100320503, 0],
    "ECLLCHIEEMP": [3353684523, 1060313701, 2216010063, 4162190307],
    "openDay": 3,
    "watcherId": 15068006,
    "galleryId": 18006,
    "KDKCEHDDKAO": 9576,
    "KKNBFJKAFBP": 100310006,
    "BGCFHCEJFBD": 100320501,
    "FIAMAFABLJN": 3614787579,
    "KPILDNICGLD": [],
    "KKEGACFCKJC": [],
    "sceneID": 3
  },
  {
    "id": 7,
    "CDHFDOHBJDM": 50680107,
    "MBEHHDFPJPJ": 1008097788,
    "GCDNBLBDKJG": 2905038552,
    "JCEGEAFGCBN": 1731122783,
    "CENAMCJNCCN": 259269607,
    "AFGILBKPKCE": 3363150687,
    "EBNFAFNAHFO": "UI_ActivityPhotoGraph_Img_PicSmall07",
    "ANEFKHJNHIE": "UI_ActivityPhotoGraph_Img_PicSmall07",
    "BFJPCKFAEKC": 100310007,
    "BFELDONDEMH": 1838929548,
    "MFCFCHCJDDK": [100320601, 100320602, 100320603, 100320604],
    "ECLLCHIEEMP": [2161596163, 1864514101, 3123945511, 4192581027],
    "openDay": 4,
    "watcherId": 15068007,
    "galleryId": 18007,
    "KDKCEHDDKAO": 9577,
    "KKNBFJKAFBP": 100310007,
    "BGCFHCEJFBD": 100320601,
    "FIAMAFABLJN": 3646827803,
    "KPILDNICGLD": [],
    "KKEGACFCKJC": [],
    "sceneID": 3
  },
  {
    "id": 8,
    "CDHFDOHBJDM": 50680108,
    "MBEHHDFPJPJ": 1481732196,
    "GCDNBLBDKJG": 3411497480,
    "JCEGEAFGCBN": 2396445783,
    "CENAMCJNCCN": 3056700559,
    "AFGILBKPKCE": 4172155015,
    "EBNFAFNAHFO": "UI_ActivityPhotoGraph_Img_PicSmall08",
    "ANEFKHJNHIE": "UI_ActivityPhotoGraph_Img_PicSmall08",
    "BFJPCKFAEKC": 100310008,
    "BFELDONDEMH": 1268414940,
    "MFCFCHCJDDK": [100320701, 100320702, 100320703, 0],
    "ECLLCHIEEMP": [407139955, 1053785925, 1231365071, 266556963],
    "openDay": 4,
    "watcherId": 15068008,
    "galleryId": 18008,
    "KDKCEHDDKAO": 9578,
    "KKNBFJKAFBP": 100310008,
    "BGCFHCEJFBD": 100320701,
    "FIAMAFABLJN": 2718228547,
    "KPILDNICGLD": [],
    "KKEGACFCKJC": [],
    "sceneID": 3
  },
  {
    "id": 9,
    "CDHFDOHBJDM": 50680109,
    "MBEHHDFPJPJ": 2001646228,
    "GCDNBLBDKJG": 1388335416,
    "JCEGEAFGCBN": 1962309399,
    "CENAMCJNCCN": 3830853279,
    "AFGILBKPKCE": 3991394847,
    "EBNFAFNAHFO": "UI_ActivityPhotoGraph_Img_PicSmall09",
    "ANEFKHJNHIE": "UI_ActivityPhotoGraph_Img_PicSmall09",
    "BFJPCKFAEKC": 100310009,
    "BFELDONDEMH": 759233124,
    "MFCFCHCJDDK": [100320801, 100320802, 100320803, 0],
    "ECLLCHIEEMP": [724492355, 1356596917, 235354311, 2269298147],
    "openDay": 5,
    "watcherId": 15068009,
    "galleryId": 18009,
    "KDKCEHDDKAO": 9579,
    "KKNBFJKAFBP": 100310009,
    "BGCFHCEJFBD": 100320801,
    "FIAMAFABLJN": 3662874003,
    "KPILDNICGLD": [],
    "KKEGACFCKJC": [],
    "sceneID": 3
  },
  {
    "id": 10,
    "CDHFDOHBJDM": 50680110,
    "MBEHHDFPJPJ": 263727268,
    "GCDNBLBDKJG": 3478590160,
    "JCEGEAFGCBN": 852473903,
    "CENAMCJNCCN": 3431998567,
    "AFGILBKPKCE": 1668549951,
    "EBNFAFNAHFO": "UI_ActivityPhotoGraph_Img_PicSmall10",
    "ANEFKHJNHIE": "UI_ActivityPhotoGraph_Img_PicSmall10",
    "BFJPCKFAEKC": 100310010,
    "BFELDONDEMH": 204137284,
    "MFCFCHCJDDK": [100320901, 100320902, 100320903, 100320904],
    "ECLLCHIEEMP": [1034180667, 2630058301, 3329362255, 1060155483],
    "openDay": 5,
    "watcherId": 15068010,
    "galleryId": 18010,
    "KDKCEHDDKAO": 9580,
    "KKNBFJKAFBP": 100310010,
    "BGCFHCEJFBD": 100320901,
    "FIAMAFABLJN": 1730666323,
    "KPILDNICGLD": [],
    "KKEGACFCKJC": [],
    "sceneID": 3
  },
  {
    "id": 11,
    "CDHFDOHBJDM": 50680111,
    "MBEHHDFPJPJ": 3973179460,
    "GCDNBLBDKJG": 815722792,
    "JCEGEAFGCBN": 170904175,
    "CENAMCJNCCN": 1618060159,
    "AFGILBKPKCE": 3953237639,
    "EBNFAFNAHFO": "UI_ActivityPhotoGraph_Img_PicSmall11",
    "ANEFKHJNHIE": "UI_ActivityPhotoGraph_Img_PicSmall11",
    "BFJPCKFAEKC": 100310011,
    "BFELDONDEMH": 1769697956,
    "MFCFCHCJDDK": [100321001, 100321002, 0, 0],
    "ECLLCHIEEMP": [4100851379, 3412887813, 2642841927, 1861492635],
    "openDay": 6,
    "watcherId": 15068011,
    "galleryId": 18011,
    "KDKCEHDDKAO": 9581,
    "KKNBFJKAFBP": 100310011,
    "BGCFHCEJFBD": 100321001,
    "FIAMAFABLJN": 517936523,
    "KPILDNICGLD": [],
    "KKEGACFCKJC": [],
    "sceneID": 3
  },
  {
    "id": 12,
    "CDHFDOHBJDM": 50680112,
    "MBEHHDFPJPJ": 1464619652,
    "GCDNBLBDKJG": 658155184,
    "JCEGEAFGCBN": 826647927,
    "CENAMCJNCCN": 999074119,
    "AFGILBKPKCE": 2364178999,
    "EBNFAFNAHFO": "UI_ActivityPhotoGraph_Img_PicSmall12",
    "ANEFKHJNHIE": "UI_ActivityPhotoGraph_Img_PicSmall12",
    "BFJPCKFAEKC": 100310012,
    "BFELDONDEMH": 3005907996,
    "MFCFCHCJDDK": [100321101, 100321102, 0, 0],
    "ECLLCHIEEMP": [2615617747, 3382024045, 2448081895, 3390444515],
    "openDay": 6,
    "watcherId": 15068012,
    "galleryId": 18012,
    "KDKCEHDDKAO": 9582,
    "KKNBFJKAFBP": 100310012,
    "BGCFHCEJFBD": 100321101,
    "FIAMAFABLJN": 1088478083,
    "KPILDNICGLD": [],
    "KKEGACFCKJC": [],
    "sceneID": 3
  },
  {
    "id": 13,
    "CDHFDOHBJDM": 50680113,
    "MBEHHDFPJPJ": 970431404,
    "GCDNBLBDKJG": 860150592,
    "JCEGEAFGCBN": 2578402631,
    "CENAMCJNCCN": 4128404231,
    "AFGILBKPKCE": 1052985839,
    "EBNFAFNAHFO": "UI_ActivityPhotoGraph_Img_PicSmall13",
    "ANEFKHJNHIE": "UI_ActivityPhotoGraph_Img_PicSmall13",
    "BFJPCKFAEKC": 100310013,
    "BFELDONDEMH": 1842092964,
    "MFCFCHCJDDK": [100321201, 100321202, 100321203, 100321204],
    "ECLLCHIEEMP": [1159773451, 2385445925, 4158040583, 3478932579],
    "openDay": 7,
    "watcherId": 15068013,
    "galleryId": 18013,
    "KDKCEHDDKAO": 9583,
    "KKNBFJKAFBP": 100310013,
    "BGCFHCEJFBD": 100321201,
    "FIAMAFABLJN": 1683764179,
    "KPILDNICGLD": [],
    "KKEGACFCKJC": [],
    "sceneID": 3
  },
  {
    "id": 14,
    "CDHFDOHBJDM": 50680114,
    "MBEHHDFPJPJ": 15301068,
    "GCDNBLBDKJG": 3613288616,
    "JCEGEAFGCBN": 3288211895,
    "CENAMCJNCCN": 1266794567,
    "AFGILBKPKCE": 2247183807,
    "EBNFAFNAHFO": "UI_ActivityPhotoGraph_Img_PicSmall14",
    "ANEFKHJNHIE": "UI_ActivityPhotoGraph_Img_PicSmall14",
    "BFJPCKFAEKC": 100310014,
    "BFELDONDEMH": 484790980,
    "MFCFCHCJDDK": [100321301, 100321302, 0, 0],
    "ECLLCHIEEMP": [1199945275, 1519986829, 1275069775, 1933882715],
    "openDay": 7,
    "watcherId": 15068014,
    "galleryId": 18014,
    "KDKCEHDDKAO": 9584,
    "KKNBFJKAFBP": 100310014,
    "BGCFHCEJFBD": 100321301,
    "FIAMAFABLJN": 3908539619,
    "KPILDNICGLD": [],
    "KKEGACFCKJC": [],
    "sceneID": 3
  },
  {
    "id": 15,
    "CDHFDOHBJDM": 51080101,
    "MBEHHDFPJPJ": 812258972,
    "GCDNBLBDKJG": 3732936272,
    "JCEGEAFGCBN": 2485998655,
    "CENAMCJNCCN": 2920672287,
    "AFGILBKPKCE": 1681934343,
    "EBNFAFNAHFO": "UI_ActivityPhotoGraphV2_Img_PicSmall01",
    "ANEFKHJNHIE": "UI_ActivityPhotoGraphV2_Img_PicSmall01",
    "BFJPCKFAEKC": 100415001,
    "BFELDONDEMH": 3379340420,
    "MFCFCHCJDDK": [100425002, 100425001, 0, 0],
    "ECLLCHIEEMP": [4046049243, 338634869, 2530076487, 2709354411],
    "openDay": 1,
    "watcherId": 15108001,
    "galleryId": 29001,
    "KDKCEHDDKAO": 321030,
    "KKNBFJKAFBP": 100410001,
    "BGCFHCEJFBD": 100420001,
    "FIAMAFABLJN": 230083123,
    "KPILDNICGLD": [
      "UI_ActivityPhotoGraphV2_Img_PicSmall01_G01",
      "UI_ActivityPhotoGraphV2_Img_PicSmall01_G02",
      "UI_ActivityPhotoGraphV2_Img_PicSmall01_G03",
      "UI_ActivityPhotoGraphV2_Img_PicSmall01_G04"
    ],
    "KKEGACFCKJC": [
      "UI_ActivityPhotoGraphV2_Img_PicSmall01_B01",
      "UI_ActivityPhotoGraphV2_Img_PicSmall01_B02",
      "UI_ActivityPhotoGraphV2_Img_PicSmall01_B03",
      "UI_ActivityPhotoGraphV2_Img_PicSmall01_B04"
    ],
    "sceneID": 3
  },
  {
    "id": 16,
    "CDHFDOHBJDM": 51080102,
    "MBEHHDFPJPJ": 1723170988,
    "GCDNBLBDKJG": 2745094744,
    "JCEGEAFGCBN": 3236310159,
    "CENAMCJNCCN": 1338451159,
    "AFGILBKPKCE": 1608562487,
    "EBNFAFNAHFO": "UI_ActivityPhotoGraphV2_Img_PicSmall02",
    "ANEFKHJNHIE": "UI_ActivityPhotoGraphV2_Img_PicSmall02",
    "BFJPCKFAEKC": 100415002,
    "BFELDONDEMH": 1689032692,
    "MFCFCHCJDDK": [100425103, 100425101, 100425102, 0],
    "ECLLCHIEEMP": [2584871899, 3245432661, 1132937783, 2048222955],
    "openDay": 1,
    "watcherId": 15108002,
    "galleryId": 29002,
    "KDKCEHDDKAO": 321031,
    "KKNBFJKAFBP": 100410002,
    "BGCFHCEJFBD": 100420101,
    "FIAMAFABLJN": 259155699,
    "KPILDNICGLD": [
      "UI_ActivityPhotoGraphV2_Img_PicSmall02_G01",
      "UI_ActivityPhotoGraphV2_Img_PicSmall02_G02",
      "UI_ActivityPhotoGraphV2_Img_PicSmall02_G03",
      "UI_ActivityPhotoGraphV2_Img_PicSmall02_G04"
    ],
    "KKEGACFCKJC": [
      "UI_ActivityPhotoGraphV2_Img_PicSmall02_B01",
      "UI_ActivityPhotoGraphV2_Img_PicSmall02_B02",
      "UI_ActivityPhotoGraphV2_Img_PicSmall02_B03",
      "UI_ActivityPhotoGraphV2_Img_PicSmall02_B04"
    ],
    "sceneID": 3
  },
  {
    "id": 17,
    "CDHFDOHBJDM": 51080103,
    "MBEHHDFPJPJ": 3833181708,
    "GCDNBLBDKJG": 141960064,
    "JCEGEAFGCBN": 2630470495,
    "CENAMCJNCCN": 1976601167,
    "AFGILBKPKCE": 1756206167,
    "EBNFAFNAHFO": "UI_ActivityPhotoGraphV2_Img_PicSmall03",
    "ANEFKHJNHIE": "UI_ActivityPhotoGraphV2_Img_PicSmall03",
    "BFJPCKFAEKC": 100415003,
    "BFELDONDEMH": 2302325868,
    "MFCFCHCJDDK": [100425203, 100425201, 100425202, 0],
    "ECLLCHIEEMP": [2351549491, 1931622741, 3121389935, 1757296627],
    "openDay": 2,
    "watcherId": 15108003,
    "galleryId": 29003,
    "KDKCEHDDKAO": 321032,
    "KKNBFJKAFBP": 100410003,
    "BGCFHCEJFBD": 100420201,
    "FIAMAFABLJN": 3052774515,
    "KPILDNICGLD": [
      "UI_ActivityPhotoGraphV2_Img_PicSmall03_G01",
      "UI_ActivityPhotoGraphV2_Img_PicSmall03_G02",
      "UI_ActivityPhotoGraphV2_Img_PicSmall03_G03",
      "UI_ActivityPhotoGraphV2_Img_PicSmall03_G04"
    ],
    "KKEGACFCKJC": [
      "UI_ActivityPhotoGraphV2_Img_PicSmall03_B01",
      "UI_ActivityPhotoGraphV2_Img_PicSmall03_B02",
      "UI_ActivityPhotoGraphV2_Img_PicSmall03_B03",
      "UI_ActivityPhotoGraphV2_Img_PicSmall03_B04"
    ],
    "sceneID": 3
  },
  {
    "id": 18,
    "CDHFDOHBJDM": 51080104,
    "MBEHHDFPJPJ": 2457760316,
    "GCDNBLBDKJG": 1400624384,
    "JCEGEAFGCBN": 3304241295,
    "CENAMCJNCCN": 275916679,
    "AFGILBKPKCE": 3328784119,
    "EBNFAFNAHFO": "UI_ActivityPhotoGraphV2_Img_PicSmall04",
    "ANEFKHJNHIE": "UI_ActivityPhotoGraphV2_Img_PicSmall04",
    "BFJPCKFAEKC": 100415004,
    "BFELDONDEMH": 2221680932,
    "MFCFCHCJDDK": [100425303, 100425301, 100425302, 0],
    "ECLLCHIEEMP": [1526189875, 14956229, 1209256711, 2281696131],
    "openDay": 2,
    "watcherId": 15108004,
    "galleryId": 29004,
    "KDKCEHDDKAO": 321033,
    "KKNBFJKAFBP": 100410004,
    "BGCFHCEJFBD": 100420301,
    "FIAMAFABLJN": 3202977307,
    "KPILDNICGLD": [
      "UI_ActivityPhotoGraphV2_Img_PicSmall04_G01",
      "UI_ActivityPhotoGraphV2_Img_PicSmall04_G02",
      "UI_ActivityPhotoGraphV2_Img_PicSmall04_G03",
      "UI_ActivityPhotoGraphV2_Img_PicSmall04_G04"
    ],
    "KKEGACFCKJC": [
      "UI_ActivityPhotoGraphV2_Img_PicSmall04_B01",
      "UI_ActivityPhotoGraphV2_Img_PicSmall04_B02",
      "UI_ActivityPhotoGraphV2_Img_PicSmall04_B03",
      "UI_ActivityPhotoGraphV2_Img_PicSmall04_B04"
    ],
    "sceneID": 3
  },
  {
    "id": 19,
    "CDHFDOHBJDM": 51080105,
    "MBEHHDFPJPJ": 3355716948,
    "GCDNBLBDKJG": 3495306648,
    "JCEGEAFGCBN": 4128290671,
    "CENAMCJNCCN": 488557295,
    "AFGILBKPKCE": 3337114575,
    "EBNFAFNAHFO": "UI_ActivityPhotoGraphV2_Img_PicSmall05",
    "ANEFKHJNHIE": "UI_ActivityPhotoGraphV2_Img_PicSmall05",
    "BFJPCKFAEKC": 100415005,
    "BFELDONDEMH": 1188734508,
    "MFCFCHCJDDK": [100425403, 100425401, 100425402, 0],
    "ECLLCHIEEMP": [2080679955, 1243309, 1578295175, 42861771],
    "openDay": 3,
    "watcherId": 15108005,
    "galleryId": 29005,
    "KDKCEHDDKAO": 321034,
    "KKNBFJKAFBP": 100410005,
    "BGCFHCEJFBD": 100420401,
    "FIAMAFABLJN": 2212643347,
    "KPILDNICGLD": [
      "UI_ActivityPhotoGraphV2_Img_PicSmall05_G01",
      "UI_ActivityPhotoGraphV2_Img_PicSmall05_G02",
      "UI_ActivityPhotoGraphV2_Img_PicSmall05_G03",
      "UI_ActivityPhotoGraphV2_Img_PicSmall05_G04"
    ],
    "KKEGACFCKJC": [
      "UI_ActivityPhotoGraphV2_Img_PicSmall05_B01",
      "UI_ActivityPhotoGraphV2_Img_PicSmall05_B02",
      "UI_ActivityPhotoGraphV2_Img_PicSmall05_B03",
      "UI_ActivityPhotoGraphV2_Img_PicSmall05_B04"
    ],
    "sceneID": 3
  },
  {
    "id": 20,
    "CDHFDOHBJDM": 51080106,
    "MBEHHDFPJPJ": 3021847068,
    "GCDNBLBDKJG": 1902709504,
    "JCEGEAFGCBN": 120626871,
    "CENAMCJNCCN": 405242679,
    "AFGILBKPKCE": 2892918343,
    "EBNFAFNAHFO": "UI_ActivityPhotoGraphV2_Img_PicSmall06",
    "ANEFKHJNHIE": "UI_ActivityPhotoGraphV2_Img_PicSmall06",
    "BFJPCKFAEKC": 100415006,
    "BFELDONDEMH": 3935464036,
    "MFCFCHCJDDK": [100425503, 100425501, 100425502, 0],
    "ECLLCHIEEMP": [3921391723, 2633016429, 187435647, 1490613755],
    "openDay": 3,
    "watcherId": 15108006,
    "galleryId": 29006,
    "KDKCEHDDKAO": 321035,
    "KKNBFJKAFBP": 100410006,
    "BGCFHCEJFBD": 100420501,
    "FIAMAFABLJN": 3204856659,
    "KPILDNICGLD": [
      "UI_ActivityPhotoGraphV2_Img_PicSmall06_G01",
      "UI_ActivityPhotoGraphV2_Img_PicSmall06_G02",
      "UI_ActivityPhotoGraphV2_Img_PicSmall06_G03",
      "UI_ActivityPhotoGraphV2_Img_PicSmall06_G04"
    ],
    "KKEGACFCKJC": [
      "UI_ActivityPhotoGraphV2_Img_PicSmall06_B01",
      "UI_ActivityPhotoGraphV2_Img_PicSmall06_B02",
      "UI_ActivityPhotoGraphV2_Img_PicSmall06_B03",
      "UI_ActivityPhotoGraphV2_Img_PicSmall06_B04"
    ],
    "sceneID": 3
  },
  {
    "id": 21,
    "CDHFDOHBJDM": 51080107,
    "MBEHHDFPJPJ": 3550787756,
    "GCDNBLBDKJG": 1358302616,
    "JCEGEAFGCBN": 3791497311,
    "CENAMCJNCCN": 4238332367,
    "AFGILBKPKCE": 1669700223,
    "EBNFAFNAHFO": "UI_ActivityPhotoGraphV2_Img_PicSmall07",
    "ANEFKHJNHIE": "UI_ActivityPhotoGraphV2_Img_PicSmall07",
    "BFJPCKFAEKC": 100415007,
    "BFELDONDEMH": 2696300508,
    "MFCFCHCJDDK": [100425603, 100425601, 100425602, 0],
    "ECLLCHIEEMP": [1931270947, 420975829, 1220783687, 3056020259],
    "openDay": 4,
    "watcherId": 15108007,
    "galleryId": 29007,
    "KDKCEHDDKAO": 321036,
    "KKNBFJKAFBP": 100410007,
    "BGCFHCEJFBD": 100420601,
    "FIAMAFABLJN": 3280630979,
    "KPILDNICGLD": [
      "UI_ActivityPhotoGraphV2_Img_PicSmall07_G01",
      "UI_ActivityPhotoGraphV2_Img_PicSmall07_G02",
      "UI_ActivityPhotoGraphV2_Img_PicSmall07_G03",
      "UI_ActivityPhotoGraphV2_Img_PicSmall07_G04"
    ],
    "KKEGACFCKJC": [
      "UI_ActivityPhotoGraphV2_Img_PicSmall07_B01",
      "UI_ActivityPhotoGraphV2_Img_PicSmall07_B02",
      "UI_ActivityPhotoGraphV2_Img_PicSmall07_B03",
      "UI_ActivityPhotoGraphV2_Img_PicSmall07_B04"
    ],
    "sceneID": 3
  },
  {
    "id": 22,
    "CDHFDOHBJDM": 51080108,
    "MBEHHDFPJPJ": 3030052716,
    "GCDNBLBDKJG": 987722872,
    "JCEGEAFGCBN": 691885703,
    "CENAMCJNCCN": 2665416079,
    "AFGILBKPKCE": 1193839991,
    "EBNFAFNAHFO": "UI_ActivityPhotoGraphV2_Img_PicSmall08",
    "ANEFKHJNHIE": "UI_ActivityPhotoGraphV2_Img_PicSmall08",
    "BFJPCKFAEKC": 100415008,
    "BFELDONDEMH": 3061316324,
    "MFCFCHCJDDK": [100425703, 100425701, 100425702, 0],
    "ECLLCHIEEMP": [3277416867, 3835555349, 210268711, 638004187],
    "openDay": 4,
    "watcherId": 15108008,
    "galleryId": 29008,
    "KDKCEHDDKAO": 321037,
    "KKNBFJKAFBP": 100410008,
    "BGCFHCEJFBD": 100420701,
    "FIAMAFABLJN": 1021544603,
    "KPILDNICGLD": [
      "UI_ActivityPhotoGraphV2_Img_PicSmall08_G01",
      "UI_ActivityPhotoGraphV2_Img_PicSmall08_G02",
      "UI_ActivityPhotoGraphV2_Img_PicSmall08_G03",
      "UI_ActivityPhotoGraphV2_Img_PicSmall08_G04"
    ],
    "KKEGACFCKJC": [
      "UI_ActivityPhotoGraphV2_Img_PicSmall08_B01",
      "UI_ActivityPhotoGraphV2_Img_PicSmall08_B02",
      "UI_ActivityPhotoGraphV2_Img_PicSmall08_B03",
      "UI_ActivityPhotoGraphV2_Img_PicSmall08_B04"
    ],
    "sceneID": 3
  },
  {
    "id": 23,
    "CDHFDOHBJDM": 51080109,
    "MBEHHDFPJPJ": 2743544108,
    "GCDNBLBDKJG": 4114519184,
    "JCEGEAFGCBN": 1200446551,
    "CENAMCJNCCN": 2529667415,
    "AFGILBKPKCE": 365290207,
    "EBNFAFNAHFO": "UI_ActivityPhotoGraphV2_Img_PicSmall09",
    "ANEFKHJNHIE": "UI_ActivityPhotoGraphV2_Img_PicSmall09",
    "BFJPCKFAEKC": 100415009,
    "BFELDONDEMH": 2277813332,
    "MFCFCHCJDDK": [100425803, 100425801, 100425802, 0],
    "ECLLCHIEEMP": [1191306955, 3692622037, 3392418519, 1265185955],
    "openDay": 5,
    "watcherId": 15108009,
    "galleryId": 29009,
    "KDKCEHDDKAO": 321038,
    "KKNBFJKAFBP": 100410009,
    "BGCFHCEJFBD": 100420801,
    "FIAMAFABLJN": 867357843,
    "KPILDNICGLD": [
      "UI_ActivityPhotoGraphV2_Img_PicSmall09_G01",
      "UI_ActivityPhotoGraphV2_Img_PicSmall09_G02",
      "UI_ActivityPhotoGraphV2_Img_PicSmall09_G03",
      "UI_ActivityPhotoGraphV2_Img_PicSmall09_G04"
    ],
    "KKEGACFCKJC": [
      "UI_ActivityPhotoGraphV2_Img_PicSmall09_B01",
      "UI_ActivityPhotoGraphV2_Img_PicSmall09_B02",
      "UI_ActivityPhotoGraphV2_Img_PicSmall09_B03",
      "UI_ActivityPhotoGraphV2_Img_PicSmall09_B04"
    ],
    "sceneID": 3
  },
  {
    "id": 24,
    "CDHFDOHBJDM": 51080110,
    "MBEHHDFPJPJ": 2178459836,
    "GCDNBLBDKJG": 927069296,
    "JCEGEAFGCBN": 376444727,
    "CENAMCJNCCN": 3687492663,
    "AFGILBKPKCE": 3049508463,
    "EBNFAFNAHFO": "UI_ActivityPhotoGraphV2_Img_PicSmall10",
    "ANEFKHJNHIE": "UI_ActivityPhotoGraphV2_Img_PicSmall10",
    "BFJPCKFAEKC": 100415010,
    "BFELDONDEMH": 696660988,
    "MFCFCHCJDDK": [100425903, 100425902, 0, 0],
    "ECLLCHIEEMP": [1095269451, 3448836285, 344956615, 77365587],
    "openDay": 5,
    "watcherId": 15108010,
    "galleryId": 29010,
    "KDKCEHDDKAO": 321039,
    "KKNBFJKAFBP": 100410010,
    "BGCFHCEJFBD": 100420901,
    "FIAMAFABLJN": 1059862875,
    "KPILDNICGLD": [
      "UI_ActivityPhotoGraphV2_Img_PicSmall10_G01",
      "UI_ActivityPhotoGraphV2_Img_PicSmall10_G02",
      "UI_ActivityPhotoGraphV2_Img_PicSmall10_G03",
      "UI_ActivityPhotoGraphV2_Img_PicSmall10_G04"
    ],
    "KKEGACFCKJC": [
      "UI_ActivityPhotoGraphV2_Img_PicSmall10_B01",
      "UI_ActivityPhotoGraphV2_Img_PicSmall10_B02",
      "UI_ActivityPhotoGraphV2_Img_PicSmall10_B03",
      "UI_ActivityPhotoGraphV2_Img_PicSmall10_B04"
    ],
    "sceneID": 3
  },
  {
    "id": 25,
    "CDHFDOHBJDM": 51080111,
    "MBEHHDFPJPJ": 2824551548,
    "GCDNBLBDKJG": 4066149824,
    "JCEGEAFGCBN": 542891399,
    "CENAMCJNCCN": 1894999,
    "AFGILBKPKCE": 1112085111,
    "EBNFAFNAHFO": "UI_ActivityPhotoGraphV2_Img_PicSmall11",
    "ANEFKHJNHIE": "UI_ActivityPhotoGraphV2_Img_PicSmall11",
    "BFJPCKFAEKC": 100415011,
    "BFELDONDEMH": 786463692,
    "MFCFCHCJDDK": [100426003, 100426001, 100426002, 0],
    "ECLLCHIEEMP": [3741327427, 1114175973, 2360208151, 553292099],
    "openDay": 6,
    "watcherId": 15108011,
    "galleryId": 29011,
    "KDKCEHDDKAO": 321040,
    "KKNBFJKAFBP": 100410011,
    "BGCFHCEJFBD": 100421001,
    "FIAMAFABLJN": 2203842411,
    "KPILDNICGLD": [
      "UI_ActivityPhotoGraphV2_Img_PicSmall11_G01",
      "UI_ActivityPhotoGraphV2_Img_PicSmall11_G02",
      "UI_ActivityPhotoGraphV2_Img_PicSmall11_G03",
      "UI_ActivityPhotoGraphV2_Img_PicSmall11_G04"
    ],
    "KKEGACFCKJC": [
      "UI_ActivityPhotoGraphV2_Img_PicSmall11_B01",
      "UI_ActivityPhotoGraphV2_Img_PicSmall11_B02",
      "UI_ActivityPhotoGraphV2_Img_PicSmall11_B03",
      "UI_ActivityPhotoGraphV2_Img_PicSmall11_B04"
    ],
    "sceneID": 3
  },
  {
    "id": 26,
    "CDHFDOHBJDM": 51080112,
    "MBEHHDFPJPJ": 1835461588,
    "GCDNBLBDKJG": 1249958248,
    "JCEGEAFGCBN": 3865408311,
    "CENAMCJNCCN": 2267758655,
    "AFGILBKPKCE": 3857983943,
    "EBNFAFNAHFO": "UI_ActivityPhotoGraphV2_Img_PicSmall12",
    "ANEFKHJNHIE": "UI_ActivityPhotoGraphV2_Img_PicSmall12",
    "BFJPCKFAEKC": 100415012,
    "BFELDONDEMH": 1131535708,
    "MFCFCHCJDDK": [100426103, 100426101, 100426102, 0],
    "ECLLCHIEEMP": [3851226163, 3894918829, 3339176119, 2340859859],
    "openDay": 6,
    "watcherId": 15108012,
    "galleryId": 29012,
    "KDKCEHDDKAO": 321041,
    "KKNBFJKAFBP": 100410012,
    "BGCFHCEJFBD": 100421101,
    "FIAMAFABLJN": 3811618347,
    "KPILDNICGLD": [
      "UI_ActivityPhotoGraphV2_Img_PicSmall12_G01",
      "UI_ActivityPhotoGraphV2_Img_PicSmall12_G02",
      "UI_ActivityPhotoGraphV2_Img_PicSmall12_G03",
      "UI_ActivityPhotoGraphV2_Img_PicSmall12_G04"
    ],
    "KKEGACFCKJC": [
      "UI_ActivityPhotoGraphV2_Img_PicSmall12_B01",
      "UI_ActivityPhotoGraphV2_Img_PicSmall12_B02",
      "UI_ActivityPhotoGraphV2_Img_PicSmall12_B03",
      "UI_ActivityPhotoGraphV2_Img_PicSmall12_B04"
    ],
    "sceneID": 3
  },
  {
    "id": 27,
    "CDHFDOHBJDM": 51080113,
    "MBEHHDFPJPJ": 1763175444,
    "GCDNBLBDKJG": 125470544,
    "JCEGEAFGCBN": 3774181295,
    "CENAMCJNCCN": 501517935,
    "AFGILBKPKCE": 1172206487,
    "EBNFAFNAHFO": "UI_ActivityPhotoGraphV2_Img_PicSmall13",
    "ANEFKHJNHIE": "UI_ActivityPhotoGraphV2_Img_PicSmall13",
    "BFJPCKFAEKC": 100415013,
    "BFELDONDEMH": 3277048564,
    "MFCFCHCJDDK": [100426203, 100426201, 100426202, 0],
    "ECLLCHIEEMP": [1187891731, 4249372589, 2363608207, 3048585451],
    "openDay": 7,
    "watcherId": 15108013,
    "galleryId": 29013,
    "KDKCEHDDKAO": 321042,
    "KKNBFJKAFBP": 100410013,
    "BGCFHCEJFBD": 100421201,
    "FIAMAFABLJN": 1112028867,
    "KPILDNICGLD": [
      "UI_ActivityPhotoGraphV2_Img_PicSmall13_G01",
      "UI_ActivityPhotoGraphV2_Img_PicSmall13_G02",
      "UI_ActivityPhotoGraphV2_Img_PicSmall13_G03",
      "UI_ActivityPhotoGraphV2_Img_PicSmall13_G04"
    ],
    "KKEGACFCKJC": [
      "UI_ActivityPhotoGraphV2_Img_PicSmall13_B01",
      "UI_ActivityPhotoGraphV2_Img_PicSmall13_B02",
      "UI_ActivityPhotoGraphV2_Img_PicSmall13_B03",
      "UI_ActivityPhotoGraphV2_Img_PicSmall13_B04"
    ],
    "sceneID": 3
  },
  {
    "id": 28,
    "CDHFDOHBJDM": 51080114,
    "MBEHHDFPJPJ": 1839537924,
    "GCDNBLBDKJG": 1251056176,
    "JCEGEAFGCBN": 4169994999,
    "CENAMCJNCCN": 2840001239,
    "AFGILBKPKCE": 2884099055,
    "EBNFAFNAHFO": "UI_ActivityPhotoGraphV2_Img_PicSmall14",
    "ANEFKHJNHIE": "UI_ActivityPhotoGraphV2_Img_PicSmall14",
    "BFJPCKFAEKC": 100415014,
    "BFELDONDEMH": 345921300,
    "MFCFCHCJDDK": [100426303, 100426302, 0, 0],
    "ECLLCHIEEMP": [2447808371, 3997199077, 2920723703, 3120077587],
    "openDay": 7,
    "watcherId": 15108014,
    "galleryId": 29014,
    "KDKCEHDDKAO": 321043,
    "KKNBFJKAFBP": 100410014,
    "BGCFHCEJFBD": 100421301,
    "FIAMAFABLJN": 3600920707,
    "KPILDNICGLD": [
      "UI_ActivityPhotoGraphV2_Img_PicSmall14_G01",
      "UI_ActivityPhotoGraphV2_Img_PicSmall14_G02",
      "UI_ActivityPhotoGraphV2_Img_PicSmall14_G03",
      "UI_ActivityPhotoGraphV2_Img_PicSmall14_G04"
    ],
    "KKEGACFCKJC": [
      "UI_ActivityPhotoGraphV2_Img_PicSmall14_B01",
      "UI_ActivityPhotoGraphV2_Img_PicSmall14_B02",
      "UI_ActivityPhotoGraphV2_Img_PicSmall14_B03",
      "UI_ActivityPhotoGraphV2_Img_PicSmall14_B04"
    ],
    "sceneID": 3
  }
]
