[
  {
    "levelId": 1,
    "EFNAEIDIBLM": 1,
    "dungeonId": 7801,
    "galleryId": 25001,
    "LPIGAHFGGAJ": [6044, 6010, 6048, 6033],
    "MKLJPLBFEAM": 2507152135,
    "NJJPEFAPCPH": 999736777,
    "JBIACLIKKCG": 1202329181,
    "IJIDMDJBMAL": "Activity_Muqadas_Potion_Day_1_Normal",
    "LMNJHMLPAMB": "Activity_Muqadas_Potion_Day_1_Enhanced",
    "watcherList": [1509001, 1509002, 1509003],
    "LDGGAPHPCKA": 8
  },
  {
    "levelId": 2,
    "EFNAEIDIBLM": 2,
    "dungeonId": 7802,
    "galleryId": 25002,
    "LPIGAHFGGAJ": [6033, 6005, 6041, 6019],
    "MKLJPLBFEAM": 1453555055,
    "NJJPEFAPCPH": 1982141945,
    "JBIACLIKKCG": 452313325,
    "IJIDMDJBMAL": "Activity_Muqadas_Potion_Day_2_Normal",
    "LMNJHMLPAMB": "Activity_Muqadas_Potion_Day_2_Enhanced",
    "watcherList": [1509004, 1509005, 1509006],
    "LDGGAPHPCKA": 8
  },
  {
    "levelId": 3,
    "EFNAEIDIBLM": 3,
    "dungeonId": 7803,
    "galleryId": 25003,
    "LPIGAHFGGAJ": [6032, 6007, 6028, 6008],
    "MKLJPLBFEAM": 3393301295,
    "NJJPEFAPCPH": 3700778425,
    "JBIACLIKKCG": 4133919885,
    "IJIDMDJBMAL": "Activity_Muqadas_Potion_Day_3_Normal",
    "LMNJHMLPAMB": "Activity_Muqadas_Potion_Day_3_Enhanced",
    "watcherList": [1509007, 1509008, 1509009],
    "LDGGAPHPCKA": 8
  },
  {
    "levelId": 4,
    "EFNAEIDIBLM": 4,
    "dungeonId": 7804,
    "galleryId": 25004,
    "LPIGAHFGGAJ": [6026, 6011, 6005, 6046],
    "MKLJPLBFEAM": 2135422935,
    "NJJPEFAPCPH": 3611649889,
    "JBIACLIKKCG": 4108612989,
    "IJIDMDJBMAL": "Activity_Muqadas_Potion_Day_4_Normal",
    "LMNJHMLPAMB": "Activity_Muqadas_Potion_Day_4_Enhanced",
    "watcherList": [1509010, 1509011, 1509012],
    "LDGGAPHPCKA": 8
  },
  {
    "levelId": 5,
    "EFNAEIDIBLM": 5,
    "dungeonId": 7805,
    "galleryId": 25005,
    "LPIGAHFGGAJ": [6037, 6018, 6041, 6008],
    "MKLJPLBFEAM": 2802463,
    "NJJPEFAPCPH": 1061232241,
    "JBIACLIKKCG": 2420285061,
    "IJIDMDJBMAL": "Activity_Muqadas_Potion_Day_5_Normal",
    "LMNJHMLPAMB": "Activity_Muqadas_Potion_Day_5_Enhanced",
    "watcherList": [1509013, 1509014, 1509015],
    "LDGGAPHPCKA": 8
  },
  {
    "levelId": 6,
    "EFNAEIDIBLM": 6,
    "dungeonId": 7806,
    "galleryId": 25006,
    "LPIGAHFGGAJ": [6044, 6018, 6028, 6046],
    "MKLJPLBFEAM": 4008211727,
    "NJJPEFAPCPH": 1415428929,
    "JBIACLIKKCG": 3218946669,
    "IJIDMDJBMAL": "Activity_Muqadas_Potion_Day_6_Normal",
    "LMNJHMLPAMB": "Activity_Muqadas_Potion_Day_6_Enhanced",
    "watcherList": [1509016, 1509017, 1509018],
    "LDGGAPHPCKA": 8
  },
  {
    "levelId": 7,
    "EFNAEIDIBLM": 7,
    "dungeonId": 7807,
    "galleryId": 25007,
    "LPIGAHFGGAJ": [6050, 6041, 6015, 6051],
    "MKLJPLBFEAM": 1051675215,
    "NJJPEFAPCPH": 829145713,
    "JBIACLIKKCG": 1831432341,
    "IJIDMDJBMAL": "Activity_Muqadas_Potion_Day_7_Normal",
    "LMNJHMLPAMB": "Activity_Muqadas_Potion_Day_7_Enhanced",
    "watcherList": [1509019, 1509020, 1509021],
    "LDGGAPHPCKA": 8
  }
]
