[
  {
    "Id": 1,
    "stageId": 4,
    "questId": [
      4003413, 4003401, 4003402, 4003403, 4003404, 4003405, 4003406, 4003407,
      4003411
    ],
    "ALBNIEMNIID": 1660314374,
    "BJDGNKMKHGD": 3650185742,
    "PAFBDFBACJH": 3801076529,
    "OIEFKLACBMI": 2043393228,
    "dungeonId": 7310,
    "watcherIdList": [1505107, 1505108, 1505109],
    "openDay": 7,
    "FPAPEBJEBEF": [4003409, 4003410],
    "LPOOEDICIKP": 426
  }
]
