[
  {
    "id": 1,
    "levelId": 1,
    "difficulty": "DUEL_HEART_DIFFICULTY_NORAML"
  },
  {
    "id": 2,
    "levelId": 1,
    "difficulty": "DUEL_HEART_DIFFICULTY_HARD",
    "AGAPOBOBOBH": 75
  },
  {
    "id": 3,
    "levelId": 1,
    "difficulty": "DUEL_HEART_DIFFICULTY_MASTER"
  },
  {
    "id": 4,
    "levelId": 2,
    "difficulty": "DUEL_HEART_DIFFICULTY_NORAML"
  },
  {
    "id": 5,
    "levelId": 2,
    "difficulty": "DUEL_HEART_DIFFICULTY_HARD",
    "AGAPOBOBOBH": 75
  },
  {
    "id": 6,
    "levelId": 2,
    "difficulty": "DUEL_HEART_DIFFICULTY_MASTER"
  },
  {
    "id": 7,
    "levelId": 3,
    "difficulty": "DUEL_HEART_DIFFICULTY_NORAML"
  },
  {
    "id": 8,
    "levelId": 3,
    "difficulty": "DUEL_HEART_DIFFICULTY_HARD",
    "AGAPOBOBOBH": 75
  },
  {
    "id": 9,
    "levelId": 3,
    "difficulty": "DUEL_HEART_DIFFICULTY_MASTER"
  },
  {
    "id": 10,
    "levelId": 4,
    "difficulty": "DUEL_HEART_DIFFICULTY_NORAML"
  },
  {
    "id": 11,
    "levelId": 4,
    "difficulty": "DUEL_HEART_DIFFICULTY_HARD",
    "AGAPOBOBOBH": 75
  },
  {
    "id": 12,
    "levelId": 4,
    "difficulty": "DUEL_HEART_DIFFICULTY_MASTER"
  },
  {
    "id": 13,
    "levelId": 5,
    "difficulty": "DUEL_HEART_DIFFICULTY_NORAML"
  },
  {
    "id": 14,
    "levelId": 5,
    "difficulty": "DUEL_HEART_DIFFICULTY_HARD",
    "AGAPOBOBOBH": 90
  },
  {
    "id": 15,
    "levelId": 5,
    "difficulty": "DUEL_HEART_DIFFICULTY_MASTER"
  },
  {
    "id": 16,
    "levelId": 6,
    "difficulty": "DUEL_HEART_DIFFICULTY_NORAML"
  },
  {
    "id": 17,
    "levelId": 6,
    "difficulty": "DUEL_HEART_DIFFICULTY_HARD",
    "AGAPOBOBOBH": 90
  },
  {
    "id": 18,
    "levelId": 6,
    "difficulty": "DUEL_HEART_DIFFICULTY_MASTER"
  }
]
