[
  {
    "buffId": 1,
    "EJHBEGCGHMD": "ActivityAbility_CrystalLink_Trigger_UltimateSkillHitDamage",
    "abilityName": "ActivityAbility_CrystalLink_Trigger_UltimateSkillHitDamage",
    "MHGOHHMJJHJ": 2042514297,
    "PMEBHJEFODE": 1920676010,
    "DHMKDOALPOH": 11657560228641591243,
    "CAPAGMIMMGJ": ["", "", "", ""]
  },
  {
    "buffId": 2,
    "EJHBEGCGHMD": "ActivityAbility_CrystalLink_Trigger_UseSkill",
    "abilityName": "ActivityAbility_CrystalLink_Trigger_UseSkill",
    "MHGOHHMJJHJ": 3158571825,
    "PMEBHJEFODE": 647315034,
    "DHMKDOALPOH": 2575245367812604328,
    "CAPAGMIMMGJ": ["", "", "", ""]
  },
  {
    "buffId": 3,
    "EJHBEGCGHMD": "ActivityAbility_CrystalLink_Trigger_OnAvatarIn",
    "abilityName": "ActivityAbility_CrystalLink_Trigger_OnAvatarIn",
    "MHGOHHMJJHJ": 1047621889,
    "PMEBHJEFODE": 598041858,
    "DHMKDOALPOH": 11657560228641591243,
    "CAPAGMIMMGJ": ["", "", "", ""]
  },
  {
    "buffId": 4,
    "EJHBEGCGHMD": "ActivityAbility_CrystalLink_Trigger_UseSkill_Level2",
    "abilityName": "ActivityAbility_CrystalLink_Trigger_UseSkill_Level2",
    "MHGOHHMJJHJ": 3064450217,
    "PMEBHJEFODE": 145478114,
    "DHMKDOALPOH": 2575245367812604328,
    "CAPAGMIMMGJ": ["", "", "", ""]
  },
  {
    "buffId": 5,
    "EJHBEGCGHMD": "ActivityAbility_CrystalLink_Trigger_NormalAttackLanded_Counter",
    "abilityName": "ActivityAbility_CrystalLink_Trigger_NormalAttackLanded_Counter",
    "MHGOHHMJJHJ": 3523264089,
    "PMEBHJEFODE": 2491838650,
    "DHMKDOALPOH": 11657560228641591243,
    "CAPAGMIMMGJ": ["", "", "", ""]
  },
  {
    "buffId": 6,
    "EJHBEGCGHMD": "ActivityAbility_CrystalLink_Trigger_NormalAttackElementalDamage",
    "abilityName": "ActivityAbility_CrystalLink_Trigger_NormalAttackElementalDamage",
    "MHGOHHMJJHJ": 1588725409,
    "PMEBHJEFODE": 737095874,
    "DHMKDOALPOH": 2575245367812604328,
    "CAPAGMIMMGJ": ["", "", "", ""]
  },
  {
    "buffId": 7,
    "EJHBEGCGHMD": "ActivityAbility_CrystalLink_Trigger_ElectricReaction",
    "abilityName": "ActivityAbility_CrystalLink_Trigger_ElectricReaction",
    "MHGOHHMJJHJ": 1405274481,
    "PMEBHJEFODE": 3853282274,
    "DHMKDOALPOH": 2575245367812604328,
    "CAPAGMIMMGJ": ["", "", "", ""]
  },
  {
    "buffId": 8,
    "EJHBEGCGHMD": "ActivityAbility_CrystalLink_Trigger_UseSkill_Level3",
    "abilityName": "ActivityAbility_CrystalLink_Trigger_UseSkill_Level3",
    "MHGOHHMJJHJ": 3043056713,
    "PMEBHJEFODE": 3430456730,
    "DHMKDOALPOH": 2575245367812604328,
    "CAPAGMIMMGJ": ["", "", "", ""]
  },
  {
    "buffId": 9,
    "EJHBEGCGHMD": "ActivityAbility_CrystalLink_Trigger_ElectricDamage",
    "abilityName": "ActivityAbility_CrystalLink_Trigger_ElectricDamage",
    "MHGOHHMJJHJ": 1974042833,
    "PMEBHJEFODE": 162482514,
    "DHMKDOALPOH": 2575245367812604328,
    "CAPAGMIMMGJ": ["", "", "", ""]
  },
  {
    "buffId": 10,
    "EJHBEGCGHMD": "ActivityAbility_CrystalLink_Trigger_BeingHealed",
    "abilityName": "ActivityAbility_CrystalLink_Trigger_BeingHealed",
    "MHGOHHMJJHJ": 2279289113,
    "PMEBHJEFODE": 1629263538,
    "DHMKDOALPOH": 2575245367812604328,
    "CAPAGMIMMGJ": ["", "", "", ""]
  },
  {
    "buffId": 11,
    "EJHBEGCGHMD": "ActivityAbility_CrystalLink_Trigger_HPDown",
    "abilityName": "ActivityAbility_CrystalLink_Trigger_HPDown",
    "MHGOHHMJJHJ": 3398909969,
    "PMEBHJEFODE": 1148419922,
    "DHMKDOALPOH": 2575245367812604328,
    "CAPAGMIMMGJ": ["", "", "", ""]
  },
  {
    "buffId": 12,
    "EJHBEGCGHMD": "ActivityAbility_CrystalLink_Trigger_UseSkill_Level5",
    "abilityName": "ActivityAbility_CrystalLink_Trigger_UseSkill_Level5",
    "MHGOHHMJJHJ": 2071244297,
    "PMEBHJEFODE": 1083821274,
    "DHMKDOALPOH": 2575245367812604328,
    "CAPAGMIMMGJ": ["", "", "", ""]
  },
  {
    "buffId": 13,
    "EJHBEGCGHMD": "ActivityAbility_CrystalLink_Trigger_RockDamage",
    "abilityName": "ActivityAbility_CrystalLink_Trigger_RockDamage",
    "MHGOHHMJJHJ": 190982057,
    "PMEBHJEFODE": 2347758482,
    "DHMKDOALPOH": 2575245367812604328,
    "CAPAGMIMMGJ": ["", "", "", ""]
  },
  {
    "buffId": 14,
    "EJHBEGCGHMD": "ActivityAbility_CrystalLink_Trigger_Crystallize",
    "abilityName": "ActivityAbility_CrystalLink_Trigger_Crystallize",
    "MHGOHHMJJHJ": 619285865,
    "PMEBHJEFODE": 3725303642,
    "DHMKDOALPOH": 2575245367812604328,
    "CAPAGMIMMGJ": ["", "", "", ""]
  },
  {
    "buffId": 15,
    "EJHBEGCGHMD": "ActivityAbility_CrystalLink_Trigger_UseSkill_Level4",
    "abilityName": "ActivityAbility_CrystalLink_Trigger_UseSkill_Level4",
    "MHGOHHMJJHJ": 3598816497,
    "PMEBHJEFODE": 3864142218,
    "DHMKDOALPOH": 2575245367812604328,
    "CAPAGMIMMGJ": ["", "", "", ""]
  },
  {
    "buffId": 16,
    "EJHBEGCGHMD": "ActivityAbility_CrystalLink_Trigger_HitFrozenTarget",
    "abilityName": "ActivityAbility_CrystalLink_Trigger_HitFrozenTarget",
    "MHGOHHMJJHJ": 2866294001,
    "PMEBHJEFODE": 4171928970,
    "DHMKDOALPOH": 2575245367812604328,
    "CAPAGMIMMGJ": ["", "", "", ""]
  },
  {
    "buffId": 17,
    "EJHBEGCGHMD": "ActivityAbility_CrystalLink_Trigger_UseSkill_Level6",
    "abilityName": "ActivityAbility_CrystalLink_Trigger_UseSkill_Level6",
    "MHGOHHMJJHJ": 3894814705,
    "PMEBHJEFODE": 888149746,
    "DHMKDOALPOH": 2575245367812604328,
    "CAPAGMIMMGJ": ["", "", "", ""]
  },
  {
    "buffId": 18,
    "EJHBEGCGHMD": "ActivityAbility_CrystalLink_Trigger_Frozen",
    "abilityName": "ActivityAbility_CrystalLink_Trigger_Frozen",
    "MHGOHHMJJHJ": 2430784833,
    "PMEBHJEFODE": 1802330170,
    "DHMKDOALPOH": 2575245367812604328,
    "CAPAGMIMMGJ": ["", "", "", ""]
  },
  {
    "buffId": 19,
    "EJHBEGCGHMD": "ActivityAbility_CrystalLink_TriggerV2_StreamReaction",
    "abilityName": "ActivityAbility_CrystalLink_TriggerV2_StreamReaction",
    "MHGOHHMJJHJ": 1542093689,
    "PMEBHJEFODE": 2664913778,
    "DHMKDOALPOH": 11657560228641591243,
    "CAPAGMIMMGJ": ["", "", "", ""]
  },
  {
    "buffId": 20,
    "EJHBEGCGHMD": "ActivityAbility_CrystalLink_TriggerV2_FireDamage",
    "abilityName": "ActivityAbility_CrystalLink_TriggerV2_FireDamage",
    "MHGOHHMJJHJ": 3247651041,
    "PMEBHJEFODE": 4144120746,
    "DHMKDOALPOH": 2575245367812604328,
    "CAPAGMIMMGJ": ["", "", "", ""]
  },
  {
    "buffId": 21,
    "EJHBEGCGHMD": "ActivityAbility_CrystalLink_TriggerV2_UseArtSkill",
    "abilityName": "ActivityAbility_CrystalLink_TriggerV2_UseArtSkill",
    "MHGOHHMJJHJ": 3352095833,
    "PMEBHJEFODE": 2566503002,
    "DHMKDOALPOH": 11657560228641591243,
    "CAPAGMIMMGJ": ["", "", "", ""]
  },
  {
    "buffId": 22,
    "EJHBEGCGHMD": "ActivityAbility_CrystalLink_TriggerV2_WindDamage",
    "abilityName": "ActivityAbility_CrystalLink_TriggerV2_WindDamage",
    "MHGOHHMJJHJ": 1453005473,
    "PMEBHJEFODE": 2462965642,
    "DHMKDOALPOH": 2575245367812604328,
    "CAPAGMIMMGJ": ["", "", "", ""]
  },
  {
    "buffId": 23,
    "EJHBEGCGHMD": "ActivityAbility_CrystalLink_TriggerV2_SwirlReaction",
    "abilityName": "ActivityAbility_CrystalLink_TriggerV2_SwirlReaction",
    "MHGOHHMJJHJ": 418104201,
    "PMEBHJEFODE": 4155048386,
    "DHMKDOALPOH": 11657560228641591243,
    "CAPAGMIMMGJ": ["", "", "", ""]
  },
  {
    "buffId": 24,
    "EJHBEGCGHMD": "ActivityAbility_CrystalLink_TriggerV2_UseArtSkill_Level2",
    "abilityName": "ActivityAbility_CrystalLink_TriggerV2_UseArtSkill_Level2",
    "MHGOHHMJJHJ": 2918847673,
    "PMEBHJEFODE": 1156426042,
    "DHMKDOALPOH": 2575245367812604328,
    "CAPAGMIMMGJ": ["", "", "", ""]
  },
  {
    "buffId": 25,
    "EJHBEGCGHMD": "ActivityAbility_CrystalLink_TriggerV2_BeingHit",
    "abilityName": "ActivityAbility_CrystalLink_TriggerV2_BeingHit",
    "MHGOHHMJJHJ": 725092153,
    "PMEBHJEFODE": 946949986,
    "DHMKDOALPOH": 2575245367812604328,
    "CAPAGMIMMGJ": ["", "", "", ""]
  },
  {
    "buffId": 26,
    "EJHBEGCGHMD": "ActivityAbility_CrystalLink_TriggerV2_FireReaction",
    "abilityName": "ActivityAbility_CrystalLink_TriggerV2_FireReaction",
    "MHGOHHMJJHJ": 3567443665,
    "PMEBHJEFODE": 1124524146,
    "DHMKDOALPOH": 2575245367812604328,
    "CAPAGMIMMGJ": ["", "", "", ""]
  },
  {
    "buffId": 27,
    "EJHBEGCGHMD": "ActivityAbility_CrystalLink_TriggerV2_OnAvatarIn",
    "abilityName": "ActivityAbility_CrystalLink_TriggerV2_OnAvatarIn",
    "MHGOHHMJJHJ": 1881356281,
    "PMEBHJEFODE": 3808432594,
    "DHMKDOALPOH": 2575245367812604328,
    "CAPAGMIMMGJ": ["", "", "", ""]
  },
  {
    "buffId": 28,
    "EJHBEGCGHMD": "ActivityAbility_CrystalLink_TriggerV2_OverdoseElectricReaction",
    "abilityName": "ActivityAbility_CrystalLink_TriggerV2_OverdoseElectricReaction",
    "MHGOHHMJJHJ": 1583790321,
    "PMEBHJEFODE": 3546518298,
    "DHMKDOALPOH": 2575245367812604328,
    "CAPAGMIMMGJ": ["", "", "", ""]
  },
  {
    "buffId": 29,
    "EJHBEGCGHMD": "ActivityAbility_CrystalLink_TriggerV2_HitElement_Level6",
    "abilityName": "ActivityAbility_CrystalLink_TriggerV2_HitElement_Level6",
    "MHGOHHMJJHJ": 1210711417,
    "PMEBHJEFODE": 1342012258,
    "DHMKDOALPOH": 2575245367812604328,
    "CAPAGMIMMGJ": ["", "", "", ""]
  },
  {
    "buffId": 30,
    "EJHBEGCGHMD": "ActivityAbility_CrystalLink_TriggerV2_NormalAttackHit",
    "abilityName": "ActivityAbility_CrystalLink_TriggerV2_NormalAttackHit",
    "MHGOHHMJJHJ": 1857445489,
    "PMEBHJEFODE": 1268524466,
    "DHMKDOALPOH": 2575245367812604328,
    "CAPAGMIMMGJ": ["", "", "", ""]
  },
  {
    "buffId": 31,
    "EJHBEGCGHMD": "ActivityAbility_CrystalLink_TriggerV2_FreezeReaction",
    "abilityName": "ActivityAbility_CrystalLink_TriggerV2_FreezeReaction",
    "MHGOHHMJJHJ": 2106832441,
    "PMEBHJEFODE": 2070216218,
    "DHMKDOALPOH": 2575245367812604328,
    "CAPAGMIMMGJ": ["", "", "", ""]
  },
  {
    "buffId": 32,
    "EJHBEGCGHMD": "ActivityAbility_CrystalLink_TriggerV2_HitFrozenTarget",
    "abilityName": "ActivityAbility_CrystalLink_TriggerV2_HitFrozenTarget",
    "MHGOHHMJJHJ": 248053673,
    "PMEBHJEFODE": 3521226554,
    "DHMKDOALPOH": 2575245367812604328,
    "CAPAGMIMMGJ": ["", "", "", ""]
  },
  {
    "buffId": 33,
    "EJHBEGCGHMD": "ActivityAbility_CrystalLink_TriggerV2_UseArtSkill_Level4",
    "abilityName": "ActivityAbility_CrystalLink_TriggerV2_UseArtSkill_Level4",
    "MHGOHHMJJHJ": 3200021185,
    "PMEBHJEFODE": 198500906,
    "DHMKDOALPOH": 2575245367812604328,
    "CAPAGMIMMGJ": ["", "", "", ""]
  },
  {
    "buffId": 34,
    "EJHBEGCGHMD": "ActivityAbility_CrystalLink_TriggerV2_OverdoseGrassReaction",
    "abilityName": "ActivityAbility_CrystalLink_TriggerV2_OverdoseGrassReaction",
    "MHGOHHMJJHJ": 1924072185,
    "PMEBHJEFODE": 4144626522,
    "DHMKDOALPOH": 2575245367812604328,
    "CAPAGMIMMGJ": ["", "", "", ""]
  },
  {
    "buffId": 35,
    "EJHBEGCGHMD": "ActivityAbility_CrystalLink_TriggerV2_HitElement",
    "abilityName": "ActivityAbility_CrystalLink_TriggerV2_HitElement",
    "MHGOHHMJJHJ": 1666956617,
    "PMEBHJEFODE": 540498906,
    "DHMKDOALPOH": 2575245367812604328,
    "CAPAGMIMMGJ": ["", "", "", ""]
  },
  {
    "buffId": 36,
    "EJHBEGCGHMD": "ActivityAbility_CrystalLink_TriggerV2_UseArtSkill_Level5",
    "abilityName": "ActivityAbility_CrystalLink_TriggerV2_UseArtSkill_Level5",
    "MHGOHHMJJHJ": 2128840721,
    "PMEBHJEFODE": 3303347922,
    "DHMKDOALPOH": 2575245367812604328,
    "CAPAGMIMMGJ": ["", "", "", ""]
  }
]
