[
  {
    "scheduleId": 5019001,
    "rewardId": 30800,
    "centerPosList": [
      1564.3280029296875, 252.19659423828125, -1641.6719970703125
    ],
    "guideQuestId1": 7065503
  },
  {
    "scheduleId": 5034001,
    "rewardId": 30800,
    "centerPosList": [-2188.0, 200.39999389648438, -3479.0],
    "KBCFMILEPPB": 201310,
    "GFOCALMJAGF": 7280704,
    "guideQuestId1": 7265001
  }
]
