[
  {
    "id": 1,
    "galleryId": 43001,
    "groupId": 133309828,
    "DHLAIMBNMCG": 828016,
    "DKNHDLNJPOM": 133309820,
    "GMACBEOKFIB": 820001,
    "MPKGBKAPBJC": [51280101, 51280102, 51280103],
    "watcherList": [15128101],
    "OLHHMAKCMDO": 73511,
    "LCPKOBPLLAK": 73512,
    "NEIONIKOPKA": 1,
    "pushTipsID": 13047,
    "levelTitleTextMapHash": 776711416,
    "AMOOODMIDAK": "UI_ACTIVITY_SANDWORMCANNON_LEVEL_1_DESC",
    "HNJHKEHOCID": 1113356277,
    "OILNPIHLDJM": "30342,30343",
    "JNGCKOAAMDL": "UI_DungeonPic_SandwormCannon",
    "buffIcon": "UI_Icon_SandwormCannon"
  },
  {
    "id": 2,
    "galleryId": 43002,
    "groupId": 133307745,
    "DHLAIMBNMCG": 745011,
    "DKNHDLNJPOM": 133307742,
    "GMACBEOKFIB": 742002,
    "MPKGBKAPBJC": [51280201, 51280202, 51280203],
    "watcherList": [15128201],
    "OLHHMAKCMDO": 73513,
    "LCPKOBPLLAK": 73514,
    "NEIONIKOPKA": 1,
    "pushTipsID": 13048,
    "levelTitleTextMapHash": 1443276120,
    "AMOOODMIDAK": "UI_ACTIVITY_SANDWORMCANNON_LEVEL_2_DESC",
    "HNJHKEHOCID": 3526105573,
    "OILNPIHLDJM": "30342,30343",
    "JNGCKOAAMDL": "UI_DungeonPic_SandwormCannon",
    "buffIcon": "UI_Icon_SandwormCannon"
  },
  {
    "id": 3,
    "galleryId": 43003,
    "groupId": 133307730,
    "DHLAIMBNMCG": 730023,
    "DKNHDLNJPOM": 133307742,
    "GMACBEOKFIB": 742002,
    "MPKGBKAPBJC": [51280301, 51280302, 51280303],
    "watcherList": [15128301],
    "OLHHMAKCMDO": 73515,
    "LCPKOBPLLAK": 73516,
    "NEIONIKOPKA": 2,
    "pushTipsID": 13049,
    "levelTitleTextMapHash": 3601022272,
    "AMOOODMIDAK": "UI_ACTIVITY_SANDWORMCANNON_LEVEL_3_DESC",
    "HNJHKEHOCID": 4037745157,
    "OILNPIHLDJM": "30342,30343",
    "JNGCKOAAMDL": "UI_DungeonPic_SandwormCannon",
    "buffIcon": "UI_Icon_SandwormCannon"
  },
  {
    "id": 4,
    "galleryId": 43004,
    "groupId": 133307436,
    "DHLAIMBNMCG": 436029,
    "DKNHDLNJPOM": 133307459,
    "GMACBEOKFIB": 459002,
    "MPKGBKAPBJC": [51280401, 51280402, 51280403],
    "watcherList": [15128401],
    "OLHHMAKCMDO": 73517,
    "LCPKOBPLLAK": 73518,
    "NEIONIKOPKA": 3,
    "pushTipsID": 13049,
    "levelTitleTextMapHash": 3555625720,
    "AMOOODMIDAK": "UI_ACTIVITY_SANDWORMCANNON_LEVEL_4_DESC",
    "HNJHKEHOCID": 218125637,
    "OILNPIHLDJM": "30342,30343",
    "JNGCKOAAMDL": "UI_DungeonPic_SandwormCannon",
    "buffIcon": "UI_Icon_SandwormCannon"
  },
  {
    "id": 5,
    "galleryId": 43005,
    "groupId": 133307743,
    "DHLAIMBNMCG": 743008,
    "DKNHDLNJPOM": 133309820,
    "GMACBEOKFIB": 820001,
    "NMHKOKMBCIL": true,
    "MPKGBKAPBJC": [51280501, 51280502, 51280503],
    "watcherList": [15128501, 15128502, 15128503],
    "OLHHMAKCMDO": 73519,
    "NEIONIKOPKA": 4,
    "pushTipsID": 13050,
    "levelTitleTextMapHash": 2744256416,
    "AMOOODMIDAK": "UI_ACTIVITY_SANDWORMCANNON_LEVEL_5_DESC",
    "HNJHKEHOCID": 572600701,
    "OILNPIHLDJM": "30342,30343",
    "JNGCKOAAMDL": "UI_DungeonPic_SandwormCannon",
    "buffIcon": "UI_Icon_SandwormCannon"
  }
]
