[
  {
    "BEEGHHODFLD": 1,
    "descTextMapHash": 2686271481
  },
  {
    "BEEGHHODFLD": 2,
    "descTextMapHash": 1544217057,
    "KIJLBGNLHOO": 2
  },
  {
    "BEEGHHODFLD": 3,
    "descTextMapHash": 4200402281,
    "KIJLBGNLHOO": 4
  },
  {
    "BEEGHHODFLD": 4,
    "descTextMapHash": 3972003537,
    "KIJLBGNLHOO": 6
  }
]
