[
  {
    "JCPAPIPDBBM": 1,
    "MKFMBHIHLEA": 3000,
    "openMapList": [1, 2, 3, 4]
  },
  {
    "JCPAPIPDBBM": 2,
    "MKFMBHIHLEA": 2000,
    "openMapList": [1, 2, 3, 4, 5, 6]
  },
  {
    "JCPAPIPDBBM": 3,
    "MKFMBHIHLEA": 2000,
    "openMapList": [1, 2, 3, 6, 5, 6, 7, 8]
  },
  {
    "JCPAPIPDBBM": 4,
    "MKFMBHIHLEA": 1000,
    "openMapList": [1, 2, 3, 4, 5, 6, 7, 8, 9, 10]
  },
  {
    "JCPAPIPDBBM": 5,
    "openMapList": [1, 2, 3, 4, 5, 6, 7, 8, 9, 10]
  },
  {
    "JCPAPIPDBBM": 6,
    "openMapList": [1, 2, 3, 4, 5, 6, 7, 8, 9, 10]
  },
  {
    "JCPAPIPDBBM": 7,
    "openMapList": [1, 2, 3, 4, 5, 6, 7, 8, 9, 10]
  },
  {
    "JCPAPIPDBBM": 8,
    "openMapList": [1, 2, 3, 4, 5, 6, 7, 8, 9, 10]
  },
  {
    "JCPAPIPDBBM": 9,
    "openMapList": [1, 2, 3, 4, 5, 6, 7, 8, 9, 10]
  },
  {
    "JCPAPIPDBBM": 10,
    "openMapList": [1, 2, 3, 4, 5, 6, 7, 8, 9, 10]
  },
  {
    "JCPAPIPDBBM": 11,
    "openMapList": [1, 2, 3, 4, 5, 6, 7, 8, 9, 10]
  },
  {
    "JCPAPIPDBBM": 12,
    "openMapList": [1, 2, 3, 4, 5, 6, 7, 8, 9, 10]
  },
  {
    "JCPAPIPDBBM": 13,
    "openMapList": [1, 2, 3, 4, 5, 6, 7, 8, 9, 10]
  },
  {
    "JCPAPIPDBBM": 14,
    "openMapList": [1, 2, 3, 4, 5, 6, 7, 8, 9, 10]
  }
]
