[
  {
    "id": 1,
    "openDay": 1,
    "titleTextMapHash": 4043627432,
    "DIBCACOBFIB": [
      "UI_ACTIVITY_AKAFES_ARCHITECT_RULE_01",
      "UI_ACTIVITY_AKAFES_ARCHITECT_RULE_02"
    ],
    "descTextMapHash": 1998096014,
    "OEBADJJLDNF": [1600, 1200, 800, 0],
    "LPIPCBJMCNC": [
      "UI_ACTIVITY_AKAFES_ARCHITECT_MEDAL_0",
      "UI_ACTIVITY_AKAFES_ARCHITECT_MEDAL_1",
      "UI_ACTIVITY_AKAFES_ARCHITECT_MEDAL_2",
      "UI_ACTIVITY_AKAFES_ARCHITECT_MEDAL_3"
    ],
    "dungeonId": 9000,
    "watcherList": [12021601, 12021602, 12021603]
  },
  {
    "id": 2,
    "openDay": 3,
    "titleTextMapHash": 2415688496,
    "DIBCACOBFIB": [
      "UI_ACTIVITY_AKAFES_ARCHITECT_RULE_01",
      "UI_ACTIVITY_AKAFES_ARCHITECT_RULE_02"
    ],
    "descTextMapHash": 671242998,
    "OEBADJJLDNF": [1600, 1200, 800, 0],
    "LPIPCBJMCNC": [
      "UI_ACTIVITY_AKAFES_ARCHITECT_MEDAL_0",
      "UI_ACTIVITY_AKAFES_ARCHITECT_MEDAL_1",
      "UI_ACTIVITY_AKAFES_ARCHITECT_MEDAL_2",
      "UI_ACTIVITY_AKAFES_ARCHITECT_MEDAL_3"
    ],
    "dungeonId": 9001,
    "watcherList": [12021604, 12021605, 12021606]
  },
  {
    "id": 3,
    "openDay": 7,
    "titleTextMapHash": 175226000,
    "DIBCACOBFIB": [
      "UI_ACTIVITY_AKAFES_ARCHITECT_RULE_01",
      "UI_ACTIVITY_AKAFES_ARCHITECT_RULE_02"
    ],
    "descTextMapHash": 313516270,
    "OEBADJJLDNF": [1600, 1200, 800, 0],
    "LPIPCBJMCNC": [
      "UI_ACTIVITY_AKAFES_ARCHITECT_MEDAL_0",
      "UI_ACTIVITY_AKAFES_ARCHITECT_MEDAL_1",
      "UI_ACTIVITY_AKAFES_ARCHITECT_MEDAL_2",
      "UI_ACTIVITY_AKAFES_ARCHITECT_MEDAL_3"
    ],
    "dungeonId": 9002,
    "watcherList": [12021607, 12021608, 12021609]
  }
]
