[
  {
    "HBKLPLNFEFK": "default",
    "BPLCOBLEJIC": 2.5,
    "CEICNNDDDFO": [
      1.0, 0.0, 0.0, 1.0, 0.0, 0.0, 1.0, 0.0, 0.0, 1.0, 0.0, 0.0, 1.0, 0.0, 0.0,
      1.0, 0.0, 0.0, 1.0, 0.0, 0.0, 1.0, 0.0, 0.0
    ],
    "GEHMAHLOIDP": [
      1.0, 1.0, 1.0, 1.0, 1.0, 1.0, 1.0, 1.0, 1.0, 1.0, 1.0, 1.0, 1.0, 1.0
    ],
    "EMPNHENMFHO": [
      1.0, 1.0, 1.0, 1.0, 1.0, 1.0, 1.0, 1.0, 1.0, 1.0, 1.0, 1.0, 1.0, 1.0, 1.0
    ]
  },
  {
    "HBKLPLNFEFK": "Ambor",
    "BPLCOBLEJIC": 1.0,
    "CEICNNDDDFO": [
      1.0, 0.0, 0.0, 1.0, 0.0, 0.0, 1.0, 0.0, 0.0, 1.0, 0.0, 0.0, 1.0, 0.0, 0.0,
      1.0, 0.0, 0.0, 1.0, 0.0, 0.0, 1.0, 0.0, 0.0
    ],
    "GEHMAHLOIDP": [
      1.0, 1.0, 1.0, 1.0, 1.0, 1.0, 1.0, 1.0, 1.0, 1.0, 1.0, 1.0, 1.0, 1.0
    ],
    "EMPNHENMFHO": [
      1.0, 1.0, 1.0, 1.0, 1.0, 1.0, 1.0, 1.0, 1.0, 1.0, 1.0, 1.0, 1.0, 1.0, 1.0
    ]
  },
  {
    "HBKLPLNFEFK": "Venti",
    "BPLCOBLEJIC": 1.0,
    "CEICNNDDDFO": [
      1.0, 0.0, 0.0, 1.0, 0.0, 0.0, 1.0, 0.0, 0.0, 1.0, 0.0, 0.0, 1.0, 0.0, 0.0,
      1.0, 0.0, 0.0, 1.0, 0.0, 0.0, 1.0, 0.0, 0.0
    ],
    "GEHMAHLOIDP": [
      1.0, 1.0, 1.0, 1.0, 1.0, 1.0, 1.0, 1.0, 1.0, 1.0, 1.0, 1.0, 1.0, 1.0
    ],
    "EMPNHENMFHO": [
      1.0, 1.0, 1.0, 1.0, 1.0, 1.0, 1.0, 1.0, 1.0, 1.0, 1.0, 1.0, 1.0, 1.0, 1.0
    ]
  },
  {
    "HBKLPLNFEFK": "Fischl",
    "BPLCOBLEJIC": 5.0,
    "CEICNNDDDFO": [
      1.0, 0.0, 0.0, 0.0, 1.0, 0.0, 0.0, 0.0, 1.0, 0.0, 0.0, 0.0, 1.0, 0.0, 0.0,
      0.0, 1.0, 0.0, 0.0, 0.0, 1.0, 0.0, 0.0, 0.0, 1.0, 0.0, 0.0, 0.0, 1.0, 0.0,
      0.0, 0.0
    ],
    "GEHMAHLOIDP": [
      1.0, 1.0, 1.0, 1.0, 1.0, 1.0, 1.0, 1.0, 1.0, 1.0, 1.0, 1.0, 1.0, 1.0
    ],
    "EMPNHENMFHO": [
      1.0, 1.0, 1.0, 1.0, 1.0, 1.0, 1.0, 1.0, 1.0, 1.0, 1.0, 1.0, 1.0, 1.0, 1.0
    ]
  },
  {
    "HBKLPLNFEFK": "Diluc",
    "BPLCOBLEJIC": 5.0,
    "CEICNNDDDFO": [
      1.0, 0.0, 0.0, 0.0, 0.0, 1.0, 0.0, 0.0, 0.0, 0.0, 1.0, 0.0, 0.0, 0.0, 0.0,
      1.0, 0.0, 0.0, 0.0, 0.0, 1.0, 0.0, 0.0, 0.0, 0.0, 1.0, 0.0, 0.0, 0.0, 0.0
    ],
    "GEHMAHLOIDP": [
      1.0, 1.0, 1.0, 1.0, 1.0, 1.0, 1.0, 1.0, 1.0, 1.0, 1.0, 1.0, 1.0, 1.0
    ],
    "EMPNHENMFHO": [
      1.0, 1.0, 1.0, 1.0, 1.0, 1.0, 1.0, 1.0, 1.0, 1.0, 1.0, 1.0, 1.0, 1.0, 1.0
    ]
  },
  {
    "HBKLPLNFEFK": "Hutao_ExtraAttack",
    "BPLCOBLEJIC": 0.800000011920929,
    "CEICNNDDDFO": [
      1.0, 0.0, 0.0, 1.0, 0.0, 0.0, 1.0, 0.0, 0.0, 1.0, 0.0, 0.0, 1.0, 0.0, 0.0,
      1.0, 0.0, 0.0, 1.0, 0.0, 0.0, 1.0, 0.0, 0.0
    ],
    "GEHMAHLOIDP": [
      1.0, 1.0, 1.0, 1.0, 1.0, 1.0, 1.0, 1.0, 1.0, 1.0, 1.0, 1.0, 1.0, 1.0
    ],
    "EMPNHENMFHO": [
      1.0, 0.0, 0.0, 1.0, 0.0, 0.0, 1.0, 0.0, 0.0, 1.0, 0.0, 0.0, 1.0, 0.0, 0.0
    ]
  },
  {
    "HBKLPLNFEFK": "Skirmisher_Fat_SprayGun_Ice",
    "BPLCOBLEJIC": 1.0,
    "CEICNNDDDFO": [1.0, 1.0, 1.0, 1.0, 1.0, 1.0],
    "GEHMAHLOIDP": [1.0, 1.0, 1.0, 1.0, 1.0, 1.0],
    "EMPNHENMFHO": [
      1.0, 0.5, 0.25, 0.10000000149011612, 0.10000000149011612,
      0.10000000149011612
    ]
  },
  {
    "HBKLPLNFEFK": "Mimik_Common",
    "BPLCOBLEJIC": 0.5,
    "CEICNNDDDFO": [1.0, 0.0, 0.0, 0.0, 0.0, 0.0],
    "GEHMAHLOIDP": [1.0, 1.0, 1.0, 1.0, 1.0, 1.0],
    "EMPNHENMFHO": [1.0, 0.0, 0.0, 0.0, 0.0, 0.0]
  },
  {
    "HBKLPLNFEFK": "Regisvine_Common",
    "BPLCOBLEJIC": 0.5,
    "CEICNNDDDFO": [1.0, 0.0, 0.0, 0.0, 0.0, 0.0],
    "GEHMAHLOIDP": [1.0, 1.0, 1.0, 1.0, 1.0, 1.0],
    "EMPNHENMFHO": [1.0, 0.0, 0.0, 0.0, 0.0, 0.0]
  },
  {
    "HBKLPLNFEFK": "ElementReaction_Damage_Attenuation_1",
    "BPLCOBLEJIC": 0.5,
    "CEICNNDDDFO": [1.0, 1.0, 1.0, 1.0, 1.0, 1.0, 1.0, 1.0, 1.0, 1.0],
    "GEHMAHLOIDP": [1.0, 1.0, 1.0, 1.0, 1.0, 1.0, 1.0, 1.0, 1.0, 1.0],
    "EMPNHENMFHO": [1.0, 1.0, 0.0, 0.0, 0.0, 0.0, 0.0, 0.0, 0.0, 0.0]
  },
  {
    "HBKLPLNFEFK": "ElementReaction_Damage_Attenuation_2",
    "BPLCOBLEJIC": 0.5,
    "CEICNNDDDFO": [1.0, 1.0, 1.0, 1.0, 1.0, 1.0, 1.0, 1.0, 1.0, 1.0],
    "GEHMAHLOIDP": [1.0, 1.0, 1.0, 1.0, 1.0, 1.0, 1.0, 1.0, 1.0, 1.0],
    "EMPNHENMFHO": [1.0, 0.0, 0.0, 0.0, 0.0, 0.0, 0.0, 0.0, 0.0, 0.0]
  },
  {
    "HBKLPLNFEFK": "Oceanid_Crab_WaterStream",
    "BPLCOBLEJIC": 1.0,
    "CEICNNDDDFO": [
      1.0, 1.0, 1.0, 1.0, 0.10000000149011612, 0.10000000149011612
    ],
    "GEHMAHLOIDP": [
      1.0, 1.0, 1.0, 1.0, 0.10000000149011612, 0.10000000149011612
    ],
    "EMPNHENMFHO": [
      1.0, 0.25, 0.10000000149011612, 0.10000000149011612, 0.10000000149011612,
      0.10000000149011612
    ]
  },
  {
    "HBKLPLNFEFK": "Animal_Boar_03_RushAttack",
    "BPLCOBLEJIC": 2.0,
    "CEICNNDDDFO": [1.0, 0.0, 0.0, 0.0, 0.0, 0.0],
    "GEHMAHLOIDP": [1.0, 0.0, 0.0, 0.0, 0.0, 0.0],
    "EMPNHENMFHO": [1.0, 0.0, 0.0, 0.0, 0.0, 0.0]
  },
  {
    "HBKLPLNFEFK": "Abyss_Fire_FireEnergy_Attenuation",
    "BPLCOBLEJIC": 0.5,
    "CEICNNDDDFO": [1.0, 1.0, 1.0, 1.0, 1.0, 1.0],
    "GEHMAHLOIDP": [1.0, 1.0, 1.0, 1.0, 1.0, 1.0],
    "EMPNHENMFHO": [1.0, 0.5, 0.25, 0.0, 0.0, 0.0]
  },
  {
    "HBKLPLNFEFK": "Avatar_Pole_ExtraAttack",
    "BPLCOBLEJIC": 0.5,
    "CEICNNDDDFO": [
      1.0, 0.0, 0.0, 0.0, 0.0, 0.0, 0.0, 0.0, 0.0, 0.0, 0.0, 0.0, 0.0, 0.0, 0.0,
      0.0, 0.0, 0.0, 0.0, 0.0, 0.0, 0.0, 0.0, 0.0
    ],
    "GEHMAHLOIDP": [
      1.0, 1.0, 1.0, 1.0, 1.0, 1.0, 1.0, 1.0, 1.0, 1.0, 1.0, 1.0, 1.0, 1.0
    ],
    "EMPNHENMFHO": [
      1.0, 0.0, 0.0, 0.0, 0.0, 0.0, 0.0, 0.0, 0.0, 0.0, 0.0, 0.0, 0.0, 0.0, 0.0
    ]
  },
  {
    "HBKLPLNFEFK": "Monster_Tartaglia_Attenuation_1",
    "BPLCOBLEJIC": 1.0,
    "CEICNNDDDFO": [1.0, 0.0, 0.0, 0.0, 0.0, 0.0],
    "GEHMAHLOIDP": [1.0, 0.0, 0.0, 0.0, 0.0, 0.0],
    "EMPNHENMFHO": [1.0, 0.0, 0.0, 0.0, 0.0, 0.0]
  },
  {
    "HBKLPLNFEFK": "Ayaka_ExtraAttack",
    "BPLCOBLEJIC": 0.5,
    "CEICNNDDDFO": [
      1.0, 0.0, 0.0, 0.0, 0.0, 0.0, 0.0, 0.0, 0.0, 0.0, 0.0, 0.0, 0.0, 0.0, 0.0,
      0.0, 0.0, 0.0, 0.0, 0.0, 0.0, 0.0, 0.0, 0.0, 0.0, 0.0, 0.0
    ],
    "GEHMAHLOIDP": [
      1.0, 1.0, 1.0, 1.0, 1.0, 1.0, 1.0, 1.0, 1.0, 1.0, 1.0, 1.0, 1.0, 1.0, 1.0,
      1.0, 1.0, 1.0, 1.0, 1.0, 1.0, 1.0, 1.0, 1.0, 1.0, 1.0, 1.0, 1.0
    ],
    "EMPNHENMFHO": [
      1.0, 1.0, 1.0, 0.0, 0.0, 0.0, 0.0, 0.0, 0.0, 0.0, 0.0, 0.0, 0.0, 0.0, 0.0,
      0.0, 0.0, 0.0, 0.0, 0.0, 0.0, 0.0, 0.0, 0.0, 0.0, 0.0, 0.0
    ]
  },
  {
    "HBKLPLNFEFK": "Monster_Konungmathr_Attenuation_1",
    "BPLCOBLEJIC": 0.4000000059604645,
    "CEICNNDDDFO": [1.0, 0.0, 0.0, 0.0, 0.0, 0.0],
    "GEHMAHLOIDP": [1.0, 0.0, 0.0, 0.0, 0.0, 0.0],
    "EMPNHENMFHO": [1.0, 0.0, 0.0, 0.0, 0.0, 0.0]
  },
  {
    "HBKLPLNFEFK": "Monster_Konungmathr_Attenuation_2",
    "BPLCOBLEJIC": 0.4000000059604645,
    "CEICNNDDDFO": [1.0, 0.0, 0.0, 0.0, 0.0, 0.0],
    "GEHMAHLOIDP": [1.0, 0.0, 0.0, 0.0, 0.0, 0.0],
    "EMPNHENMFHO": [1.0, 0.0, 0.0, 0.0, 0.0, 0.0]
  },
  {
    "HBKLPLNFEFK": "Monster_Effigy_Elite_Rock_StoneBall",
    "BPLCOBLEJIC": 1.0,
    "CEICNNDDDFO": [1.0, 1.0, 1.0, 1.0, 1.0, 1.0, 1.0, 1.0, 1.0],
    "GEHMAHLOIDP": [1.0, 0.0, 0.0, 1.0, 0.0, 0.0, 1.0, 0.0, 0.0],
    "EMPNHENMFHO": [
      1.0, 0.699999988079071, 0.5, 0.20000000298023224, 0.10000000149011612,
      0.10000000149011612, 0.10000000149011612, 0.10000000149011612,
      0.10000000149011612
    ]
  },
  {
    "HBKLPLNFEFK": "Xiao_DevilDash",
    "BPLCOBLEJIC": 0.10000000149011612,
    "CEICNNDDDFO": [1.0, 0.0, 0.0, 0.0, 0.0, 0.0, 0.0],
    "GEHMAHLOIDP": [1.0, 0.0, 0.0, 0.0, 0.0, 0.0, 0.0],
    "EMPNHENMFHO": [1.0, 0.0, 0.0, 0.0, 0.0, 0.0, 0.0]
  },
  {
    "HBKLPLNFEFK": "Monster_Primo_Attenuation_Breathe",
    "BPLCOBLEJIC": 0.5,
    "CEICNNDDDFO": [1.0, 0.0, 0.0, 0.0, 0.0, 0.0],
    "GEHMAHLOIDP": [1.0, 1.0, 1.0, 1.0, 1.0, 1.0],
    "EMPNHENMFHO": [1.0, 0.5, 0.25, 0.0, 0.0, 0.0]
  },
  {
    "HBKLPLNFEFK": "Monster_Primo_Attenuation_ScaleGadget",
    "BPLCOBLEJIC": 0.5,
    "CEICNNDDDFO": [1.0, 0.0, 0.0, 0.0, 0.0, 0.0],
    "GEHMAHLOIDP": [1.0, 0.0, 0.0, 0.0, 0.0, 0.0],
    "EMPNHENMFHO": [1.0, 0.0, 0.0, 0.0, 0.0, 0.0]
  },
  {
    "HBKLPLNFEFK": "MonsterAffix_GeneralSkill_IceDamage_Prison",
    "BPLCOBLEJIC": 1.0,
    "CEICNNDDDFO": [1.0, 1.0, 1.0, 1.0, 1.0, 1.0],
    "GEHMAHLOIDP": [1.0, 1.0, 1.0, 1.0, 1.0, 1.0],
    "EMPNHENMFHO": [1.0, 0.0, 0.0, 0.0, 0.0, 0.0]
  },
  {
    "HBKLPLNFEFK": "Monster_Invoker_Deacon_Attenuation_1",
    "BPLCOBLEJIC": 0.5,
    "CEICNNDDDFO": [1.0, 0.5, 0.25, 0.0, 0.0, 0.0],
    "GEHMAHLOIDP": [1.0, 1.0, 1.0, 1.0, 1.0, 1.0],
    "EMPNHENMFHO": [1.0, 0.5, 0.25, 0.0, 0.0, 0.0]
  },
  {
    "HBKLPLNFEFK": "Monster_Invoker_Deacon_Attenuation_2",
    "BPLCOBLEJIC": 1.0,
    "CEICNNDDDFO": [1.0, 0.5, 0.25, 0.0, 0.0, 0.0],
    "GEHMAHLOIDP": [1.0, 1.0, 1.0, 1.0, 1.0, 1.0],
    "EMPNHENMFHO": [1.0, 0.5, 0.25, 0.0, 0.0, 0.0]
  },
  {
    "HBKLPLNFEFK": "Monster_Invoker_Herald_Attenuation_1",
    "BPLCOBLEJIC": 1.0,
    "CEICNNDDDFO": [1.0, 0.0, 1.0, 0.0, 1.0, 0.0],
    "GEHMAHLOIDP": [1.0, 0.0, 1.0, 0.0, 1.0, 0.0],
    "EMPNHENMFHO": [1.0, 0.5, 0.25, 0.25, 0.25, 0.25]
  },
  {
    "HBKLPLNFEFK": "Effigy_Ice_Attenuation_1",
    "BPLCOBLEJIC": 0.5,
    "CEICNNDDDFO": [1.0, 0.0, 0.0, 0.0, 0.0, 0.0],
    "GEHMAHLOIDP": [1.0, 1.0, 1.0, 1.0, 1.0, 1.0],
    "EMPNHENMFHO": [1.0, 0.0, 0.0, 0.0, 0.0, 0.0]
  },
  {
    "HBKLPLNFEFK": "Effigy_Ice_Attenuation_2",
    "BPLCOBLEJIC": 1.0,
    "CEICNNDDDFO": [1.0, 1.0, 1.0, 0.0, 0.0, 0.0],
    "GEHMAHLOIDP": [1.0, 1.0, 1.0, 1.0, 1.0, 1.0],
    "EMPNHENMFHO": [1.0, 1.0, 1.0, 0.0, 0.0, 0.0]
  },
  {
    "HBKLPLNFEFK": "Effigy_Fire_DiveCrush",
    "BPLCOBLEJIC": 4.0,
    "CEICNNDDDFO": [1.0, 1.0, 1.0, 1.0],
    "GEHMAHLOIDP": [1.0, 1.0, 1.0, 1.0],
    "EMPNHENMFHO": [1.0, 0.5, 0.20000000298023224, 0.10000000149011612]
  },
  {
    "HBKLPLNFEFK": "Effigy_Fire_MultiFire",
    "BPLCOBLEJIC": 2.0,
    "CEICNNDDDFO": [1.0, 1.0, 1.0, 1.0, 1.0, 1.0, 1.0, 1.0, 1.0],
    "GEHMAHLOIDP": [1.0, 1.0, 1.0, 1.0, 1.0, 1.0, 1.0, 1.0, 1.0],
    "EMPNHENMFHO": [
      1.0, 0.5, 0.20000000298023224, 0.10000000149011612, 0.10000000149011612,
      0.10000000149011612, 0.10000000149011612, 0.10000000149011612,
      0.10000000149011612
    ]
  },
  {
    "HBKLPLNFEFK": "Effigy_Fire_RollingCharge",
    "BPLCOBLEJIC": 0.5,
    "CEICNNDDDFO": [1.0, 0.0, 0.0, 0.0, 0.0, 0.0],
    "GEHMAHLOIDP": [1.0, 1.0, 1.0, 1.0, 1.0, 1.0],
    "EMPNHENMFHO": [1.0, 0.0, 0.0, 0.0, 0.0, 0.0]
  },
  {
    "HBKLPLNFEFK": "Monster_Dahaka_Breath",
    "BPLCOBLEJIC": 1.0,
    "CEICNNDDDFO": [1.0, 1.0, 1.0, 1.0, 1.0],
    "GEHMAHLOIDP": [1.0, 1.0, 1.0, 1.0, 1.0],
    "EMPNHENMFHO": [1.0, 0.5, 0.25, 0.10000000149011612, 0.10000000149011612]
  },
  {
    "HBKLPLNFEFK": "Monster_Brute_Electric_None",
    "BPLCOBLEJIC": 1.0,
    "CEICNNDDDFO": [1.0, 1.0, 1.0, 1.0, 1.0, 1.0, 1.0],
    "GEHMAHLOIDP": [1.0, 1.0, 1.0, 0.0, 0.0, 0.0, 0.0],
    "EMPNHENMFHO": [1.0, 0.0, 0.0, 0.0, 0.0, 0.0, 0.0]
  },
  {
    "HBKLPLNFEFK": "SceneObj_ThunderFloor",
    "BPLCOBLEJIC": 5.0,
    "CEICNNDDDFO": [
      1.0, 0.0, 0.0, 0.0, 0.0, 0.0, 0.0, 0.0, 1.0, 0.0, 0.0, 0.0, 0.0, 0.0, 0.0,
      0.0
    ],
    "GEHMAHLOIDP": [1.0, 1.0, 1.0, 1.0, 1.0],
    "EMPNHENMFHO": [1.0, 1.0, 1.0, 1.0, 1.0]
  },
  {
    "HBKLPLNFEFK": "Monster_Shougun_ElectricEye",
    "BPLCOBLEJIC": 1.0,
    "CEICNNDDDFO": [1.0, 1.0, 1.0],
    "GEHMAHLOIDP": [1.0, 1.0, 1.0],
    "EMPNHENMFHO": [1.0, 0.25, 0.10000000149011612]
  },
  {
    "HBKLPLNFEFK": "Monster_Abyss_Electric_ElectricCircle",
    "BPLCOBLEJIC": 1.0,
    "CEICNNDDDFO": [1.0, 1.0, 1.0, 1.0, 1.0, 1.0, 1.0, 1.0, 1.0, 1.0],
    "GEHMAHLOIDP": [1.0, 0.0, 0.0, 0.0, 0.0, 1.0, 0.0, 0.0, 0.0, 0.0],
    "EMPNHENMFHO": [1.0, 0.0, 0.0, 0.0, 0.0, 1.0, 0.0, 0.0, 0.0, 0.0]
  },
  {
    "HBKLPLNFEFK": "Monster_Effigy_Water_SurgeStrike",
    "BPLCOBLEJIC": 1.0,
    "CEICNNDDDFO": [1.0, 1.0, 1.0, 1.0],
    "GEHMAHLOIDP": [1.0, 1.0, 1.0, 1.0],
    "EMPNHENMFHO": [1.0, 0.5, 0.25, 0.10000000149011612]
  },
  {
    "HBKLPLNFEFK": "Monster_LaSignora_Attenuation_Impulse",
    "BPLCOBLEJIC": 1.0,
    "CEICNNDDDFO": [1.0, 0.0, 0.0, 0.0, 0.0, 0.0],
    "GEHMAHLOIDP": [1.0, 0.0, 0.0, 0.0, 0.0, 0.0],
    "EMPNHENMFHO": [1.0, 0.0, 0.0, 0.0, 0.0, 0.0]
  },
  {
    "HBKLPLNFEFK": "Shenhe_ElementalArt_L_Bullet",
    "BPLCOBLEJIC": 0.10000000149011612,
    "CEICNNDDDFO": [1.0, 0.0, 0.0, 0.0, 0.0, 0.0, 0.0],
    "GEHMAHLOIDP": [1.0, 0.0, 0.0, 0.0, 0.0, 0.0, 0.0],
    "EMPNHENMFHO": [1.0, 0.0, 0.0, 0.0, 0.0, 0.0, 0.0]
  },
  {
    "HBKLPLNFEFK": "Monster_ForlornVessel_Lance_ChargeAtk",
    "BPLCOBLEJIC": 0.5,
    "CEICNNDDDFO": [1.0, 0.0, 0.0, 1.0, 0.0, 0.0, 1.0, 0.0, 0.0],
    "GEHMAHLOIDP": [1.0, 0.0, 0.0, 1.0, 0.0, 0.0, 1.0, 0.0, 0.0],
    "EMPNHENMFHO": [1.0, 0.0, 0.0, 1.0, 0.0, 0.0, 1.0, 0.0, 0.0]
  },
  {
    "HBKLPLNFEFK": "Yae_ExtraAttack",
    "BPLCOBLEJIC": 0.5,
    "CEICNNDDDFO": [1.0, 0.0, 0.0, 0.0, 0.0, 0.0, 0.0],
    "GEHMAHLOIDP": [1.0, 0.0, 0.0, 0.0, 0.0, 0.0, 0.0],
    "EMPNHENMFHO": [1.0, 0.0, 0.0, 0.0, 0.0, 0.0, 0.0]
  },
  {
    "HBKLPLNFEFK": "Monster_ForlornVessel_Warbanner_NormalAtk",
    "BPLCOBLEJIC": 0.10000000149011612,
    "CEICNNDDDFO": [1.0, 0.0, 0.0, 0.0, 0.0, 0.0],
    "GEHMAHLOIDP": [1.0, 0.0, 0.0, 0.0, 0.0, 0.0],
    "EMPNHENMFHO": [1.0, 0.0, 0.0, 0.0, 0.0, 0.0]
  },
  {
    "HBKLPLNFEFK": "Monster_ForlornVessel_Chargebow_NormalAtk",
    "BPLCOBLEJIC": 0.5,
    "CEICNNDDDFO": [1.0, 0.0, 0.0, 0.0, 0.0, 0.0],
    "GEHMAHLOIDP": [1.0, 0.0, 0.0, 0.0, 0.0, 0.0],
    "EMPNHENMFHO": [1.0, 0.0, 0.0, 0.0, 0.0, 0.0]
  },
  {
    "HBKLPLNFEFK": "Monster_Darkwraith_Strong_Wind_ChainAtk02",
    "BPLCOBLEJIC": 0.5,
    "CEICNNDDDFO": [1.0, 0.20000000298023224, 0.0, 0.0, 0.0, 0.0],
    "GEHMAHLOIDP": [
      1.0, 0.4000000059604645, 0.10000000149011612, 0.0, 0.0, 0.0
    ],
    "EMPNHENMFHO": [1.0, 0.4000000059604645, 0.10000000149011612, 0.0, 0.0, 0.0]
  },
  {
    "HBKLPLNFEFK": "Yelan_ExtraAttack",
    "BPLCOBLEJIC": 0.30000001192092896,
    "CEICNNDDDFO": [1.0, 0.0, 0.0, 0.0],
    "GEHMAHLOIDP": [1.0, 0.0, 0.0, 0.0],
    "EMPNHENMFHO": [1.0, 0.0, 0.0, 0.0]
  },
  {
    "HBKLPLNFEFK": "Yelan_ElementalBurst",
    "BPLCOBLEJIC": 2.0,
    "CEICNNDDDFO": [
      1.0, 0.0, 0.0, 1.0, 0.0, 0.0, 1.0, 0.0, 0.0, 1.0, 0.0, 0.0, 1.0, 0.0, 0.0,
      1.0, 0.0, 0.0, 1.0, 0.0, 0.0, 1.0, 0.0, 0.0
    ],
    "GEHMAHLOIDP": [
      1.0, 1.0, 1.0, 1.0, 1.0, 1.0, 1.0, 1.0, 1.0, 1.0, 1.0, 1.0, 1.0, 1.0
    ],
    "EMPNHENMFHO": [
      1.0, 1.0, 1.0, 1.0, 1.0, 1.0, 1.0, 1.0, 1.0, 1.0, 1.0, 1.0, 1.0, 1.0, 1.0
    ]
  },
  {
    "HBKLPLNFEFK": "Fafnir_Air_ChargeAtk",
    "BPLCOBLEJIC": 0.30000001192092896,
    "CEICNNDDDFO": [1.0, 0.5, 0.20000000298023224, 0.0],
    "GEHMAHLOIDP": [1.0, 0.5, 0.20000000298023224, 0.0],
    "EMPNHENMFHO": [1.0, 0.5, 0.20000000298023224, 0.0]
  },
  {
    "HBKLPLNFEFK": "Fafnir_ElementAtk",
    "BPLCOBLEJIC": 0.5,
    "CEICNNDDDFO": [
      1.0, 0.30000001192092896, 0.10000000149011612, 0.10000000149011612,
      0.10000000149011612, 0.10000000149011612, 0.10000000149011612
    ],
    "GEHMAHLOIDP": [
      1.0, 0.30000001192092896, 0.10000000149011612, 0.10000000149011612,
      0.10000000149011612, 0.10000000149011612, 0.10000000149011612
    ],
    "EMPNHENMFHO": [
      1.0, 0.30000001192092896, 0.10000000149011612, 0.10000000149011612,
      0.10000000149011612, 0.10000000149011612, 0.10000000149011612
    ]
  },
  {
    "HBKLPLNFEFK": "Fafnir_Air_ChestAtk",
    "BPLCOBLEJIC": 2.0,
    "CEICNNDDDFO": [
      1.0, 0.30000001192092896, 0.10000000149011612, 0.10000000149011612,
      0.10000000149011612, 0.10000000149011612, 0.10000000149011612
    ],
    "GEHMAHLOIDP": [
      1.0, 0.30000001192092896, 0.10000000149011612, 0.10000000149011612,
      0.10000000149011612, 0.10000000149011612, 0.10000000149011612
    ],
    "EMPNHENMFHO": [
      1.0, 0.30000001192092896, 0.10000000149011612, 0.10000000149011612,
      0.10000000149011612, 0.10000000149011612, 0.10000000149011612,
      0.009999999776482582, 0.009999999776482582, 0.009999999776482582,
      0.009999999776482582, 0.009999999776482582, 0.009999999776482582,
      0.009999999776482582, 0.009999999776482582, 0.009999999776482582,
      0.009999999776482582, 0.009999999776482582, 0.009999999776482582,
      0.009999999776482582, 0.009999999776482582, 0.009999999776482582,
      0.009999999776482582, 0.009999999776482582, 0.009999999776482582,
      0.009999999776482582, 0.009999999776482582
    ]
  },
  {
    "HBKLPLNFEFK": "Fafnir_Air_WingAtk",
    "BPLCOBLEJIC": 0.5,
    "CEICNNDDDFO": [1.0, 0.0, 0.0, 0.0, 0.0, 0.0, 0.0, 0.0, 0.0, 0.0, 0.0, 0.0],
    "GEHMAHLOIDP": [1.0, 0.0, 0.0, 0.0, 0.0, 0.0, 0.0, 0.0, 0.0, 0.0, 0.0, 0.0],
    "EMPNHENMFHO": [1.0, 0.0, 0.0, 0.0, 0.0, 0.0, 0.0, 0.0, 0.0, 0.0, 0.0, 0.0]
  },
  {
    "HBKLPLNFEFK": "Gargoyle_Airborne_Normalatk",
    "BPLCOBLEJIC": 0.5,
    "CEICNNDDDFO": [1.0, 0.0, 0.0, 0.0, 0.0, 0.0],
    "GEHMAHLOIDP": [1.0, 0.0, 0.0, 0.0, 0.0, 0.0],
    "EMPNHENMFHO": [1.0, 0.0, 0.0, 0.0, 0.0, 0.0]
  },
  {
    "HBKLPLNFEFK": "Gargoyle_Ground_ChargeAtk",
    "BPLCOBLEJIC": 0.30000001192092896,
    "CEICNNDDDFO": [1.0, 0.5, 0.20000000298023224, 0.0],
    "GEHMAHLOIDP": [1.0, 0.5, 0.20000000298023224, 0.0],
    "EMPNHENMFHO": [1.0, 0.5, 0.20000000298023224, 0.0]
  },
  {
    "HBKLPLNFEFK": "Gargoyle_ElementAtk",
    "BPLCOBLEJIC": 0.5,
    "CEICNNDDDFO": [
      1.0, 0.30000001192092896, 0.10000000149011612, 0.10000000149011612,
      0.10000000149011612, 0.10000000149011612, 0.10000000149011612
    ],
    "GEHMAHLOIDP": [
      1.0, 0.30000001192092896, 0.10000000149011612, 0.10000000149011612,
      0.10000000149011612, 0.10000000149011612, 0.10000000149011612
    ],
    "EMPNHENMFHO": [
      1.0, 0.30000001192092896, 0.10000000149011612, 0.10000000149011612,
      0.10000000149011612, 0.10000000149011612, 0.10000000149011612
    ]
  },
  {
    "HBKLPLNFEFK": "Airborne_ChestAtk",
    "BPLCOBLEJIC": 0.30000001192092896,
    "CEICNNDDDFO": [
      1.0, 0.30000001192092896, 0.10000000149011612, 0.10000000149011612,
      0.10000000149011612, 0.10000000149011612, 0.10000000149011612
    ],
    "GEHMAHLOIDP": [
      1.0, 0.30000001192092896, 0.10000000149011612, 0.10000000149011612,
      0.10000000149011612, 0.10000000149011612, 0.10000000149011612
    ],
    "EMPNHENMFHO": [
      1.0, 0.30000001192092896, 0.10000000149011612, 0.10000000149011612,
      0.10000000149011612, 0.10000000149011612, 0.10000000149011612
    ]
  },
  {
    "HBKLPLNFEFK": "Collei_Boomerang_Go",
    "BPLCOBLEJIC": 5.0,
    "CEICNNDDDFO": [1.0, 0.0, 0.0, 0.0, 0.0, 0.0, 0.0, 0.0, 0.0, 0.0, 0.0],
    "GEHMAHLOIDP": [1.0, 0.0, 0.0, 0.0, 0.0, 0.0, 0.0, 0.0, 0.0, 0.0, 0.0],
    "EMPNHENMFHO": [1.0, 0.0, 0.0, 0.0, 0.0, 0.0, 0.0, 0.0, 0.0, 0.0, 0.0]
  },
  {
    "HBKLPLNFEFK": "Collei_Boomerang_Back",
    "BPLCOBLEJIC": 5.0,
    "CEICNNDDDFO": [1.0, 0.0, 0.0, 0.0, 0.0, 0.0, 0.0, 0.0, 0.0, 0.0, 0.0],
    "GEHMAHLOIDP": [1.0, 0.0, 0.0, 0.0, 0.0, 0.0, 0.0, 0.0, 0.0, 0.0, 0.0],
    "EMPNHENMFHO": [1.0, 0.0, 0.0, 0.0, 0.0, 0.0, 0.0, 0.0, 0.0, 0.0, 0.0]
  },
  {
    "HBKLPLNFEFK": "Fungus_Trois_Atk",
    "BPLCOBLEJIC": 0.5,
    "CEICNNDDDFO": [1.0, 0.0, 0.0, 0.0, 0.0, 0.0, 0.0, 0.0, 0.0, 0.0, 0.0, 0.0],
    "GEHMAHLOIDP": [1.0, 0.0, 0.0, 0.0, 0.0, 0.0, 0.0, 0.0, 0.0, 0.0, 0.0, 0.0],
    "EMPNHENMFHO": [1.0, 0.0, 0.0, 0.0, 0.0, 0.0, 0.0, 0.0, 0.0, 0.0, 0.0, 0.0]
  },
  {
    "HBKLPLNFEFK": "DendroTornado_Atk",
    "BPLCOBLEJIC": 2.0,
    "CEICNNDDDFO": [1.0, 0.0, 0.0, 0.0, 0.0, 0.0, 0.0, 0.0, 0.0, 0.0, 0.0, 0.0],
    "GEHMAHLOIDP": [1.0, 0.0, 0.0, 0.0, 0.0, 0.0, 0.0, 0.0, 0.0, 0.0, 0.0, 0.0],
    "EMPNHENMFHO": [
      1.0, 0.10000000149011612, 0.10000000149011612, 0.10000000149011612,
      0.10000000149011612, 0.10000000149011612, 0.10000000149011612,
      0.10000000149011612, 0.10000000149011612
    ]
  },
  {
    "HBKLPLNFEFK": "Tighnari",
    "BPLCOBLEJIC": 2.5,
    "CEICNNDDDFO": [
      1.0, 0.0, 0.0, 0.0, 1.0, 0.0, 0.0, 0.0, 1.0, 0.0, 0.0, 0.0, 0.0
    ],
    "GEHMAHLOIDP": [1.0, 1.0, 1.0, 1.0, 1.0, 1.0, 1.0, 1.0, 1.0, 1.0, 1.0, 1.0],
    "EMPNHENMFHO": [1.0, 1.0, 1.0, 1.0, 1.0, 1.0, 1.0, 1.0, 1.0, 1.0, 1.0, 1.0]
  },
  {
    "HBKLPLNFEFK": "Collei_Elemental_Burst",
    "BPLCOBLEJIC": 3.0,
    "CEICNNDDDFO": [
      1.0, 0.0, 0.0, 0.0, 0.0, 0.0, 0.0, 0.0, 0.0, 0.0, 0.0, 0.0, 0.0
    ],
    "GEHMAHLOIDP": [1.0, 1.0, 1.0, 1.0, 1.0, 1.0, 1.0, 1.0, 1.0, 1.0, 1.0, 1.0],
    "EMPNHENMFHO": [1.0, 1.0, 1.0, 1.0, 1.0, 1.0, 1.0, 1.0, 1.0, 1.0, 1.0, 1.0]
  },
  {
    "HBKLPLNFEFK": "Dori_Elemental_Burst",
    "BPLCOBLEJIC": 3.0,
    "CEICNNDDDFO": [1.0, 0.0, 0.0, 0.0, 0.0, 0.0, 0.0, 0.0, 0.0, 0.0, 0.0, 0.0],
    "GEHMAHLOIDP": [1.0, 1.0, 1.0, 1.0, 1.0, 1.0, 1.0, 1.0, 1.0, 1.0, 1.0, 1.0],
    "EMPNHENMFHO": [1.0, 1.0, 1.0, 1.0, 1.0, 1.0, 1.0, 1.0, 1.0, 1.0, 1.0, 1.0]
  },
  {
    "HBKLPLNFEFK": "Monster_Nada_EnergyFire_Bullet",
    "BPLCOBLEJIC": 2.0,
    "CEICNNDDDFO": [1.0, 0.0, 0.0, 0.0],
    "GEHMAHLOIDP": [1.0, 0.5, 0.25, 0.10000000149011612],
    "EMPNHENMFHO": [1.0, 0.5, 0.25, 0.10000000149011612]
  },
  {
    "HBKLPLNFEFK": "Monster_Nada_EnergySpray",
    "BPLCOBLEJIC": 2.0,
    "CEICNNDDDFO": [1.0, 0.0, 0.0, 0.0],
    "GEHMAHLOIDP": [1.0, 0.5, 0.25, 0.10000000149011612],
    "EMPNHENMFHO": [1.0, 0.5, 0.25, 0.10000000149011612]
  },
  {
    "HBKLPLNFEFK": "Nilou_Sustained_Water",
    "BPLCOBLEJIC": 1.899999976158142,
    "CEICNNDDDFO": [1.0, 0.0, 0.0, 0.0, 1.0, 0.0, 0.0, 0.0, 1.0, 0.0, 0.0, 0.0],
    "GEHMAHLOIDP": [1.0, 1.0, 1.0, 1.0, 1.0, 1.0, 1.0, 1.0, 1.0, 1.0, 1.0, 1.0],
    "EMPNHENMFHO": [1.0, 1.0, 1.0, 1.0, 1.0, 1.0, 1.0, 1.0, 1.0, 1.0, 1.0, 1.0]
  },
  {
    "HBKLPLNFEFK": "Monster_Nada_Tile_Ice",
    "BPLCOBLEJIC": 3.0,
    "CEICNNDDDFO": [1.0, 0.0, 0.0, 0.0, 0.0, 0.0],
    "GEHMAHLOIDP": [1.0, 1.0, 1.0, 1.0, 1.0, 1.0],
    "EMPNHENMFHO": [1.0, 1.0, 1.0, 1.0, 1.0, 1.0]
  },
  {
    "HBKLPLNFEFK": "Monster_Nada_Tile_Fire",
    "BPLCOBLEJIC": 3.0,
    "CEICNNDDDFO": [1.0, 0.0, 0.0, 0.0, 0.0, 0.0],
    "GEHMAHLOIDP": [1.0, 1.0, 1.0, 1.0, 1.0, 1.0],
    "EMPNHENMFHO": [1.0, 1.0, 1.0, 1.0, 1.0, 1.0]
  },
  {
    "HBKLPLNFEFK": "Cyno_ElementalArt",
    "BPLCOBLEJIC": 2.5,
    "CEICNNDDDFO": [
      1.0, 1.0, 1.0, 1.0, 1.0, 1.0, 1.0, 1.0, 1.0, 1.0, 1.0, 1.0, 1.0, 1.0
    ],
    "GEHMAHLOIDP": [
      1.0, 1.0, 1.0, 1.0, 1.0, 1.0, 1.0, 1.0, 1.0, 1.0, 1.0, 1.0, 1.0, 1.0
    ],
    "EMPNHENMFHO": [
      1.0, 1.0, 1.0, 1.0, 1.0, 1.0, 1.0, 1.0, 1.0, 1.0, 1.0, 1.0, 1.0, 1.0, 1.0
    ]
  },
  {
    "HBKLPLNFEFK": "Cyno_ElementalArt_Bullet",
    "BPLCOBLEJIC": 0.20000000298023224,
    "CEICNNDDDFO": [1.0, 0.0, 0.0, 0.0, 0.0, 0.0, 0.0],
    "GEHMAHLOIDP": [1.0, 0.0, 0.0, 0.0, 0.0, 0.0, 0.0],
    "EMPNHENMFHO": [1.0, 0.0, 0.0, 0.0, 0.0, 0.0, 0.0]
  },
  {
    "HBKLPLNFEFK": "Cyno_ElementalArt_Blade",
    "BPLCOBLEJIC": 2.5,
    "CEICNNDDDFO": [1.0, 0.0, 0.0, 0.0, 0.0, 0.0, 0.0, 0.0, 0.0, 0.0, 0.0],
    "GEHMAHLOIDP": [1.0, 1.0, 1.0, 0.0, 0.0, 0.0, 0.0, 0.0, 0.0, 0.0, 0.0],
    "EMPNHENMFHO": [1.0, 1.0, 1.0, 0.0, 0.0, 0.0, 0.0, 0.0, 0.0, 0.0, 0.0]
  },
  {
    "HBKLPLNFEFK": "Cyno_Constellation_6",
    "BPLCOBLEJIC": 2.5,
    "CEICNNDDDFO": [
      1.0, 0.0, 0.0, 1.0, 0.0, 0.0, 1.0, 0.0, 0.0, 1.0, 0.0, 0.0, 1.0, 0.0, 0.0,
      1.0, 0.0, 0.0, 1.0, 0.0, 0.0, 1.0, 0.0, 0.0
    ],
    "GEHMAHLOIDP": [
      1.0, 1.0, 1.0, 1.0, 1.0, 1.0, 1.0, 1.0, 1.0, 1.0, 1.0, 1.0, 1.0, 1.0
    ],
    "EMPNHENMFHO": [
      1.0, 1.0, 1.0, 1.0, 1.0, 1.0, 1.0, 1.0, 1.0, 1.0, 1.0, 1.0, 1.0, 1.0, 1.0
    ]
  },
  {
    "HBKLPLNFEFK": "Fungus_Amanita_Du_Anudatta_ShootBullet",
    "BPLCOBLEJIC": 3.0,
    "CEICNNDDDFO": [1.0, 1.0, 1.0, 1.0, 1.0, 1.0, 1.0],
    "GEHMAHLOIDP": [1.0, 1.0, 1.0, 1.0, 1.0, 1.0, 1.0],
    "EMPNHENMFHO": [
      1.0, 0.5, 0.5, 0.10000000149011612, 0.10000000149011612, 0.0, 0.0
    ]
  },
  {
    "HBKLPLNFEFK": "Effigy_Fire_BurningGround_Elite",
    "BPLCOBLEJIC": 2.0,
    "CEICNNDDDFO": [1.0, 0.0, 1.0, 0.0, 1.0, 0.0],
    "GEHMAHLOIDP": [1.0, 1.0, 1.0, 1.0, 1.0, 1.0],
    "EMPNHENMFHO": [
      1.0, 0.5, 0.30000001192092896, 0.20000000298023224, 0.0, 0.0
    ]
  },
  {
    "HBKLPLNFEFK": "Eremite_Longbow_DropAttack_Wind",
    "BPLCOBLEJIC": 1.0,
    "CEICNNDDDFO": [1.0, 0.0, 0.0, 0.0, 0.0, 0.0],
    "GEHMAHLOIDP": [1.0, 0.0, 0.0, 0.0, 0.0, 0.0],
    "EMPNHENMFHO": [1.0, 0.0, 0.0, 0.0, 0.0, 0.0]
  },
  {
    "HBKLPLNFEFK": "Eremite_Katar_RockBomb_Rock",
    "BPLCOBLEJIC": 1.0,
    "CEICNNDDDFO": [1.0, 1.0, 1.0, 1.0, 1.0, 1.0, 1.0],
    "GEHMAHLOIDP": [1.0, 1.0, 1.0, 0.0, 0.0, 0.0, 0.0],
    "EMPNHENMFHO": [
      1.0, 0.5, 0.20000000298023224, 0.20000000298023224, 0.20000000298023224,
      0.20000000298023224, 0.0
    ]
  },
  {
    "HBKLPLNFEFK": "ElementReaction_Burning_Attenuation",
    "BPLCOBLEJIC": 2.0,
    "CEICNNDDDFO": [1.0, 0.0, 0.0, 0.0, 0.0, 0.0, 0.0, 0.0],
    "GEHMAHLOIDP": [1.0, 1.0, 1.0, 1.0, 1.0, 1.0, 1.0, 1.0, 1.0, 1.0, 1.0, 1.0],
    "EMPNHENMFHO": [
      1.0, 1.0, 1.0, 1.0, 1.0, 1.0, 1.0, 1.0, 0.0, 0.0, 0.0, 0.0, 0.0, 0.0
    ]
  },
  {
    "HBKLPLNFEFK": "Monster_Fungus_Raptor_ChargeAttack",
    "BPLCOBLEJIC": 3.0,
    "CEICNNDDDFO": [1.0, 1.0, 1.0, 1.0, 1.0, 1.0, 1.0, 1.0],
    "GEHMAHLOIDP": [
      1.0, 0.4000000059604645, 0.10000000149011612, 0.10000000149011612,
      0.10000000149011612, 0.10000000149011612, 0.0, 0.0
    ],
    "EMPNHENMFHO": [
      1.0, 0.4000000059604645, 0.10000000149011612, 0.10000000149011612,
      0.10000000149011612, 0.10000000149011612, 0.0, 0.0
    ]
  },
  {
    "HBKLPLNFEFK": "Monster_Fungus_Raptor_ShootAttack",
    "BPLCOBLEJIC": 1.0,
    "CEICNNDDDFO": [1.0, 1.0, 1.0, 1.0, 1.0],
    "GEHMAHLOIDP": [1.0, 1.0, 1.0, 1.0, 1.0, 1.0],
    "EMPNHENMFHO": [1.0, 0.5, 0.5, 0.10000000149011612, 0.10000000149011612]
  },
  {
    "HBKLPLNFEFK": "Monster_Fungus_Raptor_PowerAttack",
    "BPLCOBLEJIC": 1.0,
    "CEICNNDDDFO": [1.0, 1.0, 1.0, 1.0, 1.0, 1.0, 1.0, 1.0, 1.0, 1.0],
    "GEHMAHLOIDP": [1.0, 1.0, 1.0, 1.0, 1.0, 1.0, 1.0, 1.0, 1.0, 1.0],
    "EMPNHENMFHO": [
      1.0, 0.5, 0.10000000149011612, 0.10000000149011612, 0.10000000149011612,
      0.009999999776482582, 0.009999999776482582, 0.009999999776482582,
      0.009999999776482582, 0.009999999776482582
    ]
  },
  {
    "HBKLPLNFEFK": "Monster_Fungus_Raptor_ConfuseMeleeAttack",
    "BPLCOBLEJIC": 6.0,
    "CEICNNDDDFO": [1.0, 1.0, 1.0, 1.0],
    "GEHMAHLOIDP": [1.0, 1.0, 1.0, 1.0],
    "EMPNHENMFHO": [1.0, 0.5, 0.5, 0.5]
  },
  {
    "HBKLPLNFEFK": "FungusFight_General",
    "BPLCOBLEJIC": 5.0,
    "CEICNNDDDFO": [
      1.0, 0.0, 1.0, 0.0, 1.0, 0.0, 1.0, 0.0, 1.0, 0.0, 1.0, 0.0, 1.0, 0.0, 1.0,
      0.0
    ],
    "GEHMAHLOIDP": [1.0, 1.0, 1.0, 1.0, 1.0, 1.0, 1.0, 1.0, 1.0, 1.0],
    "EMPNHENMFHO": [1.0, 1.0, 1.0, 1.0, 1.0, 1.0, 1.0, 1.0, 1.0, 1.0]
  },
  {
    "HBKLPLNFEFK": "FungusFight_Trois_FireRing",
    "BPLCOBLEJIC": 4.0,
    "CEICNNDDDFO": [
      1.0, 0.0, 0.0, 0.0, 0.0, 0.0, 0.0, 0.0, 0.0, 0.0, 0.0, 0.0, 0.0, 0.0, 0.0,
      0.0, 0.0, 0.0, 0.0, 0.0
    ],
    "GEHMAHLOIDP": [1.0, 1.0, 1.0, 1.0, 1.0, 1.0, 1.0, 1.0, 1.0, 1.0],
    "EMPNHENMFHO": [1.0, 1.0, 1.0, 1.0, 1.0, 1.0, 1.0, 1.0, 1.0, 1.0]
  },
  {
    "HBKLPLNFEFK": "Monster_Gadget_Attenuation_01",
    "BPLCOBLEJIC": 0.5,
    "CEICNNDDDFO": [
      1.0, 0.0, 0.0, 0.0, 0.0, 0.0, 0.0, 0.0, 0.0, 0.0, 0.0, 0.0, 0.0, 0.0, 0.0,
      0.0, 0.0
    ],
    "GEHMAHLOIDP": [
      1.0, 0.0, 0.0, 0.0, 0.0, 0.0, 0.0, 0.0, 0.0, 0.0, 0.0, 0.0, 0.0, 0.0, 0.0,
      0.0, 0.0
    ],
    "EMPNHENMFHO": [
      1.0, 0.0, 0.0, 0.0, 0.0, 0.0, 0.0, 0.0, 0.0, 0.0, 0.0, 0.0, 0.0, 0.0, 0.0,
      0.0, 0.0
    ]
  },
  {
    "HBKLPLNFEFK": "Effigy_Ice_RangeAtk",
    "BPLCOBLEJIC": 4.0,
    "CEICNNDDDFO": [
      1.0, 1.0, 1.0, 1.0, 1.0, 1.0, 1.0, 1.0, 1.0, 1.0, 1.0, 1.0, 1.0, 1.0, 1.0,
      1.0, 1.0, 1.0, 1.0, 1.0, 1.0, 1.0, 1.0, 1.0
    ],
    "GEHMAHLOIDP": [
      1.0, 1.0, 1.0, 1.0, 1.0, 1.0, 1.0, 1.0, 1.0, 1.0, 1.0, 1.0, 1.0, 1.0, 1.0,
      1.0, 1.0, 1.0, 1.0, 1.0, 1.0, 1.0, 1.0, 1.0
    ],
    "EMPNHENMFHO": [
      1.0, 1.0, 1.0, 0.4000000059604645, 0.4000000059604645, 0.4000000059604645,
      0.4000000059604645, 0.4000000059604645, 0.4000000059604645,
      0.05000000074505806, 0.05000000074505806, 0.05000000074505806,
      0.05000000074505806, 0.05000000074505806, 0.05000000074505806,
      0.05000000074505806, 0.05000000074505806, 0.05000000074505806,
      0.05000000074505806, 0.05000000074505806, 0.05000000074505806,
      0.05000000074505806, 0.05000000074505806, 0.05000000074505806
    ]
  },
  {
    "HBKLPLNFEFK": "Effigy_Fire_Elite_MultiAtk1",
    "BPLCOBLEJIC": 2.0,
    "CEICNNDDDFO": [1.0, 0.0, 1.0, 0.0, 1.0, 0.0],
    "GEHMAHLOIDP": [1.0, 0.0, 1.0, 0.0, 1.0, 0.0],
    "EMPNHENMFHO": [1.0, 0.0, 1.0, 0.0, 1.0, 0.0]
  },
  {
    "HBKLPLNFEFK": "Layla_ElementalArt_Bullet",
    "BPLCOBLEJIC": 3.0,
    "CEICNNDDDFO": [1.0, 0.0, 0.0, 0.0, 0.0, 0.0, 0.0, 1.0, 0.0, 0.0, 0.0, 0.0],
    "GEHMAHLOIDP": [1.0, 1.0, 1.0, 1.0, 1.0, 1.0, 1.0, 1.0, 1.0, 1.0, 1.0, 1.0],
    "EMPNHENMFHO": [1.0, 1.0, 1.0, 1.0, 1.0, 1.0, 1.0, 1.0, 1.0, 1.0, 1.0, 1.0]
  },
  {
    "HBKLPLNFEFK": "Nahida_Chain_Normal",
    "BPLCOBLEJIC": 1.0,
    "CEICNNDDDFO": [1.5, 0.0, 0.0, 0.0, 0.0, 0.0, 0.0, 0.0, 0.0, 0.0, 0.0],
    "GEHMAHLOIDP": [
      1.0, 1.0, 1.0, 1.0, 1.0, 1.0, 1.0, 1.0, 1.0, 1.0, 1.0, 1.0, 1.0, 1.0, 1.0,
      1.0, 1.0, 1.0, 1.0, 1.0, 1.0
    ],
    "EMPNHENMFHO": [
      1.0, 1.0, 1.0, 1.0, 1.0, 1.0, 1.0, 1.0, 1.0, 1.0, 1.0, 1.0, 1.0, 1.0, 1.0,
      1.0, 1.0, 1.0, 1.0, 1.0, 1.0
    ]
  },
  {
    "HBKLPLNFEFK": "Nahida_Chain_Constellation",
    "BPLCOBLEJIC": 2.5,
    "CEICNNDDDFO": [1.0, 0.0, 0.0, 1.0, 0.0, 0.0, 1.0, 0.0, 0.0, 1.0, 0.0, 0.0],
    "GEHMAHLOIDP": [1.0, 1.0, 1.0, 1.0, 1.0, 1.0, 1.0, 1.0, 1.0, 1.0, 1.0, 1.0],
    "EMPNHENMFHO": [1.0, 1.0, 1.0, 1.0, 1.0, 1.0, 1.0, 1.0, 1.0, 1.0, 1.0, 1.0]
  },
  {
    "HBKLPLNFEFK": "Monster_Nada_LaserArray",
    "BPLCOBLEJIC": 1.600000023841858,
    "CEICNNDDDFO": [1.0, 0.0, 0.0],
    "GEHMAHLOIDP": [1.0, 0.5, 0.25, 0.0],
    "EMPNHENMFHO": [1.0, 0.5, 0.25]
  },
  {
    "HBKLPLNFEFK": "Barbara_WetShield",
    "BPLCOBLEJIC": 2.5,
    "CEICNNDDDFO": [
      1.0, 0.0, 0.0, 1.0, 0.0, 0.0, 0.0, 0.0, 0.0, 0.0, 0.0, 0.0, 0.0, 0.0, 0.0,
      0.0, 0.0, 0.0, 0.0, 0.0, 0.0, 0.0, 0.0, 0.0
    ],
    "GEHMAHLOIDP": [
      1.0, 1.0, 1.0, 1.0, 1.0, 1.0, 1.0, 1.0, 1.0, 1.0, 1.0, 1.0, 1.0, 1.0
    ],
    "EMPNHENMFHO": [
      1.0, 1.0, 1.0, 1.0, 1.0, 1.0, 1.0, 1.0, 1.0, 1.0, 1.0, 1.0, 1.0, 1.0, 1.0
    ]
  },
  {
    "HBKLPLNFEFK": "Wanderer_PermanentSkill_2",
    "BPLCOBLEJIC": 1.0,
    "CEICNNDDDFO": [
      1.0, 0.0, 0.0, 0.0, 0.0, 0.0, 0.0, 0.0, 0.0, 0.0, 0.0, 0.0, 0.0, 0.0, 0.0,
      0.0, 0.0, 0.0, 0.0, 0.0
    ],
    "GEHMAHLOIDP": [
      1.0, 1.0, 1.0, 1.0, 1.0, 1.0, 1.0, 1.0, 1.0, 1.0, 1.0, 1.0, 1.0, 1.0
    ],
    "EMPNHENMFHO": [
      1.0, 1.0, 1.0, 1.0, 1.0, 1.0, 1.0, 1.0, 1.0, 1.0, 1.0, 1.0, 1.0, 1.0, 1.0
    ]
  },
  {
    "HBKLPLNFEFK": "Wanderer_Constellation_6",
    "BPLCOBLEJIC": 2.0,
    "CEICNNDDDFO": [
      1.0, 0.0, 0.0, 0.0, 0.0, 0.0, 0.0, 0.0, 0.0, 0.0, 0.0, 0.0, 0.0, 0.0, 0.0,
      0.0, 0.0, 0.0, 0.0, 0.0
    ],
    "GEHMAHLOIDP": [
      1.0, 1.0, 1.0, 1.0, 1.0, 1.0, 1.0, 1.0, 1.0, 1.0, 1.0, 1.0, 1.0, 1.0
    ],
    "EMPNHENMFHO": [
      1.0, 1.0, 1.0, 1.0, 1.0, 1.0, 1.0, 1.0, 1.0, 1.0, 1.0, 1.0, 1.0, 1.0, 1.0
    ]
  },
  {
    "HBKLPLNFEFK": "Sandworm_Stage02_TailStormAttack",
    "BPLCOBLEJIC": 4.0,
    "CEICNNDDDFO": [1.0, 1.0, 1.0, 1.0, 1.0, 1.0, 1.0, 1.0, 1.0, 1.0],
    "GEHMAHLOIDP": [1.0, 1.0, 1.0, 1.0, 1.0, 1.0, 1.0, 1.0, 1.0, 1.0],
    "EMPNHENMFHO": [
      1.0, 0.25, 0.125, 0.125, 0.009999999776482582, 0.009999999776482582,
      0.009999999776482582, 0.009999999776482582, 0.009999999776482582,
      0.009999999776482582
    ]
  },
  {
    "HBKLPLNFEFK": "Sandworm_Stage02_DrillRushAttackBullet",
    "BPLCOBLEJIC": 2.0,
    "CEICNNDDDFO": [1.0, 1.0, 1.0, 1.0, 1.0, 1.0],
    "GEHMAHLOIDP": [1.0, 1.0, 1.0, 1.0, 1.0, 1.0],
    "EMPNHENMFHO": [
      1.0, 0.5, 0.20000000298023224, 0.10000000149011612, 0.10000000149011612,
      0.10000000149011612
    ]
  },
  {
    "HBKLPLNFEFK": "Sandworm_Stage02_TailVerticalShootBullet",
    "BPLCOBLEJIC": 2.0,
    "CEICNNDDDFO": [1.0, 1.0, 1.0, 1.0, 1.0, 1.0, 1.0, 1.0],
    "GEHMAHLOIDP": [1.0, 1.0, 1.0, 1.0, 1.0, 1.0, 1.0, 1.0],
    "EMPNHENMFHO": [
      1.0, 0.25, 0.125, 0.125, 0.009999999776482582, 0.009999999776482582,
      0.009999999776482582, 0.009999999776482582
    ]
  },
  {
    "HBKLPLNFEFK": "Sandworm_Stage02_FlyingAttackBullet",
    "BPLCOBLEJIC": 7.0,
    "CEICNNDDDFO": [1.0, 1.0, 1.0, 1.0, 1.0, 1.0, 1.0],
    "GEHMAHLOIDP": [1.0, 1.0, 1.0, 1.0, 1.0, 1.0, 1.0],
    "EMPNHENMFHO": [
      1.0, 0.5, 0.20000000298023224, 0.10000000149011612, 0.10000000149011612,
      0.10000000149011612, 0.009999999776482582
    ]
  },
  {
    "HBKLPLNFEFK": "Sandworm_Stage01_ShootAttackBullet",
    "BPLCOBLEJIC": 3.0,
    "CEICNNDDDFO": [1.0, 1.0, 1.0, 1.0, 1.0, 1.0],
    "GEHMAHLOIDP": [1.0, 1.0, 1.0, 1.0, 1.0, 1.0],
    "EMPNHENMFHO": [
      1.0, 1.0, 0.5, 0.5, 0.009999999776482582, 0.009999999776482582
    ]
  },
  {
    "HBKLPLNFEFK": "Eremite_Dancer_BoomerangBullet",
    "BPLCOBLEJIC": 0.5,
    "CEICNNDDDFO": [1.0, 1.0],
    "GEHMAHLOIDP": [1.0, 1.0],
    "EMPNHENMFHO": [1.0, 0.25]
  },
  {
    "HBKLPLNFEFK": "Eremite_Chrysopelea_ComboAttack",
    "BPLCOBLEJIC": 2.0,
    "CEICNNDDDFO": [
      1.0, 1.0, 0.5, 0.5, 0.10000000149011612, 0.10000000149011612,
      0.10000000149011612
    ],
    "GEHMAHLOIDP": [1.0, 1.0, 1.0, 1.0, 1.0, 1.0, 1.0],
    "EMPNHENMFHO": [
      1.0, 1.0, 0.5, 0.5, 0.10000000149011612, 0.10000000149011612,
      0.10000000149011612
    ]
  },
  {
    "HBKLPLNFEFK": "Eremite_Oracle_FunneAttack",
    "BPLCOBLEJIC": 2.0,
    "CEICNNDDDFO": [1.0, 0.25, 0.25, 0.25],
    "GEHMAHLOIDP": [1.0, 1.0, 1.0, 1.0],
    "EMPNHENMFHO": [1.0, 0.25, 0.25, 0.25]
  },
  {
    "HBKLPLNFEFK": "Vulture_Sacred_Attack05",
    "BPLCOBLEJIC": 2.0,
    "CEICNNDDDFO": [
      1.0, 1.0, 0.5, 0.25, 0.10000000149011612, 0.10000000149011612,
      0.10000000149011612, 0.10000000149011612, 0.10000000149011612,
      0.10000000149011612, 0.10000000149011612, 0.10000000149011612,
      0.10000000149011612, 0.10000000149011612, 0.10000000149011612,
      0.10000000149011612
    ],
    "GEHMAHLOIDP": [
      1.0, 1.0, 0.5, 0.25, 0.10000000149011612, 0.10000000149011612,
      0.10000000149011612, 0.10000000149011612, 0.10000000149011612,
      0.10000000149011612, 0.10000000149011612, 0.10000000149011612,
      0.10000000149011612, 0.10000000149011612, 0.10000000149011612,
      0.10000000149011612
    ],
    "EMPNHENMFHO": [
      1.0, 1.0, 0.5, 0.25, 0.10000000149011612, 0.10000000149011612,
      0.10000000149011612, 0.10000000149011612, 0.10000000149011612,
      0.10000000149011612, 0.10000000149011612, 0.10000000149011612,
      0.10000000149011612, 0.10000000149011612, 0.10000000149011612,
      0.10000000149011612
    ]
  },
  {
    "HBKLPLNFEFK": "Hilistray_Water_SlimeAtk",
    "BPLCOBLEJIC": 1.0,
    "CEICNNDDDFO": [1.0, 0.5, 0.25, 0.0],
    "GEHMAHLOIDP": [1.0, 0.5, 0.25, 0.0],
    "EMPNHENMFHO": [1.0, 0.5, 0.25, 0.0]
  },
  {
    "HBKLPLNFEFK": "Hilistray_Water_SpecialAtk_Bubble",
    "BPLCOBLEJIC": 0.20000000298023224,
    "CEICNNDDDFO": [1.0, 0.0, 0.0, 0.0],
    "GEHMAHLOIDP": [1.0, 0.0, 0.0, 0.0],
    "EMPNHENMFHO": [1.0, 0.0, 0.0, 0.0]
  },
  {
    "HBKLPLNFEFK": "Hilistray_Wind_Syuriken01",
    "BPLCOBLEJIC": 0.5,
    "CEICNNDDDFO": [1.0, 0.0, 0.0, 0.0],
    "GEHMAHLOIDP": [1.0, 0.0, 0.0, 0.0],
    "EMPNHENMFHO": [1.0, 0.0, 0.0, 0.0]
  },
  {
    "HBKLPLNFEFK": "Hilistray_Wind_SpecialAtk",
    "BPLCOBLEJIC": 0.20000000298023224,
    "CEICNNDDDFO": [1.0, 0.0, 0.0, 0.0],
    "GEHMAHLOIDP": [1.0, 0.0, 0.0, 0.0],
    "EMPNHENMFHO": [1.0, 0.0, 0.0, 0.0]
  },
  {
    "HBKLPLNFEFK": "Darkwraith_Fat_Rock_Whirlwind",
    "BPLCOBLEJIC": 4.0,
    "CEICNNDDDFO": [1.0, 1.0, 1.0, 1.0, 1.0],
    "GEHMAHLOIDP": [1.0, 1.0, 1.0, 1.0, 1.0],
    "EMPNHENMFHO": [
      1.0, 0.15000000596046448, 0.15000000596046448, 0.15000000596046448,
      0.15000000596046448
    ]
  },
  {
    "HBKLPLNFEFK": "Alhatham_ForlornLotus",
    "BPLCOBLEJIC": 12.0,
    "CEICNNDDDFO": [
      1.0, 0.0, 1.0, 0.0, 1.0, 0.0, 1.0, 0.0, 1.0, 0.0, 1.0, 0.0, 1.0, 0.0, 1.0,
      0.0, 1.0, 0.0, 1.0, 0.0, 1.0, 0.0, 1.0, 0.0
    ],
    "GEHMAHLOIDP": [
      1.0, 1.0, 1.0, 1.0, 1.0, 1.0, 1.0, 1.0, 1.0, 1.0, 1.0, 1.0, 1.0, 1.0
    ],
    "EMPNHENMFHO": [
      1.0, 1.0, 1.0, 1.0, 1.0, 1.0, 1.0, 1.0, 1.0, 1.0, 1.0, 1.0, 1.0, 1.0, 1.0
    ]
  },
  {
    "HBKLPLNFEFK": "Invoker_Archdeacon_MagicBall",
    "BPLCOBLEJIC": 2.0,
    "CEICNNDDDFO": [1.0, 1.0, 1.0, 1.0],
    "GEHMAHLOIDP": [1.0, 1.0, 1.0, 1.0],
    "EMPNHENMFHO": [1.0, 0.5, 0.20000000298023224, 0.20000000298023224]
  },
  {
    "HBKLPLNFEFK": "Yaoyao_GrassAttack",
    "BPLCOBLEJIC": 2.5,
    "CEICNNDDDFO": [1.0, 0.0, 0.0, 0.0, 0.0, 0.0],
    "GEHMAHLOIDP": [1.0, 1.0, 1.0, 1.0, 1.0, 1.0],
    "EMPNHENMFHO": [1.0, 1.0, 1.0, 1.0, 1.0, 1.0]
  },
  {
    "HBKLPLNFEFK": "Yaoyao_ElementalBurst",
    "BPLCOBLEJIC": 1.5,
    "CEICNNDDDFO": [1.0, 0.0, 0.0, 0.0, 0.0, 0.0],
    "GEHMAHLOIDP": [1.0, 1.0, 1.0, 1.0, 1.0, 1.0],
    "EMPNHENMFHO": [1.0, 1.0, 1.0, 1.0, 1.0, 1.0]
  },
  {
    "HBKLPLNFEFK": "Alhatham_ExtraAttack",
    "BPLCOBLEJIC": 2.0,
    "CEICNNDDDFO": [
      1.0, 0.0, 0.0, 0.0, 0.0, 0.0, 0.0, 0.0, 0.0, 0.0, 0.0, 0.0, 0.0, 0.0, 0.0
    ],
    "GEHMAHLOIDP": [
      1.0, 1.0, 1.0, 1.0, 1.0, 1.0, 1.0, 1.0, 1.0, 1.0, 1.0, 1.0, 1.0, 1.0
    ],
    "EMPNHENMFHO": [
      1.0, 1.0, 1.0, 1.0, 1.0, 1.0, 1.0, 1.0, 1.0, 1.0, 1.0, 1.0, 1.0, 1.0, 1.0
    ]
  },
  {
    "HBKLPLNFEFK": "FungusFightV2_Seq1",
    "BPLCOBLEJIC": 2.5,
    "CEICNNDDDFO": [1.0, 0.0, 0.0, 0.0, 0.0, 0.0, 0.0],
    "GEHMAHLOIDP": [1.0, 1.0, 1.0, 1.0, 1.0, 1.0, 1.0],
    "EMPNHENMFHO": [1.0, 1.0, 1.0, 1.0, 1.0, 1.0, 1.0]
  },
  {
    "HBKLPLNFEFK": "FungusFightV2_Seq2",
    "BPLCOBLEJIC": 2.5,
    "CEICNNDDDFO": [1.0, 0.0, 1.0, 0.0, 0.0, 0.0, 0.0],
    "GEHMAHLOIDP": [1.0, 1.0, 1.0, 1.0, 1.0, 1.0, 1.0],
    "EMPNHENMFHO": [1.0, 1.0, 1.0, 1.0, 1.0, 1.0, 1.0]
  },
  {
    "HBKLPLNFEFK": "Tortoise_Attack",
    "BPLCOBLEJIC": 2.0,
    "CEICNNDDDFO": [1.0, 1.0, 1.0, 1.0],
    "GEHMAHLOIDP": [1.0, 1.0, 1.0, 1.0],
    "EMPNHENMFHO": [1.0, 0.5, 0.20000000298023224, 0.10000000149011612]
  },
  {
    "HBKLPLNFEFK": "Apep_Stage1_CrashAttack",
    "BPLCOBLEJIC": 5.0,
    "CEICNNDDDFO": [1.0, 0.0, 0.0, 0.0],
    "GEHMAHLOIDP": [1.0, 0.0, 0.0, 0.0],
    "EMPNHENMFHO": [1.0, 0.5, 0.10000000149011612, 0.10000000149011612]
  },
  {
    "HBKLPLNFEFK": "Apep_Bullet_Attenuation",
    "BPLCOBLEJIC": 5.0,
    "CEICNNDDDFO": [
      1.0, 0.5, 0.25, 0.10000000149011612, 0.10000000149011612,
      0.10000000149011612, 0.10000000149011612, 0.10000000149011612,
      0.10000000149011612, 0.10000000149011612, 0.10000000149011612,
      0.10000000149011612, 0.10000000149011612, 0.10000000149011612,
      0.10000000149011612
    ],
    "GEHMAHLOIDP": [
      1.0, 0.5, 0.25, 0.10000000149011612, 0.10000000149011612,
      0.10000000149011612, 0.10000000149011612, 0.10000000149011612,
      0.10000000149011612, 0.10000000149011612, 0.10000000149011612,
      0.10000000149011612, 0.10000000149011612, 0.10000000149011612,
      0.10000000149011612
    ],
    "EMPNHENMFHO": [
      1.0, 0.5, 0.25, 0.10000000149011612, 0.10000000149011612,
      0.10000000149011612, 0.10000000149011612, 0.10000000149011612,
      0.10000000149011612, 0.10000000149011612, 0.10000000149011612,
      0.10000000149011612, 0.10000000149011612, 0.10000000149011612,
      0.10000000149011612
    ]
  },
  {
    "HBKLPLNFEFK": "Apep_Stage3_UltAttack",
    "BPLCOBLEJIC": 3.0,
    "CEICNNDDDFO": [
      1.0, 0.0, 0.0, 0.0, 0.0, 0.0, 0.0, 0.0, 0.0, 0.0, 0.0, 0.0, 0.0, 0.0, 0.0,
      0.0, 0.0, 0.0, 0.0, 0.0, 0.0, 0.0, 0.0, 0.0
    ],
    "GEHMAHLOIDP": [
      1.0, 0.0, 0.0, 0.0, 0.0, 0.0, 0.0, 0.0, 0.0, 0.0, 0.0, 0.0, 0.0, 0.0, 0.0,
      0.0, 0.0, 0.0, 0.0, 0.0, 0.0, 0.0, 0.0, 0.0
    ],
    "EMPNHENMFHO": [
      1.0, 0.0, 0.0, 0.0, 0.0, 0.0, 0.0, 0.0, 0.0, 0.0, 0.0, 0.0, 0.0, 0.0, 0.0,
      0.0, 0.0, 0.0, 0.0, 0.0, 0.0, 0.0, 0.0, 0.0
    ]
  },
  {
    "HBKLPLNFEFK": "Panther_Sacred_Attack03",
    "BPLCOBLEJIC": 1.0,
    "CEICNNDDDFO": [1.0, 0.0, 0.0, 0.0, 0.0],
    "GEHMAHLOIDP": [1.0, 0.0, 0.0, 0.0, 0.0],
    "EMPNHENMFHO": [
      1.0, 0.5, 0.20000000298023224, 0.10000000149011612, 0.10000000149011612
    ]
  },
  {
    "HBKLPLNFEFK": "Baizhuer_ElementalArt",
    "BPLCOBLEJIC": 2.0,
    "CEICNNDDDFO": [1.0, 0.0, 0.0, 0.0, 0.0, 0.0, 0.0, 0.0, 0.0, 0.0, 0.0],
    "GEHMAHLOIDP": [
      1.0, 1.0, 1.0, 1.0, 1.0, 1.0, 1.0, 1.0, 1.0, 1.0, 1.0, 1.0, 1.0, 1.0
    ],
    "EMPNHENMFHO": [
      1.0, 1.0, 1.0, 1.0, 1.0, 1.0, 1.0, 1.0, 1.0, 1.0, 1.0, 1.0, 1.0, 1.0, 1.0
    ]
  },
  {
    "HBKLPLNFEFK": "Baizhuer_Talent",
    "BPLCOBLEJIC": 4.0,
    "CEICNNDDDFO": [1.0, 0.0, 0.0, 0.0, 0.0, 0.0, 0.0, 0.0, 0.0, 0.0, 0.0],
    "GEHMAHLOIDP": [
      1.0, 1.0, 1.0, 1.0, 1.0, 1.0, 1.0, 1.0, 1.0, 1.0, 1.0, 1.0, 1.0, 1.0
    ],
    "EMPNHENMFHO": [
      1.0, 1.0, 1.0, 1.0, 1.0, 1.0, 1.0, 1.0, 1.0, 1.0, 1.0, 1.0, 1.0, 1.0, 1.0
    ]
  },
  {
    "HBKLPLNFEFK": "Apep_Underling_ChaseAttack",
    "BPLCOBLEJIC": 2.0,
    "CEICNNDDDFO": [1.0, 0.0, 0.0, 0.0],
    "GEHMAHLOIDP": [1.0, 1.0, 1.0, 1.0],
    "EMPNHENMFHO": [1.0, 0.5, 0.30000001192092896, 0.20000000298023224]
  }
]
