[
  {
    "avatarId": 10000007,
    "GDKMJAFHCMK": 15495111142068037952,
    "gachaImageNameHash": 11368753781129413801
  },
  {
    "avatarId": 10000005,
    "GDKMJAFHCMK": 16458621277888938549,
    "gachaImageNameHash": 12962133899591338672
  }
]
