[
  {
    "id": 1,
    "openDay": 1,
    "watcherIdList": [],
    "EONMHCOLJFN": 2269283823,
    "EPAGMCDAIHD": 725128107,
    "LGJJOAJPJMP": 3671958410,
    "KFJNABOCKPF": 7265203,
    "pushTipsId": 6021
  },
  {
    "id": 2,
    "openDay": 3,
    "watcherIdList": [
      1200631, 1200632, 1200633, 1200637, 1200638, 1200641, 1200642
    ],
    "EONMHCOLJFN": 1328431127,
    "EPAGMCDAIHD": 1787906595,
    "LGJJOAJPJMP": 1059429970,
    "KFJNABOCKPF": 7265302,
    "pushTipsId": 6022
  },
  {
    "id": 3,
    "openDay": 6,
    "watcherIdList": [
      1200651, 1200652, 1200653, 1200667, 1200668, 1200671, 1200672
    ],
    "EONMHCOLJFN": 3735024671,
    "EPAGMCDAIHD": 3064413427,
    "LGJJOAJPJMP": 3149573138,
    "KFJNABOCKPF": 7265402,
    "pushTipsId": 6023
  },
  {
    "id": 4,
    "openDay": 9,
    "watcherIdList": [],
    "EONMHCOLJFN": 235080583,
    "EPAGMCDAIHD": 3642297979,
    "LGJJOAJPJMP": 332991058,
    "KFJNABOCKPF": 7265504,
    "pushTipsId": 6024
  }
]
