[
  {
    "id": 1,
    "maxLevel": 3,
    "JAAKOICLHIF": 41645015,
    "JBIACLIKKCG": 2557416247,
    "descParam": ["30;80;20;3", "30;100;20;3", "30;120;20;3"],
    "PLINGINOIHO": 4886234668124458039,
    "unlockWorldLevel": 1002,
    "HPELBCDLBHD": [100301, 200301],
    "PNGCDIIJOMG": "BRICK_BREAKER_TYPE_FAST_BALL"
  },
  {
    "id": 2,
    "maxLevel": 1,
    "JAAKOICLHIF": 965984815,
    "JBIACLIKKCG": 1126073943,
    "descParam": ["3;30;4;50", "", ""],
    "PLINGINOIHO": 17388950997036801191,
    "HPELBCDLBHD": [],
    "PNGCDIIJOMG": "BRICK_BREAKER_TYPE_EXTRA_BALL"
  },
  {
    "id": 3,
    "maxLevel": 3,
    "JAAKOICLHIF": 3250090343,
    "JBIACLIKKCG": 3197077007,
    "descParam": ["30;100", "30;125", "30;150"],
    "PLINGINOIHO": 13018450851885065537,
    "unlockWorldLevel": 1001,
    "HPELBCDLBHD": [100301, 200301],
    "PNGCDIIJOMG": "BRICK_BREAKER_TYPE_BONUS"
  },
  {
    "id": 4,
    "maxLevel": 1,
    "MFOEFPKAMCK": 8,
    "JAAKOICLHIF": 1881370423,
    "JBIACLIKKCG": 190201727,
    "descParam": ["5;6;4", "", ""],
    "PLINGINOIHO": 16589178105058227634,
    "HPELBCDLBHD": [],
    "PNGCDIIJOMG": "BRICK_BREAKER_TYPE_MISSILE"
  },
  {
    "id": 5,
    "maxLevel": 1,
    "JAAKOICLHIF": 2498217095,
    "JBIACLIKKCG": 2861919423,
    "descParam": ["10", "", ""],
    "PLINGINOIHO": 18112754747234720910,
    "unlockWorldLevel": 1001,
    "HPELBCDLBHD": [],
    "PNGCDIIJOMG": "BRICK_BREAKER_TYPE_WIDER_PADDLE"
  },
  {
    "id": 6,
    "maxLevel": 1,
    "JAAKOICLHIF": 3591731935,
    "JBIACLIKKCG": 517651095,
    "descParam": ["30;6;60", "", ""],
    "PLINGINOIHO": 3988254612345434203,
    "HPELBCDLBHD": [],
    "PNGCDIIJOMG": "BRICK_BREAKER_TYPE_SAVER_WALL"
  },
  {
    "id": 7,
    "maxLevel": 1,
    "JAAKOICLHIF": 403874399,
    "JBIACLIKKCG": 1452718167,
    "descParam": ["20", "", ""],
    "PLINGINOIHO": 2112627261773074659,
    "unlockWorldLevel": 1001,
    "HPELBCDLBHD": [],
    "PNGCDIIJOMG": "BRICK_BREAKER_TYPE_FAST_AVATAR"
  },
  {
    "id": 8,
    "maxLevel": 2,
    "JAAKOICLHIF": 3157152087,
    "JBIACLIKKCG": 468463127,
    "descParam": ["10;8;4", "10;10;4", ""],
    "PLINGINOIHO": 16589178105058227634,
    "unlockWorldLevel": 1002,
    "HPELBCDLBHD": [100301],
    "PNGCDIIJOMG": "BRICK_BREAKER_TYPE_SUPER_MISSILE"
  }
]
