[
  {
    "monsterID": 28030301,
    "JNCMENLOHAA": [
      {
        "IGIMFOELABE": 1001,
        "dropID": 21330001
      },
      {
        "IGIMFOELABE": 1002
      },
      {
        "IGIMFOELABE": 1003,
        "itemID": 2800
      },
      {},
      {}
    ]
  },
  {
    "monsterID": 28030302,
    "JNCMENLOHAA": [
      {
        "IGIMFOELABE": 1001,
        "dropID": 21330002
      },
      {
        "IGIMFOELABE": 1002
      },
      {
        "IGIMFOELABE": 1003,
        "itemID": 2800
      },
      {},
      {}
    ]
  },
  {
    "monsterID": 28030303,
    "JNCMENLOHAA": [
      {
        "IGIMFOELABE": 1001,
        "dropID": 21330003
      },
      {
        "IGIMFOELABE": 1002
      },
      {
        "IGIMFOELABE": 1003,
        "itemID": 2800
      },
      {},
      {}
    ]
  },
  {
    "monsterID": 28030304,
    "JNCMENLOHAA": [
      {
        "IGIMFOELABE": 1001,
        "dropID": 21330004
      },
      {
        "IGIMFOELABE": 1002
      },
      {
        "IGIMFOELABE": 1003,
        "itemID": 2800
      },
      {},
      {}
    ]
  },
  {
    "monsterID": 28030305,
    "JNCMENLOHAA": [
      {
        "IGIMFOELABE": 1001,
        "dropID": 21330005
      },
      {
        "IGIMFOELABE": 1002
      },
      {
        "IGIMFOELABE": 1003,
        "itemID": 2800
      },
      {},
      {}
    ]
  },
  {
    "monsterID": 28030401,
    "JNCMENLOHAA": [
      {
        "IGIMFOELABE": 1001,
        "dropID": 21330006
      },
      {
        "IGIMFOELABE": 1002
      },
      {
        "IGIMFOELABE": 1003,
        "itemID": 2800
      },
      {},
      {}
    ]
  },
  {
    "monsterID": 28030402,
    "JNCMENLOHAA": [
      {
        "IGIMFOELABE": 1001,
        "dropID": 21330007
      },
      {
        "IGIMFOELABE": 1002
      },
      {
        "IGIMFOELABE": 1003,
        "itemID": 2800
      },
      {},
      {}
    ]
  },
  {
    "monsterID": 28030403,
    "JNCMENLOHAA": [
      {
        "IGIMFOELABE": 1001,
        "dropID": 21330008
      },
      {
        "IGIMFOELABE": 1002
      },
      {
        "IGIMFOELABE": 1003,
        "itemID": 2800
      },
      {},
      {}
    ]
  },
  {
    "monsterID": 28030404,
    "JNCMENLOHAA": [
      {
        "IGIMFOELABE": 1001,
        "dropID": 21330009
      },
      {
        "IGIMFOELABE": 1002
      },
      {
        "IGIMFOELABE": 1003,
        "itemID": 2800
      },
      {},
      {}
    ]
  },
  {
    "monsterID": 28030102,
    "JNCMENLOHAA": [
      {
        "IGIMFOELABE": 1001,
        "dropID": 21330010
      },
      {
        "IGIMFOELABE": 1002
      },
      {
        "IGIMFOELABE": 1003,
        "itemID": 2800
      },
      {},
      {}
    ]
  },
  {
    "monsterID": 28030306,
    "JNCMENLOHAA": [
      {
        "IGIMFOELABE": 1001,
        "dropID": 21330011
      },
      {
        "IGIMFOELABE": 1002
      },
      {
        "IGIMFOELABE": 1003,
        "itemID": 2800
      },
      {},
      {}
    ]
  },
  {
    "monsterID": 28020101,
    "JNCMENLOHAA": [
      {
        "IGIMFOELABE": 1001,
        "dropID": 21330012
      },
      {
        "IGIMFOELABE": 1002
      },
      {
        "IGIMFOELABE": 1003,
        "itemID": 2800
      },
      {},
      {}
    ]
  },
  {
    "monsterID": 28020102,
    "JNCMENLOHAA": [
      {
        "IGIMFOELABE": 1001,
        "dropID": 21330013
      },
      {
        "IGIMFOELABE": 1002
      },
      {
        "IGIMFOELABE": 1003,
        "itemID": 2800
      },
      {},
      {}
    ]
  },
  {
    "monsterID": 28020701,
    "JNCMENLOHAA": [
      {
        "IGIMFOELABE": 1001,
        "dropID": 21330014
      },
      {
        "IGIMFOELABE": 1002
      },
      {
        "IGIMFOELABE": 1003,
        "itemID": 2800
      },
      {},
      {}
    ]
  },
  {
    "monsterID": 28020201,
    "JNCMENLOHAA": [
      {
        "IGIMFOELABE": 1001,
        "dropID": 21330015
      },
      {
        "IGIMFOELABE": 1002
      },
      {
        "IGIMFOELABE": 1003,
        "itemID": 2800
      },
      {},
      {}
    ]
  },
  {
    "monsterID": 28020303,
    "JNCMENLOHAA": [
      {
        "IGIMFOELABE": 1001,
        "dropID": 21330016
      },
      {
        "IGIMFOELABE": 1002
      },
      {
        "IGIMFOELABE": 1003,
        "itemID": 2800
      },
      {},
      {}
    ]
  },
  {
    "monsterID": 28020305,
    "JNCMENLOHAA": [
      {
        "IGIMFOELABE": 1001,
        "dropID": 21330016
      },
      {
        "IGIMFOELABE": 1002
      },
      {
        "IGIMFOELABE": 1003,
        "itemID": 2800
      },
      {},
      {}
    ]
  },
  {
    "monsterID": 28020501,
    "JNCMENLOHAA": [
      {
        "IGIMFOELABE": 1001,
        "dropID": 21330017
      },
      {
        "IGIMFOELABE": 1002
      },
      {
        "IGIMFOELABE": 1003,
        "itemID": 2800
      },
      {},
      {}
    ]
  },
  {
    "monsterID": 28020503,
    "JNCMENLOHAA": [
      {
        "IGIMFOELABE": 1001,
        "dropID": 21330018
      },
      {
        "IGIMFOELABE": 1002
      },
      {
        "IGIMFOELABE": 1003,
        "itemID": 2800
      },
      {},
      {}
    ]
  },
  {
    "monsterID": 28020601,
    "JNCMENLOHAA": [
      {
        "IGIMFOELABE": 1001,
        "dropID": 21330019
      },
      {
        "IGIMFOELABE": 1002
      },
      {
        "IGIMFOELABE": 1003,
        "itemID": 2800
      },
      {},
      {}
    ]
  },
  {
    "monsterID": 28020602,
    "JNCMENLOHAA": [
      {
        "IGIMFOELABE": 1001,
        "dropID": 21330020
      },
      {
        "IGIMFOELABE": 1002
      },
      {
        "IGIMFOELABE": 1003,
        "itemID": 2800
      },
      {},
      {}
    ]
  },
  {
    "monsterID": 28020603,
    "JNCMENLOHAA": [
      {
        "IGIMFOELABE": 1001,
        "dropID": 21330021
      },
      {
        "IGIMFOELABE": 1002
      },
      {
        "IGIMFOELABE": 1003,
        "itemID": 2800
      },
      {},
      {}
    ]
  },
  {
    "monsterID": 28050101,
    "JNCMENLOHAA": [
      {
        "IGIMFOELABE": 1001,
        "dropID": 21330022
      },
      {
        "IGIMFOELABE": 1002
      },
      {
        "IGIMFOELABE": 1003,
        "itemID": 2800
      },
      {},
      {}
    ]
  },
  {
    "monsterID": 28050104,
    "JNCMENLOHAA": [
      {
        "IGIMFOELABE": 1001,
        "dropID": 21330023
      },
      {
        "IGIMFOELABE": 1002
      },
      {
        "IGIMFOELABE": 1003,
        "itemID": 2800
      },
      {},
      {}
    ]
  },
  {
    "monsterID": 28050103,
    "JNCMENLOHAA": [
      {
        "IGIMFOELABE": 1001,
        "dropID": 21330024
      },
      {
        "IGIMFOELABE": 1002
      },
      {
        "IGIMFOELABE": 1003,
        "itemID": 2800
      },
      {},
      {}
    ]
  },
  {
    "monsterID": 28050102,
    "JNCMENLOHAA": [
      {
        "IGIMFOELABE": 1001,
        "dropID": 21330025
      },
      {
        "IGIMFOELABE": 1002
      },
      {
        "IGIMFOELABE": 1003,
        "itemID": 2800
      },
      {},
      {}
    ]
  },
  {
    "monsterID": 28010204,
    "JNCMENLOHAA": [
      {
        "IGIMFOELABE": 1001,
        "dropID": 21330026
      },
      {
        "IGIMFOELABE": 1002
      },
      {
        "IGIMFOELABE": 1003,
        "itemID": 2800
      },
      {},
      {}
    ]
  },
  {
    "monsterID": 28010205,
    "JNCMENLOHAA": [
      {
        "IGIMFOELABE": 1001,
        "dropID": 21330027
      },
      {
        "IGIMFOELABE": 1002
      },
      {
        "IGIMFOELABE": 1003,
        "itemID": 2800
      },
      {},
      {}
    ]
  },
  {
    "monsterID": 28010206,
    "JNCMENLOHAA": [
      {
        "IGIMFOELABE": 1001,
        "dropID": 21330028
      },
      {
        "IGIMFOELABE": 1002
      },
      {
        "IGIMFOELABE": 1003,
        "itemID": 2800
      },
      {},
      {}
    ]
  },
  {
    "monsterID": 28010301,
    "JNCMENLOHAA": [
      {
        "IGIMFOELABE": 1001,
        "dropID": 21330029
      },
      {
        "IGIMFOELABE": 1002
      },
      {
        "IGIMFOELABE": 1003,
        "itemID": 2800
      },
      {},
      {}
    ]
  },
  {
    "monsterID": 28010302,
    "JNCMENLOHAA": [
      {
        "IGIMFOELABE": 1001,
        "dropID": 21330030
      },
      {
        "IGIMFOELABE": 1002
      },
      {
        "IGIMFOELABE": 1003,
        "itemID": 2800
      },
      {},
      {}
    ]
  },
  {
    "monsterID": 28010303,
    "JNCMENLOHAA": [
      {
        "IGIMFOELABE": 1001,
        "dropID": 21330031
      },
      {
        "IGIMFOELABE": 1002
      },
      {
        "IGIMFOELABE": 1003,
        "itemID": 2800
      },
      {},
      {}
    ]
  },
  {
    "monsterID": 28010101,
    "JNCMENLOHAA": [
      {
        "IGIMFOELABE": 1001,
        "dropID": 21330032
      },
      {
        "IGIMFOELABE": 1002
      },
      {
        "IGIMFOELABE": 1003,
        "itemID": 2800
      },
      {},
      {}
    ]
  },
  {
    "monsterID": 28010102,
    "JNCMENLOHAA": [
      {
        "IGIMFOELABE": 1001,
        "dropID": 21330033
      },
      {
        "IGIMFOELABE": 1002
      },
      {
        "IGIMFOELABE": 1003,
        "itemID": 2800
      },
      {},
      {}
    ]
  },
  {
    "monsterID": 28010103,
    "JNCMENLOHAA": [
      {
        "IGIMFOELABE": 1001,
        "dropID": 21330034
      },
      {
        "IGIMFOELABE": 1002
      },
      {
        "IGIMFOELABE": 1003,
        "itemID": 2800
      },
      {},
      {}
    ]
  },
  {
    "monsterID": 28010104,
    "JNCMENLOHAA": [
      {
        "IGIMFOELABE": 1001,
        "dropID": 21330035
      },
      {
        "IGIMFOELABE": 1002
      },
      {
        "IGIMFOELABE": 1003,
        "itemID": 2800
      },
      {},
      {}
    ]
  },
  {
    "monsterID": 28010105,
    "JNCMENLOHAA": [
      {
        "IGIMFOELABE": 1001,
        "dropID": 21330036
      },
      {
        "IGIMFOELABE": 1002
      },
      {
        "IGIMFOELABE": 1003,
        "itemID": 2800
      },
      {},
      {}
    ]
  },
  {
    "monsterID": 28010201,
    "JNCMENLOHAA": [
      {
        "IGIMFOELABE": 1001,
        "dropID": 21330037
      },
      {
        "IGIMFOELABE": 1002
      },
      {
        "IGIMFOELABE": 1003,
        "itemID": 2800
      },
      {},
      {}
    ]
  },
  {
    "monsterID": 28010202,
    "JNCMENLOHAA": [
      {
        "IGIMFOELABE": 1001,
        "dropID": 21330038
      },
      {
        "IGIMFOELABE": 1002
      },
      {
        "IGIMFOELABE": 1003,
        "itemID": 2800
      },
      {},
      {}
    ]
  },
  {
    "monsterID": 28010203,
    "JNCMENLOHAA": [
      {
        "IGIMFOELABE": 1001,
        "dropID": 21330039
      },
      {
        "IGIMFOELABE": 1002
      },
      {
        "IGIMFOELABE": 1003,
        "itemID": 2800
      },
      {},
      {}
    ]
  },
  {
    "monsterID": 28010207,
    "JNCMENLOHAA": [
      {
        "IGIMFOELABE": 1001,
        "dropID": 21330040
      },
      {
        "IGIMFOELABE": 1002
      },
      {
        "IGIMFOELABE": 1003,
        "itemID": 2800
      },
      {},
      {}
    ]
  },
  {
    "monsterID": 28010401,
    "JNCMENLOHAA": [
      {
        "IGIMFOELABE": 1001,
        "dropID": 21330041
      },
      {
        "IGIMFOELABE": 1002
      },
      {
        "IGIMFOELABE": 1003,
        "itemID": 2800
      },
      {},
      {}
    ]
  },
  {
    "monsterID": 28010402,
    "JNCMENLOHAA": [
      {
        "IGIMFOELABE": 1001,
        "dropID": 21330043
      },
      {
        "IGIMFOELABE": 1002
      },
      {
        "IGIMFOELABE": 1003,
        "itemID": 2800
      },
      {},
      {}
    ]
  },
  {
    "monsterID": 28010403,
    "JNCMENLOHAA": [
      {
        "IGIMFOELABE": 1001,
        "dropID": 21330042
      },
      {
        "IGIMFOELABE": 1002
      },
      {
        "IGIMFOELABE": 1003,
        "itemID": 2800
      },
      {},
      {}
    ]
  },
  {
    "monsterID": 28050105,
    "JNCMENLOHAA": [
      {
        "IGIMFOELABE": 1001,
        "dropID": 21330044
      },
      {
        "IGIMFOELABE": 1002
      },
      {
        "IGIMFOELABE": 1003,
        "itemID": 2800
      },
      {},
      {}
    ]
  },
  {
    "monsterID": 28050301,
    "JNCMENLOHAA": [
      {
        "IGIMFOELABE": 1001,
        "dropID": 21330045
      },
      {
        "IGIMFOELABE": 1002
      },
      {
        "IGIMFOELABE": 1003,
        "itemID": 2800
      },
      {},
      {}
    ]
  },
  {
    "monsterID": 28020605,
    "JNCMENLOHAA": [
      {
        "IGIMFOELABE": 1001,
        "dropID": 21330046
      },
      {
        "IGIMFOELABE": 1002
      },
      {
        "IGIMFOELABE": 1003,
        "itemID": 2800
      },
      {},
      {}
    ]
  },
  {
    "monsterID": 28050106,
    "JNCMENLOHAA": [
      {
        "IGIMFOELABE": 1001,
        "dropID": 21330049
      },
      {
        "IGIMFOELABE": 1002
      },
      {
        "IGIMFOELABE": 1003,
        "itemID": 2800
      },
      {},
      {}
    ]
  },
  {
    "monsterID": 28010304,
    "JNCMENLOHAA": [
      {
        "IGIMFOELABE": 1001,
        "dropID": 21330050
      },
      {
        "IGIMFOELABE": 1002
      },
      {
        "IGIMFOELABE": 1003,
        "itemID": 2800
      },
      {},
      {}
    ]
  },
  {
    "monsterID": 28010208,
    "JNCMENLOHAA": [
      {
        "IGIMFOELABE": 1001,
        "dropID": 21330051
      },
      {
        "IGIMFOELABE": 1002
      },
      {
        "IGIMFOELABE": 1003,
        "itemID": 2800
      },
      {},
      {}
    ]
  },
  {
    "monsterID": 28020313,
    "JNCMENLOHAA": [
      {
        "IGIMFOELABE": 1001,
        "dropID": 21330047
      },
      {
        "IGIMFOELABE": 1002
      },
      {
        "IGIMFOELABE": 1003,
        "itemID": 2800
      },
      {},
      {}
    ]
  },
  {
    "monsterID": 28020314,
    "JNCMENLOHAA": [
      {
        "IGIMFOELABE": 1001,
        "dropID": 21330048
      },
      {
        "IGIMFOELABE": 1002
      },
      {
        "IGIMFOELABE": 1003,
        "itemID": 2800
      },
      {},
      {}
    ]
  },
  {
    "monsterID": 28030313,
    "JNCMENLOHAA": [
      {
        "IGIMFOELABE": 1001,
        "dropID": 21330052
      },
      {
        "IGIMFOELABE": 1002
      },
      {
        "IGIMFOELABE": 1003,
        "itemID": 2800
      },
      {},
      {}
    ]
  },
  {
    "monsterID": 28050401,
    "JNCMENLOHAA": [
      {
        "IGIMFOELABE": 1001,
        "dropID": 21330055
      },
      {
        "IGIMFOELABE": 1002
      },
      {
        "IGIMFOELABE": 1003,
        "itemID": 2800
      },
      {},
      {}
    ]
  },
  {
    "monsterID": 28010404,
    "JNCMENLOHAA": [
      {
        "IGIMFOELABE": 1001,
        "dropID": 21330056
      },
      {
        "IGIMFOELABE": 1002
      },
      {
        "IGIMFOELABE": 1003,
        "itemID": 2800
      },
      {},
      {}
    ]
  },
  {
    "monsterID": 28020604,
    "JNCMENLOHAA": [
      {
        "IGIMFOELABE": 1001,
        "dropID": 21330054
      },
      {
        "IGIMFOELABE": 1002
      },
      {
        "IGIMFOELABE": 1003,
        "itemID": 2800
      },
      {},
      {}
    ]
  },
  {
    "monsterID": 28030104,
    "JNCMENLOHAA": [
      {
        "IGIMFOELABE": 1001,
        "dropID": 21330053
      },
      {
        "IGIMFOELABE": 1002
      },
      {
        "IGIMFOELABE": 1003,
        "itemID": 2800
      },
      {},
      {}
    ]
  },
  {
    "monsterID": 28020108,
    "JNCMENLOHAA": [
      {
        "IGIMFOELABE": 1001,
        "dropID": 21330057
      },
      {
        "IGIMFOELABE": 1002
      },
      {
        "IGIMFOELABE": 1003,
        "itemID": 2800
      },
      {},
      {}
    ]
  }
]
