[
  {
    "id": 1,
    "dayIndex": 1,
    "GOIMOLOLKJE": 17,
    "EKDMMLIAINL": 133004067,
    "draftId": 9001,
    "groupId": 133004067,
    "JNFKEFIDGAO": 51120101,
    "galleryId": 33001,
    "CCAKPBEKENP": 736,
    "LKCFDGIAPBK": [1, 2, 3],
    "watcherList": [1511201, 1511202, 1511203],
    "GMJNDIKOHDE": 40,
    "MPKEPCPHLON": 120,
    "levelNameTextMapHash": 864713191,
    "levelDescTextMapHash": 3853421037,
    "DKCDAOPPALE": 2087280238,
    "IDHNKLPIFHP": [1, 2, 3],
    "IICELGFBEEO": "ART/UI/Atlas/Activity/CoinCollect/UI_Img_CoinCollect_Scenes_01"
  },
  {
    "id": 2,
    "dayIndex": 2,
    "GOIMOLOLKJE": 14,
    "EKDMMLIAINL": 133113007,
    "draftId": 9002,
    "groupId": 133113007,
    "JNFKEFIDGAO": 51120102,
    "galleryId": 33002,
    "CCAKPBEKENP": 737,
    "LKCFDGIAPBK": [1, 2, 3, 4],
    "watcherList": [1511204, 1511205, 1511206],
    "GMJNDIKOHDE": 40,
    "MPKEPCPHLON": 120,
    "levelNameTextMapHash": 3301015959,
    "levelDescTextMapHash": 116959589,
    "DKCDAOPPALE": 4260288630,
    "IDHNKLPIFHP": [4, 5, 6, 7],
    "IICELGFBEEO": "ART/UI/Atlas/Activity/CoinCollect/UI_Img_CoinCollect_Scenes_02"
  },
  {
    "id": 3,
    "dayIndex": 3,
    "GOIMOLOLKJE": 13,
    "EKDMMLIAINL": 133304581,
    "draftId": 9003,
    "groupId": 133304581,
    "JNFKEFIDGAO": 51120103,
    "galleryId": 33003,
    "CCAKPBEKENP": 738,
    "LKCFDGIAPBK": [1, 2, 3, 4],
    "watcherList": [1511207, 1511208, 1511209],
    "GMJNDIKOHDE": 40,
    "MPKEPCPHLON": 120,
    "levelNameTextMapHash": 136192455,
    "levelDescTextMapHash": 4074246293,
    "DKCDAOPPALE": 1066871150,
    "IDHNKLPIFHP": [8, 9, 10],
    "IICELGFBEEO": "ART/UI/Atlas/Activity/CoinCollect/UI_Img_CoinCollect_Scenes_03"
  },
  {
    "id": 4,
    "dayIndex": 4,
    "GOIMOLOLKJE": 15,
    "EKDMMLIAINL": 133303665,
    "draftId": 9004,
    "groupId": 133303665,
    "JNFKEFIDGAO": 51120104,
    "galleryId": 33004,
    "CCAKPBEKENP": 739,
    "LKCFDGIAPBK": [1, 2, 3, 4, 5],
    "watcherList": [1511210, 1511211, 1511212],
    "GMJNDIKOHDE": 40,
    "MPKEPCPHLON": 120,
    "levelNameTextMapHash": 1209577615,
    "levelDescTextMapHash": 609642397,
    "DKCDAOPPALE": 4073747630,
    "IDHNKLPIFHP": [11, 12, 13],
    "IICELGFBEEO": "ART/UI/Atlas/Activity/CoinCollect/UI_Img_CoinCollect_Scenes_05"
  },
  {
    "id": 5,
    "dayIndex": 5,
    "GOIMOLOLKJE": 15,
    "EKDMMLIAINL": 133310071,
    "draftId": 9005,
    "groupId": 133310071,
    "JNFKEFIDGAO": 51120105,
    "galleryId": 33005,
    "CCAKPBEKENP": 740,
    "LKCFDGIAPBK": [1, 2, 3, 4, 5, 6],
    "watcherList": [1511213, 1511214, 1511215],
    "GMJNDIKOHDE": 40,
    "MPKEPCPHLON": 120,
    "levelNameTextMapHash": 3579880487,
    "levelDescTextMapHash": 494338413,
    "DKCDAOPPALE": 3625450622,
    "IDHNKLPIFHP": [14, 15],
    "IICELGFBEEO": "ART/UI/Atlas/Activity/CoinCollect/UI_Img_CoinCollect_Scenes_04"
  }
]
