[
  {
    "activityId": 5021,
    "prefabPath": "ART/UI/Menus/Widget/Activity/Activity_Coop_1_4",
    "activityNameTextMapHash": 1852289234,
    "activityDesTextMapHash": 2033075471
  },
  {
    "activityId": 5028,
    "prefabPath": "ART/UI/Menus/Widget/Activity/Activity_Coop_1_5",
    "activityNameTextMapHash": 1708789514,
    "activityDesTextMapHash": 2634897407
  },
  {
    "activityId": 5048,
    "prefabPath": "ART/UI/Menus/Widget/Activity/Activity_Coop_2_2",
    "activityNameTextMapHash": 1172103850,
    "activityDesTextMapHash": 1479291559
  },
  {
    "activityId": 5056,
    "prefabPath": "ART/UI/Menus/Widget/Activity/Activity_Coop_2_3",
    "activityNameTextMapHash": 1186442594,
    "activityDesTextMapHash": 128562895
  },
  {
    "activityId": 5057,
    "prefabPath": "ART/UI/Menus/Widget/Activity/Activity_Coop_2_4",
    "activityNameTextMapHash": 1431460346,
    "activityDesTextMapHash": 3196630407
  },
  {
    "activityId": 5073,
    "prefabPath": "ART/UI/Menus/Widget/Activity/Activity_Coop_2_7",
    "activityNameTextMapHash": 258656138,
    "activityDesTextMapHash": 347345895
  },
  {
    "activityId": 5074,
    "avatarId": 10000059,
    "prefabPath": "ART/UI/Menus/Widget/Activity/Activity_Coop_2_8",
    "activityNameTextMapHash": 3328734834,
    "activityDesTextMapHash": 94801343
  },
  {
    "activityId": 5097,
    "avatarId": 10000076,
    "prefabPath": "ART/UI/Menus/Widget/Activity/Activity_Coop_3_5",
    "activityNameTextMapHash": 1104000354,
    "activityDesTextMapHash": 1717073095
  },
  {
    "activityId": 5127,
    "avatarId": 10000074,
    "prefabPath": "ART/UI/Menus/Widget/Activity/Activity_Coop_3_6",
    "activityNameTextMapHash": 4242285026,
    "activityDesTextMapHash": 766059247
  }
]
