[
  {
    "AGOCMHLPMKM": 1001,
    "typeID": 1,
    "FBGEGKCJNCO": 264633771,
    "FHEBOPIEBKL": 3908435343,
    "MLHDMJBPBPH": 9008242653285728938,
    "MCAPCHNDMEN": "BaseCubeBrick_060505",
    "OPKIFPCPGEH": 70350354,
    "BEPJDBKLFFE": 70350355,
    "PGJJEPIFFPO": 90,
    "NHGLGPGFCDO": "BRICK_ROTATE_90",
    "CIBCIGDIKHA": 1,
    "ECEMKIODPIK": true,
    "AFOALHCLPLI": "BRICK_TYPE_FINISH",
    "DDOFKKDNANA": 2524780285,
    "GBNPEEPPIOK": 4029155283,
    "NAOPLMFOAEB": 2350560634
  },
  {
    "AGOCMHLPMKM": 1002,
    "typeID": 1,
    "FBGEGKCJNCO": 1410789123,
    "FHEBOPIEBKL": 1033014911,
    "MLHDMJBPBPH": 5350002537077536437,
    "MCAPCHNDMEN": "PropBrick_020202",
    "OPKIFPCPGEH": 70350344,
    "BEPJDBKLFFE": 70350345,
    "PGJJEPIFFPO": 90,
    "BMOAMDLICPN": 6,
    "ECEMKIODPIK": true,
    "AFOALHCLPLI": "BRICK_TYPE_COIN",
    "EABKOFBDPGD": true,
    "DDOFKKDNANA": 1814575229,
    "GBNPEEPPIOK": 1906400115,
    "NAOPLMFOAEB": 404583410
  },
  {
    "AGOCMHLPMKM": 1003,
    "typeID": 1,
    "FBGEGKCJNCO": 688449059,
    "FHEBOPIEBKL": 1010758639,
    "MCAPCHNDMEN": "BaseCubeBrick_050505",
    "OPKIFPCPGEH": 70350426,
    "BEPJDBKLFFE": 70350426,
    "PGJJEPIFFPO": 90,
    "CIBCIGDIKHA": 1,
    "DDOFKKDNANA": 793237653,
    "GBNPEEPPIOK": 1372153731,
    "NAOPLMFOAEB": 1049921586
  },
  {
    "AGOCMHLPMKM": 1004,
    "typeID": 1,
    "FBGEGKCJNCO": 1550398555,
    "FHEBOPIEBKL": 1887462087,
    "MCAPCHNDMEN": "BaseCubeBrick_050505",
    "OPKIFPCPGEH": 70350427,
    "BEPJDBKLFFE": 70350427,
    "PGJJEPIFFPO": 90,
    "CIBCIGDIKHA": 1,
    "DDOFKKDNANA": 3213704477,
    "GBNPEEPPIOK": 758411827,
    "NAOPLMFOAEB": 405210154
  },
  {
    "AGOCMHLPMKM": 2001,
    "typeID": 2,
    "FBGEGKCJNCO": 1162705635,
    "FHEBOPIEBKL": 2207593967,
    "MLHDMJBPBPH": 18378290750838800358,
    "MCAPCHNDMEN": "BaseCubeBrick_050505",
    "OPKIFPCPGEH": 70350320,
    "BEPJDBKLFFE": 70350321,
    "PGJJEPIFFPO": 90,
    "BMOAMDLICPN": 1,
    "ECEMKIODPIK": true,
    "EABKOFBDPGD": true,
    "DDOFKKDNANA": 922302789,
    "GBNPEEPPIOK": 2840497491,
    "NAOPLMFOAEB": 4292057194
  },
  {
    "AGOCMHLPMKM": 2002,
    "typeID": 2,
    "FBGEGKCJNCO": 568078363,
    "FHEBOPIEBKL": 662513511,
    "MLHDMJBPBPH": 14364254825158138934,
    "MCAPCHNDMEN": "BaseCubeBrick_050105",
    "OPKIFPCPGEH": 70350322,
    "BEPJDBKLFFE": 70350323,
    "PGJJEPIFFPO": 90,
    "NHGLGPGFCDO": "BRICK_ROTATE_90",
    "BMOAMDLICPN": 1,
    "ECEMKIODPIK": true,
    "EABKOFBDPGD": true,
    "DDOFKKDNANA": 3851978741,
    "GBNPEEPPIOK": 564043051,
    "NAOPLMFOAEB": 2039633946
  },
  {
    "AGOCMHLPMKM": 2003,
    "typeID": 2,
    "FBGEGKCJNCO": 1270466795,
    "FHEBOPIEBKL": 2779708015,
    "MLHDMJBPBPH": 16518396880474799054,
    "MCAPCHNDMEN": "BaseCubeBrick_050501",
    "OPKIFPCPGEH": 70350372,
    "BEPJDBKLFFE": 70350373,
    "PGJJEPIFFPO": 90,
    "NHGLGPGFCDO": "BRICK_ROTATE_90",
    "BMOAMDLICPN": 1,
    "ECEMKIODPIK": true,
    "EABKOFBDPGD": true,
    "DDOFKKDNANA": 962070341,
    "GBNPEEPPIOK": 2024076075,
    "NAOPLMFOAEB": 237998106
  },
  {
    "AGOCMHLPMKM": 2004,
    "typeID": 2,
    "FBGEGKCJNCO": 1194878355,
    "FHEBOPIEBKL": 3286945663,
    "MLHDMJBPBPH": 16443076773867842653,
    "MCAPCHNDMEN": "BaseCubeBrick_050505",
    "OPKIFPCPGEH": 70350326,
    "BEPJDBKLFFE": 70350327,
    "PGJJEPIFFPO": 90,
    "NHGLGPGFCDO": "BRICK_ROTATE_90",
    "BMOAMDLICPN": 1,
    "ECEMKIODPIK": true,
    "EABKOFBDPGD": true,
    "DDOFKKDNANA": 485457013,
    "GBNPEEPPIOK": 4231903571,
    "NAOPLMFOAEB": 1308968906
  },
  {
    "AGOCMHLPMKM": 2005,
    "typeID": 2,
    "FBGEGKCJNCO": 4162483251,
    "FHEBOPIEBKL": 1089829263,
    "MLHDMJBPBPH": 4270631207376177748,
    "MCAPCHNDMEN": "BaseCubeBrick_050205",
    "OPKIFPCPGEH": 70350328,
    "BEPJDBKLFFE": 70350329,
    "PGJJEPIFFPO": 90,
    "NHGLGPGFCDO": "BRICK_ROTATE_90",
    "BMOAMDLICPN": 1,
    "ECEMKIODPIK": true,
    "EABKOFBDPGD": true,
    "DDOFKKDNANA": 2394383253,
    "GBNPEEPPIOK": 799985011,
    "NAOPLMFOAEB": 3481303842
  },
  {
    "AGOCMHLPMKM": 2006,
    "typeID": 2,
    "FBGEGKCJNCO": 1525301259,
    "FHEBOPIEBKL": 755700255,
    "MLHDMJBPBPH": 14921504484785932270,
    "MCAPCHNDMEN": "BaseCubeBrick_200220",
    "OPKIFPCPGEH": 70350330,
    "BEPJDBKLFFE": 70350331,
    "PGJJEPIFFPO": 90,
    "NHGLGPGFCDO": "BRICK_ROTATE_90",
    "BMOAMDLICPN": 1,
    "ECEMKIODPIK": true,
    "EABKOFBDPGD": true,
    "DDOFKKDNANA": 729131837,
    "GBNPEEPPIOK": 3700917091,
    "NAOPLMFOAEB": 1846969314
  },
  {
    "AGOCMHLPMKM": 3001,
    "typeID": 3,
    "FBGEGKCJNCO": 2402159643,
    "FHEBOPIEBKL": 3524951127,
    "MLHDMJBPBPH": 6011466863444650,
    "MCAPCHNDMEN": "WindCircleBrick_050505",
    "OPKIFPCPGEH": 70350332,
    "BEPJDBKLFFE": 70350333,
    "PGJJEPIFFPO": 90,
    "NHGLGPGFCDO": "BRICK_ROTATE_45",
    "BMOAMDLICPN": 4,
    "ECEMKIODPIK": true,
    "EABKOFBDPGD": true,
    "DDOFKKDNANA": 3403445517,
    "GBNPEEPPIOK": 4186859475,
    "NAOPLMFOAEB": 3867042842
  },
  {
    "AGOCMHLPMKM": 3002,
    "typeID": 3,
    "FBGEGKCJNCO": 1509759627,
    "FHEBOPIEBKL": 2853650183,
    "MLHDMJBPBPH": 12128605550256425891,
    "MCAPCHNDMEN": "AirFlowBrick_051005",
    "OPKIFPCPGEH": 70350402,
    "BEPJDBKLFFE": 70350403,
    "PGJJEPIFFPO": 90,
    "NHGLGPGFCDO": "BRICK_ROTATE_90",
    "BMOAMDLICPN": 5,
    "ECEMKIODPIK": true,
    "EABKOFBDPGD": true,
    "DDOFKKDNANA": 3977204805,
    "GBNPEEPPIOK": 1755632563,
    "NAOPLMFOAEB": 263005474
  },
  {
    "AGOCMHLPMKM": 3003,
    "typeID": 3,
    "FBGEGKCJNCO": 3976722555,
    "FHEBOPIEBKL": 1194359455,
    "MLHDMJBPBPH": 10876833230597969757,
    "MCAPCHNDMEN": "BaseCubeBrick_050105",
    "OPKIFPCPGEH": 70350342,
    "BEPJDBKLFFE": 70350343,
    "PGJJEPIFFPO": 90,
    "NHGLGPGFCDO": "BRICK_ROTATE_90",
    "BMOAMDLICPN": 1,
    "ECEMKIODPIK": true,
    "EABKOFBDPGD": true,
    "DDOFKKDNANA": 2424234661,
    "GBNPEEPPIOK": 3731600603,
    "NAOPLMFOAEB": 677111282
  },
  {
    "AGOCMHLPMKM": 3004,
    "typeID": 3,
    "FBGEGKCJNCO": 3785448091,
    "FHEBOPIEBKL": 2579079663,
    "MLHDMJBPBPH": 13534241379669951500,
    "MCAPCHNDMEN": "BaseCubeBrick_050105",
    "OPKIFPCPGEH": 70350340,
    "BEPJDBKLFFE": 70350341,
    "PGJJEPIFFPO": 90,
    "NHGLGPGFCDO": "BRICK_ROTATE_90",
    "BMOAMDLICPN": 3,
    "ECEMKIODPIK": true,
    "EABKOFBDPGD": true,
    "DDOFKKDNANA": 413618045,
    "GBNPEEPPIOK": 2516568667,
    "NAOPLMFOAEB": 2025676018
  },
  {
    "AGOCMHLPMKM": 3005,
    "typeID": 3,
    "FBGEGKCJNCO": 2540979155,
    "FHEBOPIEBKL": 2143824095,
    "MLHDMJBPBPH": 17737465955374309012,
    "MCAPCHNDMEN": "AirBoostBrick_050205",
    "OPKIFPCPGEH": 70350368,
    "BEPJDBKLFFE": 70350369,
    "PGJJEPIFFPO": 90,
    "NHGLGPGFCDO": "BRICK_ROTATE_90",
    "BMOAMDLICPN": 6,
    "ECEMKIODPIK": true,
    "EABKOFBDPGD": true,
    "DDOFKKDNANA": 3220145997,
    "GBNPEEPPIOK": 1611873547,
    "NAOPLMFOAEB": 1724921202
  },
  {
    "AGOCMHLPMKM": 3006,
    "typeID": 3,
    "FBGEGKCJNCO": 3083601059,
    "FHEBOPIEBKL": 799751727,
    "MLHDMJBPBPH": 472709970989991907,
    "MCAPCHNDMEN": "BaseCubeBrick_050105",
    "OPKIFPCPGEH": 70350370,
    "BEPJDBKLFFE": 70350371,
    "PGJJEPIFFPO": 90,
    "NHGLGPGFCDO": "BRICK_ROTATE_90",
    "BMOAMDLICPN": 3,
    "ECEMKIODPIK": true,
    "EABKOFBDPGD": true,
    "DDOFKKDNANA": 2547214589,
    "GBNPEEPPIOK": 923577827,
    "NAOPLMFOAEB": 2849655682
  },
  {
    "AGOCMHLPMKM": 3007,
    "typeID": 3,
    "FBGEGKCJNCO": 3462124331,
    "FHEBOPIEBKL": 249779663,
    "MLHDMJBPBPH": 17403865594271988981,
    "MCAPCHNDMEN": "LightCoreBrick_050505",
    "OPKIFPCPGEH": 70350378,
    "BEPJDBKLFFE": 70350379,
    "PGJJEPIFFPO": 90,
    "NHGLGPGFCDO": "BRICK_ROTATE_90",
    "BMOAMDLICPN": 6,
    "ECEMKIODPIK": true,
    "EABKOFBDPGD": true,
    "DDOFKKDNANA": 1303447189,
    "GBNPEEPPIOK": 3895057819,
    "NAOPLMFOAEB": 1844202114
  },
  {
    "AGOCMHLPMKM": 3008,
    "typeID": 3,
    "FBGEGKCJNCO": 2513154451,
    "FHEBOPIEBKL": 3845461215,
    "MLHDMJBPBPH": 9242010513564383318,
    "MCAPCHNDMEN": "ThunderCreaterBrick_040204",
    "OPKIFPCPGEH": 70350380,
    "BEPJDBKLFFE": 70350381,
    "PGJJEPIFFPO": 90,
    "BMOAMDLICPN": 12,
    "ECEMKIODPIK": true,
    "EABKOFBDPGD": true,
    "DDOFKKDNANA": 916283461,
    "GBNPEEPPIOK": 3855878027,
    "NAOPLMFOAEB": 3328443410
  },
  {
    "AGOCMHLPMKM": 4001,
    "typeID": 4,
    "FBGEGKCJNCO": 1137559651,
    "FHEBOPIEBKL": 4287325991,
    "MLHDMJBPBPH": 14491489653291907922,
    "MCAPCHNDMEN": "BaseCubeBrick_050505",
    "OPKIFPCPGEH": 70350389,
    "BEPJDBKLFFE": 70350390,
    "PGJJEPIFFPO": 90,
    "NHGLGPGFCDO": "BRICK_ROTATE_90",
    "BMOAMDLICPN": 2,
    "ECEMKIODPIK": true,
    "EABKOFBDPGD": true,
    "DDOFKKDNANA": 202870605,
    "GBNPEEPPIOK": 1045551459,
    "NAOPLMFOAEB": 3697460770
  },
  {
    "AGOCMHLPMKM": 4002,
    "typeID": 4,
    "FBGEGKCJNCO": 928813827,
    "FHEBOPIEBKL": 896329799,
    "MLHDMJBPBPH": 15667953146438515440,
    "MCAPCHNDMEN": "BaseCubeBrick_050505",
    "OPKIFPCPGEH": 70350391,
    "BEPJDBKLFFE": 70350392,
    "PGJJEPIFFPO": 90,
    "NHGLGPGFCDO": "BRICK_ROTATE_90",
    "BMOAMDLICPN": 2,
    "ECEMKIODPIK": true,
    "EABKOFBDPGD": true,
    "DDOFKKDNANA": 1311839685,
    "GBNPEEPPIOK": 3892608939,
    "NAOPLMFOAEB": 1395315338
  },
  {
    "AGOCMHLPMKM": 4003,
    "typeID": 4,
    "FBGEGKCJNCO": 3435058627,
    "FHEBOPIEBKL": 912782039,
    "MLHDMJBPBPH": 14072464902517309604,
    "MCAPCHNDMEN": "BaseCubeBrick_050505",
    "OPKIFPCPGEH": 70350393,
    "BEPJDBKLFFE": 70350394,
    "PGJJEPIFFPO": 90,
    "NHGLGPGFCDO": "BRICK_ROTATE_90",
    "BMOAMDLICPN": 2,
    "ECEMKIODPIK": true,
    "EABKOFBDPGD": true,
    "DDOFKKDNANA": 2234296029,
    "GBNPEEPPIOK": 2544073867,
    "NAOPLMFOAEB": 282291714
  },
  {
    "AGOCMHLPMKM": 4004,
    "typeID": 4,
    "FBGEGKCJNCO": 804410411,
    "FHEBOPIEBKL": 3679356911,
    "MLHDMJBPBPH": 4344083319556690595,
    "MCAPCHNDMEN": "BaseCubeBrick_050505",
    "OPKIFPCPGEH": 70350395,
    "BEPJDBKLFFE": 70350396,
    "PGJJEPIFFPO": 90,
    "NHGLGPGFCDO": "BRICK_ROTATE_90",
    "BMOAMDLICPN": 2,
    "ECEMKIODPIK": true,
    "EABKOFBDPGD": true,
    "DDOFKKDNANA": 518867469,
    "GBNPEEPPIOK": 2470905203,
    "NAOPLMFOAEB": 871572642
  },
  {
    "AGOCMHLPMKM": 4005,
    "typeID": 4,
    "FBGEGKCJNCO": 3870427155,
    "FHEBOPIEBKL": 1974994895,
    "MLHDMJBPBPH": 12962487107399943242,
    "MCAPCHNDMEN": "BaseCubeBrick_050105",
    "OPKIFPCPGEH": 70350404,
    "BEPJDBKLFFE": 70350405,
    "PGJJEPIFFPO": 90,
    "NHGLGPGFCDO": "BRICK_ROTATE_90",
    "BMOAMDLICPN": 3,
    "ECEMKIODPIK": true,
    "EABKOFBDPGD": true,
    "DDOFKKDNANA": 2749106797,
    "GBNPEEPPIOK": 2667240539,
    "NAOPLMFOAEB": 4273201242
  },
  {
    "AGOCMHLPMKM": 4006,
    "typeID": 4,
    "FBGEGKCJNCO": 1712332155,
    "FHEBOPIEBKL": 2736688511,
    "MLHDMJBPBPH": 13519913832644921399,
    "MCAPCHNDMEN": "BaseCubeBrick_050105",
    "OPKIFPCPGEH": 70350406,
    "BEPJDBKLFFE": 70350407,
    "PGJJEPIFFPO": 90,
    "NHGLGPGFCDO": "BRICK_ROTATE_90",
    "BMOAMDLICPN": 3,
    "ECEMKIODPIK": true,
    "EABKOFBDPGD": true,
    "DDOFKKDNANA": 3651281101,
    "GBNPEEPPIOK": 1150918243,
    "NAOPLMFOAEB": 1285766226
  },
  {
    "AGOCMHLPMKM": 4007,
    "typeID": 4,
    "FBGEGKCJNCO": 459586283,
    "FHEBOPIEBKL": 1082925415,
    "MLHDMJBPBPH": 5870439490467348125,
    "MCAPCHNDMEN": "BaseCubeBrick_050105",
    "OPKIFPCPGEH": 70350408,
    "BEPJDBKLFFE": 70350409,
    "PGJJEPIFFPO": 90,
    "NHGLGPGFCDO": "BRICK_ROTATE_90",
    "BMOAMDLICPN": 3,
    "ECEMKIODPIK": true,
    "EABKOFBDPGD": true,
    "DDOFKKDNANA": 2713486477,
    "GBNPEEPPIOK": 1509703147,
    "NAOPLMFOAEB": 742625890
  },
  {
    "AGOCMHLPMKM": 4008,
    "typeID": 4,
    "FBGEGKCJNCO": 3228014539,
    "FHEBOPIEBKL": 3109461727,
    "MLHDMJBPBPH": 4655515448944844571,
    "MCAPCHNDMEN": "BaseCubeBrick_050105",
    "OPKIFPCPGEH": 70350410,
    "BEPJDBKLFFE": 70350411,
    "PGJJEPIFFPO": 90,
    "NHGLGPGFCDO": "BRICK_ROTATE_90",
    "BMOAMDLICPN": 3,
    "ECEMKIODPIK": true,
    "EABKOFBDPGD": true,
    "DDOFKKDNANA": 2170540197,
    "GBNPEEPPIOK": 1280939843,
    "NAOPLMFOAEB": 4035527266
  },
  {
    "AGOCMHLPMKM": 4009,
    "typeID": 4,
    "FBGEGKCJNCO": 162592483,
    "FHEBOPIEBKL": 2028339095,
    "MLHDMJBPBPH": 13885238932330411599,
    "MCAPCHNDMEN": "SpikeBrick_050105",
    "OPKIFPCPGEH": 70350334,
    "BEPJDBKLFFE": 70350335,
    "PGJJEPIFFPO": 90,
    "BMOAMDLICPN": 10,
    "ECEMKIODPIK": true,
    "EABKOFBDPGD": true,
    "DDOFKKDNANA": 1745890053,
    "GBNPEEPPIOK": 1838889203,
    "NAOPLMFOAEB": 1496678418
  },
  {
    "AGOCMHLPMKM": 4010,
    "typeID": 4,
    "FBGEGKCJNCO": 2241881523,
    "FHEBOPIEBKL": 3250597991,
    "MLHDMJBPBPH": 12703938741446950333,
    "MCAPCHNDMEN": "SpikeBrick_050103",
    "OPKIFPCPGEH": 70350336,
    "BEPJDBKLFFE": 70350337,
    "PGJJEPIFFPO": 90,
    "NHGLGPGFCDO": "BRICK_ROTATE_90",
    "BMOAMDLICPN": 10,
    "ECEMKIODPIK": true,
    "EABKOFBDPGD": true,
    "DDOFKKDNANA": 1106519237,
    "GBNPEEPPIOK": 1320295931,
    "NAOPLMFOAEB": 912593770
  },
  {
    "AGOCMHLPMKM": 4011,
    "typeID": 4,
    "FBGEGKCJNCO": 30181603,
    "FHEBOPIEBKL": 3490916559,
    "MLHDMJBPBPH": 13522331442759200436,
    "MCAPCHNDMEN": "BarrageBrick_050205",
    "OPKIFPCPGEH": 70350362,
    "BEPJDBKLFFE": 70350363,
    "PGJJEPIFFPO": 90,
    "BMOAMDLICPN": 16,
    "ECEMKIODPIK": true,
    "EABKOFBDPGD": true,
    "DDOFKKDNANA": 3919412421,
    "GBNPEEPPIOK": 3298075211,
    "NAOPLMFOAEB": 1785045898
  },
  {
    "AGOCMHLPMKM": 4012,
    "typeID": 4,
    "FBGEGKCJNCO": 1186110819,
    "FHEBOPIEBKL": 3909403823,
    "MLHDMJBPBPH": 6088460849664744252,
    "MCAPCHNDMEN": "BarrageBrick_050205",
    "OPKIFPCPGEH": 70350360,
    "BEPJDBKLFFE": 70350361,
    "PGJJEPIFFPO": 90,
    "BMOAMDLICPN": 26,
    "ECEMKIODPIK": true,
    "EABKOFBDPGD": true,
    "DDOFKKDNANA": 1712033885,
    "GBNPEEPPIOK": 1623882795,
    "NAOPLMFOAEB": 2357278794
  },
  {
    "AGOCMHLPMKM": 4013,
    "typeID": 4,
    "FBGEGKCJNCO": 2674768251,
    "FHEBOPIEBKL": 1588899847,
    "MLHDMJBPBPH": 4795444333544677075,
    "MCAPCHNDMEN": "BarrageBrick_050205",
    "OPKIFPCPGEH": 70350358,
    "BEPJDBKLFFE": 70350359,
    "PGJJEPIFFPO": 90,
    "NHGLGPGFCDO": "BRICK_ROTATE_90",
    "BMOAMDLICPN": 24,
    "ECEMKIODPIK": true,
    "EABKOFBDPGD": true,
    "DDOFKKDNANA": 356312125,
    "GBNPEEPPIOK": 2791339699,
    "NAOPLMFOAEB": 1381486938
  },
  {
    "AGOCMHLPMKM": 4014,
    "typeID": 4,
    "FBGEGKCJNCO": 2340244899,
    "FHEBOPIEBKL": 4200355447,
    "MLHDMJBPBPH": 11472773287450922032,
    "MCAPCHNDMEN": "BubbleBrick_020210",
    "OPKIFPCPGEH": 70350376,
    "BEPJDBKLFFE": 70350377,
    "PGJJEPIFFPO": 90,
    "NHGLGPGFCDO": "BRICK_ROTATE_90",
    "BMOAMDLICPN": 4,
    "ECEMKIODPIK": true,
    "EABKOFBDPGD": true,
    "DDOFKKDNANA": 631782893,
    "GBNPEEPPIOK": 2896818363,
    "NAOPLMFOAEB": 3084700034
  },
  {
    "AGOCMHLPMKM": 4015,
    "typeID": 4,
    "FBGEGKCJNCO": 3945528915,
    "FHEBOPIEBKL": 308330543,
    "MLHDMJBPBPH": 6196167013121874984,
    "MCAPCHNDMEN": "BubbleBrick_020210",
    "OPKIFPCPGEH": 70350400,
    "BEPJDBKLFFE": 70350401,
    "PGJJEPIFFPO": 90,
    "NHGLGPGFCDO": "BRICK_ROTATE_90",
    "BMOAMDLICPN": 4,
    "ECEMKIODPIK": true,
    "EABKOFBDPGD": true,
    "DDOFKKDNANA": 2813240237,
    "GBNPEEPPIOK": 3465833235,
    "NAOPLMFOAEB": 1241356730
  },
  {
    "AGOCMHLPMKM": 5001,
    "typeID": 5,
    "FBGEGKCJNCO": 1884483251,
    "FHEBOPIEBKL": 3789237407,
    "MLHDMJBPBPH": 4357238897681255934,
    "MCAPCHNDMEN": "PropBrick_020202",
    "OPKIFPCPGEH": 70350346,
    "BEPJDBKLFFE": 70350347,
    "PGJJEPIFFPO": 90,
    "BMOAMDLICPN": 3,
    "ECEMKIODPIK": true,
    "EABKOFBDPGD": true,
    "DDOFKKDNANA": 2933699205,
    "GBNPEEPPIOK": 752153995,
    "NAOPLMFOAEB": 2956108466
  },
  {
    "AGOCMHLPMKM": 5002,
    "typeID": 5,
    "FBGEGKCJNCO": 802772579,
    "FHEBOPIEBKL": 1795834975,
    "MLHDMJBPBPH": 12531094236770109319,
    "MCAPCHNDMEN": "PropBrick_020202",
    "OPKIFPCPGEH": 70350348,
    "BEPJDBKLFFE": 70350349,
    "PGJJEPIFFPO": 90,
    "BMOAMDLICPN": 3,
    "ECEMKIODPIK": true,
    "EABKOFBDPGD": true,
    "DDOFKKDNANA": 1786477685,
    "GBNPEEPPIOK": 241864867,
    "NAOPLMFOAEB": 330064226
  },
  {
    "AGOCMHLPMKM": 5003,
    "typeID": 5,
    "FBGEGKCJNCO": 930250251,
    "FHEBOPIEBKL": 452425151,
    "MLHDMJBPBPH": 6276462801383905395,
    "MCAPCHNDMEN": "PropBrick_020202",
    "OPKIFPCPGEH": 70350350,
    "BEPJDBKLFFE": 70350351,
    "PGJJEPIFFPO": 90,
    "BMOAMDLICPN": 3,
    "ECEMKIODPIK": true,
    "EABKOFBDPGD": true,
    "DDOFKKDNANA": 4042783245,
    "GBNPEEPPIOK": 1192269027,
    "NAOPLMFOAEB": 2910480826
  },
  {
    "AGOCMHLPMKM": 6001,
    "typeID": 6,
    "FBGEGKCJNCO": 3124599811,
    "FHEBOPIEBKL": 1555125647,
    "MLHDMJBPBPH": 12458600572629636491,
    "MCAPCHNDMEN": "AkaFesPropBrick_020202",
    "OPKIFPCPGEH": 70291095,
    "BEPJDBKLFFE": 70291096,
    "PGJJEPIFFPO": 90,
    "ECEMKIODPIK": true,
    "EABKOFBDPGD": true,
    "DDOFKKDNANA": 625447037,
    "GBNPEEPPIOK": 3640801555,
    "NAOPLMFOAEB": 3598734274,
    "GMFOMJOJAKN": 50
  },
  {
    "AGOCMHLPMKM": 6002,
    "typeID": 6,
    "FBGEGKCJNCO": 1333297339,
    "FHEBOPIEBKL": 2556350911,
    "MLHDMJBPBPH": 9905645042150279199,
    "MCAPCHNDMEN": "AkaFesPropBrick_030203",
    "OPKIFPCPGEH": 70291097,
    "BEPJDBKLFFE": 70291098,
    "PGJJEPIFFPO": 90,
    "ECEMKIODPIK": true,
    "EABKOFBDPGD": true,
    "DDOFKKDNANA": 937753997,
    "GBNPEEPPIOK": 407904147,
    "NAOPLMFOAEB": 215503586,
    "GMFOMJOJAKN": 50
  },
  {
    "AGOCMHLPMKM": 6003,
    "typeID": 6,
    "FBGEGKCJNCO": 111143051,
    "FHEBOPIEBKL": 3141940567,
    "MLHDMJBPBPH": 13914280324306612190,
    "MCAPCHNDMEN": "AkaFesGroundBrick_140814",
    "OPKIFPCPGEH": 70291091,
    "BEPJDBKLFFE": 70291092,
    "PGJJEPIFFPO": 90,
    "NHGLGPGFCDO": "BRICK_ROTATE_90",
    "ECEMKIODPIK": true,
    "EABKOFBDPGD": true,
    "DDOFKKDNANA": 2526043349,
    "GBNPEEPPIOK": 1752664203,
    "NAOPLMFOAEB": 1305556170,
    "GMFOMJOJAKN": 50
  },
  {
    "AGOCMHLPMKM": 6004,
    "typeID": 6,
    "FBGEGKCJNCO": 3495745683,
    "FHEBOPIEBKL": 3646921063,
    "MLHDMJBPBPH": 9016138215290063002,
    "MCAPCHNDMEN": "AkaFesGroundBrick_070507",
    "OPKIFPCPGEH": 70291093,
    "BEPJDBKLFFE": 70291094,
    "PGJJEPIFFPO": 90,
    "NHGLGPGFCDO": "BRICK_ROTATE_90",
    "ECEMKIODPIK": true,
    "EABKOFBDPGD": true,
    "DDOFKKDNANA": 1367894029,
    "GBNPEEPPIOK": 1005049875,
    "NAOPLMFOAEB": 2272915666,
    "GMFOMJOJAKN": 50
  },
  {
    "AGOCMHLPMKM": 6005,
    "typeID": 6,
    "FBGEGKCJNCO": 1952698051,
    "FHEBOPIEBKL": 166834191,
    "MLHDMJBPBPH": 9008242653285728938,
    "MCAPCHNDMEN": "BaseCubeBrick_050505",
    "OPKIFPCPGEH": 70350426,
    "BEPJDBKLFFE": 70350426,
    "PGJJEPIFFPO": 90,
    "EABKOFBDPGD": true,
    "DDOFKKDNANA": 789732749,
    "GBNPEEPPIOK": 2377066451,
    "NAOPLMFOAEB": 2508009146
  },
  {
    "AGOCMHLPMKM": 6006,
    "typeID": 6,
    "FBGEGKCJNCO": 2953238179,
    "FHEBOPIEBKL": 3911531735,
    "MLHDMJBPBPH": 758807768269167205,
    "MCAPCHNDMEN": "AkaFesGroundBrick_050305",
    "OPKIFPCPGEH": 70291126,
    "BEPJDBKLFFE": 70291126,
    "PGJJEPIFFPO": 90,
    "EABKOFBDPGD": true,
    "DDOFKKDNANA": 2870034893,
    "GBNPEEPPIOK": 1310658483,
    "NAOPLMFOAEB": 3219119346
  },
  {
    "AGOCMHLPMKM": 6007,
    "typeID": 6,
    "FBGEGKCJNCO": 280866851,
    "FHEBOPIEBKL": 3936837455,
    "MLHDMJBPBPH": 11486456085250738913,
    "MCAPCHNDMEN": "AkaFesGroundBrick_050104",
    "OPKIFPCPGEH": 70291061,
    "BEPJDBKLFFE": 70291062,
    "PGJJEPIFFPO": 90,
    "NHGLGPGFCDO": "BRICK_ROTATE_90",
    "ECEMKIODPIK": true,
    "EABKOFBDPGD": true,
    "DDOFKKDNANA": 787227941,
    "GBNPEEPPIOK": 4103983235,
    "NAOPLMFOAEB": 3784893850,
    "GMFOMJOJAKN": 40
  },
  {
    "AGOCMHLPMKM": 6008,
    "typeID": 6,
    "FBGEGKCJNCO": 3888998859,
    "FHEBOPIEBKL": 22126263,
    "MLHDMJBPBPH": 3893576372671168842,
    "MCAPCHNDMEN": "AkaFesGroundBrick_060106",
    "OPKIFPCPGEH": 70291063,
    "BEPJDBKLFFE": 70291064,
    "PGJJEPIFFPO": 90,
    "NHGLGPGFCDO": "BRICK_ROTATE_90",
    "ECEMKIODPIK": true,
    "EABKOFBDPGD": true,
    "DDOFKKDNANA": 2440527757,
    "GBNPEEPPIOK": 1422723555,
    "NAOPLMFOAEB": 4231273122,
    "GMFOMJOJAKN": 40
  },
  {
    "AGOCMHLPMKM": 6009,
    "typeID": 6,
    "FBGEGKCJNCO": 1860021979,
    "FHEBOPIEBKL": 2262603183,
    "MLHDMJBPBPH": 13171673244819276855,
    "MCAPCHNDMEN": "AkaFesGroundBrick_040304",
    "OPKIFPCPGEH": 70291065,
    "BEPJDBKLFFE": 70291066,
    "PGJJEPIFFPO": 90,
    "NHGLGPGFCDO": "BRICK_ROTATE_90",
    "ECEMKIODPIK": true,
    "EABKOFBDPGD": true,
    "DDOFKKDNANA": 2454293381,
    "GBNPEEPPIOK": 109829779,
    "NAOPLMFOAEB": 2151462210,
    "GMFOMJOJAKN": 40
  },
  {
    "AGOCMHLPMKM": 6010,
    "typeID": 6,
    "FBGEGKCJNCO": 1778078907,
    "FHEBOPIEBKL": 3518182847,
    "MLHDMJBPBPH": 388346368587879524,
    "MCAPCHNDMEN": "AkaFesGroundBrick_030503",
    "OPKIFPCPGEH": 70291067,
    "BEPJDBKLFFE": 70291068,
    "PGJJEPIFFPO": 90,
    "NHGLGPGFCDO": "BRICK_ROTATE_90",
    "ECEMKIODPIK": true,
    "EABKOFBDPGD": true,
    "DDOFKKDNANA": 3268697581,
    "GBNPEEPPIOK": 3261040347,
    "NAOPLMFOAEB": 4173738298,
    "GMFOMJOJAKN": 10
  },
  {
    "AGOCMHLPMKM": 6011,
    "typeID": 6,
    "FBGEGKCJNCO": 2930682147,
    "FHEBOPIEBKL": 1077612623,
    "MLHDMJBPBPH": 14970627196353912751,
    "MCAPCHNDMEN": "AkaFesGroundBrick_041004",
    "OPKIFPCPGEH": 70291069,
    "BEPJDBKLFFE": 70291070,
    "PGJJEPIFFPO": 90,
    "NHGLGPGFCDO": "BRICK_ROTATE_90",
    "ECEMKIODPIK": true,
    "EABKOFBDPGD": true,
    "DDOFKKDNANA": 1016927397,
    "GBNPEEPPIOK": 3386042699,
    "NAOPLMFOAEB": 784011786,
    "GMFOMJOJAKN": 10
  },
  {
    "AGOCMHLPMKM": 6012,
    "typeID": 6,
    "FBGEGKCJNCO": 3006650595,
    "FHEBOPIEBKL": 4202314063,
    "MLHDMJBPBPH": 11968512392632313301,
    "MCAPCHNDMEN": "AkaFesGroundBrick_030403",
    "OPKIFPCPGEH": 70291071,
    "BEPJDBKLFFE": 70291072,
    "PGJJEPIFFPO": 90,
    "NHGLGPGFCDO": "BRICK_ROTATE_90",
    "ECEMKIODPIK": true,
    "EABKOFBDPGD": true,
    "DDOFKKDNANA": 1545598613,
    "GBNPEEPPIOK": 3965952499,
    "NAOPLMFOAEB": 531456522,
    "GMFOMJOJAKN": 10
  },
  {
    "AGOCMHLPMKM": 6013,
    "typeID": 6,
    "FBGEGKCJNCO": 2091392379,
    "FHEBOPIEBKL": 2380667767,
    "MLHDMJBPBPH": 8973296373627023949,
    "MCAPCHNDMEN": "AkaFesGroundBrick_030203",
    "OPKIFPCPGEH": 70291073,
    "BEPJDBKLFFE": 70291074,
    "PGJJEPIFFPO": 90,
    "NHGLGPGFCDO": "BRICK_ROTATE_90",
    "ECEMKIODPIK": true,
    "EABKOFBDPGD": true,
    "DDOFKKDNANA": 774860781,
    "GBNPEEPPIOK": 574311747,
    "NAOPLMFOAEB": 3805469450,
    "GMFOMJOJAKN": 10
  },
  {
    "AGOCMHLPMKM": 6014,
    "typeID": 6,
    "FBGEGKCJNCO": 446790611,
    "FHEBOPIEBKL": 2012458687,
    "MLHDMJBPBPH": 1707087918499394911,
    "MCAPCHNDMEN": "AkaFesGroundBrick_020202",
    "OPKIFPCPGEH": 70291075,
    "BEPJDBKLFFE": 70291076,
    "PGJJEPIFFPO": 90,
    "NHGLGPGFCDO": "BRICK_ROTATE_90",
    "ECEMKIODPIK": true,
    "EABKOFBDPGD": true,
    "DDOFKKDNANA": 1900951029,
    "GBNPEEPPIOK": 622994139,
    "NAOPLMFOAEB": 1319369946,
    "GMFOMJOJAKN": 10
  },
  {
    "AGOCMHLPMKM": 6015,
    "typeID": 6,
    "FBGEGKCJNCO": 3786935923,
    "FHEBOPIEBKL": 2058413175,
    "MLHDMJBPBPH": 2930068323210832718,
    "MCAPCHNDMEN": "AkaFesGroundBrick_151715",
    "OPKIFPCPGEH": 70291077,
    "BEPJDBKLFFE": 70291078,
    "PGJJEPIFFPO": 90,
    "NHGLGPGFCDO": "BRICK_ROTATE_90",
    "ECEMKIODPIK": true,
    "EABKOFBDPGD": true,
    "DDOFKKDNANA": 1845202917,
    "GBNPEEPPIOK": 2217663859,
    "NAOPLMFOAEB": 814852050,
    "GMFOMJOJAKN": 30
  },
  {
    "AGOCMHLPMKM": 6016,
    "typeID": 6,
    "FBGEGKCJNCO": 3972370235,
    "FHEBOPIEBKL": 1984610543,
    "MLHDMJBPBPH": 7376478554024682552,
    "MCAPCHNDMEN": "AkaFesGroundBrick_132113",
    "OPKIFPCPGEH": 70291079,
    "BEPJDBKLFFE": 70291080,
    "PGJJEPIFFPO": 90,
    "NHGLGPGFCDO": "BRICK_ROTATE_90",
    "ECEMKIODPIK": true,
    "EABKOFBDPGD": true,
    "DDOFKKDNANA": 3436482645,
    "GBNPEEPPIOK": 1443436355,
    "NAOPLMFOAEB": 2159833098,
    "GMFOMJOJAKN": 30
  },
  {
    "AGOCMHLPMKM": 6017,
    "typeID": 6,
    "FBGEGKCJNCO": 3760474131,
    "FHEBOPIEBKL": 1601084007,
    "MLHDMJBPBPH": 3592374022744682664,
    "MCAPCHNDMEN": "AkaFesGroundBrick_230813",
    "OPKIFPCPGEH": 70291081,
    "BEPJDBKLFFE": 70291082,
    "PGJJEPIFFPO": 90,
    "NHGLGPGFCDO": "BRICK_ROTATE_90",
    "ECEMKIODPIK": true,
    "EABKOFBDPGD": true,
    "DDOFKKDNANA": 485974021,
    "GBNPEEPPIOK": 2686156883,
    "NAOPLMFOAEB": 3231931538,
    "GMFOMJOJAKN": 30
  },
  {
    "AGOCMHLPMKM": 6018,
    "typeID": 6,
    "FBGEGKCJNCO": 321353131,
    "FHEBOPIEBKL": 3899450303,
    "MLHDMJBPBPH": 12906096080247528104,
    "MCAPCHNDMEN": "AkaFesGroundBrick_261515",
    "OPKIFPCPGEH": 70291083,
    "BEPJDBKLFFE": 70291084,
    "PGJJEPIFFPO": 90,
    "NHGLGPGFCDO": "BRICK_ROTATE_90",
    "ECEMKIODPIK": true,
    "EABKOFBDPGD": true,
    "DDOFKKDNANA": 1158580197,
    "GBNPEEPPIOK": 1789444459,
    "NAOPLMFOAEB": 4269495002,
    "GMFOMJOJAKN": 30
  },
  {
    "AGOCMHLPMKM": 6019,
    "typeID": 6,
    "FBGEGKCJNCO": 3986697555,
    "FHEBOPIEBKL": 668627615,
    "MLHDMJBPBPH": 6228883557656029831,
    "MCAPCHNDMEN": "AkaFesGroundBrick_251536",
    "OPKIFPCPGEH": 70291085,
    "BEPJDBKLFFE": 70291086,
    "PGJJEPIFFPO": 90,
    "NHGLGPGFCDO": "BRICK_ROTATE_90",
    "ECEMKIODPIK": true,
    "EABKOFBDPGD": true,
    "DDOFKKDNANA": 2041497341,
    "GBNPEEPPIOK": 1855084363,
    "NAOPLMFOAEB": 3593520458,
    "GMFOMJOJAKN": 30
  },
  {
    "AGOCMHLPMKM": 6020,
    "typeID": 6,
    "FBGEGKCJNCO": 1176321395,
    "FHEBOPIEBKL": 358686295,
    "MLHDMJBPBPH": 14068179240140252363,
    "MCAPCHNDMEN": "AkaFesGroundBrick_060504",
    "OPKIFPCPGEH": 70291087,
    "BEPJDBKLFFE": 70291088,
    "PGJJEPIFFPO": 90,
    "NHGLGPGFCDO": "BRICK_ROTATE_90",
    "ECEMKIODPIK": true,
    "EABKOFBDPGD": true,
    "DDOFKKDNANA": 1678153101,
    "GBNPEEPPIOK": 3263247915,
    "NAOPLMFOAEB": 2357919226,
    "GMFOMJOJAKN": 20
  },
  {
    "AGOCMHLPMKM": 6021,
    "typeID": 6,
    "FBGEGKCJNCO": 4237212147,
    "FHEBOPIEBKL": 52468655,
    "MLHDMJBPBPH": 15124977038167220264,
    "MCAPCHNDMEN": "AkaFesGroundBrick_080608",
    "OPKIFPCPGEH": 70291089,
    "BEPJDBKLFFE": 70291090,
    "PGJJEPIFFPO": 90,
    "NHGLGPGFCDO": "BRICK_ROTATE_90",
    "ECEMKIODPIK": true,
    "EABKOFBDPGD": true,
    "DDOFKKDNANA": 2326831021,
    "GBNPEEPPIOK": 519774779,
    "NAOPLMFOAEB": 2550356098,
    "GMFOMJOJAKN": 20
  },
  {
    "AGOCMHLPMKM": 6022,
    "typeID": 6,
    "FBGEGKCJNCO": 1694647939,
    "FHEBOPIEBKL": 2392407287,
    "MCAPCHNDMEN": "AkaFesPropBrick_010101",
    "OPKIFPCPGEH": 70291122,
    "BEPJDBKLFFE": 70291123,
    "PGJJEPIFFPO": 90,
    "EABKOFBDPGD": true,
    "DDOFKKDNANA": 1377277037,
    "GBNPEEPPIOK": 2890019211,
    "NAOPLMFOAEB": 221553434
  }
]
