[
  {
    "ID": 1,
    "KKJAFCBHBHE": "ACTICITY_ISLAND_MOUNTAIN",
    "GOINOPHEHBE": [
      {
        "INFGGGPLMMN": "LeftHill",
        "GALONHCHICP": [400102]
      },
      {
        "INFGGGPLMMN": "RightHill",
        "GALONHCHICP": [400108]
      },
      {
        "INFGGGPLMMN": "",
        "GALONHCHICP": []
      },
      {
        "INFGGGPLMMN": "",
        "GALONHCHICP": []
      },
      {
        "INFGGGPLMMN": "",
        "GALONHCHICP": []
      }
    ],
    "NOEPAOJHNBJ": 5,
    "JNPONHBDDOH": 70290379
  },
  {
    "ID": 2,
    "KKJAFCBHBHE": "ACTICITY_ISLAND_MOUNTAIN",
    "GOINOPHEHBE": [
      {
        "INFGGGPLMMN": "LeftHill",
        "GALONHCHICP": [400102]
      },
      {
        "INFGGGPLMMN": "RightHill",
        "GALONHCHICP": [400107]
      },
      {
        "INFGGGPLMMN": "",
        "GALONHCHICP": []
      },
      {
        "INFGGGPLMMN": "",
        "GALONHCHICP": []
      },
      {
        "INFGGGPLMMN": "",
        "GALONHCHICP": []
      }
    ],
    "NOEPAOJHNBJ": 6,
    "JNPONHBDDOH": 70290379
  },
  {
    "ID": 3,
    "KKJAFCBHBHE": "ACTICITY_ISLAND_MOUNTAIN",
    "GOINOPHEHBE": [
      {
        "INFGGGPLMMN": "LeftHill",
        "GALONHCHICP": [400103]
      },
      {
        "INFGGGPLMMN": "RightHill",
        "GALONHCHICP": [400108]
      },
      {
        "INFGGGPLMMN": "",
        "GALONHCHICP": []
      },
      {
        "INFGGGPLMMN": "",
        "GALONHCHICP": []
      },
      {
        "INFGGGPLMMN": "",
        "GALONHCHICP": []
      }
    ],
    "NOEPAOJHNBJ": 7,
    "JNPONHBDDOH": 70290379
  },
  {
    "ID": 4,
    "KKJAFCBHBHE": "ACTICITY_ISLAND_MOUNTAIN",
    "GOINOPHEHBE": [
      {
        "INFGGGPLMMN": "LeftHill",
        "GALONHCHICP": [400103]
      },
      {
        "INFGGGPLMMN": "RightHill",
        "GALONHCHICP": [400106]
      },
      {
        "INFGGGPLMMN": "",
        "GALONHCHICP": []
      },
      {
        "INFGGGPLMMN": "",
        "GALONHCHICP": []
      },
      {
        "INFGGGPLMMN": "",
        "GALONHCHICP": []
      }
    ],
    "NOEPAOJHNBJ": 8,
    "JNPONHBDDOH": 70290379
  },
  {
    "ID": 5,
    "KKJAFCBHBHE": "ACTICITY_ISLAND_MOUNTAIN",
    "GOINOPHEHBE": [
      {
        "INFGGGPLMMN": "LeftHill",
        "GALONHCHICP": [400104]
      },
      {
        "INFGGGPLMMN": "RightHill",
        "GALONHCHICP": [400106]
      },
      {
        "INFGGGPLMMN": "",
        "GALONHCHICP": []
      },
      {
        "INFGGGPLMMN": "",
        "GALONHCHICP": []
      },
      {
        "INFGGGPLMMN": "",
        "GALONHCHICP": []
      }
    ],
    "NOEPAOJHNBJ": 9,
    "JNPONHBDDOH": 70290379
  },
  {
    "ID": 6,
    "KKJAFCBHBHE": "ACTICITY_ISLAND_MOUNTAIN",
    "GOINOPHEHBE": [
      {
        "INFGGGPLMMN": "LeftHill",
        "GALONHCHICP": [400104]
      },
      {
        "INFGGGPLMMN": "RightHill",
        "GALONHCHICP": [400107]
      },
      {
        "INFGGGPLMMN": "",
        "GALONHCHICP": []
      },
      {
        "INFGGGPLMMN": "",
        "GALONHCHICP": []
      },
      {
        "INFGGGPLMMN": "",
        "GALONHCHICP": []
      }
    ],
    "NOEPAOJHNBJ": 10,
    "JNPONHBDDOH": 70290379
  },
  {
    "ID": 7,
    "KKJAFCBHBHE": "ACTICITY_ISLAND_MOUNTAIN",
    "GOINOPHEHBE": [
      {
        "INFGGGPLMMN": "LeftHill",
        "GALONHCHICP": [400102]
      },
      {
        "INFGGGPLMMN": "RightHill",
        "GALONHCHICP": [400106]
      },
      {
        "INFGGGPLMMN": "",
        "GALONHCHICP": []
      },
      {
        "INFGGGPLMMN": "",
        "GALONHCHICP": []
      },
      {
        "INFGGGPLMMN": "",
        "GALONHCHICP": []
      }
    ],
    "NOEPAOJHNBJ": 11,
    "JNPONHBDDOH": 70290379
  },
  {
    "ID": 8,
    "KKJAFCBHBHE": "ACTICITY_ISLAND_MOUNTAIN",
    "GOINOPHEHBE": [
      {
        "INFGGGPLMMN": "LeftHill",
        "GALONHCHICP": [400104]
      },
      {
        "INFGGGPLMMN": "RightHill",
        "GALONHCHICP": [400108]
      },
      {
        "INFGGGPLMMN": "",
        "GALONHCHICP": []
      },
      {
        "INFGGGPLMMN": "",
        "GALONHCHICP": []
      },
      {
        "INFGGGPLMMN": "",
        "GALONHCHICP": []
      }
    ],
    "NOEPAOJHNBJ": 12,
    "JNPONHBDDOH": 70290379
  },
  {
    "ID": 9,
    "KKJAFCBHBHE": "ACTICITY_ISLAND_MOUNTAIN",
    "GOINOPHEHBE": [
      {
        "INFGGGPLMMN": "LeftHill",
        "GALONHCHICP": [400103]
      },
      {
        "INFGGGPLMMN": "RightHill",
        "GALONHCHICP": [400107]
      },
      {
        "INFGGGPLMMN": "",
        "GALONHCHICP": []
      },
      {
        "INFGGGPLMMN": "",
        "GALONHCHICP": []
      },
      {
        "INFGGGPLMMN": "",
        "GALONHCHICP": []
      }
    ],
    "NOEPAOJHNBJ": 13,
    "JNPONHBDDOH": 70290379
  }
]
