[
  {
    "id": 101,
    "JCLPCEFKDGC": 100004,
    "BNIJPNELEIC": 1083860025
  },
  {
    "id": 102,
    "JCLPCEFKDGC": 100006,
    "BNIJPNELEIC": 2994427753
  },
  {
    "id": 103,
    "JCLPCEFKDGC": 100007,
    "BNIJPNELEIC": 2655052129
  },
  {
    "id": 104,
    "JCLPCEFKDGC": 100008,
    "BNIJPNELEIC": 903021585
  }
]
