[
  {
    "id": 1,
    "activityID": 5049,
    "duration": 10,
    "NBJKCKOPBPL": 50490101,
    "questID": 200711,
    "NOFLDEBBMHD": 50490102,
    "rewardPreviewId": 32501,
    "KJHFHPIDNFG": 50490501,
    "OIOGBHDKADI": 50490502,
    "OILACPAIEBE": 70029
  }
]
