[
  {
    "groupID": 10000001,
    "tagIDs": [0, 0, 1051, 0, 0, 0, 0, 0, 0, 0, 0, 0, 0, 0, 0, 0, 0, 0, 0, 0]
  },
  {
    "groupID": 10000002,
    "tagIDs": [
      1003, 1044, 1051, 0, 0, 0, 0, 0, 0, 0, 0, 0, 0, 0, 0, 0, 0, 0, 0, 0
    ]
  },
  {
    "groupID": 10000003,
    "tagIDs": [
      1001, 1042, 1051, 0, 0, 0, 0, 0, 0, 0, 0, 0, 0, 0, 0, 0, 0, 0, 0, 0
    ]
  },
  {
    "groupID": 10000005,
    "tagIDs": [
      0, 1043, 1051, 1011, 0, 0, 0, 0, 0, 0, 0, 0, 0, 0, 0, 0, 0, 0, 0, 0
    ]
  },
  {
    "groupID": 10000006,
    "tagIDs": [
      1001, 1042, 1054, 0, 0, 0, 0, 0, 0, 0, 0, 0, 0, 0, 0, 0, 0, 0, 0, 0
    ]
  },
  {
    "groupID": 10000007,
    "tagIDs": [
      0, 1044, 1051, 1011, 0, 0, 0, 0, 0, 0, 0, 0, 0, 0, 0, 0, 0, 0, 0, 0
    ]
  },
  {
    "groupID": 10000014,
    "tagIDs": [
      1001, 1044, 1054, 0, 0, 0, 0, 0, 0, 0, 0, 0, 0, 0, 0, 0, 0, 0, 0, 0
    ]
  },
  {
    "groupID": 10000015,
    "tagIDs": [
      1001, 1041, 1051, 0, 0, 0, 0, 0, 0, 0, 0, 0, 0, 0, 0, 0, 0, 0, 0, 0
    ]
  },
  {
    "groupID": 10000016,
    "tagIDs": [
      1001, 1041, 1052, 0, 0, 10016, 0, 0, 0, 0, 0, 0, 0, 0, 0, 0, 0, 0, 0, 0
    ]
  },
  {
    "groupID": 10000020,
    "tagIDs": [
      1001, 1043, 1052, 0, 0, 10020, 0, 0, 0, 0, 0, 0, 0, 0, 0, 0, 0, 0, 0, 0
    ]
  },
  {
    "groupID": 10000021,
    "tagIDs": [
      1001, 1044, 1055, 0, 0, 0, 0, 0, 0, 0, 0, 0, 0, 0, 0, 0, 0, 0, 0, 0
    ]
  },
  {
    "groupID": 10000022,
    "tagIDs": [
      1001, 1043, 1055, 1012, 0, 0, 0, 0, 0, 0, 0, 0, 0, 0, 0, 0, 0, 0, 0, 0
    ]
  },
  {
    "groupID": 10000023,
    "tagIDs": [
      1002, 1044, 1053, 0, 0, 10023, 0, 0, 0, 0, 0, 0, 0, 0, 0, 0, 0, 0, 0, 0
    ]
  },
  {
    "groupID": 10000024,
    "tagIDs": [
      1002, 1042, 1052, 0, 0, 0, 0, 0, 0, 0, 0, 0, 0, 0, 0, 0, 0, 0, 0, 0
    ]
  },
  {
    "groupID": 10000025,
    "tagIDs": [
      1002, 1043, 1051, 0, 0, 10025, 0, 0, 0, 0, 0, 0, 0, 0, 0, 0, 0, 0, 0, 0
    ]
  },
  {
    "groupID": 10000026,
    "tagIDs": [
      1002, 1043, 1053, 0, 0, 10026, 0, 0, 0, 0, 0, 0, 0, 0, 0, 0, 0, 0, 0, 0
    ]
  },
  {
    "groupID": 10000027,
    "tagIDs": [
      1002, 1042, 1054, 0, 0, 0, 0, 0, 0, 0, 0, 0, 0, 0, 0, 0, 0, 0, 0, 0
    ]
  },
  {
    "groupID": 10000029,
    "tagIDs": [
      1001, 1045, 1054, 0, 0, 10029, 0, 0, 0, 0, 0, 0, 0, 0, 0, 0, 0, 0, 0, 0
    ]
  },
  {
    "groupID": 10000030,
    "tagIDs": [
      1002, 1041, 1053, 1012, 0, 10030, 0, 0, 0, 0, 0, 0, 0, 0, 0, 0, 0, 0, 0, 0
    ]
  },
  {
    "groupID": 10000031,
    "tagIDs": [
      1001, 1044, 1055, 0, 0, 10031, 0, 0, 0, 0, 0, 0, 0, 0, 0, 0, 0, 0, 0, 0
    ]
  },
  {
    "groupID": 10000032,
    "tagIDs": [
      1001, 1043, 1051, 0, 0, 10032, 0, 0, 0, 0, 0, 0, 0, 0, 0, 0, 0, 0, 0, 0
    ]
  },
  {
    "groupID": 10000033,
    "tagIDs": [
      0, 1041, 1055, 0, 0, 10033, 0, 0, 0, 0, 0, 0, 0, 0, 0, 0, 0, 0, 0, 0
    ]
  },
  {
    "groupID": 10000034,
    "tagIDs": [
      1001, 1044, 1052, 0, 0, 10034, 0, 0, 0, 0, 0, 0, 0, 0, 0, 0, 0, 0, 0, 0
    ]
  },
  {
    "groupID": 10000035,
    "tagIDs": [
      1002, 1045, 1051, 0, 0, 0, 0, 0, 0, 0, 0, 0, 0, 0, 0, 0, 0, 0, 0, 0
    ]
  },
  {
    "groupID": 10000036,
    "tagIDs": [
      1002, 1043, 1052, 0, 0, 10036, 0, 0, 0, 0, 0, 0, 0, 0, 0, 0, 0, 0, 0, 0
    ]
  },
  {
    "groupID": 10000037,
    "tagIDs": [
      1002, 1044, 1055, 0, 0, 10037, 0, 0, 0, 0, 0, 0, 0, 0, 0, 0, 0, 0, 0, 0
    ]
  },
  {
    "groupID": 10000038,
    "tagIDs": [
      1001, 1043, 1051, 1095, 0, 10038, 0, 0, 0, 0, 0, 0, 0, 0, 0, 0, 0, 0, 0, 0
    ]
  },
  {
    "groupID": 10000039,
    "tagIDs": [
      1001, 1045, 1055, 0, 0, 10039, 0, 0, 0, 0, 0, 0, 0, 0, 0, 0, 0, 0, 0, 0
    ]
  },
  {
    "groupID": 10000041,
    "tagIDs": [
      1001, 1044, 1054, 0, 0, 0, 0, 0, 0, 0, 0, 0, 0, 0, 0, 0, 0, 0, 0, 0
    ]
  },
  {
    "groupID": 10000042,
    "tagIDs": [
      1002, 1044, 1051, 0, 0, 10042, 0, 0, 0, 0, 0, 0, 0, 0, 0, 0, 0, 0, 0, 0
    ]
  },
  {
    "groupID": 10000043,
    "tagIDs": [
      1001, 1044, 1054, 0, 0, 10043, 0, 0, 0, 0, 0, 0, 0, 0, 0, 0, 0, 0, 0, 0
    ]
  },
  {
    "groupID": 10000044,
    "tagIDs": [
      1002, 1044, 1052, 0, 0, 0, 0, 0, 0, 0, 0, 0, 0, 0, 0, 0, 0, 0, 0, 0
    ]
  },
  {
    "groupID": 10000045,
    "tagIDs": [
      1001, 1042, 1053, 0, 0, 10045, 0, 0, 0, 0, 0, 0, 0, 0, 0, 0, 0, 0, 0, 0
    ]
  },
  {
    "groupID": 10000046,
    "tagIDs": [
      1002, 1044, 1053, 0, 0, 0, 0, 0, 0, 0, 0, 0, 0, 0, 0, 0, 0, 0, 0, 0
    ]
  },
  {
    "groupID": 10000047,
    "tagIDs": [
      1003, 1043, 1051, 0, 0, 10047, 0, 0, 0, 0, 0, 0, 0, 0, 0, 0, 0, 0, 0, 0
    ]
  },
  {
    "groupID": 10000048,
    "tagIDs": [
      1002, 1044, 1054, 0, 0, 10048, 0, 0, 0, 0, 0, 0, 0, 0, 0, 0, 0, 0, 0, 0
    ]
  },
  {
    "groupID": 10000049,
    "tagIDs": [
      1003, 1044, 1055, 0, 0, 0, 0, 0, 0, 0, 0, 0, 0, 0, 0, 0, 0, 0, 0, 0
    ]
  },
  {
    "groupID": 10000050,
    "tagIDs": [
      1003, 1041, 1053, 0, 0, 10050, 0, 0, 0, 0, 0, 0, 0, 0, 0, 0, 0, 0, 0, 0
    ]
  },
  {
    "groupID": 10000051,
    "tagIDs": [
      1001, 1042, 1052, 0, 0, 10051, 0, 0, 0, 0, 0, 0, 0, 0, 0, 0, 0, 0, 0, 0
    ]
  },
  {
    "groupID": 10000052,
    "tagIDs": [
      1003, 1042, 1053, 1012, 0, 10052, 0, 0, 0, 0, 0, 0, 0, 0, 0, 0, 0, 0, 0, 0
    ]
  },
  {
    "groupID": 10000053,
    "tagIDs": [
      1003, 1045, 1052, 0, 0, 0, 0, 0, 0, 0, 0, 0, 0, 0, 0, 0, 0, 0, 0, 0
    ]
  },
  {
    "groupID": 10000054,
    "tagIDs": [
      1003, 1044, 1054, 0, 0, 0, 0, 0, 0, 0, 0, 0, 0, 0, 0, 0, 0, 0, 0, 0
    ]
  },
  {
    "groupID": 10000055,
    "tagIDs": [
      1003, 1043, 1055, 0, 0, 10055, 0, 0, 0, 0, 0, 0, 0, 0, 0, 0, 0, 0, 0, 0
    ]
  },
  {
    "groupID": 10000056,
    "tagIDs": [
      1003, 1042, 1055, 0, 0, 10056, 0, 0, 0, 0, 0, 0, 0, 0, 0, 0, 0, 0, 0, 0
    ]
  },
  {
    "groupID": 10000057,
    "tagIDs": [
      1003, 1041, 1052, 0, 0, 10057, 0, 0, 0, 0, 0, 0, 0, 0, 0, 0, 0, 0, 0, 0
    ]
  },
  {
    "groupID": 10000058,
    "tagIDs": [
      1003, 1042, 1054, 0, 0, 10058, 0, 0, 0, 0, 0, 0, 0, 0, 0, 0, 0, 0, 0, 0
    ]
  },
  {
    "groupID": 10000059,
    "tagIDs": [
      1003, 1043, 1054, 0, 0, 10059, 0, 0, 0, 0, 0, 0, 0, 0, 0, 0, 0, 0, 0, 0
    ]
  },
  {
    "groupID": 10000060,
    "tagIDs": [
      1002, 1042, 1055, 0, 0, 10060, 0, 0, 0, 0, 0, 0, 0, 0, 0, 0, 0, 0, 0, 0
    ]
  },
  {
    "groupID": 10000062,
    "tagIDs": [
      0, 1044, 1055, 0, 0, 10062, 0, 0, 0, 0, 0, 0, 0, 0, 0, 0, 0, 0, 0, 0
    ]
  },
  {
    "groupID": 10000063,
    "tagIDs": [
      1002, 1042, 1053, 0, 0, 10063, 0, 0, 0, 0, 0, 0, 0, 0, 0, 0, 0, 0, 0, 0
    ]
  },
  {
    "groupID": 10000064,
    "tagIDs": [
      1002, 1044, 1053, 0, 0, 10064, 0, 0, 0, 0, 0, 0, 0, 0, 0, 0, 0, 0, 0, 0
    ]
  },
  {
    "groupID": 10000065,
    "tagIDs": [
      1003, 1044, 1051, 0, 0, 10065, 0, 0, 0, 0, 0, 0, 0, 0, 0, 0, 0, 0, 0, 0
    ]
  },
  {
    "groupID": 10000066,
    "tagIDs": [
      1003, 1041, 1051, 0, 0, 0, 0, 0, 0, 0, 0, 0, 0, 0, 0, 0, 0, 0, 0, 0
    ]
  },
  {
    "groupID": 10000067,
    "tagIDs": [
      1004, 1044, 1055, 0, 0, 10067, 0, 0, 0, 0, 0, 0, 0, 0, 0, 0, 0, 0, 0, 0
    ]
  },
  {
    "groupID": 10000068,
    "tagIDs": [
      1004, 1045, 1052, 0, 0, 0, 0, 0, 0, 0, 0, 0, 0, 0, 0, 0, 0, 0, 0, 0
    ]
  },
  {
    "groupID": 10000069,
    "tagIDs": [
      1004, 1043, 1055, 0, 0, 0, 0, 0, 0, 0, 0, 0, 0, 0, 0, 0, 0, 0, 0, 0
    ]
  },
  {
    "groupID": 10000070,
    "tagIDs": [
      1004, 1044, 1051, 0, 0, 10070, 0, 0, 0, 0, 0, 0, 0, 0, 0, 0, 0, 0, 0, 0
    ]
  },
  {
    "groupID": 10000071,
    "tagIDs": [
      1004, 1043, 1053, 0, 0, 10071, 0, 0, 0, 0, 0, 0, 0, 0, 0, 0, 0, 0, 0, 0
    ]
  },
  {
    "groupID": 10000072,
    "tagIDs": [
      1004, 1042, 1053, 0, 0, 10072, 0, 0, 0, 0, 0, 0, 0, 0, 0, 0, 0, 0, 0, 0
    ]
  },
  {
    "groupID": 10000073,
    "tagIDs": [
      1004, 1045, 1054, 1012, 0, 10073, 0, 0, 0, 0, 0, 0, 0, 0, 0, 0, 0, 0, 0, 0
    ]
  },
  {
    "groupID": 10000074,
    "tagIDs": [
      1004, 1044, 1051, 0, 0, 10074, 0, 0, 0, 0, 0, 0, 0, 0, 0, 0, 0, 0, 0, 0
    ]
  },
  {
    "groupID": 10000075,
    "tagIDs": [
      1004, 1043, 1054, 0, 0, 10075, 0, 0, 0, 0, 0, 0, 0, 0, 0, 0, 0, 0, 0, 0
    ]
  },
  {
    "groupID": 10000076,
    "tagIDs": [
      1004, 1044, 1055, 0, 0, 10076, 0, 0, 0, 0, 0, 0, 0, 0, 0, 0, 0, 0, 0, 0
    ]
  },
  {
    "groupID": 10000077,
    "tagIDs": [
      1002, 1045, 1053, 0, 0, 10077, 0, 0, 0, 0, 0, 0, 0, 0, 0, 0, 0, 0, 0, 0
    ]
  },
  {
    "groupID": 10000078,
    "tagIDs": [
      1004, 1041, 1051, 0, 0, 10078, 0, 0, 0, 0, 0, 0, 0, 0, 0, 0, 0, 0, 0, 0
    ]
  },
  {
    "groupID": 10000079,
    "tagIDs": [
      1004, 1042, 1052, 0, 0, 10079, 0, 0, 0, 0, 0, 0, 0, 0, 0, 0, 0, 0, 0, 0
    ]
  },
  {
    "groupID": 10000080,
    "tagIDs": [
      1001, 1043, 1053, 0, 0, 10080, 0, 0, 0, 0, 0, 0, 0, 0, 0, 0, 0, 0, 0, 0
    ]
  },
  {
    "groupID": 10000081,
    "tagIDs": [
      1004, 1041, 1052, 0, 0, 10081, 0, 0, 0, 0, 0, 0, 0, 0, 0, 0, 0, 0, 0, 0
    ]
  },
  {
    "groupID": 10000082,
    "tagIDs": [
      1002, 1041, 1054, 0, 0, 10082, 0, 0, 0, 0, 0, 0, 0, 0, 0, 0, 0, 0, 0, 0
    ]
  },
  {
    "groupID": 21010101,
    "tagIDs": [
      4001, 0, 4902, 0, 3006, 0, 0, 0, 0, 0, 0, 0, 0, 0, 0, 0, 0, 0, 0, 0
    ]
  },
  {
    "groupID": 21010152,
    "tagIDs": [4001, 0, 0, 0, 3006, 0, 0, 0, 0, 0, 0, 0, 0, 0, 0, 0, 0, 0, 0, 0]
  },
  {
    "groupID": 21020101,
    "tagIDs": [
      4001, 0, 4902, 0, 3006, 0, 0, 0, 0, 0, 0, 0, 0, 0, 0, 0, 0, 0, 0, 0
    ]
  },
  {
    "groupID": 21020201,
    "tagIDs": [
      4001, 1052, 4902, 0, 3006, 0, 0, 0, 0, 0, 0, 0, 0, 0, 0, 0, 0, 0, 0, 0
    ]
  },
  {
    "groupID": 21020401,
    "tagIDs": [
      4001, 0, 4902, 3005, 3006, 0, 0, 0, 0, 0, 0, 0, 0, 0, 0, 0, 0, 0, 0, 0
    ]
  },
  {
    "groupID": 21020501,
    "tagIDs": [
      4001, 0, 4902, 3005, 3006, 0, 0, 0, 0, 0, 0, 0, 0, 0, 0, 0, 0, 0, 0, 0
    ]
  },
  {
    "groupID": 21020701,
    "tagIDs": [
      4001, 1052, 4902, 0, 3006, 0, 0, 0, 0, 0, 0, 0, 0, 0, 0, 0, 0, 0, 0, 0
    ]
  },
  {
    "groupID": 21020801,
    "tagIDs": [
      4001, 0, 4902, 3005, 3006, 0, 0, 0, 0, 0, 0, 0, 0, 0, 0, 0, 0, 0, 0, 0
    ]
  },
  {
    "groupID": 20010101,
    "tagIDs": [
      4002, 0, 4902, 3005, 3006, 0, 0, 0, 0, 0, 0, 0, 0, 0, 0, 0, 0, 0, 0, 0
    ]
  },
  {
    "groupID": 20010201,
    "tagIDs": [
      4002, 0, 4902, 3005, 3006, 0, 0, 0, 0, 0, 0, 0, 0, 0, 0, 0, 0, 0, 0, 0
    ]
  },
  {
    "groupID": 20010302,
    "tagIDs": [4002, 0, 4901, 0, 0, 0, 0, 0, 0, 0, 0, 0, 0, 0, 0, 0, 0, 0, 0, 0]
  },
  {
    "groupID": 20010301,
    "tagIDs": [4002, 0, 4901, 0, 0, 0, 0, 0, 0, 0, 0, 0, 0, 0, 0, 0, 0, 0, 0, 0]
  },
  {
    "groupID": 20010401,
    "tagIDs": [4002, 0, 4901, 0, 0, 0, 0, 0, 0, 0, 0, 0, 0, 0, 0, 0, 0, 0, 0, 0]
  },
  {
    "groupID": 29010101,
    "tagIDs": [0, 0, 0, 0, 0, 0, 0, 0, 0, 0, 0, 0, 0, 0, 0, 0, 0, 0, 0, 0]
  },
  {
    "groupID": 29010102,
    "tagIDs": [0, 0, 0, 0, 0, 0, 0, 0, 0, 0, 0, 0, 0, 0, 0, 0, 0, 0, 0, 0]
  },
  {
    "groupID": 29010103,
    "tagIDs": [0, 0, 0, 0, 0, 0, 0, 0, 0, 0, 0, 0, 0, 0, 0, 0, 0, 0, 0, 0]
  },
  {
    "groupID": 29020101,
    "tagIDs": [0, 0, 0, 0, 0, 0, 0, 0, 0, 0, 0, 0, 0, 0, 0, 0, 0, 0, 0, 0]
  },
  {
    "groupID": 29020102,
    "tagIDs": [0, 0, 0, 0, 0, 0, 0, 0, 0, 0, 0, 0, 0, 0, 0, 0, 0, 0, 0, 0]
  },
  {
    "groupID": 29040101,
    "tagIDs": [0, 0, 0, 0, 0, 0, 0, 0, 0, 0, 0, 0, 0, 0, 0, 0, 0, 0, 0, 0]
  },
  {
    "groupID": 29040102,
    "tagIDs": [0, 0, 0, 0, 0, 0, 0, 0, 0, 0, 0, 0, 0, 0, 0, 0, 0, 0, 0, 0]
  },
  {
    "groupID": 29040103,
    "tagIDs": [0, 0, 0, 0, 0, 0, 0, 0, 0, 0, 0, 0, 0, 0, 0, 0, 0, 0, 0, 0]
  },
  {
    "groupID": 29040104,
    "tagIDs": [0, 0, 0, 0, 0, 0, 0, 0, 0, 0, 0, 0, 0, 0, 0, 0, 0, 0, 0, 0]
  },
  {
    "groupID": 29040111,
    "tagIDs": [0, 0, 0, 0, 0, 0, 0, 0, 0, 0, 0, 0, 0, 0, 0, 0, 0, 0, 0, 0]
  },
  {
    "groupID": 20020101,
    "tagIDs": [4003, 0, 0, 0, 0, 0, 0, 0, 0, 0, 0, 0, 0, 0, 0, 0, 0, 0, 0, 0]
  },
  {
    "groupID": 20020201,
    "tagIDs": [4003, 0, 0, 3005, 0, 0, 0, 0, 0, 0, 0, 0, 0, 0, 0, 0, 0, 0, 0, 0]
  },
  {
    "groupID": 20040101,
    "tagIDs": [4003, 0, 0, 3005, 0, 0, 0, 0, 0, 0, 0, 0, 0, 0, 0, 0, 0, 0, 0, 0]
  },
  {
    "groupID": 20050101,
    "tagIDs": [0, 0, 0, 0, 0, 0, 0, 0, 0, 0, 0, 0, 0, 0, 0, 0, 0, 0, 0, 0]
  },
  {
    "groupID": 20010501,
    "tagIDs": [
      4002, 0, 4902, 3005, 0, 0, 0, 0, 0, 0, 0, 0, 0, 0, 0, 0, 0, 0, 0, 0
    ]
  },
  {
    "groupID": 20010601,
    "tagIDs": [
      4002, 0, 4902, 3005, 0, 0, 0, 0, 0, 0, 0, 0, 0, 0, 0, 0, 0, 0, 0, 0
    ]
  },
  {
    "groupID": 20010701,
    "tagIDs": [
      4002, 0, 4902, 3005, 0, 0, 0, 0, 0, 0, 0, 0, 0, 0, 0, 0, 0, 0, 0, 0
    ]
  },
  {
    "groupID": 20010801,
    "tagIDs": [
      4002, 0, 4902, 3005, 0, 0, 0, 0, 0, 0, 0, 0, 0, 0, 0, 0, 0, 0, 0, 0
    ]
  },
  {
    "groupID": 20010901,
    "tagIDs": [
      4002, 0, 4902, 3005, 0, 0, 0, 0, 0, 0, 0, 0, 0, 0, 0, 0, 0, 0, 0, 0
    ]
  },
  {
    "groupID": 20011001,
    "tagIDs": [
      4002, 0, 4902, 3005, 0, 0, 0, 0, 0, 0, 0, 0, 0, 0, 0, 0, 0, 0, 0, 0
    ]
  },
  {
    "groupID": 20011101,
    "tagIDs": [
      4002, 0, 4902, 3005, 0, 0, 0, 0, 0, 0, 0, 0, 0, 0, 0, 0, 0, 0, 0, 0
    ]
  },
  {
    "groupID": 20040201,
    "tagIDs": [4003, 0, 0, 3005, 0, 0, 0, 0, 0, 0, 0, 0, 0, 0, 0, 0, 0, 0, 0, 0]
  },
  {
    "groupID": 20040301,
    "tagIDs": [4003, 0, 0, 3005, 0, 0, 0, 0, 0, 0, 0, 0, 0, 0, 0, 0, 0, 0, 0, 0]
  },
  {
    "groupID": 20040401,
    "tagIDs": [4003, 0, 0, 3005, 0, 0, 0, 0, 0, 0, 0, 0, 0, 0, 0, 0, 0, 0, 0, 0]
  },
  {
    "groupID": 20040501,
    "tagIDs": [4003, 0, 0, 3005, 0, 0, 0, 0, 0, 0, 0, 0, 0, 0, 0, 0, 0, 0, 0, 0]
  },
  {
    "groupID": 20040601,
    "tagIDs": [4003, 0, 0, 3005, 0, 0, 0, 0, 0, 0, 0, 0, 0, 0, 0, 0, 0, 0, 0, 0]
  },
  {
    "groupID": 20040701,
    "tagIDs": [4003, 0, 0, 3005, 0, 0, 0, 0, 0, 0, 0, 0, 0, 0, 0, 0, 0, 0, 0, 0]
  },
  {
    "groupID": 20011601,
    "tagIDs": [4003, 0, 0, 3005, 0, 0, 0, 0, 0, 0, 0, 0, 0, 0, 0, 0, 0, 0, 0, 0]
  },
  {
    "groupID": 20011701,
    "tagIDs": [4003, 0, 0, 3005, 0, 0, 0, 0, 0, 0, 0, 0, 0, 0, 0, 0, 0, 0, 0, 0]
  },
  {
    "groupID": 20011801,
    "tagIDs": [4003, 0, 0, 3005, 0, 0, 0, 0, 0, 0, 0, 0, 0, 0, 0, 0, 0, 0, 0, 0]
  },
  {
    "groupID": 20011901,
    "tagIDs": [4003, 0, 0, 3005, 0, 0, 0, 0, 0, 0, 0, 0, 0, 0, 0, 0, 0, 0, 0, 0]
  },
  {
    "groupID": 20011002,
    "tagIDs": [4002, 0, 0, 0, 0, 0, 0, 0, 0, 0, 0, 0, 0, 0, 0, 0, 0, 0, 0, 0]
  },
  {
    "groupID": 20040001,
    "tagIDs": [4002, 0, 0, 0, 0, 0, 0, 0, 0, 0, 0, 0, 0, 0, 0, 0, 0, 0, 0, 0]
  },
  {
    "groupID": 20040002,
    "tagIDs": [4002, 0, 0, 0, 0, 0, 0, 0, 0, 0, 0, 0, 0, 0, 0, 0, 0, 0, 0, 0]
  },
  {
    "groupID": 20040003,
    "tagIDs": [4002, 0, 0, 0, 0, 0, 0, 0, 0, 0, 0, 0, 0, 0, 0, 0, 0, 0, 0, 0]
  },
  {
    "groupID": 20040004,
    "tagIDs": [4002, 0, 0, 0, 0, 0, 0, 0, 0, 0, 0, 0, 0, 0, 0, 0, 0, 0, 0, 0]
  },
  {
    "groupID": 20040005,
    "tagIDs": [4002, 0, 0, 0, 0, 0, 0, 0, 0, 0, 0, 0, 0, 0, 0, 0, 0, 0, 0, 0]
  },
  {
    "groupID": 20040006,
    "tagIDs": [4002, 0, 0, 0, 0, 0, 0, 0, 0, 0, 0, 0, 0, 0, 0, 0, 0, 0, 0, 0]
  },
  {
    "groupID": 20040007,
    "tagIDs": [4002, 0, 0, 0, 0, 0, 0, 0, 0, 0, 0, 0, 0, 0, 0, 0, 0, 0, 0, 0]
  },
  {
    "groupID": 20040008,
    "tagIDs": [4002, 0, 0, 0, 0, 0, 0, 0, 0, 0, 0, 0, 0, 0, 0, 0, 0, 0, 0, 0]
  },
  {
    "groupID": 20030101,
    "tagIDs": [0, 0, 4901, 0, 3006, 0, 0, 0, 0, 0, 0, 0, 0, 0, 0, 0, 0, 0, 0, 0]
  },
  {
    "groupID": 21010201,
    "tagIDs": [
      4001, 1051, 4902, 0, 3006, 0, 0, 0, 0, 0, 0, 0, 0, 0, 0, 0, 0, 0, 0, 0
    ]
  },
  {
    "groupID": 21010301,
    "tagIDs": [
      4001, 1051, 4902, 0, 3006, 0, 0, 0, 0, 0, 0, 0, 0, 0, 0, 0, 0, 0, 0, 0
    ]
  },
  {
    "groupID": 21010401,
    "tagIDs": [
      4001, 1055, 4901, 0, 3006, 0, 0, 0, 0, 0, 0, 0, 0, 0, 0, 0, 0, 0, 0, 0
    ]
  },
  {
    "groupID": 21010501,
    "tagIDs": [
      4001, 1055, 4901, 0, 3006, 0, 0, 0, 0, 0, 0, 0, 0, 0, 0, 0, 0, 0, 0, 0
    ]
  },
  {
    "groupID": 21010601,
    "tagIDs": [
      4001, 0, 4901, 0, 3006, 0, 0, 0, 0, 0, 0, 0, 0, 0, 0, 0, 0, 0, 0, 0
    ]
  },
  {
    "groupID": 21010602,
    "tagIDs": [4001, 0, 0, 0, 3006, 0, 0, 0, 0, 0, 0, 0, 0, 0, 0, 0, 0, 0, 0, 0]
  },
  {
    "groupID": 21010701,
    "tagIDs": [
      4001, 1051, 4902, 0, 3006, 0, 0, 0, 0, 0, 0, 0, 0, 0, 0, 0, 0, 0, 0, 0
    ]
  },
  {
    "groupID": 21010901,
    "tagIDs": [
      4001, 1055, 4901, 0, 3006, 0, 0, 0, 0, 0, 0, 0, 0, 0, 0, 0, 0, 0, 0, 0
    ]
  },
  {
    "groupID": 21011001,
    "tagIDs": [
      4001, 1055, 4901, 0, 3006, 0, 0, 0, 0, 0, 0, 0, 0, 0, 0, 0, 0, 0, 0, 0
    ]
  },
  {
    "groupID": 21011101,
    "tagIDs": [4001, 0, 0, 0, 3006, 0, 0, 0, 0, 0, 0, 0, 0, 0, 0, 0, 0, 0, 0, 0]
  },
  {
    "groupID": 20011202,
    "tagIDs": [
      4002, 0, 4902, 3005, 0, 0, 0, 0, 0, 0, 0, 0, 0, 0, 0, 0, 0, 0, 0, 0
    ]
  },
  {
    "groupID": 20011201,
    "tagIDs": [
      4002, 0, 4902, 3005, 0, 0, 0, 0, 0, 0, 0, 0, 0, 0, 0, 0, 0, 0, 0, 0
    ]
  },
  {
    "groupID": 20011301,
    "tagIDs": [
      4002, 0, 4902, 3005, 0, 0, 0, 0, 0, 0, 0, 0, 0, 0, 0, 0, 0, 0, 0, 0
    ]
  },
  {
    "groupID": 20011401,
    "tagIDs": [
      4002, 0, 4902, 3005, 0, 0, 0, 0, 0, 0, 0, 0, 0, 0, 0, 0, 0, 0, 0, 0
    ]
  },
  {
    "groupID": 20011501,
    "tagIDs": [
      4002, 0, 4902, 3005, 0, 0, 0, 0, 0, 0, 0, 0, 0, 0, 0, 0, 0, 0, 0, 0
    ]
  },
  {
    "groupID": 20050201,
    "tagIDs": [4902, 3005, 0, 0, 0, 0, 0, 0, 0, 0, 0, 0, 0, 0, 0, 0, 0, 0, 0, 0]
  },
  {
    "groupID": 20050202,
    "tagIDs": [4902, 3005, 0, 0, 0, 0, 0, 0, 0, 0, 0, 0, 0, 0, 0, 0, 0, 0, 0, 0]
  },
  {
    "groupID": 20050301,
    "tagIDs": [4901, 3005, 0, 0, 0, 0, 0, 0, 0, 0, 0, 0, 0, 0, 0, 0, 0, 0, 0, 0]
  },
  {
    "groupID": 20050401,
    "tagIDs": [4902, 3005, 0, 0, 0, 0, 0, 0, 0, 0, 0, 0, 0, 0, 0, 0, 0, 0, 0, 0]
  },
  {
    "groupID": 20050402,
    "tagIDs": [4902, 3005, 0, 0, 0, 0, 0, 0, 0, 0, 0, 0, 0, 0, 0, 0, 0, 0, 0, 0]
  },
  {
    "groupID": 20050501,
    "tagIDs": [4902, 3005, 0, 0, 0, 0, 0, 0, 0, 0, 0, 0, 0, 0, 0, 0, 0, 0, 0, 0]
  },
  {
    "groupID": 20050601,
    "tagIDs": [4902, 3005, 0, 0, 0, 0, 0, 0, 0, 0, 0, 0, 0, 0, 0, 0, 0, 0, 0, 0]
  },
  {
    "groupID": 20050701,
    "tagIDs": [4902, 3005, 0, 0, 0, 0, 0, 0, 0, 0, 0, 0, 0, 0, 0, 0, 0, 0, 0, 0]
  },
  {
    "groupID": 20050702,
    "tagIDs": [4902, 3005, 0, 0, 0, 0, 0, 0, 0, 0, 0, 0, 0, 0, 0, 0, 0, 0, 0, 0]
  },
  {
    "groupID": 20050801,
    "tagIDs": [4902, 3005, 0, 0, 0, 0, 0, 0, 0, 0, 0, 0, 0, 0, 0, 0, 0, 0, 0, 0]
  },
  {
    "groupID": 20050901,
    "tagIDs": [4901, 3005, 0, 0, 0, 0, 0, 0, 0, 0, 0, 0, 0, 0, 0, 0, 0, 0, 0, 0]
  },
  {
    "groupID": 20060101,
    "tagIDs": [0, 0, 4901, 0, 0, 0, 0, 0, 0, 0, 0, 0, 0, 0, 0, 0, 0, 0, 0, 0]
  },
  {
    "groupID": 20060201,
    "tagIDs": [0, 0, 4901, 0, 0, 0, 0, 0, 0, 0, 0, 0, 0, 0, 0, 0, 0, 0, 0, 0]
  },
  {
    "groupID": 20060301,
    "tagIDs": [0, 0, 4901, 0, 0, 0, 0, 0, 0, 0, 0, 0, 0, 0, 0, 0, 0, 0, 0, 0]
  },
  {
    "groupID": 20060401,
    "tagIDs": [0, 0, 4901, 0, 0, 0, 0, 0, 0, 0, 0, 0, 0, 0, 0, 0, 0, 0, 0, 0]
  },
  {
    "groupID": 20060501,
    "tagIDs": [0, 0, 4901, 0, 0, 0, 0, 0, 0, 0, 0, 0, 0, 0, 0, 0, 0, 0, 0, 0]
  },
  {
    "groupID": 20060601,
    "tagIDs": [0, 0, 4901, 0, 0, 0, 0, 0, 0, 0, 0, 0, 0, 0, 0, 0, 0, 0, 0, 0]
  },
  {
    "groupID": 20060701,
    "tagIDs": [0, 0, 4901, 0, 0, 0, 0, 0, 0, 0, 0, 0, 0, 0, 0, 0, 0, 0, 0, 0]
  },
  {
    "groupID": 22010101,
    "tagIDs": [
      4004, 1054, 4901, 3005, 3006, 0, 0, 0, 0, 0, 0, 0, 0, 0, 0, 0, 0, 0, 0, 0
    ]
  },
  {
    "groupID": 22010201,
    "tagIDs": [
      4004, 1054, 4901, 3005, 3006, 0, 0, 0, 0, 0, 0, 0, 0, 0, 0, 0, 0, 0, 0, 0
    ]
  },
  {
    "groupID": 22010301,
    "tagIDs": [
      4004, 1054, 4901, 3005, 3006, 0, 0, 0, 0, 0, 0, 0, 0, 0, 0, 0, 0, 0, 0, 0
    ]
  },
  {
    "groupID": 22010401,
    "tagIDs": [
      4004, 1054, 4901, 3005, 3006, 0, 0, 0, 0, 0, 0, 0, 0, 0, 0, 0, 0, 0, 0, 0
    ]
  },
  {
    "groupID": 22020101,
    "tagIDs": [
      0, 1051, 4902, 3003, 3006, 0, 0, 0, 0, 0, 0, 0, 0, 0, 0, 0, 0, 0, 0, 0
    ]
  },
  {
    "groupID": 22030101,
    "tagIDs": [
      0, 1054, 4901, 3003, 3006, 0, 0, 0, 0, 0, 0, 0, 0, 0, 0, 0, 0, 0, 0, 0
    ]
  },
  {
    "groupID": 22040101,
    "tagIDs": [4011, 0, 4902, 0, 0, 0, 0, 0, 0, 0, 0, 0, 0, 0, 0, 0, 0, 0, 0, 0]
  },
  {
    "groupID": 22050101,
    "tagIDs": [4012, 0, 4902, 0, 0, 0, 0, 0, 0, 0, 0, 0, 0, 0, 0, 0, 0, 0, 0, 0]
  },
  {
    "groupID": 22060101,
    "tagIDs": [4010, 0, 0, 0, 0, 0, 0, 0, 0, 0, 0, 0, 0, 0, 0, 0, 0, 0, 0, 0]
  },
  {
    "groupID": 22070101,
    "tagIDs": [4013, 0, 4901, 0, 0, 0, 0, 0, 0, 0, 0, 0, 0, 0, 0, 0, 0, 0, 0, 0]
  },
  {
    "groupID": 22070201,
    "tagIDs": [4013, 0, 4902, 0, 0, 0, 0, 0, 0, 0, 0, 0, 0, 0, 0, 0, 0, 0, 0, 0]
  },
  {
    "groupID": 22070301,
    "tagIDs": [4013, 0, 4901, 0, 0, 0, 0, 0, 0, 0, 0, 0, 0, 0, 0, 0, 0, 0, 0, 0]
  },
  {
    "groupID": 22080101,
    "tagIDs": [4014, 0, 4902, 0, 0, 0, 0, 0, 0, 0, 0, 0, 0, 0, 0, 0, 0, 0, 0, 0]
  },
  {
    "groupID": 22080201,
    "tagIDs": [4014, 0, 4902, 0, 0, 0, 0, 0, 0, 0, 0, 0, 0, 0, 0, 0, 0, 0, 0, 0]
  },
  {
    "groupID": 21030101,
    "tagIDs": [
      4004, 1054, 4901, 0, 3006, 0, 0, 0, 0, 0, 0, 0, 0, 0, 0, 0, 0, 0, 0, 0
    ]
  },
  {
    "groupID": 21030201,
    "tagIDs": [
      4004, 1054, 4901, 0, 3006, 0, 0, 0, 0, 0, 0, 0, 0, 0, 0, 0, 0, 0, 0, 0
    ]
  },
  {
    "groupID": 21030301,
    "tagIDs": [
      4004, 1054, 4901, 0, 3006, 0, 0, 0, 0, 0, 0, 0, 0, 0, 0, 0, 0, 0, 0, 0
    ]
  },
  {
    "groupID": 21030401,
    "tagIDs": [
      4004, 1054, 4901, 0, 3006, 0, 0, 0, 0, 0, 0, 0, 0, 0, 0, 0, 0, 0, 0, 0
    ]
  },
  {
    "groupID": 21030501,
    "tagIDs": [
      4004, 1054, 4901, 0, 3006, 0, 0, 0, 0, 0, 0, 0, 0, 0, 0, 0, 0, 0, 0, 0
    ]
  },
  {
    "groupID": 21040101,
    "tagIDs": [
      4001, 4021, 4902, 0, 3006, 0, 0, 0, 0, 0, 0, 0, 0, 0, 0, 0, 0, 0, 0, 0
    ]
  },
  {
    "groupID": 21040201,
    "tagIDs": [
      4001, 4021, 4902, 0, 3006, 0, 0, 0, 0, 0, 0, 0, 0, 0, 0, 0, 0, 0, 0, 0
    ]
  },
  {
    "groupID": 24010101,
    "tagIDs": [4005, 0, 0, 0, 0, 0, 0, 0, 0, 0, 0, 0, 0, 0, 0, 0, 0, 0, 0, 0]
  },
  {
    "groupID": 24030101,
    "tagIDs": [4005, 0, 0, 0, 0, 0, 0, 0, 0, 0, 0, 0, 0, 0, 0, 0, 0, 0, 0, 0]
  },
  {
    "groupID": 24030201,
    "tagIDs": [4005, 0, 0, 0, 0, 0, 0, 0, 0, 0, 0, 0, 0, 0, 0, 0, 0, 0, 0, 0]
  },
  {
    "groupID": 24030301,
    "tagIDs": [4005, 0, 0, 0, 0, 0, 0, 0, 0, 0, 0, 0, 0, 0, 0, 0, 0, 0, 0, 0]
  },
  {
    "groupID": 24040101,
    "tagIDs": [4023, 0, 0, 0, 0, 0, 0, 0, 0, 0, 0, 0, 0, 0, 0, 0, 0, 0, 0, 0]
  },
  {
    "groupID": 24920101,
    "tagIDs": [4029, 0, 0, 0, 0, 0, 0, 0, 0, 0, 0, 0, 0, 0, 0, 0, 0, 0, 0, 0]
  },
  {
    "groupID": 24920201,
    "tagIDs": [4029, 0, 0, 0, 0, 0, 0, 0, 0, 0, 0, 0, 0, 0, 0, 0, 0, 0, 0, 0]
  },
  {
    "groupID": 24920301,
    "tagIDs": [4029, 0, 0, 0, 0, 0, 0, 0, 0, 0, 0, 0, 0, 0, 0, 0, 0, 0, 0, 0]
  },
  {
    "groupID": 21010801,
    "tagIDs": [4001, 0, 0, 0, 3006, 0, 0, 0, 0, 0, 0, 0, 0, 0, 0, 0, 0, 0, 0, 0]
  },
  {
    "groupID": 21010102,
    "tagIDs": [4001, 0, 0, 0, 3006, 0, 0, 0, 0, 0, 0, 0, 0, 0, 0, 0, 0, 0, 0, 0]
  },
  {
    "groupID": 23010101,
    "tagIDs": [
      4009, 4902, 3005, 0, 3006, 0, 0, 0, 0, 0, 0, 0, 0, 0, 0, 0, 0, 0, 0, 0
    ]
  },
  {
    "groupID": 23010201,
    "tagIDs": [
      4009, 4901, 3005, 0, 3006, 0, 0, 0, 0, 0, 0, 0, 0, 0, 0, 0, 0, 0, 0, 0
    ]
  },
  {
    "groupID": 23010301,
    "tagIDs": [
      4009, 4902, 3005, 0, 3006, 0, 0, 0, 0, 0, 0, 0, 0, 0, 0, 0, 0, 0, 0, 0
    ]
  },
  {
    "groupID": 23010401,
    "tagIDs": [
      4009, 4901, 3005, 0, 3006, 0, 0, 0, 0, 0, 0, 0, 0, 0, 0, 0, 0, 0, 0, 0
    ]
  },
  {
    "groupID": 23010501,
    "tagIDs": [
      4009, 4902, 3005, 0, 3006, 0, 0, 0, 0, 0, 0, 0, 0, 0, 0, 0, 0, 0, 0, 0
    ]
  },
  {
    "groupID": 23010601,
    "tagIDs": [
      4009, 4901, 3005, 0, 3006, 0, 0, 0, 0, 0, 0, 0, 0, 0, 0, 0, 0, 0, 0, 0
    ]
  },
  {
    "groupID": 23030101,
    "tagIDs": [4009, 0, 0, 0, 3006, 0, 0, 0, 0, 0, 0, 0, 0, 0, 0, 0, 0, 0, 0, 0]
  },
  {
    "groupID": 23020101,
    "tagIDs": [4009, 0, 0, 0, 3006, 0, 0, 0, 0, 0, 0, 0, 0, 0, 0, 0, 0, 0, 0, 0]
  },
  {
    "groupID": 25080101,
    "tagIDs": [4902, 0, 0, 0, 3006, 0, 0, 0, 0, 0, 0, 0, 0, 0, 0, 0, 0, 0, 0, 0]
  },
  {
    "groupID": 25090101,
    "tagIDs": [4902, 0, 0, 0, 0, 0, 0, 0, 0, 0, 0, 0, 0, 0, 0, 0, 0, 0, 0, 0]
  },
  {
    "groupID": 28010101,
    "tagIDs": [9001, 9005, 0, 0, 0, 0, 0, 0, 0, 0, 0, 0, 0, 0, 0, 0, 0, 0, 0, 0]
  },
  {
    "groupID": 28010102,
    "tagIDs": [9001, 9005, 0, 0, 0, 0, 0, 0, 0, 0, 0, 0, 0, 0, 0, 0, 0, 0, 0, 0]
  },
  {
    "groupID": 28010103,
    "tagIDs": [9001, 9005, 0, 0, 0, 0, 0, 0, 0, 0, 0, 0, 0, 0, 0, 0, 0, 0, 0, 0]
  },
  {
    "groupID": 28020101,
    "tagIDs": [
      9001, 9003, 9102, 0, 0, 0, 0, 0, 0, 0, 0, 0, 0, 0, 0, 0, 0, 0, 0, 0
    ]
  },
  {
    "groupID": 28020102,
    "tagIDs": [
      9001, 9003, 9102, 0, 0, 0, 0, 0, 0, 0, 0, 0, 0, 0, 0, 0, 0, 0, 0, 0
    ]
  },
  {
    "groupID": 28020103,
    "tagIDs": [
      9001, 9003, 9102, 0, 0, 0, 0, 0, 0, 0, 0, 0, 0, 0, 0, 0, 0, 0, 0, 0
    ]
  },
  {
    "groupID": 28020104,
    "tagIDs": [
      9001, 9003, 9102, 0, 0, 0, 0, 0, 0, 0, 0, 0, 0, 0, 0, 0, 0, 0, 0, 0
    ]
  },
  {
    "groupID": 28020201,
    "tagIDs": [
      9001, 9003, 9102, 0, 0, 0, 0, 0, 0, 0, 0, 0, 0, 0, 0, 0, 0, 0, 0, 0
    ]
  },
  {
    "groupID": 28010201,
    "tagIDs": [9001, 9005, 0, 0, 0, 0, 0, 0, 0, 0, 0, 0, 0, 0, 0, 0, 0, 0, 0, 0]
  },
  {
    "groupID": 28010202,
    "tagIDs": [9001, 9005, 0, 0, 0, 0, 0, 0, 0, 0, 0, 0, 0, 0, 0, 0, 0, 0, 0, 0]
  },
  {
    "groupID": 28010203,
    "tagIDs": [9001, 9005, 0, 0, 0, 0, 0, 0, 0, 0, 0, 0, 0, 0, 0, 0, 0, 0, 0, 0]
  },
  {
    "groupID": 28010204,
    "tagIDs": [9001, 9005, 0, 0, 0, 0, 0, 0, 0, 0, 0, 0, 0, 0, 0, 0, 0, 0, 0, 0]
  },
  {
    "groupID": 28010205,
    "tagIDs": [9001, 9005, 0, 0, 0, 0, 0, 0, 0, 0, 0, 0, 0, 0, 0, 0, 0, 0, 0, 0]
  },
  {
    "groupID": 28010206,
    "tagIDs": [9001, 9005, 0, 0, 0, 0, 0, 0, 0, 0, 0, 0, 0, 0, 0, 0, 0, 0, 0, 0]
  },
  {
    "groupID": 28010301,
    "tagIDs": [9001, 9005, 0, 0, 0, 0, 0, 0, 0, 0, 0, 0, 0, 0, 0, 0, 0, 0, 0, 0]
  },
  {
    "groupID": 28010302,
    "tagIDs": [9001, 9005, 0, 0, 0, 0, 0, 0, 0, 0, 0, 0, 0, 0, 0, 0, 0, 0, 0, 0]
  },
  {
    "groupID": 28010303,
    "tagIDs": [9001, 9005, 0, 0, 0, 0, 0, 0, 0, 0, 0, 0, 0, 0, 0, 0, 0, 0, 0, 0]
  },
  {
    "groupID": 28010304,
    "tagIDs": [9001, 9005, 0, 0, 0, 0, 0, 0, 0, 0, 0, 0, 0, 0, 0, 0, 0, 0, 0, 0]
  },
  {
    "groupID": 28010401,
    "tagIDs": [9001, 9005, 0, 0, 0, 0, 0, 0, 0, 0, 0, 0, 0, 0, 0, 0, 0, 0, 0, 0]
  },
  {
    "groupID": 28020301,
    "tagIDs": [
      9001, 9003, 9102, 0, 0, 0, 0, 0, 0, 0, 0, 0, 0, 0, 0, 0, 0, 0, 0, 0
    ]
  },
  {
    "groupID": 28020302,
    "tagIDs": [
      9001, 9003, 9102, 0, 0, 0, 0, 0, 0, 0, 0, 0, 0, 0, 0, 0, 0, 0, 0, 0
    ]
  },
  {
    "groupID": 28020401,
    "tagIDs": [9001, 9003, 0, 0, 0, 0, 0, 0, 0, 0, 0, 0, 0, 0, 0, 0, 0, 0, 0, 0]
  },
  {
    "groupID": 28020402,
    "tagIDs": [9001, 9003, 0, 0, 0, 0, 0, 0, 0, 0, 0, 0, 0, 0, 0, 0, 0, 0, 0, 0]
  },
  {
    "groupID": 28020403,
    "tagIDs": [9001, 9003, 0, 0, 0, 0, 0, 0, 0, 0, 0, 0, 0, 0, 0, 0, 0, 0, 0, 0]
  },
  {
    "groupID": 28020404,
    "tagIDs": [9001, 9003, 0, 0, 0, 0, 0, 0, 0, 0, 0, 0, 0, 0, 0, 0, 0, 0, 0, 0]
  },
  {
    "groupID": 28020501,
    "tagIDs": [9001, 9003, 0, 0, 0, 0, 0, 0, 0, 0, 0, 0, 0, 0, 0, 0, 0, 0, 0, 0]
  },
  {
    "groupID": 28020502,
    "tagIDs": [9001, 9003, 0, 0, 0, 0, 0, 0, 0, 0, 0, 0, 0, 0, 0, 0, 0, 0, 0, 0]
  },
  {
    "groupID": 28020503,
    "tagIDs": [9001, 9003, 0, 0, 0, 0, 0, 0, 0, 0, 0, 0, 0, 0, 0, 0, 0, 0, 0, 0]
  },
  {
    "groupID": 28020504,
    "tagIDs": [9001, 9003, 0, 0, 0, 0, 0, 0, 0, 0, 0, 0, 0, 0, 0, 0, 0, 0, 0, 0]
  },
  {
    "groupID": 28020505,
    "tagIDs": [9001, 9003, 0, 0, 0, 0, 0, 0, 0, 0, 0, 0, 0, 0, 0, 0, 0, 0, 0, 0]
  },
  {
    "groupID": 28020506,
    "tagIDs": [9001, 9003, 0, 0, 0, 0, 0, 0, 0, 0, 0, 0, 0, 0, 0, 0, 0, 0, 0, 0]
  },
  {
    "groupID": 28020507,
    "tagIDs": [9001, 9003, 0, 0, 0, 0, 0, 0, 0, 0, 0, 0, 0, 0, 0, 0, 0, 0, 0, 0]
  },
  {
    "groupID": 28020601,
    "tagIDs": [
      9001, 9003, 9102, 0, 0, 0, 0, 0, 0, 0, 0, 0, 0, 0, 0, 0, 0, 0, 0, 0
    ]
  },
  {
    "groupID": 28020602,
    "tagIDs": [
      9001, 9003, 9102, 0, 0, 0, 0, 0, 0, 0, 0, 0, 0, 0, 0, 0, 0, 0, 0, 0
    ]
  },
  {
    "groupID": 28020603,
    "tagIDs": [
      9001, 9003, 9102, 0, 0, 0, 0, 0, 0, 0, 0, 0, 0, 0, 0, 0, 0, 0, 0, 0
    ]
  },
  {
    "groupID": 28020604,
    "tagIDs": [
      9001, 9003, 9102, 0, 0, 0, 0, 0, 0, 0, 0, 0, 0, 0, 0, 0, 0, 0, 0, 0
    ]
  },
  {
    "groupID": 28020605,
    "tagIDs": [
      9001, 9003, 9102, 0, 0, 0, 0, 0, 0, 0, 0, 0, 0, 0, 0, 0, 0, 0, 0, 0
    ]
  },
  {
    "groupID": 28021001,
    "tagIDs": [9001, 9003, 0, 0, 0, 0, 0, 0, 0, 0, 0, 0, 0, 0, 0, 0, 0, 0, 0, 0]
  },
  {
    "groupID": 28030101,
    "tagIDs": [
      9001, 9002, 9101, 0, 0, 0, 0, 0, 0, 0, 0, 0, 0, 0, 0, 0, 0, 0, 0, 0
    ]
  },
  {
    "groupID": 28030201,
    "tagIDs": [
      9001, 9002, 9101, 0, 0, 0, 0, 0, 0, 0, 0, 0, 0, 0, 0, 0, 0, 0, 0, 0
    ]
  },
  {
    "groupID": 28030202,
    "tagIDs": [
      9001, 9002, 9101, 0, 0, 0, 0, 0, 0, 0, 0, 0, 0, 0, 0, 0, 0, 0, 0, 0
    ]
  },
  {
    "groupID": 28030203,
    "tagIDs": [
      9001, 9002, 9101, 0, 0, 0, 0, 0, 0, 0, 0, 0, 0, 0, 0, 0, 0, 0, 0, 0
    ]
  },
  {
    "groupID": 28030204,
    "tagIDs": [
      9001, 9002, 9101, 0, 0, 0, 0, 0, 0, 0, 0, 0, 0, 0, 0, 0, 0, 0, 0, 0
    ]
  },
  {
    "groupID": 28030301,
    "tagIDs": [
      9001, 9002, 9101, 0, 0, 0, 0, 0, 0, 0, 0, 0, 0, 0, 0, 0, 0, 0, 0, 0
    ]
  },
  {
    "groupID": 28030302,
    "tagIDs": [
      9001, 9002, 9101, 0, 0, 0, 0, 0, 0, 0, 0, 0, 0, 0, 0, 0, 0, 0, 0, 0
    ]
  },
  {
    "groupID": 28030303,
    "tagIDs": [
      9001, 9002, 9101, 0, 0, 0, 0, 0, 0, 0, 0, 0, 0, 0, 0, 0, 0, 0, 0, 0
    ]
  },
  {
    "groupID": 28030304,
    "tagIDs": [
      9001, 9002, 9101, 0, 0, 0, 0, 0, 0, 0, 0, 0, 0, 0, 0, 0, 0, 0, 0, 0
    ]
  },
  {
    "groupID": 28030305,
    "tagIDs": [
      9001, 9002, 9101, 0, 0, 0, 0, 0, 0, 0, 0, 0, 0, 0, 0, 0, 0, 0, 0, 0
    ]
  },
  {
    "groupID": 28030313,
    "tagIDs": [
      9001, 9002, 9101, 0, 0, 0, 0, 0, 0, 0, 0, 0, 0, 0, 0, 0, 0, 0, 0, 0
    ]
  },
  {
    "groupID": 28030401,
    "tagIDs": [
      9001, 9002, 9101, 0, 0, 0, 0, 0, 0, 0, 0, 0, 0, 0, 0, 0, 0, 0, 0, 0
    ]
  },
  {
    "groupID": 28030402,
    "tagIDs": [
      9001, 9002, 9101, 0, 0, 0, 0, 0, 0, 0, 0, 0, 0, 0, 0, 0, 0, 0, 0, 0
    ]
  },
  {
    "groupID": 28030403,
    "tagIDs": [
      9001, 9002, 9101, 0, 0, 0, 0, 0, 0, 0, 0, 0, 0, 0, 0, 0, 0, 0, 0, 0
    ]
  },
  {
    "groupID": 28030404,
    "tagIDs": [
      9001, 9002, 9101, 0, 0, 0, 0, 0, 0, 0, 0, 0, 0, 0, 0, 0, 0, 0, 0, 0
    ]
  },
  {
    "groupID": 28030501,
    "tagIDs": [
      9001, 9002, 9101, 0, 0, 0, 0, 0, 0, 0, 0, 0, 0, 0, 0, 0, 0, 0, 0, 0
    ]
  },
  {
    "groupID": 28030502,
    "tagIDs": [
      9001, 9002, 9101, 0, 0, 0, 0, 0, 0, 0, 0, 0, 0, 0, 0, 0, 0, 0, 0, 0
    ]
  },
  {
    "groupID": 28030503,
    "tagIDs": [
      9001, 9002, 9101, 0, 0, 0, 0, 0, 0, 0, 0, 0, 0, 0, 0, 0, 0, 0, 0, 0
    ]
  },
  {
    "groupID": 28020203,
    "tagIDs": [9001, 0, 0, 0, 0, 0, 0, 0, 0, 0, 0, 0, 0, 0, 0, 0, 0, 0, 0, 0]
  },
  {
    "groupID": 28040101,
    "tagIDs": [9001, 9002, 0, 0, 0, 0, 0, 0, 0, 0, 0, 0, 0, 0, 0, 0, 0, 0, 0, 0]
  },
  {
    "groupID": 28040102,
    "tagIDs": [9001, 9002, 0, 0, 0, 0, 0, 0, 0, 0, 0, 0, 0, 0, 0, 0, 0, 0, 0, 0]
  },
  {
    "groupID": 28040103,
    "tagIDs": [9001, 9002, 0, 0, 0, 0, 0, 0, 0, 0, 0, 0, 0, 0, 0, 0, 0, 0, 0, 0]
  },
  {
    "groupID": 28040201,
    "tagIDs": [
      9001, 9004, 9200, 9201, 9301, 0, 0, 0, 0, 0, 0, 0, 0, 0, 0, 0, 0, 0, 0, 0
    ]
  },
  {
    "groupID": 28040202,
    "tagIDs": [
      9001, 9004, 9200, 9201, 9301, 0, 0, 0, 0, 0, 0, 0, 0, 0, 0, 0, 0, 0, 0, 0
    ]
  },
  {
    "groupID": 28040203,
    "tagIDs": [
      9001, 9004, 9200, 9201, 9301, 0, 0, 0, 0, 0, 0, 0, 0, 0, 0, 0, 0, 0, 0, 0
    ]
  },
  {
    "groupID": 28040204,
    "tagIDs": [
      9001, 9004, 9200, 9201, 9301, 0, 0, 0, 0, 0, 0, 0, 0, 0, 0, 0, 0, 0, 0, 0
    ]
  },
  {
    "groupID": 28040205,
    "tagIDs": [
      9001, 9004, 9200, 9201, 9302, 0, 0, 0, 0, 0, 0, 0, 0, 0, 0, 0, 0, 0, 0, 0
    ]
  },
  {
    "groupID": 28040206,
    "tagIDs": [
      9001, 9004, 9200, 9201, 9303, 0, 0, 0, 0, 0, 0, 0, 0, 0, 0, 0, 0, 0, 0, 0
    ]
  },
  {
    "groupID": 28040301,
    "tagIDs": [
      9001, 9004, 9200, 9202, 9302, 0, 0, 0, 0, 0, 0, 0, 0, 0, 0, 0, 0, 0, 0, 0
    ]
  },
  {
    "groupID": 28040302,
    "tagIDs": [
      9001, 9004, 9200, 9202, 9302, 0, 0, 0, 0, 0, 0, 0, 0, 0, 0, 0, 0, 0, 0, 0
    ]
  },
  {
    "groupID": 28040303,
    "tagIDs": [
      9001, 9004, 9200, 9202, 9302, 0, 0, 0, 0, 0, 0, 0, 0, 0, 0, 0, 0, 0, 0, 0
    ]
  },
  {
    "groupID": 28040304,
    "tagIDs": [
      9001, 9004, 9200, 9202, 9303, 0, 0, 0, 0, 0, 0, 0, 0, 0, 0, 0, 0, 0, 0, 0
    ]
  },
  {
    "groupID": 28040305,
    "tagIDs": [
      9001, 9004, 9200, 9202, 9302, 0, 0, 0, 0, 0, 0, 0, 0, 0, 0, 0, 0, 0, 0, 0
    ]
  },
  {
    "groupID": 28040401,
    "tagIDs": [
      9001, 9004, 9200, 9204, 9301, 0, 0, 0, 0, 0, 0, 0, 0, 0, 0, 0, 0, 0, 0, 0
    ]
  },
  {
    "groupID": 28040402,
    "tagIDs": [
      9001, 9004, 9200, 9204, 9301, 0, 0, 0, 0, 0, 0, 0, 0, 0, 0, 0, 0, 0, 0, 0
    ]
  },
  {
    "groupID": 28040501,
    "tagIDs": [
      9001, 9004, 9200, 9203, 9303, 0, 0, 0, 0, 0, 0, 0, 0, 0, 0, 0, 0, 0, 0, 0
    ]
  },
  {
    "groupID": 28040502,
    "tagIDs": [
      9001, 9004, 9200, 9203, 9303, 0, 0, 0, 0, 0, 0, 0, 0, 0, 0, 0, 0, 0, 0, 0
    ]
  },
  {
    "groupID": 28040503,
    "tagIDs": [
      9001, 9004, 9200, 9203, 9303, 0, 0, 0, 0, 0, 0, 0, 0, 0, 0, 0, 0, 0, 0, 0
    ]
  },
  {
    "groupID": 28040504,
    "tagIDs": [
      9001, 9004, 9200, 9203, 9303, 0, 0, 0, 0, 0, 0, 0, 0, 0, 0, 0, 0, 0, 0, 0
    ]
  },
  {
    "groupID": 28040505,
    "tagIDs": [
      9001, 9004, 9200, 9203, 9302, 0, 0, 0, 0, 0, 0, 0, 0, 0, 0, 0, 0, 0, 0, 0
    ]
  },
  {
    "groupID": 28040506,
    "tagIDs": [
      9001, 9004, 9200, 9901, 9302, 0, 0, 0, 0, 0, 0, 0, 0, 0, 0, 0, 0, 0, 0, 0
    ]
  },
  {
    "groupID": 28040601,
    "tagIDs": [
      9001, 9004, 9200, 9205, 9301, 0, 0, 0, 0, 0, 0, 0, 0, 0, 0, 0, 0, 0, 0, 0
    ]
  },
  {
    "groupID": 28040602,
    "tagIDs": [
      9001, 9004, 9200, 9205, 9301, 0, 0, 0, 0, 0, 0, 0, 0, 0, 0, 0, 0, 0, 0, 0
    ]
  },
  {
    "groupID": 28040701,
    "tagIDs": [
      9001, 9004, 9200, 9206, 9301, 0, 0, 0, 0, 0, 0, 0, 0, 0, 0, 0, 0, 0, 0, 0
    ]
  },
  {
    "groupID": 28040702,
    "tagIDs": [
      9001, 9004, 9200, 9206, 9301, 0, 0, 0, 0, 0, 0, 0, 0, 0, 0, 0, 0, 0, 0, 0
    ]
  },
  {
    "groupID": 28040801,
    "tagIDs": [
      9001, 9004, 9200, 9207, 9301, 0, 0, 0, 0, 0, 0, 0, 0, 0, 0, 0, 0, 0, 0, 0
    ]
  },
  {
    "groupID": 28040802,
    "tagIDs": [
      9001, 9004, 9200, 9207, 9301, 0, 0, 0, 0, 0, 0, 0, 0, 0, 0, 0, 0, 0, 0, 0
    ]
  },
  {
    "groupID": 28040803,
    "tagIDs": [
      9001, 9004, 9200, 9207, 9303, 0, 0, 0, 0, 0, 0, 0, 0, 0, 0, 0, 0, 0, 0, 0
    ]
  },
  {
    "groupID": 28040804,
    "tagIDs": [
      9001, 9004, 9200, 9207, 9302, 0, 0, 0, 0, 0, 0, 0, 0, 0, 0, 0, 0, 0, 0, 0
    ]
  },
  {
    "groupID": 28040901,
    "tagIDs": [
      9001, 9004, 9200, 9208, 9301, 0, 0, 0, 0, 0, 0, 0, 0, 0, 0, 0, 0, 0, 0, 0
    ]
  },
  {
    "groupID": 28040902,
    "tagIDs": [
      9001, 9004, 9200, 9208, 9301, 0, 0, 0, 0, 0, 0, 0, 0, 0, 0, 0, 0, 0, 0, 0
    ]
  },
  {
    "groupID": 28050101,
    "tagIDs": [9001, 9005, 0, 0, 0, 0, 0, 0, 0, 0, 0, 0, 0, 0, 0, 0, 0, 0, 0, 0]
  },
  {
    "groupID": 28050102,
    "tagIDs": [9001, 9005, 0, 0, 0, 0, 0, 0, 0, 0, 0, 0, 0, 0, 0, 0, 0, 0, 0, 0]
  },
  {
    "groupID": 28050103,
    "tagIDs": [9001, 9005, 0, 0, 0, 0, 0, 0, 0, 0, 0, 0, 0, 0, 0, 0, 0, 0, 0, 0]
  },
  {
    "groupID": 28050201,
    "tagIDs": [9001, 9003, 0, 0, 0, 0, 0, 0, 0, 0, 0, 0, 0, 0, 0, 0, 0, 0, 0, 0]
  },
  {
    "groupID": 28050202,
    "tagIDs": [9001, 9003, 0, 0, 0, 0, 0, 0, 0, 0, 0, 0, 0, 0, 0, 0, 0, 0, 0, 0]
  },
  {
    "groupID": 28050203,
    "tagIDs": [9001, 9003, 0, 0, 0, 0, 0, 0, 0, 0, 0, 0, 0, 0, 0, 0, 0, 0, 0, 0]
  },
  {
    "groupID": 28050301,
    "tagIDs": [9001, 9005, 0, 0, 0, 0, 0, 0, 0, 0, 0, 0, 0, 0, 0, 0, 0, 0, 0, 0]
  },
  {
    "groupID": 28060101,
    "tagIDs": [
      9001, 9003, 9102, 0, 0, 0, 0, 0, 0, 0, 0, 0, 0, 0, 0, 0, 0, 0, 0, 0
    ]
  },
  {
    "groupID": 28060201,
    "tagIDs": [
      9001, 9003, 9102, 0, 0, 0, 0, 0, 0, 0, 0, 0, 0, 0, 0, 0, 0, 0, 0, 0
    ]
  },
  {
    "groupID": 28060301,
    "tagIDs": [
      9001, 9002, 9101, 0, 0, 0, 0, 0, 0, 0, 0, 0, 0, 0, 0, 0, 0, 0, 0, 0
    ]
  },
  {
    "groupID": 28060401,
    "tagIDs": [
      9001, 9003, 9102, 0, 0, 0, 0, 0, 0, 0, 0, 0, 0, 0, 0, 0, 0, 0, 0, 0
    ]
  },
  {
    "groupID": 28060501,
    "tagIDs": [
      9001, 9003, 9102, 0, 0, 0, 0, 0, 0, 0, 0, 0, 0, 0, 0, 0, 0, 0, 0, 0
    ]
  },
  {
    "groupID": 28060601,
    "tagIDs": [
      9001, 9003, 9102, 0, 0, 0, 0, 0, 0, 0, 0, 0, 0, 0, 0, 0, 0, 0, 0, 0
    ]
  },
  {
    "groupID": 28061501,
    "tagIDs": [
      9001, 9003, 9102, 0, 0, 0, 0, 0, 0, 0, 0, 0, 0, 0, 0, 0, 0, 0, 0, 0
    ]
  },
  {
    "groupID": 25010101,
    "tagIDs": [
      4006, 4901, 0, 0, 3006, 0, 0, 0, 0, 0, 0, 0, 0, 0, 0, 0, 0, 0, 0, 0
    ]
  },
  {
    "groupID": 25020101,
    "tagIDs": [
      4006, 4902, 0, 0, 3006, 0, 0, 0, 0, 0, 0, 0, 0, 0, 0, 0, 0, 0, 0, 0
    ]
  },
  {
    "groupID": 25030101,
    "tagIDs": [
      4006, 4901, 0, 0, 3006, 0, 0, 0, 0, 0, 0, 0, 0, 0, 0, 0, 0, 0, 0, 0
    ]
  },
  {
    "groupID": 25040101,
    "tagIDs": [
      4006, 4901, 0, 0, 3006, 0, 0, 0, 0, 0, 0, 0, 0, 0, 0, 0, 0, 0, 0, 0
    ]
  },
  {
    "groupID": 25050101,
    "tagIDs": [
      4007, 4901, 0, 0, 3006, 0, 0, 0, 0, 0, 0, 0, 0, 0, 0, 0, 0, 0, 0, 0
    ]
  },
  {
    "groupID": 25050201,
    "tagIDs": [
      4007, 4901, 4903, 0, 3006, 0, 0, 0, 0, 0, 0, 0, 0, 0, 0, 0, 0, 0, 0, 0
    ]
  },
  {
    "groupID": 26010101,
    "tagIDs": [4008, 0, 0, 0, 3006, 0, 0, 0, 0, 0, 0, 0, 0, 0, 0, 0, 0, 0, 0, 0]
  },
  {
    "groupID": 26020101,
    "tagIDs": [4008, 0, 0, 0, 3006, 0, 0, 0, 0, 0, 0, 0, 0, 0, 0, 0, 0, 0, 0, 0]
  },
  {
    "groupID": 25010201,
    "tagIDs": [
      4006, 4902, 0, 0, 3006, 0, 0, 0, 0, 0, 0, 0, 0, 0, 0, 0, 0, 0, 0, 0
    ]
  },
  {
    "groupID": 25010301,
    "tagIDs": [
      4006, 4902, 0, 0, 3006, 0, 0, 0, 0, 0, 0, 0, 0, 0, 0, 0, 0, 0, 0, 0
    ]
  },
  {
    "groupID": 25010401,
    "tagIDs": [
      4006, 4902, 0, 0, 3006, 0, 0, 0, 0, 0, 0, 0, 0, 0, 0, 0, 0, 0, 0, 0
    ]
  },
  {
    "groupID": 25010501,
    "tagIDs": [
      4006, 4902, 0, 0, 3006, 0, 0, 0, 0, 0, 0, 0, 0, 0, 0, 0, 0, 0, 0, 0
    ]
  },
  {
    "groupID": 25010601,
    "tagIDs": [
      4006, 4901, 0, 0, 3006, 0, 0, 0, 0, 0, 0, 0, 0, 0, 0, 0, 0, 0, 0, 0
    ]
  },
  {
    "groupID": 25010701,
    "tagIDs": [
      4006, 4901, 0, 0, 3006, 0, 0, 0, 0, 0, 0, 0, 0, 0, 0, 0, 0, 0, 0, 0
    ]
  },
  {
    "groupID": 25020201,
    "tagIDs": [
      4006, 4902, 0, 0, 3006, 0, 0, 0, 0, 0, 0, 0, 0, 0, 0, 0, 0, 0, 0, 0
    ]
  },
  {
    "groupID": 25030201,
    "tagIDs": [
      4006, 4902, 0, 0, 3006, 0, 0, 0, 0, 0, 0, 0, 0, 0, 0, 0, 0, 0, 0, 0
    ]
  },
  {
    "groupID": 25030301,
    "tagIDs": [
      4006, 4901, 0, 0, 3006, 0, 0, 0, 0, 0, 0, 0, 0, 0, 0, 0, 0, 0, 0, 0
    ]
  },
  {
    "groupID": 25060101,
    "tagIDs": [
      4006, 4901, 0, 0, 3006, 0, 0, 0, 0, 0, 0, 0, 0, 0, 0, 0, 0, 0, 0, 0
    ]
  },
  {
    "groupID": 25070101,
    "tagIDs": [
      4006, 4901, 0, 0, 3006, 0, 0, 0, 0, 0, 0, 0, 0, 0, 0, 0, 0, 0, 0, 0
    ]
  },
  {
    "groupID": 25110101,
    "tagIDs": [
      4022, 4902, 4024, 0, 0, 0, 0, 0, 0, 0, 0, 0, 0, 0, 0, 0, 0, 0, 0, 0
    ]
  },
  {
    "groupID": 25110201,
    "tagIDs": [
      4022, 4901, 4024, 0, 0, 0, 0, 0, 0, 0, 0, 0, 0, 0, 0, 0, 0, 0, 0, 0
    ]
  },
  {
    "groupID": 25210101,
    "tagIDs": [
      4016, 4902, 0, 0, 3006, 0, 0, 0, 0, 0, 0, 0, 0, 0, 0, 0, 0, 0, 0, 0
    ]
  },
  {
    "groupID": 25210151,
    "tagIDs": [
      4017, 4902, 0, 0, 3006, 0, 0, 0, 0, 0, 0, 0, 0, 0, 0, 0, 0, 0, 0, 0
    ]
  },
  {
    "groupID": 25210201,
    "tagIDs": [
      4016, 4901, 0, 0, 3006, 0, 0, 0, 0, 0, 0, 0, 0, 0, 0, 0, 0, 0, 0, 0
    ]
  },
  {
    "groupID": 25210251,
    "tagIDs": [
      4017, 4901, 0, 0, 3006, 0, 0, 0, 0, 0, 0, 0, 0, 0, 0, 0, 0, 0, 0, 0
    ]
  },
  {
    "groupID": 25210301,
    "tagIDs": [
      4016, 4902, 0, 0, 3006, 0, 0, 0, 0, 0, 0, 0, 0, 0, 0, 0, 0, 0, 0, 0
    ]
  },
  {
    "groupID": 25210351,
    "tagIDs": [
      4017, 4902, 0, 0, 3006, 0, 0, 0, 0, 0, 0, 0, 0, 0, 0, 0, 0, 0, 0, 0
    ]
  },
  {
    "groupID": 25210401,
    "tagIDs": [
      4016, 4902, 0, 0, 3006, 0, 0, 0, 0, 0, 0, 0, 0, 0, 0, 0, 0, 0, 0, 0
    ]
  },
  {
    "groupID": 25210451,
    "tagIDs": [
      4017, 4902, 0, 0, 3006, 0, 0, 0, 0, 0, 0, 0, 0, 0, 0, 0, 0, 0, 0, 0
    ]
  },
  {
    "groupID": 25210501,
    "tagIDs": [
      4016, 4902, 0, 0, 3006, 0, 0, 0, 0, 0, 0, 0, 0, 0, 0, 0, 0, 0, 0, 0
    ]
  },
  {
    "groupID": 25210551,
    "tagIDs": [
      4017, 4902, 0, 0, 3006, 0, 0, 0, 0, 0, 0, 0, 0, 0, 0, 0, 0, 0, 0, 0
    ]
  },
  {
    "groupID": 25210601,
    "tagIDs": [
      4016, 4902, 0, 0, 3006, 0, 0, 0, 0, 0, 0, 0, 0, 0, 0, 0, 0, 0, 0, 0
    ]
  },
  {
    "groupID": 25310101,
    "tagIDs": [
      4016, 4902, 0, 0, 3006, 0, 0, 0, 0, 0, 0, 0, 0, 0, 0, 0, 0, 0, 0, 0
    ]
  },
  {
    "groupID": 25310201,
    "tagIDs": [
      4016, 4902, 0, 0, 3006, 0, 0, 0, 0, 0, 0, 0, 0, 0, 0, 0, 0, 0, 0, 0
    ]
  },
  {
    "groupID": 25310301,
    "tagIDs": [
      4016, 4902, 0, 0, 3006, 0, 0, 0, 0, 0, 0, 0, 0, 0, 0, 0, 0, 0, 0, 0
    ]
  },
  {
    "groupID": 25410101,
    "tagIDs": [
      4016, 4902, 0, 0, 3006, 0, 0, 0, 0, 0, 0, 0, 0, 0, 0, 0, 0, 0, 0, 0
    ]
  },
  {
    "groupID": 25410201,
    "tagIDs": [
      4016, 4901, 0, 0, 3006, 0, 0, 0, 0, 0, 0, 0, 0, 0, 0, 0, 0, 0, 0, 0
    ]
  },
  {
    "groupID": 26060101,
    "tagIDs": [0, 0, 4901, 0, 3006, 0, 0, 0, 0, 0, 0, 0, 0, 0, 0, 0, 0, 0, 0, 0]
  },
  {
    "groupID": 26060201,
    "tagIDs": [0, 0, 4901, 0, 3006, 0, 0, 0, 0, 0, 0, 0, 0, 0, 0, 0, 0, 0, 0, 0]
  },
  {
    "groupID": 26060301,
    "tagIDs": [0, 0, 4901, 0, 3006, 0, 0, 0, 0, 0, 0, 0, 0, 0, 0, 0, 0, 0, 0, 0]
  },
  {
    "groupID": 26090101,
    "tagIDs": [
      4008, 4019, 4901, 0, 0, 0, 0, 0, 0, 0, 0, 0, 0, 0, 0, 0, 0, 0, 0, 0
    ]
  },
  {
    "groupID": 26090201,
    "tagIDs": [
      4008, 4019, 4901, 0, 0, 0, 0, 0, 0, 0, 0, 0, 0, 0, 0, 0, 0, 0, 0, 0
    ]
  },
  {
    "groupID": 26090301,
    "tagIDs": [
      4008, 4019, 4901, 0, 0, 0, 0, 0, 0, 0, 0, 0, 0, 0, 0, 0, 0, 0, 0, 0
    ]
  },
  {
    "groupID": 26090401,
    "tagIDs": [
      4008, 4018, 4902, 0, 0, 0, 0, 0, 0, 0, 0, 0, 0, 0, 0, 0, 0, 0, 0, 0
    ]
  },
  {
    "groupID": 26090501,
    "tagIDs": [
      4008, 4018, 4902, 0, 0, 0, 0, 0, 0, 0, 0, 0, 0, 0, 0, 0, 0, 0, 0, 0
    ]
  },
  {
    "groupID": 26090601,
    "tagIDs": [
      4008, 4018, 4902, 0, 0, 0, 0, 0, 0, 0, 0, 0, 0, 0, 0, 0, 0, 0, 0, 0
    ]
  },
  {
    "groupID": 26090701,
    "tagIDs": [
      4008, 4020, 4902, 0, 0, 0, 0, 0, 0, 0, 0, 0, 0, 0, 0, 0, 0, 0, 0, 0
    ]
  },
  {
    "groupID": 26090801,
    "tagIDs": [
      4008, 4020, 4901, 0, 0, 0, 0, 0, 0, 0, 0, 0, 0, 0, 0, 0, 0, 0, 0, 0
    ]
  },
  {
    "groupID": 26090901,
    "tagIDs": [
      4008, 4020, 4902, 0, 0, 0, 0, 0, 0, 0, 0, 0, 0, 0, 0, 0, 0, 0, 0, 0
    ]
  },
  {
    "groupID": 26091001,
    "tagIDs": [
      4008, 4020, 4901, 0, 0, 0, 0, 0, 0, 0, 0, 0, 0, 0, 0, 0, 0, 0, 0, 0
    ]
  },
  {
    "groupID": 26110101,
    "tagIDs": [
      4008, 4901, 4902, 0, 0, 0, 0, 0, 0, 0, 0, 0, 0, 0, 0, 0, 0, 0, 0, 0
    ]
  },
  {
    "groupID": 26120101,
    "tagIDs": [4008, 0, 4901, 0, 0, 0, 0, 0, 0, 0, 0, 0, 0, 0, 0, 0, 0, 0, 0, 0]
  },
  {
    "groupID": 26120201,
    "tagIDs": [4008, 0, 4902, 0, 0, 0, 0, 0, 0, 0, 0, 0, 0, 0, 0, 0, 0, 0, 0, 0]
  },
  {
    "groupID": 26120301,
    "tagIDs": [4008, 0, 4901, 0, 0, 0, 0, 0, 0, 0, 0, 0, 0, 0, 0, 0, 0, 0, 0, 0]
  },
  {
    "groupID": 26120401,
    "tagIDs": [4008, 0, 4902, 0, 0, 0, 0, 0, 0, 0, 0, 0, 0, 0, 0, 0, 0, 0, 0, 0]
  },
  {
    "groupID": 26130101,
    "tagIDs": [4030, 0, 0, 0, 3006, 0, 0, 0, 0, 0, 0, 0, 0, 0, 0, 0, 0, 0, 0, 0]
  },
  {
    "groupID": 26100101,
    "tagIDs": [4015, 0, 0, 0, 0, 0, 0, 0, 0, 0, 0, 0, 0, 0, 0, 0, 0, 0, 0, 0]
  },
  {
    "groupID": 26100201,
    "tagIDs": [4015, 0, 0, 0, 0, 0, 0, 0, 0, 0, 0, 0, 0, 0, 0, 0, 0, 0, 0, 0]
  },
  {
    "groupID": 26100301,
    "tagIDs": [4015, 0, 0, 0, 0, 0, 0, 0, 0, 0, 0, 0, 0, 0, 0, 0, 0, 0, 0, 0]
  },
  {
    "groupID": 26100401,
    "tagIDs": [4015, 0, 0, 0, 0, 0, 0, 0, 0, 0, 0, 0, 0, 0, 0, 0, 0, 0, 0, 0]
  },
  {
    "groupID": 26100501,
    "tagIDs": [4015, 0, 0, 0, 0, 0, 0, 0, 0, 0, 0, 0, 0, 0, 0, 0, 0, 0, 0, 0]
  },
  {
    "groupID": 30000001,
    "tagIDs": [
      30001, 30002, 30100, 0, 0, 0, 0, 0, 0, 0, 0, 0, 0, 0, 0, 0, 0, 0, 0, 0
    ]
  },
  {
    "groupID": 30000002,
    "tagIDs": [
      30002, 30100, 0, 0, 0, 0, 0, 0, 0, 0, 0, 0, 0, 0, 0, 0, 0, 0, 0, 0
    ]
  },
  {
    "groupID": 30000003,
    "tagIDs": [30003, 0, 0, 0, 0, 0, 0, 0, 0, 0, 0, 0, 0, 0, 0, 0, 0, 0, 0, 0]
  },
  {
    "groupID": 30000004,
    "tagIDs": [30004, 0, 0, 0, 0, 0, 0, 0, 0, 0, 0, 0, 0, 0, 0, 0, 0, 0, 0, 0]
  },
  {
    "groupID": 30000005,
    "tagIDs": [
      30004, 30005, 0, 0, 0, 0, 0, 0, 0, 0, 0, 0, 0, 0, 0, 0, 0, 0, 0, 0
    ]
  },
  {
    "groupID": 30000006,
    "tagIDs": [
      30002, 30004, 30100, 0, 0, 0, 0, 0, 0, 0, 0, 0, 0, 0, 0, 0, 0, 0, 0, 0
    ]
  },
  {
    "groupID": 30000007,
    "tagIDs": [30006, 0, 0, 0, 0, 0, 0, 0, 0, 0, 0, 0, 0, 0, 0, 0, 0, 0, 0, 0]
  }
]
