[
  {
    "levelId": 30111,
    "questId": 7066507
  },
  {
    "levelId": 30112,
    "questId": 7066516
  },
  {
    "levelId": 20001,
    "questId": 7066602
  },
  {
    "levelId": 20002,
    "questId": 7066702
  },
  {
    "levelId": 20003,
    "questId": 7066803
  },
  {
    "levelId": 20004,
    "questId": 7066903
  }
]
