[
  {
    "h5ActivityId": 1001,
    "condComb": "LOGIC_AND",
    "condList": [
      {
        "type": "H5_ACTIVITY_COND_DAY_COUNT_GREAT_EQUAL",
        "paramStr": "1"
      },
      {
        "paramStr": ""
      }
    ],
    "isDailyRefresh": true,
    "id": 5001001,
    "triggerConfig": {
      "triggerType": "TRIGGER_LOGIN",
      "paramList": ["", "", "", "", ""]
    },
    "progress": 1
  },
  {
    "h5ActivityId": 1001,
    "condComb": "LOGIC_AND",
    "condList": [
      {
        "type": "H5_ACTIVITY_COND_DAY_COUNT_GREAT_EQUAL",
        "paramStr": "1"
      },
      {
        "paramStr": ""
      }
    ],
    "isDailyRefresh": true,
    "id": 5001002,
    "triggerConfig": {
      "triggerType": "TRIGGER_DAILY_TASK",
      "paramList": ["", "", "", "", ""]
    },
    "progress": 4
  },
  {
    "h5ActivityId": 1001,
    "condComb": "LOGIC_AND",
    "condList": [
      {
        "type": "H5_ACTIVITY_COND_DAY_COUNT_GREAT_EQUAL",
        "paramStr": "1"
      },
      {
        "paramStr": ""
      }
    ],
    "id": 5001003,
    "triggerConfig": {
      "triggerType": "TRIGGER_OPEN_BLOSSOM_CHEST",
      "paramList": ["1;3", "", "", "", ""]
    },
    "progress": 20
  },
  {
    "h5ActivityId": 1001,
    "condComb": "LOGIC_AND",
    "condList": [
      {
        "type": "H5_ACTIVITY_COND_DAY_COUNT_GREAT_EQUAL",
        "paramStr": "1"
      },
      {
        "paramStr": ""
      }
    ],
    "isDailyRefresh": true,
    "id": 5001004,
    "triggerConfig": {
      "triggerType": "TRIGGER_OBTAIN_MATERIAL_NUM",
      "paramList": [
        "100021;100022;100023;100024;100025;100055;100057;100056",
        "",
        "",
        "",
        ""
      ]
    },
    "progress": 10
  },
  {
    "h5ActivityId": 1001,
    "condComb": "LOGIC_AND",
    "condList": [
      {
        "type": "H5_ACTIVITY_COND_DAY_COUNT_GREAT_EQUAL",
        "paramStr": "1"
      },
      {
        "paramStr": ""
      }
    ],
    "isDailyRefresh": true,
    "id": 5001005,
    "triggerConfig": {
      "triggerType": "TRIGGER_OBTAIN_MATERIAL_NUM",
      "paramList": [
        "100027;100028;100029;100030;100031;100033;100034;100058",
        "",
        "",
        "",
        ""
      ]
    },
    "progress": 10
  },
  {
    "h5ActivityId": 1001,
    "condComb": "LOGIC_AND",
    "condList": [
      {
        "type": "H5_ACTIVITY_COND_DAY_COUNT_GREAT_EQUAL",
        "paramStr": "1"
      },
      {
        "paramStr": ""
      }
    ],
    "id": 5001006,
    "triggerConfig": {
      "triggerType": "TRIGGER_COST_MATERIAL",
      "paramList": ["106", "", "", "", ""]
    },
    "progress": 200
  },
  {
    "h5ActivityId": 1001,
    "condComb": "LOGIC_AND",
    "condList": [
      {
        "type": "H5_ACTIVITY_COND_DAY_COUNT_GREAT_EQUAL",
        "paramStr": "1"
      },
      {
        "paramStr": ""
      }
    ],
    "id": 5001007,
    "triggerConfig": {
      "triggerType": "TRIGGER_COST_MATERIAL",
      "paramList": ["106", "", "", "", ""]
    },
    "progress": 500
  },
  {
    "h5ActivityId": 1001,
    "condComb": "LOGIC_AND",
    "condList": [
      {
        "type": "H5_ACTIVITY_COND_DAY_COUNT_GREAT_EQUAL",
        "paramStr": "1"
      },
      {
        "paramStr": ""
      }
    ],
    "id": 5001008,
    "triggerConfig": {
      "triggerType": "TRIGGER_COST_MATERIAL",
      "paramList": ["106", "", "", "", ""]
    },
    "progress": 900
  },
  {
    "h5ActivityId": 1001,
    "condComb": "LOGIC_AND",
    "condList": [
      {
        "type": "H5_ACTIVITY_COND_DAY_COUNT_GREAT_EQUAL",
        "paramStr": "1"
      },
      {
        "paramStr": ""
      }
    ],
    "id": 5001009,
    "triggerConfig": {
      "triggerType": "TRIGGER_COST_MATERIAL",
      "paramList": ["202", "", "", "", ""]
    },
    "progress": 200000
  },
  {
    "h5ActivityId": 1001,
    "condComb": "LOGIC_AND",
    "condList": [
      {
        "type": "H5_ACTIVITY_COND_DAY_COUNT_GREAT_EQUAL",
        "paramStr": "1"
      },
      {
        "paramStr": ""
      }
    ],
    "id": 5001010,
    "triggerConfig": {
      "triggerType": "TRIGGER_CITY_REPUTATION_FINISH_REQUEST",
      "paramList": ["", "", "", "", ""]
    },
    "progress": 10
  },
  {
    "h5ActivityId": 1001,
    "condComb": "LOGIC_AND",
    "condList": [
      {
        "type": "H5_ACTIVITY_COND_DAY_COUNT_GREAT_EQUAL",
        "paramStr": "1"
      },
      {
        "paramStr": ""
      }
    ],
    "id": 5001011,
    "triggerConfig": {
      "triggerType": "TRIGGER_FINISH_QUEST_OR",
      "paramList": ["7165403,7165408,7165411", "", "", "", ""]
    },
    "progress": 1
  },
  {
    "h5ActivityId": 1001,
    "condComb": "LOGIC_AND",
    "condList": [
      {
        "type": "H5_ACTIVITY_COND_DAY_COUNT_GREAT_EQUAL",
        "paramStr": "1"
      },
      {
        "paramStr": ""
      }
    ],
    "id": 5001012,
    "triggerConfig": {
      "triggerType": "TRIGGER_BATTLE_FOR_MONSTER_DIE_OR",
      "paramList": [
        "21020101,21020201,21020301,21020601,21020601,21010401,21010501,21010901,21011001,21010101,21010201,21010301,21010601,21010701,21011201,21011301,21011401,21030101,21030201,21030301,21030401,21030501,21020501,21020401",
        "",
        "",
        "",
        ""
      ]
    },
    "progress": 99
  },
  {
    "h5ActivityId": 1001,
    "condComb": "LOGIC_AND",
    "condList": [
      {
        "type": "H5_ACTIVITY_COND_DAY_COUNT_GREAT_EQUAL",
        "paramStr": "1"
      },
      {
        "paramStr": ""
      }
    ],
    "id": 5001013,
    "triggerConfig": {
      "triggerType": "TRIGGER_BATTLE_FOR_MONSTER_DIE_OR",
      "paramList": [
        "21030101,21030201,21030301,21030401,21030501",
        "",
        "",
        "",
        ""
      ]
    },
    "progress": 99
  },
  {
    "h5ActivityId": 1001,
    "condComb": "LOGIC_AND",
    "condList": [
      {
        "type": "H5_ACTIVITY_COND_DAY_COUNT_GREAT_EQUAL",
        "paramStr": "1"
      },
      {
        "paramStr": ""
      }
    ],
    "id": 5001014,
    "triggerConfig": {
      "triggerType": "TRIGGER_BATTLE_FOR_MONSTER_DIE_OR",
      "paramList": ["21020101,21020201,21020301,21020601", "", "", "", ""]
    },
    "progress": 99
  },
  {
    "h5ActivityId": 1001,
    "condComb": "LOGIC_AND",
    "condList": [
      {
        "type": "H5_ACTIVITY_COND_DAY_COUNT_GREAT_EQUAL",
        "paramStr": "1"
      },
      {
        "paramStr": ""
      }
    ],
    "id": 5001015,
    "triggerConfig": {
      "triggerType": "TRIGGER_BATTLE_FOR_MONSTER_DIE_OR",
      "paramList": ["20040501", "", "", "", ""]
    },
    "progress": 5
  },
  {
    "h5ActivityId": 1002,
    "condComb": "LOGIC_AND",
    "condList": [
      {
        "type": "H5_ACTIVITY_COND_DAY_COUNT_GREAT_EQUAL",
        "paramStr": "1"
      },
      {
        "paramStr": ""
      }
    ],
    "isDailyRefresh": true,
    "id": 5002001,
    "triggerConfig": {
      "triggerType": "TRIGGER_COST_MATERIAL",
      "paramList": ["106", "", "", "", ""]
    },
    "progress": 40
  },
  {
    "h5ActivityId": 1002,
    "condComb": "LOGIC_AND",
    "condList": [
      {
        "type": "H5_ACTIVITY_COND_DAY_COUNT_GREAT_EQUAL",
        "paramStr": "1"
      },
      {
        "paramStr": ""
      }
    ],
    "isDailyRefresh": true,
    "id": 5002002,
    "triggerConfig": {
      "triggerType": "TRIGGER_DAILY_TASK",
      "paramList": ["", "", "", "", ""]
    },
    "progress": 2
  },
  {
    "h5ActivityId": 1002,
    "condComb": "LOGIC_AND",
    "condList": [
      {
        "type": "H5_ACTIVITY_COND_DAY_COUNT_GREAT_EQUAL",
        "paramStr": "1"
      },
      {
        "paramStr": ""
      }
    ],
    "isDailyRefresh": true,
    "id": 5002003,
    "triggerConfig": {
      "triggerType": "TRIGGER_LOGIN",
      "paramList": ["", "", "", "", ""]
    },
    "progress": 1
  },
  {
    "h5ActivityId": 1002,
    "condComb": "LOGIC_AND",
    "condList": [
      {
        "type": "H5_ACTIVITY_COND_DAY_COUNT_GREAT_EQUAL",
        "paramStr": "1"
      },
      {
        "paramStr": ""
      }
    ],
    "isDailyRefresh": true,
    "id": 5002004,
    "triggerConfig": {
      "triggerType": "TRIGGER_DO_COOK",
      "paramList": ["1", "", "", "", ""]
    },
    "progress": 5
  },
  {
    "h5ActivityId": 1002,
    "condComb": "LOGIC_AND",
    "condList": [
      {
        "type": "H5_ACTIVITY_COND_DAY_COUNT_GREAT_EQUAL",
        "paramStr": "1"
      },
      {
        "paramStr": ""
      }
    ],
    "isDailyRefresh": true,
    "id": 5002005,
    "triggerConfig": {
      "triggerType": "TRIGGER_ANY_RELIQUARY_UPGRADE",
      "paramList": ["", "", "", "", ""]
    },
    "progress": 1
  },
  {
    "h5ActivityId": 1002,
    "condComb": "LOGIC_AND",
    "condList": [
      {
        "type": "H5_ACTIVITY_COND_DAY_COUNT_GREAT_EQUAL",
        "paramStr": "1"
      },
      {
        "paramStr": ""
      }
    ],
    "isDailyRefresh": true,
    "id": 5002006,
    "triggerConfig": {
      "triggerType": "TRIGGER_OBTAIN_MATERIAL_NUM",
      "paramList": [
        "100027;100028;100029;100030;100031;100033;100034;100058",
        "",
        "",
        "",
        ""
      ]
    },
    "progress": 6
  },
  {
    "h5ActivityId": 1002,
    "condComb": "LOGIC_AND",
    "condList": [
      {
        "type": "H5_ACTIVITY_COND_DAY_COUNT_GREAT_EQUAL",
        "paramStr": "1"
      },
      {
        "paramStr": ""
      }
    ],
    "isDailyRefresh": true,
    "id": 5002007,
    "triggerConfig": {
      "triggerType": "TRIGGER_OBTAIN_MATERIAL_NUM",
      "paramList": [
        "100021;100022;100023;100024;100025;100055;100057;100056",
        "",
        "",
        "",
        ""
      ]
    },
    "progress": 6
  },
  {
    "h5ActivityId": 1003,
    "condComb": "LOGIC_AND",
    "condList": [
      {
        "type": "H5_ACTIVITY_COND_DAY_COUNT_GREAT_EQUAL",
        "paramStr": "1"
      },
      {
        "paramStr": ""
      }
    ],
    "id": 5003001,
    "triggerConfig": {
      "triggerType": "TRIGGER_LOGIN",
      "paramList": ["", "", "", "", ""]
    },
    "progress": 1
  },
  {
    "h5ActivityId": 1003,
    "condComb": "LOGIC_AND",
    "condList": [
      {
        "type": "H5_ACTIVITY_COND_DAY_COUNT_GREAT_EQUAL",
        "paramStr": "1"
      },
      {
        "paramStr": ""
      }
    ],
    "id": 5003002,
    "triggerConfig": {
      "triggerType": "TRIGGER_HOME_AVATAR_IN_COUNT",
      "paramList": ["", "", "", "", ""]
    },
    "progress": 1
  },
  {
    "h5ActivityId": 1003,
    "condComb": "LOGIC_AND",
    "condList": [
      {
        "type": "H5_ACTIVITY_COND_DAY_COUNT_GREAT_EQUAL",
        "paramStr": "1"
      },
      {
        "paramStr": ""
      }
    ],
    "id": 5003003,
    "triggerConfig": {
      "triggerType": "TRIGGER_OBTAIN_MATERIAL_NUM",
      "paramList": ["100028", "", "", "", ""]
    },
    "progress": 3
  },
  {
    "h5ActivityId": 1003,
    "condComb": "LOGIC_AND",
    "condList": [
      {
        "type": "H5_ACTIVITY_COND_DAY_COUNT_GREAT_EQUAL",
        "paramStr": "1"
      },
      {
        "paramStr": ""
      }
    ],
    "id": 5003004,
    "triggerConfig": {
      "triggerType": "TRIGGER_AVATAR_EXPEDITION",
      "paramList": ["", "", "", "", ""]
    },
    "progress": 1
  },
  {
    "h5ActivityId": 1003,
    "condComb": "LOGIC_AND",
    "condList": [
      {
        "type": "H5_ACTIVITY_COND_DAY_COUNT_GREAT_EQUAL",
        "paramStr": "1"
      },
      {
        "paramStr": ""
      }
    ],
    "id": 5003005,
    "triggerConfig": {
      "triggerType": "TRIGGER_LOGIN",
      "paramList": ["", "", "", "", ""]
    },
    "progress": 2
  },
  {
    "h5ActivityId": 1003,
    "condComb": "LOGIC_AND",
    "condList": [
      {
        "type": "H5_ACTIVITY_COND_DAY_COUNT_GREAT_EQUAL",
        "paramStr": "1"
      },
      {
        "paramStr": ""
      }
    ],
    "id": 5003006,
    "triggerConfig": {
      "triggerType": "TRIGGER_OBTAIN_MATERIAL_NUM",
      "paramList": ["100085", "", "", "", ""]
    },
    "progress": 3
  },
  {
    "h5ActivityId": 1003,
    "condComb": "LOGIC_AND",
    "condList": [
      {
        "type": "H5_ACTIVITY_COND_DAY_COUNT_GREAT_EQUAL",
        "paramStr": "1"
      },
      {
        "paramStr": ""
      }
    ],
    "id": 5003007,
    "triggerConfig": {
      "triggerType": "TRIGGER_HOME_AVATAR_FETTER_GET",
      "paramList": ["", "", "", "", ""]
    },
    "progress": 1
  },
  {
    "h5ActivityId": 1003,
    "condComb": "LOGIC_AND",
    "condList": [
      {
        "type": "H5_ACTIVITY_COND_DAY_COUNT_GREAT_EQUAL",
        "paramStr": "1"
      },
      {
        "paramStr": ""
      }
    ],
    "id": 5003008,
    "triggerConfig": {
      "triggerType": "TRIGGER_KILL_MONSTER_IN_AREA",
      "paramList": ["100,101,102,103", "10201,10202,10203,10206", "", "", ""]
    },
    "progress": 3
  },
  {
    "h5ActivityId": 1003,
    "condComb": "LOGIC_AND",
    "condList": [
      {
        "type": "H5_ACTIVITY_COND_DAY_COUNT_GREAT_EQUAL",
        "paramStr": "1"
      },
      {
        "paramStr": ""
      }
    ],
    "id": 5003009,
    "triggerConfig": {
      "triggerType": "TRIGGER_LOGIN",
      "paramList": ["", "", "", "", ""]
    },
    "progress": 3
  },
  {
    "h5ActivityId": 1003,
    "condComb": "LOGIC_AND",
    "condList": [
      {
        "type": "H5_ACTIVITY_COND_DAY_COUNT_GREAT_EQUAL",
        "paramStr": "1"
      },
      {
        "paramStr": ""
      }
    ],
    "id": 5003010,
    "triggerConfig": {
      "triggerType": "TRIGGER_OBTAIN_MATERIAL_NUM",
      "paramList": ["204", "", "", "", ""]
    },
    "progress": 1
  },
  {
    "h5ActivityId": 1003,
    "condComb": "LOGIC_AND",
    "condList": [
      {
        "type": "H5_ACTIVITY_COND_DAY_COUNT_GREAT_EQUAL",
        "paramStr": "1"
      },
      {
        "paramStr": ""
      }
    ],
    "id": 5003011,
    "triggerConfig": {
      "triggerType": "TRIGGER_COST_MATERIAL",
      "paramList": ["104001;104002;104003", "", "", "", ""]
    },
    "progress": 1
  },
  {
    "h5ActivityId": 1003,
    "condComb": "LOGIC_AND",
    "condList": [
      {
        "type": "H5_ACTIVITY_COND_DAY_COUNT_GREAT_EQUAL",
        "paramStr": "1"
      },
      {
        "paramStr": ""
      }
    ],
    "id": 5003012,
    "triggerConfig": {
      "triggerType": "TRIGGER_KILL_MONSTER_IN_AREA",
      "paramList": ["100,101,102,103", "20101,20102,20103", "", "", ""]
    },
    "progress": 1
  },
  {
    "h5ActivityId": 1003,
    "condComb": "LOGIC_AND",
    "condList": [
      {
        "type": "H5_ACTIVITY_COND_DAY_COUNT_GREAT_EQUAL",
        "paramStr": "1"
      },
      {
        "paramStr": ""
      }
    ],
    "id": 5003013,
    "triggerConfig": {
      "triggerType": "TRIGGER_LOGIN",
      "paramList": ["", "", "", "", ""]
    },
    "progress": 4
  },
  {
    "h5ActivityId": 1003,
    "condComb": "LOGIC_AND",
    "condList": [
      {
        "type": "H5_ACTIVITY_COND_DAY_COUNT_GREAT_EQUAL",
        "paramStr": "1"
      },
      {
        "paramStr": ""
      }
    ],
    "id": 5003014,
    "triggerConfig": {
      "triggerType": "TRIGGER_PLACE_MIRACLE_RING",
      "paramList": ["", "", "", "", ""]
    },
    "progress": 1
  },
  {
    "h5ActivityId": 1003,
    "condComb": "LOGIC_AND",
    "condList": [
      {
        "type": "H5_ACTIVITY_COND_DAY_COUNT_GREAT_EQUAL",
        "paramStr": "1"
      },
      {
        "paramStr": ""
      }
    ],
    "id": 5003015,
    "triggerConfig": {
      "triggerType": "TRIGGER_ANY_WEAPON_UPGRADE_NUM",
      "paramList": ["", "", "", "", ""]
    },
    "progress": 1
  },
  {
    "h5ActivityId": 1003,
    "condComb": "LOGIC_AND",
    "condList": [
      {
        "type": "H5_ACTIVITY_COND_DAY_COUNT_GREAT_EQUAL",
        "paramStr": "1"
      },
      {
        "paramStr": ""
      }
    ],
    "id": 5003016,
    "triggerConfig": {
      "triggerType": "TRIGGER_KILL_MONSTER_IN_AREA",
      "paramList": ["100,101,102,103", "60101,60102", "", "", ""]
    },
    "progress": 3
  },
  {
    "h5ActivityId": 1003,
    "condComb": "LOGIC_AND",
    "condList": [
      {
        "type": "H5_ACTIVITY_COND_DAY_COUNT_GREAT_EQUAL",
        "paramStr": "1"
      },
      {
        "paramStr": ""
      }
    ],
    "id": 5003017,
    "triggerConfig": {
      "triggerType": "TRIGGER_LOGIN",
      "paramList": ["", "", "", "", ""]
    },
    "progress": 5
  },
  {
    "h5ActivityId": 1003,
    "condComb": "LOGIC_AND",
    "condList": [
      {
        "type": "H5_ACTIVITY_COND_DAY_COUNT_GREAT_EQUAL",
        "paramStr": "1"
      },
      {
        "paramStr": ""
      }
    ],
    "id": 5003018,
    "triggerConfig": {
      "triggerType": "TRIGGER_BATTLE_FOR_MONSTER_DIE_OR",
      "paramList": ["25090101", "", "", "", ""]
    },
    "progress": 1
  },
  {
    "h5ActivityId": 1003,
    "condComb": "LOGIC_AND",
    "condList": [
      {
        "type": "H5_ACTIVITY_COND_DAY_COUNT_GREAT_EQUAL",
        "paramStr": "1"
      },
      {
        "paramStr": ""
      }
    ],
    "id": 5003019,
    "triggerConfig": {
      "triggerType": "TRIGGER_ANY_RELIQUARY_UPGRADE",
      "paramList": ["", "", "", "", ""]
    },
    "progress": 1
  },
  {
    "h5ActivityId": 1003,
    "condComb": "LOGIC_AND",
    "condList": [
      {
        "type": "H5_ACTIVITY_COND_DAY_COUNT_GREAT_EQUAL",
        "paramStr": "1"
      },
      {
        "paramStr": ""
      }
    ],
    "id": 5003020,
    "triggerConfig": {
      "triggerType": "TRIGGER_KILL_MONSTER_IN_AREA",
      "paramList": [
        "100,101,102,103",
        "00101,00102,00103,00104,00105,00106,00107,00108,00109,00110,00111,00112,00113,00114,00115",
        "",
        "",
        ""
      ]
    },
    "progress": 3
  },
  {
    "h5ActivityId": 1003,
    "condComb": "LOGIC_AND",
    "condList": [
      {
        "type": "H5_ACTIVITY_COND_DAY_COUNT_GREAT_EQUAL",
        "paramStr": "1"
      },
      {
        "paramStr": ""
      }
    ],
    "id": 5003021,
    "triggerConfig": {
      "triggerType": "TRIGGER_LOGIN",
      "paramList": ["", "", "", "", ""]
    },
    "progress": 6
  },
  {
    "h5ActivityId": 1003,
    "condComb": "LOGIC_AND",
    "condList": [
      {
        "type": "H5_ACTIVITY_COND_DAY_COUNT_GREAT_EQUAL",
        "paramStr": "1"
      },
      {
        "paramStr": ""
      }
    ],
    "id": 5003022,
    "triggerConfig": {
      "triggerType": "TRIGGER_KILL_MONSTER_IN_AREA",
      "paramList": [
        "100,101,102,103",
        "10301,10302,10303,10304,10305",
        "",
        "",
        ""
      ]
    },
    "progress": 3
  },
  {
    "h5ActivityId": 1003,
    "condComb": "LOGIC_AND",
    "condList": [
      {
        "type": "H5_ACTIVITY_COND_DAY_COUNT_GREAT_EQUAL",
        "paramStr": "1"
      },
      {
        "paramStr": ""
      }
    ],
    "id": 5003023,
    "triggerConfig": {
      "triggerType": "TRIGGER_LOGIN",
      "paramList": ["", "", "", "", ""]
    },
    "progress": 7
  },
  {
    "h5ActivityId": 1003,
    "condComb": "LOGIC_AND",
    "condList": [
      {
        "type": "H5_ACTIVITY_COND_DAY_COUNT_GREAT_EQUAL",
        "paramStr": "1"
      },
      {
        "paramStr": ""
      }
    ],
    "id": 5003024,
    "triggerConfig": {
      "triggerType": "TRIGGER_KILL_MONSTER_IN_AREA",
      "paramList": ["100,101,102,103", "10104,10105,10109,10110", "", "", ""]
    },
    "progress": 3
  },
  {
    "h5ActivityId": 1005,
    "condComb": "LOGIC_AND",
    "condList": [
      {
        "type": "H5_ACTIVITY_COND_DAY_COUNT_GREAT_EQUAL",
        "paramStr": "1"
      },
      {
        "paramStr": ""
      }
    ],
    "isDailyRefresh": true,
    "id": 5005001,
    "triggerConfig": {
      "triggerType": "TRIGGER_DAILY_TASK",
      "paramList": ["", "", "", "", ""]
    },
    "progress": 2
  },
  {
    "h5ActivityId": 1005,
    "condComb": "LOGIC_AND",
    "condList": [
      {
        "type": "H5_ACTIVITY_COND_DAY_COUNT_GREAT_EQUAL",
        "paramStr": "1"
      },
      {
        "paramStr": ""
      }
    ],
    "isDailyRefresh": true,
    "id": 5005002,
    "triggerConfig": {
      "triggerType": "TRIGGER_LOGIN",
      "paramList": ["", "", "", "", ""]
    },
    "progress": 1
  },
  {
    "h5ActivityId": 1005,
    "condComb": "LOGIC_AND",
    "condList": [
      {
        "type": "H5_ACTIVITY_COND_DAY_COUNT_GREAT_EQUAL",
        "paramStr": "1"
      },
      {
        "paramStr": ""
      }
    ],
    "isDailyRefresh": true,
    "id": 5005003,
    "triggerConfig": {
      "triggerType": "TRIGGER_DO_COOK",
      "paramList": ["1", "", "", "", ""]
    },
    "progress": 4
  },
  {
    "h5ActivityId": 1005,
    "condComb": "LOGIC_AND",
    "condList": [
      {
        "type": "H5_ACTIVITY_COND_DAY_COUNT_GREAT_EQUAL",
        "paramStr": "1"
      },
      {
        "paramStr": ""
      }
    ],
    "isDailyRefresh": true,
    "id": 5005004,
    "triggerConfig": {
      "triggerType": "TRIGGER_OBTAIN_MATERIAL_NUM",
      "paramList": [
        "100027;100028;100029;100030;100031;100033;100034;100058",
        "",
        "",
        "",
        ""
      ]
    },
    "progress": 4
  },
  {
    "h5ActivityId": 1005,
    "condComb": "LOGIC_AND",
    "condList": [
      {
        "type": "H5_ACTIVITY_COND_DAY_COUNT_GREAT_EQUAL",
        "paramStr": "1"
      },
      {
        "paramStr": ""
      }
    ],
    "isDailyRefresh": true,
    "id": 5005005,
    "triggerConfig": {
      "triggerType": "TRIGGER_OBTAIN_MATERIAL_NUM",
      "paramList": [
        "100021;100022;100023;100024;100025;100055;100057;100056",
        "",
        "",
        "",
        ""
      ]
    },
    "progress": 4
  },
  {
    "h5ActivityId": 1005,
    "condComb": "LOGIC_AND",
    "condList": [
      {
        "type": "H5_ACTIVITY_COND_DAY_COUNT_GREAT_EQUAL",
        "paramStr": "1"
      },
      {
        "paramStr": ""
      }
    ],
    "isDailyRefresh": true,
    "id": 5005006,
    "triggerConfig": {
      "triggerType": "TRIGGER_OBTAIN_MATERIAL_NUM",
      "paramList": ["101201;101202;101203;101204;101205;101206", "", "", "", ""]
    },
    "progress": 4
  },
  {
    "h5ActivityId": 1005,
    "condComb": "LOGIC_AND",
    "condList": [
      {
        "type": "H5_ACTIVITY_COND_DAY_COUNT_GREAT_EQUAL",
        "paramStr": "1"
      },
      {
        "paramStr": ""
      }
    ],
    "isDailyRefresh": true,
    "id": 5005007,
    "triggerConfig": {
      "triggerType": "TRIGGER_AVATAR_EXPEDITION",
      "paramList": ["3", "", "", "", ""]
    },
    "progress": 2
  },
  {
    "h5ActivityId": 1005,
    "condComb": "LOGIC_AND",
    "condList": [
      {
        "type": "H5_ACTIVITY_COND_DAY_COUNT_GREAT_EQUAL",
        "paramStr": "1"
      },
      {
        "paramStr": ""
      }
    ],
    "isDailyRefresh": true,
    "id": 5005008,
    "triggerConfig": {
      "triggerType": "TRIGGER_FINISH_DUNGEON",
      "paramList": ["", "", "", "", ""]
    },
    "progress": 1
  },
  {
    "h5ActivityId": 1005,
    "condComb": "LOGIC_AND",
    "condList": [
      {
        "type": "H5_ACTIVITY_COND_DAY_COUNT_GREAT_EQUAL",
        "paramStr": "1"
      },
      {
        "paramStr": ""
      }
    ],
    "isDailyRefresh": true,
    "id": 5005009,
    "triggerConfig": {
      "triggerType": "TRIGGER_COST_MATERIAL",
      "paramList": ["106", "", "", "", ""]
    },
    "progress": 40
  },
  {
    "h5ActivityId": 1008,
    "condComb": "LOGIC_AND",
    "condList": [
      {
        "type": "H5_ACTIVITY_COND_DAY_COUNT_GREAT_EQUAL",
        "paramStr": "1"
      },
      {
        "paramStr": ""
      }
    ],
    "id": 5008001,
    "triggerConfig": {
      "triggerType": "TRIGGER_FISHING_SUCC_NUM",
      "paramList": ["", "", "", "", ""]
    },
    "progress": 10
  },
  {
    "h5ActivityId": 1008,
    "condComb": "LOGIC_AND",
    "condList": [
      {
        "type": "H5_ACTIVITY_COND_DAY_COUNT_GREAT_EQUAL",
        "paramStr": "1"
      },
      {
        "paramStr": ""
      }
    ],
    "isDailyRefresh": true,
    "id": 5008002,
    "triggerConfig": {
      "triggerType": "TRIGGER_DAILY_TASK",
      "paramList": ["", "", "", "", ""]
    },
    "progress": 2
  },
  {
    "h5ActivityId": 1008,
    "condComb": "LOGIC_AND",
    "condList": [
      {
        "type": "H5_ACTIVITY_COND_DAY_COUNT_GREAT_EQUAL",
        "paramStr": "1"
      },
      {
        "paramStr": ""
      }
    ],
    "isDailyRefresh": true,
    "id": 5008003,
    "triggerConfig": {
      "triggerType": "TRIGGER_LOGIN",
      "paramList": ["", "", "", "", ""]
    },
    "progress": 1
  },
  {
    "h5ActivityId": 1008,
    "condComb": "LOGIC_AND",
    "condList": [
      {
        "type": "H5_ACTIVITY_COND_DAY_COUNT_GREAT_EQUAL",
        "paramStr": "1"
      },
      {
        "paramStr": ""
      }
    ],
    "isDailyRefresh": true,
    "id": 5008004,
    "triggerConfig": {
      "triggerType": "TRIGGER_DO_COOK",
      "paramList": ["", "", "", "", ""]
    },
    "progress": 4
  },
  {
    "h5ActivityId": 1008,
    "condComb": "LOGIC_AND",
    "condList": [
      {
        "type": "H5_ACTIVITY_COND_DAY_COUNT_GREAT_EQUAL",
        "paramStr": "1"
      },
      {
        "paramStr": ""
      }
    ],
    "isDailyRefresh": true,
    "id": 5008005,
    "triggerConfig": {
      "triggerType": "TRIGGER_AVATAR_EXPEDITION",
      "paramList": ["3", "", "", "", ""]
    },
    "progress": 2
  },
  {
    "h5ActivityId": 1008,
    "condComb": "LOGIC_AND",
    "condList": [
      {
        "type": "H5_ACTIVITY_COND_DAY_COUNT_GREAT_EQUAL",
        "paramStr": "1"
      },
      {
        "paramStr": ""
      }
    ],
    "isDailyRefresh": true,
    "id": 5008006,
    "triggerConfig": {
      "triggerType": "TRIGGER_COST_MATERIAL",
      "paramList": ["106", "", "", "", ""]
    },
    "progress": 40
  },
  {
    "h5ActivityId": 1008,
    "condComb": "LOGIC_AND",
    "condList": [
      {
        "type": "H5_ACTIVITY_COND_DAY_COUNT_GREAT_EQUAL",
        "paramStr": "1"
      },
      {
        "paramStr": ""
      }
    ],
    "isDailyRefresh": true,
    "id": 5008007,
    "triggerConfig": {
      "triggerType": "TRIGGER_ANY_RELIQUARY_UPGRADE",
      "paramList": ["", "", "", "", ""]
    },
    "progress": 1
  },
  {
    "h5ActivityId": 1009,
    "condComb": "LOGIC_AND",
    "condList": [
      {
        "type": "H5_ACTIVITY_COND_DAY_COUNT_GREAT_EQUAL",
        "paramStr": "1"
      },
      {
        "paramStr": ""
      }
    ],
    "isDailyRefresh": true,
    "id": 5009001,
    "triggerConfig": {
      "triggerType": "TRIGGER_LOGIN",
      "paramList": ["", "", "", "", ""]
    },
    "progress": 1
  },
  {
    "h5ActivityId": 1009,
    "condComb": "LOGIC_AND",
    "condList": [
      {
        "type": "H5_ACTIVITY_COND_DAY_COUNT_GREAT_EQUAL",
        "paramStr": "1"
      },
      {
        "paramStr": ""
      }
    ],
    "id": 5009002,
    "triggerConfig": {
      "triggerType": "TRIGGER_COST_MATERIAL",
      "paramList": ["106", "", "", "", ""]
    },
    "progress": 200
  },
  {
    "h5ActivityId": 1009,
    "condComb": "LOGIC_AND",
    "condList": [
      {
        "type": "H5_ACTIVITY_COND_DAY_COUNT_GREAT_EQUAL",
        "paramStr": "1"
      },
      {
        "paramStr": ""
      }
    ],
    "id": 5009003,
    "triggerConfig": {
      "triggerType": "TRIGGER_COST_MATERIAL",
      "paramList": ["106", "", "", "", ""]
    },
    "progress": 400
  },
  {
    "h5ActivityId": 1009,
    "condComb": "LOGIC_AND",
    "condList": [
      {
        "type": "H5_ACTIVITY_COND_DAY_COUNT_GREAT_EQUAL",
        "paramStr": "1"
      },
      {
        "paramStr": ""
      }
    ],
    "id": 5009004,
    "triggerConfig": {
      "triggerType": "TRIGGER_COST_MATERIAL",
      "paramList": ["106", "", "", "", ""]
    },
    "progress": 800
  },
  {
    "h5ActivityId": 1009,
    "condComb": "LOGIC_AND",
    "condList": [
      {
        "type": "H5_ACTIVITY_COND_DAY_COUNT_GREAT_EQUAL",
        "paramStr": "1"
      },
      {
        "paramStr": ""
      }
    ],
    "id": 5009005,
    "triggerConfig": {
      "triggerType": "TRIGGER_COST_MATERIAL",
      "paramList": ["106", "", "", "", ""]
    },
    "progress": 1600
  },
  {
    "h5ActivityId": 1009,
    "condComb": "LOGIC_AND",
    "condList": [
      {
        "type": "H5_ACTIVITY_COND_DAY_COUNT_GREAT_EQUAL",
        "paramStr": "1"
      },
      {
        "paramStr": ""
      }
    ],
    "id": 5009006,
    "triggerConfig": {
      "triggerType": "TRIGGER_FINISH_PARENT_QUEST_AND",
      "paramList": ["72105", "", "", "", ""]
    },
    "progress": 1
  },
  {
    "h5ActivityId": 1009,
    "condComb": "LOGIC_AND",
    "condList": [
      {
        "type": "H5_ACTIVITY_COND_DAY_COUNT_GREAT_EQUAL",
        "paramStr": "1"
      },
      {
        "paramStr": ""
      }
    ],
    "id": 5009007,
    "triggerConfig": {
      "triggerType": "TRIGGER_FINISH_PARENT_QUEST_AND",
      "paramList": ["72122", "", "", "", ""]
    },
    "progress": 1
  },
  {
    "h5ActivityId": 1009,
    "condComb": "LOGIC_AND",
    "condList": [
      {
        "type": "H5_ACTIVITY_COND_DAY_COUNT_GREAT_EQUAL",
        "paramStr": "1"
      },
      {
        "paramStr": ""
      }
    ],
    "id": 5009008,
    "triggerConfig": {
      "triggerType": "TRIGGER_FINISH_PARENT_QUEST_AND",
      "paramList": ["72132", "", "", "", ""]
    },
    "progress": 1
  },
  {
    "h5ActivityId": 1009,
    "condComb": "LOGIC_AND",
    "condList": [
      {
        "type": "H5_ACTIVITY_COND_DAY_COUNT_GREAT_EQUAL",
        "paramStr": "1"
      },
      {
        "paramStr": ""
      }
    ],
    "id": 5009009,
    "triggerConfig": {
      "triggerType": "TRIGGER_COST_MATERIAL",
      "paramList": ["202", "", "", "", ""]
    },
    "progress": 50000
  },
  {
    "h5ActivityId": 1009,
    "condComb": "LOGIC_AND",
    "condList": [
      {
        "type": "H5_ACTIVITY_COND_DAY_COUNT_GREAT_EQUAL",
        "paramStr": "1"
      },
      {
        "paramStr": ""
      }
    ],
    "id": 5009010,
    "triggerConfig": {
      "triggerType": "TRIGGER_COST_MATERIAL",
      "paramList": ["202", "", "", "", ""]
    },
    "progress": 120000
  },
  {
    "h5ActivityId": 1009,
    "condComb": "LOGIC_AND",
    "condList": [
      {
        "type": "H5_ACTIVITY_COND_DAY_COUNT_GREAT_EQUAL",
        "paramStr": "1"
      },
      {
        "paramStr": ""
      }
    ],
    "id": 5009011,
    "triggerConfig": {
      "triggerType": "TRIGGER_COST_MATERIAL",
      "paramList": ["202", "", "", "", ""]
    },
    "progress": 200000
  },
  {
    "h5ActivityId": 1009,
    "condComb": "LOGIC_AND",
    "condList": [
      {
        "type": "H5_ACTIVITY_COND_DAY_COUNT_GREAT_EQUAL",
        "paramStr": "1"
      },
      {
        "paramStr": ""
      }
    ],
    "id": 5009012,
    "triggerConfig": {
      "triggerType": "TRIGGER_FINISH_DUNGEON",
      "paramList": ["127;128;129;130", "", "", "", ""]
    },
    "progress": 3
  },
  {
    "h5ActivityId": 1009,
    "condComb": "LOGIC_AND",
    "condList": [
      {
        "type": "H5_ACTIVITY_COND_DAY_COUNT_GREAT_EQUAL",
        "paramStr": "1"
      },
      {
        "paramStr": ""
      }
    ],
    "id": 5009013,
    "triggerConfig": {
      "triggerType": "TRIGGER_BATTLE_FOR_MONSTER_DIE_OR",
      "paramList": ["20040401,20070101", "", "", "", ""]
    },
    "progress": 10
  },
  {
    "h5ActivityId": 1009,
    "condComb": "LOGIC_AND",
    "condList": [
      {
        "type": "H5_ACTIVITY_COND_DAY_COUNT_GREAT_EQUAL",
        "paramStr": "1"
      },
      {
        "paramStr": ""
      }
    ],
    "id": 5009014,
    "triggerConfig": {
      "triggerType": "TRIGGER_BATTLE_FOR_MONSTER_DIE_OR",
      "paramList": ["20060101,20060201,20060301", "", "", "", ""]
    },
    "progress": 30
  },
  {
    "h5ActivityId": 1009,
    "condComb": "LOGIC_AND",
    "condList": [
      {
        "type": "H5_ACTIVITY_COND_DAY_COUNT_GREAT_EQUAL",
        "paramStr": "1"
      },
      {
        "paramStr": ""
      }
    ],
    "id": 5009015,
    "triggerConfig": {
      "triggerType": "TRIGGER_FINISH_PARENT_QUEST_AND",
      "paramList": ["71500", "", "", "", ""]
    },
    "progress": 1
  },
  {
    "h5ActivityId": 1009,
    "condComb": "LOGIC_AND",
    "condList": [
      {
        "type": "H5_ACTIVITY_COND_DAY_COUNT_GREAT_EQUAL",
        "paramStr": "1"
      },
      {
        "paramStr": ""
      }
    ],
    "id": 5009016,
    "triggerConfig": {
      "triggerType": "TRIGGER_LUNA_RITE_SEARCH",
      "paramList": ["1", "", "", "", "25"]
    },
    "progress": 1
  },
  {
    "h5ActivityId": 1009,
    "condComb": "LOGIC_AND",
    "condList": [
      {
        "type": "H5_ACTIVITY_COND_DAY_COUNT_GREAT_EQUAL",
        "paramStr": "1"
      },
      {
        "paramStr": ""
      }
    ],
    "id": 5009017,
    "triggerConfig": {
      "triggerType": "TRIGGER_LUNA_RITE_SEARCH",
      "paramList": ["1", "", "", "", "100"]
    },
    "progress": 1
  },
  {
    "h5ActivityId": 1011,
    "condComb": "LOGIC_AND",
    "condList": [
      {
        "type": "H5_ACTIVITY_COND_DAY_COUNT_GREAT_EQUAL",
        "paramStr": "1"
      },
      {
        "paramStr": ""
      }
    ],
    "isDailyRefresh": true,
    "id": 5011001,
    "triggerConfig": {
      "triggerType": "TRIGGER_LOGIN",
      "paramList": ["", "", "", "", ""]
    },
    "progress": 1
  },
  {
    "h5ActivityId": 1011,
    "condComb": "LOGIC_AND",
    "condList": [
      {
        "type": "H5_ACTIVITY_COND_DAY_COUNT_GREAT_EQUAL",
        "paramStr": "1"
      },
      {
        "paramStr": ""
      }
    ],
    "isDailyRefresh": true,
    "id": 5011002,
    "triggerConfig": {
      "triggerType": "TRIGGER_COST_MATERIAL",
      "paramList": ["106", "", "", "", ""]
    },
    "progress": 40
  },
  {
    "h5ActivityId": 1011,
    "condComb": "LOGIC_AND",
    "condList": [
      {
        "type": "H5_ACTIVITY_COND_DAY_COUNT_GREAT_EQUAL",
        "paramStr": "1"
      },
      {
        "paramStr": ""
      }
    ],
    "isDailyRefresh": true,
    "id": 5011003,
    "triggerConfig": {
      "triggerType": "TRIGGER_FINISH_DUNGEON",
      "paramList": ["", "", "", "", ""]
    },
    "progress": 3
  },
  {
    "h5ActivityId": 1011,
    "condComb": "LOGIC_AND",
    "condList": [
      {
        "type": "H5_ACTIVITY_COND_DAY_COUNT_GREAT_EQUAL",
        "paramStr": "1"
      },
      {
        "paramStr": ""
      }
    ],
    "isDailyRefresh": true,
    "id": 5011004,
    "triggerConfig": {
      "triggerType": "TRIGGER_MONSTER_DIE",
      "paramList": [
        "20040101;20040201;20040301;26020201;26020101;20050101;29020102;26050101;26050201;26050301;26050401;20040501;25090101;20040601;24021101;20040401;20070101",
        "\u53ef\u8054\u673a",
        "",
        "",
        ""
      ]
    },
    "progress": 3
  },
  {
    "h5ActivityId": 1011,
    "condComb": "LOGIC_AND",
    "condList": [
      {
        "type": "H5_ACTIVITY_COND_DAY_COUNT_GREAT_EQUAL",
        "paramStr": "1"
      },
      {
        "paramStr": ""
      }
    ],
    "isDailyRefresh": true,
    "id": 5011005,
    "triggerConfig": {
      "triggerType": "TRIGGER_DAILY_TASK",
      "paramList": ["", "", "", "", ""]
    },
    "progress": 4
  },
  {
    "h5ActivityId": 1011,
    "condComb": "LOGIC_AND",
    "condList": [
      {
        "type": "H5_ACTIVITY_COND_DAY_COUNT_GREAT_EQUAL",
        "paramStr": "1"
      },
      {
        "paramStr": ""
      }
    ],
    "id": 5011006,
    "triggerConfig": {
      "triggerType": "TRIGGER_COST_MATERIAL",
      "paramList": ["202", "", "", "", ""]
    },
    "progress": 50000
  },
  {
    "h5ActivityId": 1011,
    "condComb": "LOGIC_AND",
    "condList": [
      {
        "type": "H5_ACTIVITY_COND_DAY_COUNT_GREAT_EQUAL",
        "paramStr": "1"
      },
      {
        "paramStr": ""
      }
    ],
    "id": 5011007,
    "triggerConfig": {
      "triggerType": "TRIGGER_COST_MATERIAL",
      "paramList": ["106", "", "", "", ""]
    },
    "progress": 200
  },
  {
    "h5ActivityId": 1012,
    "condComb": "LOGIC_AND",
    "condList": [
      {
        "type": "H5_ACTIVITY_COND_DAY_COUNT_GREAT_EQUAL",
        "paramStr": "1"
      },
      {
        "paramStr": ""
      }
    ],
    "id": 5012001,
    "triggerConfig": {
      "triggerType": "TRIGGER_LOGIN",
      "paramList": ["", "", "", "", ""]
    },
    "progress": 1
  },
  {
    "h5ActivityId": 1013,
    "condComb": "LOGIC_AND",
    "condList": [
      {
        "type": "H5_ACTIVITY_COND_DAY_COUNT_GREAT_EQUAL",
        "paramStr": "1"
      },
      {
        "paramStr": ""
      }
    ],
    "id": 5013001,
    "triggerConfig": {
      "triggerType": "TRIGGER_LOGIN",
      "paramList": ["", "", "", "", ""]
    },
    "progress": 1
  },
  {
    "h5ActivityId": 1014,
    "condComb": "LOGIC_AND",
    "condList": [
      {
        "type": "H5_ACTIVITY_COND_DAY_COUNT_GREAT_EQUAL",
        "paramStr": "1"
      },
      {
        "paramStr": ""
      }
    ],
    "id": 5014001,
    "triggerConfig": {
      "triggerType": "TRIGGER_LOGIN",
      "paramList": ["", "", "", "", ""]
    },
    "progress": 1
  },
  {
    "h5ActivityId": 1015,
    "condComb": "LOGIC_AND",
    "condList": [
      {
        "type": "H5_ACTIVITY_COND_DAY_COUNT_GREAT_EQUAL",
        "paramStr": "1"
      },
      {
        "paramStr": ""
      }
    ],
    "isDailyRefresh": true,
    "id": 5015001,
    "triggerConfig": {
      "triggerType": "TRIGGER_DAILY_TASK",
      "paramList": ["", "", "", "", ""]
    },
    "progress": 2
  },
  {
    "h5ActivityId": 1015,
    "condComb": "LOGIC_AND",
    "condList": [
      {
        "type": "H5_ACTIVITY_COND_DAY_COUNT_GREAT_EQUAL",
        "paramStr": "1"
      },
      {
        "paramStr": ""
      }
    ],
    "isDailyRefresh": true,
    "id": 5015002,
    "triggerConfig": {
      "triggerType": "TRIGGER_LOGIN",
      "paramList": ["", "", "", "", ""]
    },
    "progress": 1
  },
  {
    "h5ActivityId": 1015,
    "condComb": "LOGIC_AND",
    "condList": [
      {
        "type": "H5_ACTIVITY_COND_DAY_COUNT_GREAT_EQUAL",
        "paramStr": "1"
      },
      {
        "paramStr": ""
      }
    ],
    "isDailyRefresh": true,
    "id": 5015003,
    "triggerConfig": {
      "triggerType": "TRIGGER_DO_COOK",
      "paramList": ["1", "", "", "", ""]
    },
    "progress": 4
  },
  {
    "h5ActivityId": 1015,
    "condComb": "LOGIC_AND",
    "condList": [
      {
        "type": "H5_ACTIVITY_COND_DAY_COUNT_GREAT_EQUAL",
        "paramStr": "1"
      },
      {
        "paramStr": ""
      }
    ],
    "isDailyRefresh": true,
    "id": 5015004,
    "triggerConfig": {
      "triggerType": "TRIGGER_AVATAR_EXPEDITION",
      "paramList": ["3", "", "", "", ""]
    },
    "progress": 2
  },
  {
    "h5ActivityId": 1015,
    "condComb": "LOGIC_AND",
    "condList": [
      {
        "type": "H5_ACTIVITY_COND_DAY_COUNT_GREAT_EQUAL",
        "paramStr": "1"
      },
      {
        "paramStr": ""
      }
    ],
    "isDailyRefresh": true,
    "id": 5015005,
    "triggerConfig": {
      "triggerType": "TRIGGER_COST_MATERIAL",
      "paramList": ["106", "", "", "", ""]
    },
    "progress": 40
  },
  {
    "h5ActivityId": 1016,
    "condComb": "LOGIC_AND",
    "condList": [
      {
        "type": "H5_ACTIVITY_COND_DAY_COUNT_GREAT_EQUAL",
        "paramStr": "1"
      },
      {
        "paramStr": ""
      }
    ],
    "id": 5016001,
    "triggerConfig": {
      "triggerType": "TRIGGER_LOGIN",
      "paramList": ["", "", "", "", ""]
    },
    "progress": 1
  },
  {
    "h5ActivityId": 1016,
    "condComb": "LOGIC_AND",
    "condList": [
      {
        "type": "H5_ACTIVITY_COND_DAY_COUNT_GREAT_EQUAL",
        "paramStr": "1"
      },
      {
        "paramStr": ""
      }
    ],
    "id": 5016002,
    "triggerConfig": {
      "triggerType": "TRIGGER_AVATAR_EXPEDITION",
      "paramList": ["", "", "", "", ""]
    },
    "progress": 1
  },
  {
    "h5ActivityId": 1016,
    "condComb": "LOGIC_AND",
    "condList": [
      {
        "type": "H5_ACTIVITY_COND_DAY_COUNT_GREAT_EQUAL",
        "paramStr": "1"
      },
      {
        "paramStr": ""
      }
    ],
    "id": 5016003,
    "triggerConfig": {
      "triggerType": "TRIGGER_DAILY_TASK",
      "paramList": ["", "", "", "", ""]
    },
    "progress": 4
  },
  {
    "h5ActivityId": 1016,
    "condComb": "LOGIC_AND",
    "condList": [
      {
        "type": "H5_ACTIVITY_COND_DAY_COUNT_GREAT_EQUAL",
        "paramStr": "1"
      },
      {
        "paramStr": ""
      }
    ],
    "id": 5016004,
    "triggerConfig": {
      "triggerType": "TRIGGER_LOGIN",
      "paramList": ["", "", "", "", ""]
    },
    "progress": 2
  },
  {
    "h5ActivityId": 1016,
    "condComb": "LOGIC_AND",
    "condList": [
      {
        "type": "H5_ACTIVITY_COND_DAY_COUNT_GREAT_EQUAL",
        "paramStr": "1"
      },
      {
        "paramStr": ""
      }
    ],
    "id": 5016005,
    "triggerConfig": {
      "triggerType": "TRIGGER_OBTAIN_MATERIAL_NUM",
      "paramList": ["100085", "", "", "", ""]
    },
    "progress": 3
  },
  {
    "h5ActivityId": 1016,
    "condComb": "LOGIC_AND",
    "condList": [
      {
        "type": "H5_ACTIVITY_COND_DAY_COUNT_GREAT_EQUAL",
        "paramStr": "1"
      },
      {
        "paramStr": ""
      }
    ],
    "id": 5016006,
    "triggerConfig": {
      "triggerType": "TRIGGER_FINISH_DUNGEON",
      "paramList": ["", "", "", "", ""]
    },
    "progress": 1
  },
  {
    "h5ActivityId": 1016,
    "condComb": "LOGIC_AND",
    "condList": [
      {
        "type": "H5_ACTIVITY_COND_DAY_COUNT_GREAT_EQUAL",
        "paramStr": "1"
      },
      {
        "paramStr": ""
      }
    ],
    "id": 5016007,
    "triggerConfig": {
      "triggerType": "TRIGGER_LOGIN",
      "paramList": ["", "", "", "", ""]
    },
    "progress": 3
  },
  {
    "h5ActivityId": 1016,
    "condComb": "LOGIC_AND",
    "condList": [
      {
        "type": "H5_ACTIVITY_COND_DAY_COUNT_GREAT_EQUAL",
        "paramStr": "1"
      },
      {
        "paramStr": ""
      }
    ],
    "id": 5016008,
    "triggerConfig": {
      "triggerType": "TRIGGER_COST_MATERIAL",
      "paramList": ["106", "", "", "", ""]
    },
    "progress": 480
  },
  {
    "h5ActivityId": 1016,
    "condComb": "LOGIC_AND",
    "condList": [
      {
        "type": "H5_ACTIVITY_COND_DAY_COUNT_GREAT_EQUAL",
        "paramStr": "1"
      },
      {
        "paramStr": ""
      }
    ],
    "id": 5016009,
    "triggerConfig": {
      "triggerType": "TRIGGER_DAILY_TASK",
      "paramList": ["", "", "", "", ""]
    },
    "progress": 12
  },
  {
    "h5ActivityId": 1016,
    "condComb": "LOGIC_AND",
    "condList": [
      {
        "type": "H5_ACTIVITY_COND_DAY_COUNT_GREAT_EQUAL",
        "paramStr": "1"
      },
      {
        "paramStr": ""
      }
    ],
    "id": 5016010,
    "triggerConfig": {
      "triggerType": "TRIGGER_LOGIN",
      "paramList": ["", "", "", "", ""]
    },
    "progress": 4
  },
  {
    "h5ActivityId": 1016,
    "condComb": "LOGIC_AND",
    "condList": [
      {
        "type": "H5_ACTIVITY_COND_DAY_COUNT_GREAT_EQUAL",
        "paramStr": "1"
      },
      {
        "paramStr": ""
      }
    ],
    "id": 5016011,
    "triggerConfig": {
      "triggerType": "TRIGGER_MONSTER_DIE",
      "paramList": [
        "20040101;20040201;20040301;26020201;26020101;20050101;29020102;26050101;26050201;26050301;26050401;20040501;25090101;20040601;24021101;20040401;20070101;22060101",
        "\u53ef\u8054\u673a",
        "",
        "",
        ""
      ]
    },
    "progress": 1
  },
  {
    "h5ActivityId": 1016,
    "condComb": "LOGIC_AND",
    "condList": [
      {
        "type": "H5_ACTIVITY_COND_DAY_COUNT_GREAT_EQUAL",
        "paramStr": "1"
      },
      {
        "paramStr": ""
      }
    ],
    "id": 5016012,
    "triggerConfig": {
      "triggerType": "TRIGGER_LOGIN",
      "paramList": ["", "", "", "", ""]
    },
    "progress": 5
  },
  {
    "h5ActivityId": 1016,
    "condComb": "LOGIC_AND",
    "condList": [
      {
        "type": "H5_ACTIVITY_COND_DAY_COUNT_GREAT_EQUAL",
        "paramStr": "1"
      },
      {
        "paramStr": ""
      }
    ],
    "id": 5016013,
    "triggerConfig": {
      "triggerType": "TRIGGER_COST_MATERIAL",
      "paramList": ["106", "", "", "", ""]
    },
    "progress": 900
  },
  {
    "h5ActivityId": 1016,
    "condComb": "LOGIC_AND",
    "condList": [
      {
        "type": "H5_ACTIVITY_COND_DAY_COUNT_GREAT_EQUAL",
        "paramStr": "1"
      },
      {
        "paramStr": ""
      }
    ],
    "id": 5016014,
    "triggerConfig": {
      "triggerType": "TRIGGER_LOGIN",
      "paramList": ["", "", "", "", ""]
    },
    "progress": 6
  },
  {
    "h5ActivityId": 1016,
    "condComb": "LOGIC_AND",
    "condList": [
      {
        "type": "H5_ACTIVITY_COND_DAY_COUNT_GREAT_EQUAL",
        "paramStr": "1"
      },
      {
        "paramStr": ""
      }
    ],
    "id": 5016015,
    "triggerConfig": {
      "triggerType": "TRIGGER_OBTAIN_MATERIAL_NUM",
      "paramList": ["204", "", "", "", ""]
    },
    "progress": 1
  },
  {
    "h5ActivityId": 1016,
    "condComb": "LOGIC_AND",
    "condList": [
      {
        "type": "H5_ACTIVITY_COND_DAY_COUNT_GREAT_EQUAL",
        "paramStr": "1"
      },
      {
        "paramStr": ""
      }
    ],
    "id": 5016016,
    "triggerConfig": {
      "triggerType": "TRIGGER_LOGIN",
      "paramList": ["", "", "", "", ""]
    },
    "progress": 7
  },
  {
    "h5ActivityId": 1016,
    "condComb": "LOGIC_AND",
    "condList": [
      {
        "type": "H5_ACTIVITY_COND_DAY_COUNT_GREAT_EQUAL",
        "paramStr": "1"
      },
      {
        "paramStr": ""
      }
    ],
    "id": 5016017,
    "triggerConfig": {
      "triggerType": "TRIGGER_HOME_AVATAR_FETTER_GET",
      "paramList": ["", "", "", "", ""]
    },
    "progress": 1
  },
  {
    "h5ActivityId": 1017,
    "condComb": "LOGIC_AND",
    "condList": [
      {
        "type": "H5_ACTIVITY_COND_DAY_COUNT_GREAT_EQUAL",
        "paramStr": "1"
      },
      {
        "paramStr": ""
      }
    ],
    "isDailyRefresh": true,
    "id": 5017001,
    "triggerConfig": {
      "triggerType": "TRIGGER_DAILY_TASK",
      "paramList": ["", "", "", "", ""]
    },
    "progress": 2
  },
  {
    "h5ActivityId": 1017,
    "condComb": "LOGIC_AND",
    "condList": [
      {
        "type": "H5_ACTIVITY_COND_DAY_COUNT_GREAT_EQUAL",
        "paramStr": "1"
      },
      {
        "paramStr": ""
      }
    ],
    "isDailyRefresh": true,
    "id": 5017002,
    "triggerConfig": {
      "triggerType": "TRIGGER_LOGIN",
      "paramList": ["", "", "", "", ""]
    },
    "progress": 1
  },
  {
    "h5ActivityId": 1017,
    "condComb": "LOGIC_AND",
    "condList": [
      {
        "type": "H5_ACTIVITY_COND_DAY_COUNT_GREAT_EQUAL",
        "paramStr": "1"
      },
      {
        "paramStr": ""
      }
    ],
    "isDailyRefresh": true,
    "id": 5017003,
    "triggerConfig": {
      "triggerType": "TRIGGER_DO_COOK",
      "paramList": ["1", "", "", "", ""]
    },
    "progress": 4
  },
  {
    "h5ActivityId": 1017,
    "condComb": "LOGIC_AND",
    "condList": [
      {
        "type": "H5_ACTIVITY_COND_DAY_COUNT_GREAT_EQUAL",
        "paramStr": "1"
      },
      {
        "paramStr": ""
      }
    ],
    "isDailyRefresh": true,
    "id": 5017004,
    "triggerConfig": {
      "triggerType": "TRIGGER_AVATAR_EXPEDITION",
      "paramList": ["3", "", "", "", ""]
    },
    "progress": 2
  },
  {
    "h5ActivityId": 1017,
    "condComb": "LOGIC_AND",
    "condList": [
      {
        "type": "H5_ACTIVITY_COND_DAY_COUNT_GREAT_EQUAL",
        "paramStr": "1"
      },
      {
        "paramStr": ""
      }
    ],
    "isDailyRefresh": true,
    "id": 5017005,
    "triggerConfig": {
      "triggerType": "TRIGGER_COST_MATERIAL",
      "paramList": ["106", "", "", "", ""]
    },
    "progress": 40
  },
  {
    "h5ActivityId": 1018,
    "condComb": "LOGIC_AND",
    "condList": [
      {
        "type": "H5_ACTIVITY_COND_DAY_COUNT_GREAT_EQUAL",
        "paramStr": "1"
      },
      {
        "paramStr": ""
      }
    ],
    "id": 5018001,
    "triggerConfig": {
      "triggerType": "TRIGGER_LOGIN",
      "paramList": ["", "", "", "", ""]
    },
    "progress": 1
  },
  {
    "h5ActivityId": 1020,
    "condComb": "LOGIC_AND",
    "condList": [
      {
        "type": "H5_ACTIVITY_COND_DAY_COUNT_GREAT_EQUAL",
        "paramStr": "1"
      },
      {
        "paramStr": ""
      }
    ],
    "isDailyRefresh": true,
    "id": 5020001,
    "triggerConfig": {
      "triggerType": "TRIGGER_DAILY_TASK",
      "paramList": ["", "", "", "", ""]
    },
    "progress": 2
  },
  {
    "h5ActivityId": 1020,
    "condComb": "LOGIC_AND",
    "condList": [
      {
        "type": "H5_ACTIVITY_COND_DAY_COUNT_GREAT_EQUAL",
        "paramStr": "1"
      },
      {
        "paramStr": ""
      }
    ],
    "isDailyRefresh": true,
    "id": 5020002,
    "triggerConfig": {
      "triggerType": "TRIGGER_LOGIN",
      "paramList": ["", "", "", "", ""]
    },
    "progress": 1
  },
  {
    "h5ActivityId": 1020,
    "condComb": "LOGIC_AND",
    "condList": [
      {
        "type": "H5_ACTIVITY_COND_DAY_COUNT_GREAT_EQUAL",
        "paramStr": "1"
      },
      {
        "paramStr": ""
      }
    ],
    "isDailyRefresh": true,
    "id": 5020003,
    "triggerConfig": {
      "triggerType": "TRIGGER_DO_COOK",
      "paramList": ["1", "", "", "", ""]
    },
    "progress": 4
  },
  {
    "h5ActivityId": 1020,
    "condComb": "LOGIC_AND",
    "condList": [
      {
        "type": "H5_ACTIVITY_COND_DAY_COUNT_GREAT_EQUAL",
        "paramStr": "1"
      },
      {
        "paramStr": ""
      }
    ],
    "isDailyRefresh": true,
    "id": 5020004,
    "triggerConfig": {
      "triggerType": "TRIGGER_AVATAR_EXPEDITION",
      "paramList": ["3", "", "", "", ""]
    },
    "progress": 2
  },
  {
    "h5ActivityId": 1020,
    "condComb": "LOGIC_AND",
    "condList": [
      {
        "type": "H5_ACTIVITY_COND_DAY_COUNT_GREAT_EQUAL",
        "paramStr": "1"
      },
      {
        "paramStr": ""
      }
    ],
    "isDailyRefresh": true,
    "id": 5020005,
    "triggerConfig": {
      "triggerType": "TRIGGER_COST_MATERIAL",
      "paramList": ["106", "", "", "", ""]
    },
    "progress": 40
  },
  {
    "h5ActivityId": 1021,
    "condComb": "LOGIC_AND",
    "condList": [
      {
        "type": "H5_ACTIVITY_COND_DAY_COUNT_GREAT_EQUAL",
        "paramStr": "1"
      },
      {
        "paramStr": ""
      }
    ],
    "isDailyRefresh": true,
    "id": 5021001,
    "triggerConfig": {
      "triggerType": "TRIGGER_LOGIN",
      "paramList": ["", "", "", "", ""]
    },
    "progress": 1
  },
  {
    "h5ActivityId": 1021,
    "condComb": "LOGIC_AND",
    "condList": [
      {
        "type": "H5_ACTIVITY_COND_DAY_COUNT_GREAT_EQUAL",
        "paramStr": "1"
      },
      {
        "paramStr": ""
      }
    ],
    "isDailyRefresh": true,
    "id": 5021002,
    "triggerConfig": {
      "triggerType": "TRIGGER_DAILY_TASK",
      "paramList": ["", "", "", "", ""]
    },
    "progress": 2
  },
  {
    "h5ActivityId": 1021,
    "condComb": "LOGIC_AND",
    "condList": [
      {
        "type": "H5_ACTIVITY_COND_DAY_COUNT_GREAT_EQUAL",
        "paramStr": "1"
      },
      {
        "paramStr": ""
      }
    ],
    "isDailyRefresh": true,
    "id": 5021003,
    "triggerConfig": {
      "triggerType": "TRIGGER_COST_MATERIAL",
      "paramList": ["106", "", "", "", ""]
    },
    "progress": 40
  },
  {
    "h5ActivityId": 1022,
    "condComb": "LOGIC_AND",
    "condList": [
      {
        "type": "H5_ACTIVITY_COND_DAY_COUNT_GREAT_EQUAL",
        "paramStr": "1"
      },
      {
        "paramStr": ""
      }
    ],
    "isDailyRefresh": true,
    "id": 5022001,
    "triggerConfig": {
      "triggerType": "TRIGGER_DAILY_TASK",
      "paramList": ["", "", "", "", ""]
    },
    "progress": 2
  },
  {
    "h5ActivityId": 1022,
    "condComb": "LOGIC_AND",
    "condList": [
      {
        "type": "H5_ACTIVITY_COND_DAY_COUNT_GREAT_EQUAL",
        "paramStr": "1"
      },
      {
        "paramStr": ""
      }
    ],
    "isDailyRefresh": true,
    "id": 5022002,
    "triggerConfig": {
      "triggerType": "TRIGGER_LOGIN",
      "paramList": ["", "", "", "", ""]
    },
    "progress": 1
  },
  {
    "h5ActivityId": 1022,
    "condComb": "LOGIC_AND",
    "condList": [
      {
        "type": "H5_ACTIVITY_COND_DAY_COUNT_GREAT_EQUAL",
        "paramStr": "1"
      },
      {
        "paramStr": ""
      }
    ],
    "isDailyRefresh": true,
    "id": 5022003,
    "triggerConfig": {
      "triggerType": "TRIGGER_DO_COOK",
      "paramList": ["1", "", "", "", ""]
    },
    "progress": 4
  },
  {
    "h5ActivityId": 1022,
    "condComb": "LOGIC_AND",
    "condList": [
      {
        "type": "H5_ACTIVITY_COND_DAY_COUNT_GREAT_EQUAL",
        "paramStr": "1"
      },
      {
        "paramStr": ""
      }
    ],
    "isDailyRefresh": true,
    "id": 5022004,
    "triggerConfig": {
      "triggerType": "TRIGGER_AVATAR_EXPEDITION",
      "paramList": ["3", "", "", "", ""]
    },
    "progress": 2
  },
  {
    "h5ActivityId": 1022,
    "condComb": "LOGIC_AND",
    "condList": [
      {
        "type": "H5_ACTIVITY_COND_DAY_COUNT_GREAT_EQUAL",
        "paramStr": "1"
      },
      {
        "paramStr": ""
      }
    ],
    "isDailyRefresh": true,
    "id": 5022005,
    "triggerConfig": {
      "triggerType": "TRIGGER_COST_MATERIAL",
      "paramList": ["106", "", "", "", ""]
    },
    "progress": 40
  },
  {
    "h5ActivityId": 1023,
    "condComb": "LOGIC_AND",
    "condList": [
      {
        "type": "H5_ACTIVITY_COND_DAY_COUNT_GREAT_EQUAL",
        "paramStr": "1"
      },
      {
        "paramStr": ""
      }
    ],
    "isDailyRefresh": true,
    "id": 5023001,
    "triggerConfig": {
      "triggerType": "TRIGGER_LOGIN",
      "paramList": ["", "", "", "", ""]
    },
    "progress": 1
  },
  {
    "h5ActivityId": 1023,
    "condComb": "LOGIC_AND",
    "condList": [
      {
        "type": "H5_ACTIVITY_COND_DAY_COUNT_GREAT_EQUAL",
        "paramStr": "1"
      },
      {
        "paramStr": ""
      }
    ],
    "isDailyRefresh": true,
    "id": 5023002,
    "triggerConfig": {
      "triggerType": "TRIGGER_DAILY_TASK",
      "paramList": ["", "", "", "", ""]
    },
    "progress": 2
  },
  {
    "h5ActivityId": 1023,
    "condComb": "LOGIC_AND",
    "condList": [
      {
        "type": "H5_ACTIVITY_COND_DAY_COUNT_GREAT_EQUAL",
        "paramStr": "1"
      },
      {
        "paramStr": ""
      }
    ],
    "isDailyRefresh": true,
    "id": 5023003,
    "triggerConfig": {
      "triggerType": "TRIGGER_COST_MATERIAL",
      "paramList": ["106", "", "", "", ""]
    },
    "progress": 40
  },
  {
    "h5ActivityId": 1024,
    "condComb": "LOGIC_AND",
    "condList": [
      {
        "type": "H5_ACTIVITY_COND_DAY_COUNT_GREAT_EQUAL",
        "paramStr": "1"
      },
      {
        "paramStr": ""
      }
    ],
    "isDailyRefresh": true,
    "id": 5024001,
    "triggerConfig": {
      "triggerType": "TRIGGER_DAILY_TASK",
      "paramList": ["", "", "", "", ""]
    },
    "progress": 2
  },
  {
    "h5ActivityId": 1024,
    "condComb": "LOGIC_AND",
    "condList": [
      {
        "type": "H5_ACTIVITY_COND_DAY_COUNT_GREAT_EQUAL",
        "paramStr": "1"
      },
      {
        "paramStr": ""
      }
    ],
    "isDailyRefresh": true,
    "id": 5024002,
    "triggerConfig": {
      "triggerType": "TRIGGER_LOGIN",
      "paramList": ["", "", "", "", ""]
    },
    "progress": 1
  },
  {
    "h5ActivityId": 1024,
    "condComb": "LOGIC_AND",
    "condList": [
      {
        "type": "H5_ACTIVITY_COND_DAY_COUNT_GREAT_EQUAL",
        "paramStr": "1"
      },
      {
        "paramStr": ""
      }
    ],
    "isDailyRefresh": true,
    "id": 5024003,
    "triggerConfig": {
      "triggerType": "TRIGGER_DO_COOK",
      "paramList": ["1", "", "", "", ""]
    },
    "progress": 4
  },
  {
    "h5ActivityId": 1024,
    "condComb": "LOGIC_AND",
    "condList": [
      {
        "type": "H5_ACTIVITY_COND_DAY_COUNT_GREAT_EQUAL",
        "paramStr": "1"
      },
      {
        "paramStr": ""
      }
    ],
    "isDailyRefresh": true,
    "id": 5024004,
    "triggerConfig": {
      "triggerType": "TRIGGER_AVATAR_EXPEDITION",
      "paramList": ["3", "", "", "", ""]
    },
    "progress": 2
  },
  {
    "h5ActivityId": 1024,
    "condComb": "LOGIC_AND",
    "condList": [
      {
        "type": "H5_ACTIVITY_COND_DAY_COUNT_GREAT_EQUAL",
        "paramStr": "1"
      },
      {
        "paramStr": ""
      }
    ],
    "isDailyRefresh": true,
    "id": 5024005,
    "triggerConfig": {
      "triggerType": "TRIGGER_COST_MATERIAL",
      "paramList": ["106", "", "", "", ""]
    },
    "progress": 40
  },
  {
    "h5ActivityId": 1025,
    "condComb": "LOGIC_AND",
    "condList": [
      {
        "type": "H5_ACTIVITY_COND_DAY_COUNT_GREAT_EQUAL",
        "paramStr": "1"
      },
      {
        "paramStr": ""
      }
    ],
    "isDailyRefresh": true,
    "id": 5025001,
    "triggerConfig": {
      "triggerType": "TRIGGER_LOGIN",
      "paramList": ["", "", "", "", ""]
    },
    "progress": 1
  },
  {
    "h5ActivityId": 1025,
    "condComb": "LOGIC_AND",
    "condList": [
      {
        "type": "H5_ACTIVITY_COND_DAY_COUNT_GREAT_EQUAL",
        "paramStr": "1"
      },
      {
        "paramStr": ""
      }
    ],
    "isDailyRefresh": true,
    "id": 5025002,
    "triggerConfig": {
      "triggerType": "TRIGGER_DAILY_TASK",
      "paramList": ["", "", "", "", ""]
    },
    "progress": 2
  },
  {
    "h5ActivityId": 1025,
    "condComb": "LOGIC_AND",
    "condList": [
      {
        "type": "H5_ACTIVITY_COND_DAY_COUNT_GREAT_EQUAL",
        "paramStr": "1"
      },
      {
        "paramStr": ""
      }
    ],
    "isDailyRefresh": true,
    "id": 5025003,
    "triggerConfig": {
      "triggerType": "TRIGGER_COST_MATERIAL",
      "paramList": ["106", "", "", "", ""]
    },
    "progress": 40
  },
  {
    "h5ActivityId": 1025,
    "condComb": "LOGIC_AND",
    "condList": [
      {
        "type": "H5_ACTIVITY_COND_DAY_COUNT_GREAT_EQUAL",
        "paramStr": "1"
      },
      {
        "paramStr": ""
      }
    ],
    "isDailyRefresh": true,
    "id": 5025004,
    "triggerConfig": {
      "triggerType": "TRIGGER_DO_COOK",
      "paramList": ["1", "", "", "", ""]
    },
    "progress": 4
  },
  {
    "h5ActivityId": 1026,
    "condComb": "LOGIC_AND",
    "condList": [
      {
        "type": "H5_ACTIVITY_COND_DAY_COUNT_GREAT_EQUAL",
        "paramStr": "1"
      },
      {
        "paramStr": ""
      }
    ],
    "id": 5026001,
    "triggerConfig": {
      "triggerType": "TRIGGER_MUSIC_GAME_SETTLE_OTHERS_UGC",
      "paramList": ["", "", "", "", ""]
    },
    "progress": 1
  },
  {
    "h5ActivityId": 1026,
    "condComb": "LOGIC_AND",
    "condList": [
      {
        "type": "H5_ACTIVITY_COND_DAY_COUNT_GREAT_EQUAL",
        "paramStr": "1"
      },
      {
        "paramStr": ""
      }
    ],
    "id": 5026002,
    "triggerConfig": {
      "triggerType": "TRIGGER_MUSIC_GAME_SAVE_UGC",
      "paramList": ["", "", "", "", ""]
    },
    "progress": 1
  },
  {
    "h5ActivityId": 1027,
    "condComb": "LOGIC_AND",
    "condList": [
      {
        "type": "H5_ACTIVITY_COND_DAY_COUNT_GREAT_EQUAL",
        "paramStr": "1"
      },
      {
        "paramStr": ""
      }
    ],
    "isDailyRefresh": true,
    "id": 5027001,
    "triggerConfig": {
      "triggerType": "TRIGGER_LOGIN",
      "paramList": ["", "", "", "", ""]
    },
    "progress": 1
  },
  {
    "h5ActivityId": 1027,
    "condComb": "LOGIC_AND",
    "condList": [
      {
        "type": "H5_ACTIVITY_COND_DAY_COUNT_GREAT_EQUAL",
        "paramStr": "1"
      },
      {
        "paramStr": ""
      }
    ],
    "isDailyRefresh": true,
    "id": 5027002,
    "triggerConfig": {
      "triggerType": "TRIGGER_DAILY_TASK",
      "paramList": ["", "", "", "", ""]
    },
    "progress": 2
  },
  {
    "h5ActivityId": 1027,
    "condComb": "LOGIC_AND",
    "condList": [
      {
        "type": "H5_ACTIVITY_COND_DAY_COUNT_GREAT_EQUAL",
        "paramStr": "1"
      },
      {
        "paramStr": ""
      }
    ],
    "isDailyRefresh": true,
    "id": 5027003,
    "triggerConfig": {
      "triggerType": "TRIGGER_COST_MATERIAL",
      "paramList": ["106", "", "", "", ""]
    },
    "progress": 40
  },
  {
    "h5ActivityId": 1028,
    "condComb": "LOGIC_AND",
    "condList": [
      {
        "type": "H5_ACTIVITY_COND_DAY_COUNT_GREAT_EQUAL",
        "paramStr": "1"
      },
      {
        "paramStr": ""
      }
    ],
    "isDailyRefresh": true,
    "id": 5028001,
    "triggerConfig": {
      "triggerType": "TRIGGER_LOGIN",
      "paramList": ["", "", "", "", ""]
    },
    "progress": 1
  },
  {
    "h5ActivityId": 1028,
    "condComb": "LOGIC_AND",
    "condList": [
      {
        "type": "H5_ACTIVITY_COND_DAY_COUNT_GREAT_EQUAL",
        "paramStr": "1"
      },
      {
        "paramStr": ""
      }
    ],
    "isDailyRefresh": true,
    "id": 5028002,
    "triggerConfig": {
      "triggerType": "TRIGGER_DAILY_TASK",
      "paramList": ["", "", "", "", ""]
    },
    "progress": 4
  },
  {
    "h5ActivityId": 1028,
    "condComb": "LOGIC_AND",
    "condList": [
      {
        "type": "H5_ACTIVITY_COND_DAY_COUNT_GREAT_EQUAL",
        "paramStr": "1"
      },
      {
        "paramStr": ""
      }
    ],
    "isDailyRefresh": true,
    "id": 5028003,
    "triggerConfig": {
      "triggerType": "TRIGGER_ANY_WEAPON_UPGRADE_NUM",
      "paramList": ["", "", "", "", ""]
    },
    "progress": 1
  },
  {
    "h5ActivityId": 1028,
    "condComb": "LOGIC_AND",
    "condList": [
      {
        "type": "H5_ACTIVITY_COND_DAY_COUNT_GREAT_EQUAL",
        "paramStr": "1"
      },
      {
        "paramStr": ""
      }
    ],
    "isDailyRefresh": true,
    "id": 5028004,
    "triggerConfig": {
      "triggerType": "TRIGGER_FINISH_DUNGEON",
      "paramList": ["", "", "", "", ""]
    },
    "progress": 1
  },
  {
    "h5ActivityId": 1028,
    "condComb": "LOGIC_AND",
    "condList": [
      {
        "type": "H5_ACTIVITY_COND_DAY_COUNT_GREAT_EQUAL",
        "paramStr": "1"
      },
      {
        "paramStr": ""
      }
    ],
    "isDailyRefresh": true,
    "id": 5028005,
    "triggerConfig": {
      "triggerType": "TRIGGER_ANY_RELIQUARY_UPGRADE",
      "paramList": ["", "", "", "", ""]
    },
    "progress": 1
  },
  {
    "h5ActivityId": 1028,
    "condComb": "LOGIC_AND",
    "condList": [
      {
        "type": "H5_ACTIVITY_COND_DAY_COUNT_GREAT_EQUAL",
        "paramStr": "1"
      },
      {
        "paramStr": ""
      }
    ],
    "isDailyRefresh": true,
    "id": 5028006,
    "triggerConfig": {
      "triggerType": "TRIGGER_OBTAIN_MATERIAL_NUM",
      "paramList": ["202", "", "", "", ""]
    },
    "progress": 1
  },
  {
    "h5ActivityId": 1028,
    "condComb": "LOGIC_AND",
    "condList": [
      {
        "type": "H5_ACTIVITY_COND_DAY_COUNT_GREAT_EQUAL",
        "paramStr": "1"
      },
      {
        "paramStr": ""
      }
    ],
    "isDailyRefresh": true,
    "id": 5028007,
    "triggerConfig": {
      "triggerType": "TRIGGER_COST_MATERIAL",
      "paramList": ["106", "", "", "", ""]
    },
    "progress": 30
  },
  {
    "h5ActivityId": 1028,
    "condComb": "LOGIC_AND",
    "condList": [
      {
        "type": "H5_ACTIVITY_COND_DAY_COUNT_GREAT_EQUAL",
        "paramStr": "1"
      },
      {
        "paramStr": ""
      }
    ],
    "isDailyRefresh": true,
    "id": 5028008,
    "triggerConfig": {
      "triggerType": "TRIGGER_COST_MATERIAL",
      "paramList": ["202", "", "", "", ""]
    },
    "progress": 1
  },
  {
    "h5ActivityId": 1028,
    "condComb": "LOGIC_AND",
    "condList": [
      {
        "type": "H5_ACTIVITY_COND_DAY_COUNT_GREAT_EQUAL",
        "paramStr": "1"
      },
      {
        "paramStr": ""
      }
    ],
    "isDailyRefresh": true,
    "id": 5028009,
    "triggerConfig": {
      "triggerType": "TRIGGER_OBTAIN_MATERIAL_NUM",
      "paramList": [
        "101001;101002;101003;101004;100058;100054;100028;101006;101008",
        "",
        "",
        "",
        ""
      ]
    },
    "progress": 5
  },
  {
    "h5ActivityId": 1028,
    "condComb": "LOGIC_AND",
    "condList": [
      {
        "type": "H5_ACTIVITY_COND_DAY_COUNT_GREAT_EQUAL",
        "paramStr": "1"
      },
      {
        "paramStr": ""
      }
    ],
    "isDailyRefresh": true,
    "id": 5028010,
    "triggerConfig": {
      "triggerType": "TRIGGER_DO_FORGE",
      "paramList": ["", "", "", "", ""]
    },
    "progress": 2
  },
  {
    "h5ActivityId": 1028,
    "condComb": "LOGIC_AND",
    "condList": [
      {
        "type": "H5_ACTIVITY_COND_DAY_COUNT_GREAT_EQUAL",
        "paramStr": "1"
      },
      {
        "paramStr": ""
      }
    ],
    "isDailyRefresh": true,
    "id": 5028011,
    "triggerConfig": {
      "triggerType": "TRIGGER_DO_COOK",
      "paramList": ["1", "", "", "", ""]
    },
    "progress": 1
  },
  {
    "h5ActivityId": 1029,
    "condComb": "LOGIC_AND",
    "condList": [
      {
        "type": "H5_ACTIVITY_COND_DAY_COUNT_GREAT_EQUAL",
        "paramStr": "1"
      },
      {
        "paramStr": ""
      }
    ],
    "isDailyRefresh": true,
    "id": 5029001,
    "triggerConfig": {
      "triggerType": "TRIGGER_LOGIN",
      "paramList": ["", "", "", "", ""]
    },
    "progress": 1
  },
  {
    "h5ActivityId": 1029,
    "condComb": "LOGIC_AND",
    "condList": [
      {
        "type": "H5_ACTIVITY_COND_DAY_COUNT_GREAT_EQUAL",
        "paramStr": "1"
      },
      {
        "paramStr": ""
      }
    ],
    "isDailyRefresh": true,
    "id": 5029002,
    "triggerConfig": {
      "triggerType": "TRIGGER_DAILY_TASK",
      "paramList": ["", "", "", "", ""]
    },
    "progress": 2
  },
  {
    "h5ActivityId": 1029,
    "condComb": "LOGIC_AND",
    "condList": [
      {
        "type": "H5_ACTIVITY_COND_DAY_COUNT_GREAT_EQUAL",
        "paramStr": "1"
      },
      {
        "paramStr": ""
      }
    ],
    "isDailyRefresh": true,
    "id": 5029003,
    "triggerConfig": {
      "triggerType": "TRIGGER_DAILY_TASK",
      "paramList": ["", "", "", "", ""]
    },
    "progress": 4
  },
  {
    "h5ActivityId": 1029,
    "condComb": "LOGIC_AND",
    "condList": [
      {
        "type": "H5_ACTIVITY_COND_DAY_COUNT_GREAT_EQUAL",
        "paramStr": "1"
      },
      {
        "paramStr": ""
      }
    ],
    "isDailyRefresh": true,
    "id": 5029004,
    "triggerConfig": {
      "triggerType": "TRIGGER_COST_MATERIAL",
      "paramList": ["106", "", "", "", ""]
    },
    "progress": 40
  },
  {
    "h5ActivityId": 1029,
    "condComb": "LOGIC_AND",
    "condList": [
      {
        "type": "H5_ACTIVITY_COND_DAY_COUNT_GREAT_EQUAL",
        "paramStr": "1"
      },
      {
        "paramStr": ""
      }
    ],
    "isDailyRefresh": true,
    "id": 5029005,
    "triggerConfig": {
      "triggerType": "TRIGGER_OBTAIN_MATERIAL_NUM",
      "paramList": [
        "101001;101002;101003;101004;100058;100054;100028;101006;101008",
        "",
        "",
        "",
        ""
      ]
    },
    "progress": 3
  },
  {
    "h5ActivityId": 1029,
    "condComb": "LOGIC_AND",
    "condList": [
      {
        "type": "H5_ACTIVITY_COND_DAY_COUNT_GREAT_EQUAL",
        "paramStr": "1"
      },
      {
        "paramStr": ""
      }
    ],
    "isDailyRefresh": true,
    "id": 5029006,
    "triggerConfig": {
      "triggerType": "TRIGGER_OBTAIN_MATERIAL_NUM",
      "paramList": ["100085", "", "", "", ""]
    },
    "progress": 1
  },
  {
    "h5ActivityId": 1029,
    "condComb": "LOGIC_AND",
    "condList": [
      {
        "type": "H5_ACTIVITY_COND_DAY_COUNT_GREAT_EQUAL",
        "paramStr": "1"
      },
      {
        "paramStr": ""
      }
    ],
    "isDailyRefresh": true,
    "id": 5029007,
    "triggerConfig": {
      "triggerType": "TRIGGER_FINISH_DUNGEON",
      "paramList": ["", "", "", "", ""]
    },
    "progress": 1
  },
  {
    "h5ActivityId": 1029,
    "condComb": "LOGIC_AND",
    "condList": [
      {
        "type": "H5_ACTIVITY_COND_DAY_COUNT_GREAT_EQUAL",
        "paramStr": "1"
      },
      {
        "paramStr": ""
      }
    ],
    "isDailyRefresh": true,
    "id": 5029008,
    "triggerConfig": {
      "triggerType": "TRIGGER_OBTAIN_MATERIAL_NUM",
      "paramList": ["204", "", "", "", ""]
    },
    "progress": 1
  },
  {
    "h5ActivityId": 1029,
    "condComb": "LOGIC_AND",
    "condList": [
      {
        "type": "H5_ACTIVITY_COND_DAY_COUNT_GREAT_EQUAL",
        "paramStr": "1"
      },
      {
        "paramStr": ""
      }
    ],
    "isDailyRefresh": true,
    "id": 5029009,
    "triggerConfig": {
      "triggerType": "TRIGGER_DO_FORGE",
      "paramList": ["", "", "", "", ""]
    },
    "progress": 1
  },
  {
    "h5ActivityId": 1029,
    "condComb": "LOGIC_AND",
    "condList": [
      {
        "type": "H5_ACTIVITY_COND_DAY_COUNT_GREAT_EQUAL",
        "paramStr": "1"
      },
      {
        "paramStr": ""
      }
    ],
    "isDailyRefresh": true,
    "id": 5029010,
    "triggerConfig": {
      "triggerType": "TRIGGER_DO_COOK",
      "paramList": ["1", "", "", "", ""]
    },
    "progress": 1
  },
  {
    "h5ActivityId": 1029,
    "condComb": "LOGIC_AND",
    "condList": [
      {
        "type": "H5_ACTIVITY_COND_DAY_COUNT_GREAT_EQUAL",
        "paramStr": "1"
      },
      {
        "paramStr": ""
      }
    ],
    "isDailyRefresh": true,
    "id": 5029011,
    "triggerConfig": {
      "triggerType": "TRIGGER_COST_MATERIAL",
      "paramList": ["202", "", "", "", ""]
    },
    "progress": 1000
  },
  {
    "h5ActivityId": 1030,
    "condComb": "LOGIC_AND",
    "condList": [
      {
        "type": "H5_ACTIVITY_COND_DAY_COUNT_GREAT_EQUAL",
        "paramStr": "1"
      },
      {
        "paramStr": ""
      }
    ],
    "id": 5030001,
    "triggerConfig": {
      "triggerType": "TRIGGER_LOGIN",
      "paramList": ["", "", "", "", ""]
    },
    "progress": 1
  },
  {
    "h5ActivityId": 1031,
    "condComb": "LOGIC_AND",
    "condList": [
      {
        "type": "H5_ACTIVITY_COND_DAY_COUNT_GREAT_EQUAL",
        "paramStr": "1"
      },
      {
        "paramStr": ""
      }
    ],
    "isDailyRefresh": true,
    "id": 5031001,
    "triggerConfig": {
      "triggerType": "TRIGGER_LOGIN",
      "paramList": ["", "", "", "", ""]
    },
    "progress": 1
  },
  {
    "h5ActivityId": 1031,
    "condComb": "LOGIC_AND",
    "condList": [
      {
        "type": "H5_ACTIVITY_COND_DAY_COUNT_GREAT_EQUAL",
        "paramStr": "1"
      },
      {
        "paramStr": ""
      }
    ],
    "isDailyRefresh": true,
    "id": 5031002,
    "triggerConfig": {
      "triggerType": "TRIGGER_DAILY_TASK",
      "paramList": ["", "", "", "", ""]
    },
    "progress": 2
  },
  {
    "h5ActivityId": 1031,
    "condComb": "LOGIC_AND",
    "condList": [
      {
        "type": "H5_ACTIVITY_COND_DAY_COUNT_GREAT_EQUAL",
        "paramStr": "1"
      },
      {
        "paramStr": ""
      }
    ],
    "isDailyRefresh": true,
    "id": 5031003,
    "triggerConfig": {
      "triggerType": "TRIGGER_COST_MATERIAL",
      "paramList": ["106", "", "", "", ""]
    },
    "progress": 40
  },
  {
    "h5ActivityId": 1032,
    "condComb": "LOGIC_AND",
    "condList": [
      {
        "type": "H5_ACTIVITY_COND_DAY_COUNT_GREAT_EQUAL",
        "paramStr": "1"
      },
      {
        "paramStr": ""
      }
    ],
    "isDailyRefresh": true,
    "id": 5032001,
    "triggerConfig": {
      "triggerType": "TRIGGER_LOGIN",
      "paramList": ["", "", "", "", ""]
    },
    "progress": 1
  },
  {
    "h5ActivityId": 1032,
    "condComb": "LOGIC_AND",
    "condList": [
      {
        "type": "H5_ACTIVITY_COND_DAY_COUNT_GREAT_EQUAL",
        "paramStr": "1"
      },
      {
        "paramStr": ""
      }
    ],
    "isDailyRefresh": true,
    "id": 5032002,
    "triggerConfig": {
      "triggerType": "TRIGGER_DAILY_TASK",
      "paramList": ["", "", "", "", ""]
    },
    "progress": 2
  },
  {
    "h5ActivityId": 1032,
    "condComb": "LOGIC_AND",
    "condList": [
      {
        "type": "H5_ACTIVITY_COND_DAY_COUNT_GREAT_EQUAL",
        "paramStr": "1"
      },
      {
        "paramStr": ""
      }
    ],
    "isDailyRefresh": true,
    "id": 5032003,
    "triggerConfig": {
      "triggerType": "TRIGGER_COST_MATERIAL",
      "paramList": ["106", "", "", "", ""]
    },
    "progress": 40
  },
  {
    "h5ActivityId": 1032,
    "condComb": "LOGIC_AND",
    "condList": [
      {
        "type": "H5_ACTIVITY_COND_DAY_COUNT_GREAT_EQUAL",
        "paramStr": "1"
      },
      {
        "paramStr": ""
      }
    ],
    "isDailyRefresh": true,
    "id": 5032004,
    "triggerConfig": {
      "triggerType": "TRIGGER_DO_COOK",
      "paramList": ["1", "", "", "", ""]
    },
    "progress": 5
  },
  {
    "h5ActivityId": 1033,
    "condComb": "LOGIC_AND",
    "condList": [
      {
        "type": "H5_ACTIVITY_COND_DAY_COUNT_GREAT_EQUAL",
        "paramStr": "1"
      },
      {
        "paramStr": ""
      }
    ],
    "id": 5033001,
    "triggerConfig": {
      "triggerType": "TRIGGER_LOGIN",
      "paramList": ["", "", "", "", ""]
    },
    "progress": 1
  },
  {
    "h5ActivityId": 1033,
    "condComb": "LOGIC_AND",
    "condList": [
      {
        "type": "H5_ACTIVITY_COND_DAY_COUNT_GREAT_EQUAL",
        "paramStr": "1"
      },
      {
        "paramStr": ""
      }
    ],
    "id": 5033002,
    "triggerConfig": {
      "triggerType": "TRIGGER_OBTAIN_MATERIAL_NUM",
      "paramList": [
        "101001;101002;101003;101004;100058;100054;100028;101006;101008",
        "",
        "",
        "",
        ""
      ]
    },
    "progress": 5
  },
  {
    "h5ActivityId": 1033,
    "condComb": "LOGIC_AND",
    "condList": [
      {
        "type": "H5_ACTIVITY_COND_DAY_COUNT_GREAT_EQUAL",
        "paramStr": "1"
      },
      {
        "paramStr": ""
      }
    ],
    "id": 5033003,
    "triggerConfig": {
      "triggerType": "TRIGGER_DAILY_TASK",
      "paramList": ["", "", "", "", ""]
    },
    "progress": 4
  },
  {
    "h5ActivityId": 1033,
    "condComb": "LOGIC_AND",
    "condList": [
      {
        "type": "H5_ACTIVITY_COND_DAY_COUNT_GREAT_EQUAL",
        "paramStr": "1"
      },
      {
        "paramStr": ""
      }
    ],
    "id": 5033004,
    "triggerConfig": {
      "triggerType": "TRIGGER_LOGIN",
      "paramList": ["", "", "", "", ""]
    },
    "progress": 2
  },
  {
    "h5ActivityId": 1033,
    "condComb": "LOGIC_AND",
    "condList": [
      {
        "type": "H5_ACTIVITY_COND_DAY_COUNT_GREAT_EQUAL",
        "paramStr": "1"
      },
      {
        "paramStr": ""
      }
    ],
    "id": 5033005,
    "triggerConfig": {
      "triggerType": "TRIGGER_OBTAIN_MATERIAL_NUM",
      "paramList": ["100085", "", "", "", ""]
    },
    "progress": 3
  },
  {
    "h5ActivityId": 1033,
    "condComb": "LOGIC_AND",
    "condList": [
      {
        "type": "H5_ACTIVITY_COND_DAY_COUNT_GREAT_EQUAL",
        "paramStr": "1"
      },
      {
        "paramStr": ""
      }
    ],
    "id": 5033006,
    "triggerConfig": {
      "triggerType": "TRIGGER_FINISH_DUNGEON",
      "paramList": ["", "", "", "", ""]
    },
    "progress": 1
  },
  {
    "h5ActivityId": 1033,
    "condComb": "LOGIC_AND",
    "condList": [
      {
        "type": "H5_ACTIVITY_COND_DAY_COUNT_GREAT_EQUAL",
        "paramStr": "1"
      },
      {
        "paramStr": ""
      }
    ],
    "id": 5033007,
    "triggerConfig": {
      "triggerType": "TRIGGER_LOGIN",
      "paramList": ["", "", "", "", ""]
    },
    "progress": 3
  },
  {
    "h5ActivityId": 1033,
    "condComb": "LOGIC_AND",
    "condList": [
      {
        "type": "H5_ACTIVITY_COND_DAY_COUNT_GREAT_EQUAL",
        "paramStr": "1"
      },
      {
        "paramStr": ""
      }
    ],
    "id": 5033008,
    "triggerConfig": {
      "triggerType": "TRIGGER_DO_COOK",
      "paramList": ["1", "", "", "", ""]
    },
    "progress": 3
  },
  {
    "h5ActivityId": 1033,
    "condComb": "LOGIC_AND",
    "condList": [
      {
        "type": "H5_ACTIVITY_COND_DAY_COUNT_GREAT_EQUAL",
        "paramStr": "1"
      },
      {
        "paramStr": ""
      }
    ],
    "id": 5033009,
    "triggerConfig": {
      "triggerType": "TRIGGER_DAILY_TASK",
      "paramList": ["", "", "", "", ""]
    },
    "progress": 8
  },
  {
    "h5ActivityId": 1033,
    "condComb": "LOGIC_AND",
    "condList": [
      {
        "type": "H5_ACTIVITY_COND_DAY_COUNT_GREAT_EQUAL",
        "paramStr": "1"
      },
      {
        "paramStr": ""
      }
    ],
    "id": 5033010,
    "triggerConfig": {
      "triggerType": "TRIGGER_LOGIN",
      "paramList": ["", "", "", "", ""]
    },
    "progress": 4
  },
  {
    "h5ActivityId": 1033,
    "condComb": "LOGIC_AND",
    "condList": [
      {
        "type": "H5_ACTIVITY_COND_DAY_COUNT_GREAT_EQUAL",
        "paramStr": "1"
      },
      {
        "paramStr": ""
      }
    ],
    "id": 5033011,
    "triggerConfig": {
      "triggerType": "TRIGGER_COST_MATERIAL",
      "paramList": ["202", "", "", "", ""]
    },
    "progress": 50000
  },
  {
    "h5ActivityId": 1033,
    "condComb": "LOGIC_AND",
    "condList": [
      {
        "type": "H5_ACTIVITY_COND_DAY_COUNT_GREAT_EQUAL",
        "paramStr": "1"
      },
      {
        "paramStr": ""
      }
    ],
    "id": 5033012,
    "triggerConfig": {
      "triggerType": "TRIGGER_FINISH_DUNGEON",
      "paramList": ["", "", "", "", ""]
    },
    "progress": 3
  },
  {
    "h5ActivityId": 1033,
    "condComb": "LOGIC_AND",
    "condList": [
      {
        "type": "H5_ACTIVITY_COND_DAY_COUNT_GREAT_EQUAL",
        "paramStr": "1"
      },
      {
        "paramStr": ""
      }
    ],
    "id": 5033013,
    "triggerConfig": {
      "triggerType": "TRIGGER_LOGIN",
      "paramList": ["", "", "", "", ""]
    },
    "progress": 5
  },
  {
    "h5ActivityId": 1033,
    "condComb": "LOGIC_AND",
    "condList": [
      {
        "type": "H5_ACTIVITY_COND_DAY_COUNT_GREAT_EQUAL",
        "paramStr": "1"
      },
      {
        "paramStr": ""
      }
    ],
    "id": 5033014,
    "triggerConfig": {
      "triggerType": "TRIGGER_ANY_RELIQUARY_UPGRADE",
      "paramList": ["", "", "", "", ""]
    },
    "progress": 4
  },
  {
    "h5ActivityId": 1033,
    "condComb": "LOGIC_AND",
    "condList": [
      {
        "type": "H5_ACTIVITY_COND_DAY_COUNT_GREAT_EQUAL",
        "paramStr": "1"
      },
      {
        "paramStr": ""
      }
    ],
    "id": 5033015,
    "triggerConfig": {
      "triggerType": "TRIGGER_COST_MATERIAL",
      "paramList": ["106", "", "", "", ""]
    },
    "progress": 480
  },
  {
    "h5ActivityId": 1034,
    "condComb": "LOGIC_AND",
    "condList": [
      {
        "type": "H5_ACTIVITY_COND_DAY_COUNT_GREAT_EQUAL",
        "paramStr": "1"
      },
      {
        "paramStr": ""
      }
    ],
    "isDailyRefresh": true,
    "id": 5034001,
    "triggerConfig": {
      "triggerType": "TRIGGER_LOGIN",
      "paramList": ["", "", "", "", ""]
    },
    "progress": 1
  },
  {
    "h5ActivityId": 1034,
    "condComb": "LOGIC_AND",
    "condList": [
      {
        "type": "H5_ACTIVITY_COND_DAY_COUNT_GREAT_EQUAL",
        "paramStr": "1"
      },
      {
        "paramStr": ""
      }
    ],
    "isDailyRefresh": true,
    "id": 5034002,
    "triggerConfig": {
      "triggerType": "TRIGGER_DAILY_TASK",
      "paramList": ["", "", "", "", ""]
    },
    "progress": 4
  },
  {
    "h5ActivityId": 1034,
    "condComb": "LOGIC_AND",
    "condList": [
      {
        "type": "H5_ACTIVITY_COND_DAY_COUNT_GREAT_EQUAL",
        "paramStr": "1"
      },
      {
        "paramStr": ""
      }
    ],
    "isDailyRefresh": true,
    "id": 5034003,
    "triggerConfig": {
      "triggerType": "TRIGGER_ANY_WEAPON_UPGRADE_NUM",
      "paramList": ["", "", "", "", ""]
    },
    "progress": 1
  },
  {
    "h5ActivityId": 1034,
    "condComb": "LOGIC_AND",
    "condList": [
      {
        "type": "H5_ACTIVITY_COND_DAY_COUNT_GREAT_EQUAL",
        "paramStr": "1"
      },
      {
        "paramStr": ""
      }
    ],
    "isDailyRefresh": true,
    "id": 5034004,
    "triggerConfig": {
      "triggerType": "TRIGGER_FINISH_DUNGEON",
      "paramList": ["", "", "", "", ""]
    },
    "progress": 1
  },
  {
    "h5ActivityId": 1034,
    "condComb": "LOGIC_AND",
    "condList": [
      {
        "type": "H5_ACTIVITY_COND_DAY_COUNT_GREAT_EQUAL",
        "paramStr": "1"
      },
      {
        "paramStr": ""
      }
    ],
    "isDailyRefresh": true,
    "id": 5034005,
    "triggerConfig": {
      "triggerType": "TRIGGER_ANY_RELIQUARY_UPGRADE",
      "paramList": ["", "", "", "", ""]
    },
    "progress": 1
  },
  {
    "h5ActivityId": 1034,
    "condComb": "LOGIC_AND",
    "condList": [
      {
        "type": "H5_ACTIVITY_COND_DAY_COUNT_GREAT_EQUAL",
        "paramStr": "1"
      },
      {
        "paramStr": ""
      }
    ],
    "isDailyRefresh": true,
    "id": 5034006,
    "triggerConfig": {
      "triggerType": "TRIGGER_OBTAIN_MATERIAL_NUM",
      "paramList": ["202", "", "", "", ""]
    },
    "progress": 1
  },
  {
    "h5ActivityId": 1034,
    "condComb": "LOGIC_AND",
    "condList": [
      {
        "type": "H5_ACTIVITY_COND_DAY_COUNT_GREAT_EQUAL",
        "paramStr": "1"
      },
      {
        "paramStr": ""
      }
    ],
    "isDailyRefresh": true,
    "id": 5034007,
    "triggerConfig": {
      "triggerType": "TRIGGER_COST_MATERIAL",
      "paramList": ["106", "", "", "", ""]
    },
    "progress": 30
  },
  {
    "h5ActivityId": 1034,
    "condComb": "LOGIC_AND",
    "condList": [
      {
        "type": "H5_ACTIVITY_COND_DAY_COUNT_GREAT_EQUAL",
        "paramStr": "1"
      },
      {
        "paramStr": ""
      }
    ],
    "isDailyRefresh": true,
    "id": 5034008,
    "triggerConfig": {
      "triggerType": "TRIGGER_COST_MATERIAL",
      "paramList": ["202", "", "", "", ""]
    },
    "progress": 1
  },
  {
    "h5ActivityId": 1034,
    "condComb": "LOGIC_AND",
    "condList": [
      {
        "type": "H5_ACTIVITY_COND_DAY_COUNT_GREAT_EQUAL",
        "paramStr": "1"
      },
      {
        "paramStr": ""
      }
    ],
    "isDailyRefresh": true,
    "id": 5034009,
    "triggerConfig": {
      "triggerType": "TRIGGER_OBTAIN_MATERIAL_NUM",
      "paramList": [
        "101001;101002;101003;101004;100058;100054;100028;101006;101008",
        "",
        "",
        "",
        ""
      ]
    },
    "progress": 5
  },
  {
    "h5ActivityId": 1034,
    "condComb": "LOGIC_AND",
    "condList": [
      {
        "type": "H5_ACTIVITY_COND_DAY_COUNT_GREAT_EQUAL",
        "paramStr": "1"
      },
      {
        "paramStr": ""
      }
    ],
    "isDailyRefresh": true,
    "id": 5034010,
    "triggerConfig": {
      "triggerType": "TRIGGER_DO_FORGE",
      "paramList": ["", "", "", "", ""]
    },
    "progress": 2
  },
  {
    "h5ActivityId": 1034,
    "condComb": "LOGIC_AND",
    "condList": [
      {
        "type": "H5_ACTIVITY_COND_DAY_COUNT_GREAT_EQUAL",
        "paramStr": "1"
      },
      {
        "paramStr": ""
      }
    ],
    "isDailyRefresh": true,
    "id": 5034011,
    "triggerConfig": {
      "triggerType": "TRIGGER_DO_COOK",
      "paramList": ["1", "", "", "", ""]
    },
    "progress": 1
  },
  {
    "h5ActivityId": 1035,
    "condComb": "LOGIC_AND",
    "condList": [
      {
        "type": "H5_ACTIVITY_COND_DAY_COUNT_GREAT_EQUAL",
        "paramStr": "1"
      },
      {
        "paramStr": ""
      }
    ],
    "isDailyRefresh": true,
    "id": 5035001,
    "triggerConfig": {
      "triggerType": "TRIGGER_LOGIN",
      "paramList": ["", "", "", "", ""]
    },
    "progress": 1
  },
  {
    "h5ActivityId": 1035,
    "condComb": "LOGIC_AND",
    "condList": [
      {
        "type": "H5_ACTIVITY_COND_DAY_COUNT_GREAT_EQUAL",
        "paramStr": "1"
      },
      {
        "paramStr": ""
      }
    ],
    "isDailyRefresh": true,
    "id": 5035002,
    "triggerConfig": {
      "triggerType": "TRIGGER_DAILY_TASK",
      "paramList": ["", "", "", "", ""]
    },
    "progress": 2
  },
  {
    "h5ActivityId": 1035,
    "condComb": "LOGIC_AND",
    "condList": [
      {
        "type": "H5_ACTIVITY_COND_DAY_COUNT_GREAT_EQUAL",
        "paramStr": "1"
      },
      {
        "paramStr": ""
      }
    ],
    "isDailyRefresh": true,
    "id": 5035003,
    "triggerConfig": {
      "triggerType": "TRIGGER_COST_MATERIAL",
      "paramList": ["106", "", "", "", ""]
    },
    "progress": 40
  },
  {
    "h5ActivityId": 1035,
    "condComb": "LOGIC_AND",
    "condList": [
      {
        "type": "H5_ACTIVITY_COND_DAY_COUNT_GREAT_EQUAL",
        "paramStr": "1"
      },
      {
        "paramStr": ""
      }
    ],
    "isDailyRefresh": true,
    "id": 5035004,
    "triggerConfig": {
      "triggerType": "TRIGGER_DO_COOK",
      "paramList": ["1", "", "", "", ""]
    },
    "progress": 5
  },
  {
    "h5ActivityId": 1036,
    "condComb": "LOGIC_AND",
    "condList": [
      {
        "type": "H5_ACTIVITY_COND_DAY_COUNT_GREAT_EQUAL",
        "paramStr": "1"
      },
      {
        "paramStr": ""
      }
    ],
    "isDailyRefresh": true,
    "id": 5036001,
    "triggerConfig": {
      "triggerType": "TRIGGER_LOGIN",
      "paramList": ["", "", "", "", ""]
    },
    "progress": 1
  },
  {
    "h5ActivityId": 1036,
    "condComb": "LOGIC_AND",
    "condList": [
      {
        "type": "H5_ACTIVITY_COND_DAY_COUNT_GREAT_EQUAL",
        "paramStr": "1"
      },
      {
        "paramStr": ""
      }
    ],
    "id": 5036002,
    "triggerConfig": {
      "triggerType": "TRIGGER_DAILY_TASK",
      "paramList": ["", "", "", "", ""]
    },
    "progress": 4
  },
  {
    "h5ActivityId": 1036,
    "condComb": "LOGIC_AND",
    "condList": [
      {
        "type": "H5_ACTIVITY_COND_DAY_COUNT_GREAT_EQUAL",
        "paramStr": "1"
      },
      {
        "paramStr": ""
      }
    ],
    "id": 5036003,
    "triggerConfig": {
      "triggerType": "TRIGGER_COST_MATERIAL",
      "paramList": ["106", "", "", "", ""]
    },
    "progress": 60
  },
  {
    "h5ActivityId": 1036,
    "condComb": "LOGIC_AND",
    "condList": [
      {
        "type": "H5_ACTIVITY_COND_DAY_COUNT_GREAT_EQUAL",
        "paramStr": "1"
      },
      {
        "paramStr": ""
      }
    ],
    "id": 5036004,
    "triggerConfig": {
      "triggerType": "TRIGGER_DO_COOK",
      "paramList": ["1", "", "", "", ""]
    },
    "progress": 5
  },
  {
    "h5ActivityId": 1036,
    "condComb": "LOGIC_AND",
    "condList": [
      {
        "type": "H5_ACTIVITY_COND_DAY_COUNT_GREAT_EQUAL",
        "paramStr": "1"
      },
      {
        "paramStr": ""
      }
    ],
    "id": 5036005,
    "triggerConfig": {
      "triggerType": "TRIGGER_OBTAIN_MATERIAL_NUM",
      "paramList": ["100085", "", "", "", ""]
    },
    "progress": 3
  },
  {
    "h5ActivityId": 1036,
    "condComb": "LOGIC_AND",
    "condList": [
      {
        "type": "H5_ACTIVITY_COND_DAY_COUNT_GREAT_EQUAL",
        "paramStr": "1"
      },
      {
        "paramStr": ""
      }
    ],
    "id": 5036006,
    "triggerConfig": {
      "triggerType": "TRIGGER_OBTAIN_MATERIAL_NUM",
      "paramList": [
        "101001;101002;101003;101004;100058;100054;100028;101006;101008",
        "",
        "",
        "",
        ""
      ]
    },
    "progress": 5
  },
  {
    "h5ActivityId": 1036,
    "condComb": "LOGIC_AND",
    "condList": [
      {
        "type": "H5_ACTIVITY_COND_DAY_COUNT_GREAT_EQUAL",
        "paramStr": "1"
      },
      {
        "paramStr": ""
      }
    ],
    "id": 5036007,
    "triggerConfig": {
      "triggerType": "TRIGGER_COST_MATERIAL",
      "paramList": ["202", "", "", "", ""]
    },
    "progress": 1000
  },
  {
    "h5ActivityId": 1036,
    "condComb": "LOGIC_AND",
    "condList": [
      {
        "type": "H5_ACTIVITY_COND_DAY_COUNT_GREAT_EQUAL",
        "paramStr": "1"
      },
      {
        "paramStr": ""
      }
    ],
    "id": 5036008,
    "triggerConfig": {
      "triggerType": "TRIGGER_DO_FORGE",
      "paramList": ["", "", "", "", ""]
    },
    "progress": 5
  },
  {
    "h5ActivityId": 1036,
    "condComb": "LOGIC_AND",
    "condList": [
      {
        "type": "H5_ACTIVITY_COND_DAY_COUNT_GREAT_EQUAL",
        "paramStr": "1"
      },
      {
        "paramStr": ""
      }
    ],
    "id": 5036009,
    "triggerConfig": {
      "triggerType": "TRIGGER_FINISH_DUNGEON",
      "paramList": ["", "", "", "", ""]
    },
    "progress": 2
  },
  {
    "h5ActivityId": 1036,
    "condComb": "LOGIC_AND",
    "condList": [
      {
        "type": "H5_ACTIVITY_COND_DAY_COUNT_GREAT_EQUAL",
        "paramStr": "1"
      },
      {
        "paramStr": ""
      }
    ],
    "id": 5036010,
    "triggerConfig": {
      "triggerType": "TRIGGER_OBTAIN_WOOD_COUNT",
      "paramList": ["", "", "", "", ""]
    },
    "progress": 3
  },
  {
    "h5ActivityId": 1036,
    "condComb": "LOGIC_AND",
    "condList": [
      {
        "type": "H5_ACTIVITY_COND_DAY_COUNT_GREAT_EQUAL",
        "paramStr": "1"
      },
      {
        "paramStr": ""
      }
    ],
    "id": 5036011,
    "triggerConfig": {
      "triggerType": "TRIGGER_DO_COMPOUND",
      "paramList": ["", "", "", "", ""]
    },
    "progress": 3
  },
  {
    "h5ActivityId": 1036,
    "condComb": "LOGIC_AND",
    "condList": [
      {
        "type": "H5_ACTIVITY_COND_DAY_COUNT_GREAT_EQUAL",
        "paramStr": "1"
      },
      {
        "paramStr": ""
      }
    ],
    "id": 5036012,
    "triggerConfig": {
      "triggerType": "TRIGGER_ANY_RELIQUARY_UPGRADE",
      "paramList": ["", "", "", "", ""]
    },
    "progress": 2
  },
  {
    "h5ActivityId": 1036,
    "condComb": "LOGIC_AND",
    "condList": [
      {
        "type": "H5_ACTIVITY_COND_DAY_COUNT_GREAT_EQUAL",
        "paramStr": "1"
      },
      {
        "paramStr": ""
      }
    ],
    "id": 5036013,
    "triggerConfig": {
      "triggerType": "TRIGGER_OPEN_BLOSSOM_CHEST",
      "paramList": ["1;3", "", "", "", ""]
    },
    "progress": 2
  },
  {
    "h5ActivityId": 1036,
    "condComb": "LOGIC_AND",
    "condList": [
      {
        "type": "H5_ACTIVITY_COND_DAY_COUNT_GREAT_EQUAL",
        "paramStr": "1"
      },
      {
        "paramStr": ""
      }
    ],
    "id": 5036014,
    "triggerConfig": {
      "triggerType": "TRIGGER_OBTAIN_RELIQUARY_NUM",
      "paramList": ["1", "", "", "", ""]
    },
    "progress": 2
  },
  {
    "h5ActivityId": 1036,
    "condComb": "LOGIC_AND",
    "condList": [
      {
        "type": "H5_ACTIVITY_COND_DAY_COUNT_GREAT_EQUAL",
        "paramStr": "1"
      },
      {
        "paramStr": ""
      }
    ],
    "id": 5036015,
    "triggerConfig": {
      "triggerType": "TRIGGER_COST_MATERIAL",
      "paramList": ["104003", "", "", "", ""]
    },
    "progress": 5
  },
  {
    "h5ActivityId": 1036,
    "condComb": "LOGIC_AND",
    "condList": [
      {
        "type": "H5_ACTIVITY_COND_DAY_COUNT_GREAT_EQUAL",
        "paramStr": "1"
      },
      {
        "paramStr": ""
      }
    ],
    "id": 5036016,
    "triggerConfig": {
      "triggerType": "TRIGGER_MONSTER_DIE",
      "paramList": [
        "20011001;20011101;20011103",
        "\u53ef\u8054\u673a",
        "",
        "",
        ""
      ]
    },
    "progress": 3
  },
  {
    "h5ActivityId": 1036,
    "condComb": "LOGIC_AND",
    "condList": [
      {
        "type": "H5_ACTIVITY_COND_DAY_COUNT_GREAT_EQUAL",
        "paramStr": "1"
      },
      {
        "paramStr": ""
      }
    ],
    "id": 5036017,
    "triggerConfig": {
      "triggerType": "TRIGGER_ANY_WEAPON_UPGRADE_NUM",
      "paramList": ["", "", "", "", ""]
    },
    "progress": 1
  },
  {
    "h5ActivityId": 1037,
    "condComb": "LOGIC_AND",
    "condList": [
      {
        "type": "H5_ACTIVITY_COND_DAY_COUNT_GREAT_EQUAL",
        "paramStr": "1"
      },
      {
        "paramStr": ""
      }
    ],
    "isDailyRefresh": true,
    "id": 5037001,
    "triggerConfig": {
      "triggerType": "TRIGGER_LOGIN",
      "paramList": ["", "", "", "", ""]
    },
    "progress": 1
  },
  {
    "h5ActivityId": 1037,
    "condComb": "LOGIC_AND",
    "condList": [
      {
        "type": "H5_ACTIVITY_COND_DAY_COUNT_GREAT_EQUAL",
        "paramStr": "1"
      },
      {
        "paramStr": ""
      }
    ],
    "isDailyRefresh": true,
    "id": 5037002,
    "triggerConfig": {
      "triggerType": "TRIGGER_DAILY_TASK",
      "paramList": ["", "", "", "", ""]
    },
    "progress": 4
  },
  {
    "h5ActivityId": 1037,
    "condComb": "LOGIC_AND",
    "condList": [
      {
        "type": "H5_ACTIVITY_COND_DAY_COUNT_GREAT_EQUAL",
        "paramStr": "1"
      },
      {
        "paramStr": ""
      }
    ],
    "id": 5037003,
    "triggerConfig": {
      "triggerType": "TRIGGER_COST_MATERIAL",
      "paramList": ["106", "", "", "", ""]
    },
    "progress": 320
  },
  {
    "h5ActivityId": 1037,
    "condComb": "LOGIC_AND",
    "condList": [
      {
        "type": "H5_ACTIVITY_COND_DAY_COUNT_GREAT_EQUAL",
        "paramStr": "1"
      },
      {
        "paramStr": ""
      }
    ],
    "id": 5037004,
    "triggerConfig": {
      "triggerType": "TRIGGER_FINISH_DUNGEON",
      "paramList": ["", "", "", "", ""]
    },
    "progress": 10
  },
  {
    "h5ActivityId": 1037,
    "condComb": "LOGIC_AND",
    "condList": [
      {
        "type": "H5_ACTIVITY_COND_DAY_COUNT_GREAT_EQUAL",
        "paramStr": "1"
      },
      {
        "paramStr": ""
      }
    ],
    "id": 5037005,
    "triggerConfig": {
      "triggerType": "TRIGGER_TOWER_STARS_NUM",
      "paramList": ["", "", "", "", ""]
    },
    "progress": 3
  }
]
