[
  {
    "configId": 10001,
    "monsterId": 20020101,
    "affix": [4011, 4020, 4032, 4064],
    "abilityGroup": "AbilityGroup_Reputation_Hunting_BowVulnerable",
    "level": 1,
    "reviseLevelId": 1000,
    "cityList": [1, 2],
    "limitTime": 600,
    "searchPointNum": 3,
    "JGMCGMALINN": [],
    "clueTextIdList": [1001, 2001, 3005],
    "newsTextTextMapHash": 2916934540,
    "traitTextTextMapHash": 3772636033,
    "MNHJLMFCIAF": 296877885,
    "ALKDBICEJHA": 33014282,
    "EOGPGHIICGE": 3392075002,
    "NNDLNLDPHNE": 3771462096,
    "refreshCond": []
  },
  {
    "configId": 10002,
    "monsterId": 20020101,
    "affix": [4008, 4017, 4032, 4064],
    "abilityGroup": "AbilityGroup_Reputation_Hunting_SwordVulnerable",
    "level": 1,
    "reviseLevelId": 1000,
    "cityList": [1, 2],
    "limitTime": 600,
    "searchPointNum": 3,
    "JGMCGMALINN": [],
    "clueTextIdList": [1001, 2002, 3006],
    "newsTextTextMapHash": 3614871340,
    "traitTextTextMapHash": 238311497,
    "MNHJLMFCIAF": 2106018357,
    "ALKDBICEJHA": 2619316770,
    "EOGPGHIICGE": 96109922,
    "NNDLNLDPHNE": 2091289904,
    "refreshCond": []
  },
  {
    "configId": 10003,
    "monsterId": 20020101,
    "affix": [4009, 4016, 4032, 4064],
    "abilityGroup": "AbilityGroup_Reputation_Hunting_CatalystVulnerable",
    "level": 1,
    "reviseLevelId": 1000,
    "cityList": [1, 2],
    "limitTime": 600,
    "searchPointNum": 3,
    "JGMCGMALINN": [],
    "clueTextIdList": [1001, 2003, 3007],
    "newsTextTextMapHash": 1181329612,
    "traitTextTextMapHash": 3143367881,
    "MNHJLMFCIAF": 3851652517,
    "ALKDBICEJHA": 3730108562,
    "EOGPGHIICGE": 515909794,
    "NNDLNLDPHNE": 1105908232,
    "refreshCond": []
  },
  {
    "configId": 10004,
    "monsterId": 20020101,
    "affix": [4010, 4018, 4032, 4064],
    "abilityGroup": "AbilityGroup_Reputation_Hunting_ClaymoreVulnerable",
    "level": 1,
    "reviseLevelId": 1000,
    "cityList": [1, 2],
    "limitTime": 600,
    "searchPointNum": 3,
    "JGMCGMALINN": [],
    "clueTextIdList": [1001, 2004, 3008],
    "newsTextTextMapHash": 585825972,
    "traitTextTextMapHash": 1096490585,
    "MNHJLMFCIAF": 3361561741,
    "ALKDBICEJHA": 768481810,
    "EOGPGHIICGE": 2776465834,
    "NNDLNLDPHNE": 438973296,
    "refreshCond": []
  },
  {
    "configId": 10005,
    "monsterId": 20020101,
    "affix": [4012, 4019, 4032, 4064],
    "abilityGroup": "AbilityGroup_Reputation_Hunting_PoleVulnerable",
    "level": 1,
    "reviseLevelId": 1000,
    "cityList": [1, 2],
    "limitTime": 600,
    "searchPointNum": 3,
    "JGMCGMALINN": [],
    "clueTextIdList": [1001, 2005, 3009],
    "newsTextTextMapHash": 295489316,
    "traitTextTextMapHash": 1685549961,
    "MNHJLMFCIAF": 326417317,
    "ALKDBICEJHA": 1720235826,
    "EOGPGHIICGE": 4046766594,
    "NNDLNLDPHNE": 3615958984,
    "refreshCond": []
  },
  {
    "configId": 10006,
    "monsterId": 21020101,
    "affix": [4009, 4020, 4033, 4064],
    "abilityGroup": "AbilityGroup_Reputation_Hunting_BowVulnerable",
    "level": 1,
    "reviseLevelId": 1000,
    "cityList": [1, 2],
    "limitTime": 600,
    "searchPointNum": 3,
    "JGMCGMALINN": [],
    "clueTextIdList": [1001, 2003, 3005],
    "newsTextTextMapHash": 2839143124,
    "traitTextTextMapHash": 3067257281,
    "MNHJLMFCIAF": 1776557989,
    "ALKDBICEJHA": 4176818834,
    "EOGPGHIICGE": 827339410,
    "NNDLNLDPHNE": 3246473128,
    "refreshCond": []
  },
  {
    "configId": 10007,
    "monsterId": 21020101,
    "affix": [4012, 4018, 4033, 4064],
    "abilityGroup": "AbilityGroup_Reputation_Hunting_ClaymoreVulnerable",
    "level": 1,
    "reviseLevelId": 1000,
    "cityList": [1, 2],
    "limitTime": 600,
    "searchPointNum": 3,
    "JGMCGMALINN": [],
    "clueTextIdList": [1001, 2005, 3008],
    "newsTextTextMapHash": 3903024356,
    "traitTextTextMapHash": 460790209,
    "MNHJLMFCIAF": 4100859949,
    "ALKDBICEJHA": 884622386,
    "EOGPGHIICGE": 754216650,
    "NNDLNLDPHNE": 3638872808,
    "refreshCond": []
  },
  {
    "configId": 10008,
    "monsterId": 21020101,
    "affix": [4013, 4019, 4033, 4064],
    "abilityGroup": "AbilityGroup_Reputation_Hunting_PoleVulnerable",
    "level": 1,
    "reviseLevelId": 1000,
    "cityList": [1, 2],
    "limitTime": 600,
    "searchPointNum": 3,
    "JGMCGMALINN": [],
    "clueTextIdList": [1001, 2006, 3009],
    "newsTextTextMapHash": 3135601596,
    "traitTextTextMapHash": 2131505825,
    "MNHJLMFCIAF": 437888045,
    "ALKDBICEJHA": 3786016778,
    "EOGPGHIICGE": 549200610,
    "NNDLNLDPHNE": 3775543608,
    "refreshCond": []
  },
  {
    "configId": 10009,
    "monsterId": 21020201,
    "affix": [4011, 4016, 4033, 4064],
    "abilityGroup": "AbilityGroup_Reputation_Hunting_CatalystVulnerable",
    "level": 1,
    "reviseLevelId": 1000,
    "cityList": [1, 2],
    "limitTime": 600,
    "searchPointNum": 3,
    "JGMCGMALINN": [],
    "clueTextIdList": [1001, 2001, 3007],
    "newsTextTextMapHash": 2480144492,
    "traitTextTextMapHash": 1085869161,
    "MNHJLMFCIAF": 512403029,
    "ALKDBICEJHA": 2976988042,
    "EOGPGHIICGE": 123396234,
    "NNDLNLDPHNE": 1129743416,
    "refreshCond": []
  },
  {
    "configId": 10010,
    "monsterId": 21020201,
    "affix": [4008, 4017, 4033, 4064],
    "abilityGroup": "AbilityGroup_Reputation_Hunting_SwordVulnerable",
    "level": 1,
    "reviseLevelId": 1000,
    "cityList": [1, 2],
    "limitTime": 600,
    "searchPointNum": 3,
    "JGMCGMALINN": [],
    "clueTextIdList": [1001, 2002, 3006],
    "newsTextTextMapHash": 458369572,
    "traitTextTextMapHash": 2670657177,
    "MNHJLMFCIAF": 953604317,
    "ALKDBICEJHA": 1584568674,
    "EOGPGHIICGE": 3097160042,
    "NNDLNLDPHNE": 1114246136,
    "refreshCond": []
  },
  {
    "configId": 10011,
    "monsterId": 21020201,
    "affix": [4010, 4018, 4033, 4064],
    "abilityGroup": "AbilityGroup_Reputation_Hunting_ClaymoreVulnerable",
    "level": 1,
    "reviseLevelId": 1000,
    "cityList": [1, 2],
    "limitTime": 600,
    "searchPointNum": 3,
    "JGMCGMALINN": [],
    "clueTextIdList": [1001, 2004, 3008],
    "newsTextTextMapHash": 887272660,
    "traitTextTextMapHash": 2431107113,
    "MNHJLMFCIAF": 867351733,
    "ALKDBICEJHA": 3709978554,
    "EOGPGHIICGE": 423715762,
    "NNDLNLDPHNE": 2931108264,
    "refreshCond": []
  },
  {
    "configId": 10012,
    "monsterId": 21020301,
    "affix": [4008, 4018, 4033, 4064],
    "abilityGroup": "AbilityGroup_Reputation_Hunting_ClaymoreVulnerable",
    "level": 1,
    "reviseLevelId": 1000,
    "cityList": [2],
    "limitTime": 600,
    "searchPointNum": 3,
    "JGMCGMALINN": [],
    "clueTextIdList": [1001, 2002, 3008],
    "newsTextTextMapHash": 621327772,
    "traitTextTextMapHash": 2511757577,
    "MNHJLMFCIAF": 3057205661,
    "ALKDBICEJHA": 2664331874,
    "EOGPGHIICGE": 2715669714,
    "NNDLNLDPHNE": 479308824,
    "refreshCond": []
  },
  {
    "configId": 10013,
    "monsterId": 21020301,
    "affix": [4011, 4018, 4033, 4064],
    "abilityGroup": "AbilityGroup_Reputation_Hunting_ClaymoreVulnerable",
    "level": 1,
    "reviseLevelId": 1000,
    "cityList": [2],
    "limitTime": 600,
    "searchPointNum": 3,
    "JGMCGMALINN": [],
    "clueTextIdList": [1001, 2001, 3008],
    "newsTextTextMapHash": 1110995356,
    "traitTextTextMapHash": 953771777,
    "MNHJLMFCIAF": 2303197325,
    "ALKDBICEJHA": 2503815034,
    "EOGPGHIICGE": 328012354,
    "NNDLNLDPHNE": 2729123768,
    "refreshCond": []
  },
  {
    "configId": 10014,
    "monsterId": 22010101,
    "affix": [4011, 4027, 4033, 4064],
    "abilityGroup": "",
    "createPosType": "HUNTING_POS_GROUND",
    "level": 1,
    "reviseLevelId": 1000,
    "cityList": [1, 2],
    "limitTime": 600,
    "searchPointNum": 3,
    "JGMCGMALINN": [],
    "clueTextIdList": [1001, 2001, 3004],
    "newsTextTextMapHash": 1659956244,
    "traitTextTextMapHash": 2443143433,
    "MNHJLMFCIAF": 2852737965,
    "ALKDBICEJHA": 1460373674,
    "EOGPGHIICGE": 1793485834,
    "NNDLNLDPHNE": 3838937160,
    "refreshCond": []
  },
  {
    "configId": 10015,
    "monsterId": 22010101,
    "affix": [4010, 4026, 4033, 4064],
    "abilityGroup": "",
    "createPosType": "HUNTING_POS_GROUND",
    "level": 1,
    "reviseLevelId": 1000,
    "cityList": [1, 2],
    "limitTime": 600,
    "searchPointNum": 3,
    "JGMCGMALINN": [],
    "clueTextIdList": [1001, 2004, 3003],
    "newsTextTextMapHash": 3098436988,
    "traitTextTextMapHash": 1296989465,
    "MNHJLMFCIAF": 4165341717,
    "ALKDBICEJHA": 3769323322,
    "EOGPGHIICGE": 409117242,
    "NNDLNLDPHNE": 1691857720,
    "refreshCond": []
  },
  {
    "configId": 10016,
    "monsterId": 22010101,
    "affix": [4009, 4028, 4033, 4064],
    "abilityGroup": "",
    "createPosType": "HUNTING_POS_GROUND",
    "level": 1,
    "reviseLevelId": 1000,
    "cityList": [1, 2],
    "limitTime": 600,
    "searchPointNum": 3,
    "JGMCGMALINN": [],
    "clueTextIdList": [1001, 2003, 3001],
    "newsTextTextMapHash": 3172299260,
    "traitTextTextMapHash": 3421435289,
    "MNHJLMFCIAF": 120657301,
    "ALKDBICEJHA": 1794768778,
    "EOGPGHIICGE": 3119062354,
    "NNDLNLDPHNE": 112557704,
    "refreshCond": []
  },
  {
    "configId": 10017,
    "monsterId": 22010201,
    "affix": [4008, 4028, 4033, 4064],
    "abilityGroup": "",
    "level": 1,
    "reviseLevelId": 1000,
    "cityList": [1, 2],
    "limitTime": 600,
    "searchPointNum": 3,
    "JGMCGMALINN": [],
    "clueTextIdList": [1001, 2002, 3001],
    "newsTextTextMapHash": 2709406780,
    "traitTextTextMapHash": 1326310241,
    "MNHJLMFCIAF": 4020685213,
    "ALKDBICEJHA": 730330826,
    "EOGPGHIICGE": 13567610,
    "NNDLNLDPHNE": 1607665552,
    "refreshCond": []
  },
  {
    "configId": 10018,
    "monsterId": 22010201,
    "affix": [4011, 4025, 4033, 4064],
    "abilityGroup": "",
    "level": 1,
    "reviseLevelId": 1000,
    "cityList": [1, 2],
    "limitTime": 600,
    "searchPointNum": 3,
    "JGMCGMALINN": [],
    "clueTextIdList": [1001, 2001, 3002],
    "newsTextTextMapHash": 3842133652,
    "traitTextTextMapHash": 356565913,
    "MNHJLMFCIAF": 4168755645,
    "ALKDBICEJHA": 1508357562,
    "EOGPGHIICGE": 1694432650,
    "NNDLNLDPHNE": 3355577264,
    "refreshCond": []
  },
  {
    "configId": 10019,
    "monsterId": 22010301,
    "affix": [4008, 4028, 4033, 4064],
    "abilityGroup": "",
    "level": 1,
    "reviseLevelId": 1000,
    "cityList": [1, 2],
    "limitTime": 600,
    "searchPointNum": 3,
    "JGMCGMALINN": [],
    "clueTextIdList": [1001, 2002, 3001],
    "newsTextTextMapHash": 722825348,
    "traitTextTextMapHash": 3579411081,
    "MNHJLMFCIAF": 2840440189,
    "ALKDBICEJHA": 4202942202,
    "EOGPGHIICGE": 1251831474,
    "NNDLNLDPHNE": 1694972696,
    "refreshCond": []
  },
  {
    "configId": 10020,
    "monsterId": 22010301,
    "affix": [4011, 4025, 4033, 4064],
    "abilityGroup": "",
    "level": 1,
    "reviseLevelId": 1000,
    "cityList": [1, 2],
    "limitTime": 600,
    "searchPointNum": 3,
    "JGMCGMALINN": [],
    "clueTextIdList": [1001, 2001, 3002],
    "newsTextTextMapHash": 4151080020,
    "traitTextTextMapHash": 2824189985,
    "MNHJLMFCIAF": 1145019117,
    "ALKDBICEJHA": 4000328786,
    "EOGPGHIICGE": 1723530370,
    "NNDLNLDPHNE": 3023242440,
    "refreshCond": []
  },
  {
    "configId": 13001,
    "monsterId": 22010201,
    "affix": [4010, 4025, 4033, 4064],
    "abilityGroup": "",
    "level": 1,
    "reviseLevelId": 1003,
    "cityList": [3],
    "limitTime": 600,
    "JGMCGMALINN": [],
    "clueTextIdList": [],
    "newsTextTextMapHash": 2420950636,
    "traitTextTextMapHash": 941476745,
    "MNHJLMFCIAF": 2550397237,
    "ALKDBICEJHA": 2579969866,
    "EOGPGHIICGE": 3608112346,
    "NNDLNLDPHNE": 1174296928,
    "refreshCond": [],
    "MPCEDCMCLDL": true,
    "MDBIAFOFBME": 321300027
  },
  {
    "configId": 13002,
    "monsterId": 22010401,
    "affix": [4011, 4027, 4033, 4064],
    "abilityGroup": "",
    "level": 1,
    "reviseLevelId": 1003,
    "cityList": [3],
    "limitTime": 600,
    "JGMCGMALINN": [],
    "clueTextIdList": [],
    "newsTextTextMapHash": 3138080828,
    "traitTextTextMapHash": 324597849,
    "MNHJLMFCIAF": 2063206141,
    "ALKDBICEJHA": 1148056410,
    "EOGPGHIICGE": 2017093338,
    "NNDLNLDPHNE": 486923736,
    "refreshCond": [],
    "MPCEDCMCLDL": true,
    "MDBIAFOFBME": 321300028
  },
  {
    "configId": 13003,
    "monsterId": 22010301,
    "affix": [4009, 4028, 4033, 4064],
    "abilityGroup": "",
    "level": 1,
    "reviseLevelId": 1003,
    "cityList": [3],
    "limitTime": 600,
    "JGMCGMALINN": [],
    "clueTextIdList": [],
    "newsTextTextMapHash": 1909994556,
    "traitTextTextMapHash": 896024905,
    "MNHJLMFCIAF": 1502861901,
    "ALKDBICEJHA": 3157510202,
    "EOGPGHIICGE": 4096999642,
    "NNDLNLDPHNE": 1318958776,
    "refreshCond": [],
    "MPCEDCMCLDL": true,
    "MDBIAFOFBME": 322000102
  },
  {
    "configId": 13004,
    "monsterId": 21020201,
    "affix": [4008, 4029, 4033, 4064],
    "abilityGroup": "",
    "level": 1,
    "reviseLevelId": 1003,
    "cityList": [3],
    "limitTime": 600,
    "JGMCGMALINN": [],
    "clueTextIdList": [],
    "newsTextTextMapHash": 1650622156,
    "traitTextTextMapHash": 4287432633,
    "MNHJLMFCIAF": 3148892805,
    "ALKDBICEJHA": 1494439426,
    "EOGPGHIICGE": 558307586,
    "NNDLNLDPHNE": 4058283368,
    "refreshCond": [],
    "MPCEDCMCLDL": true,
    "MDBIAFOFBME": 322000102
  },
  {
    "configId": 13005,
    "monsterId": 21020701,
    "affix": [4012, 4030, 4033, 4064],
    "abilityGroup": "",
    "level": 1,
    "reviseLevelId": 1003,
    "cityList": [3],
    "limitTime": 600,
    "JGMCGMALINN": [],
    "clueTextIdList": [],
    "newsTextTextMapHash": 1708838916,
    "traitTextTextMapHash": 2910909193,
    "MNHJLMFCIAF": 36056085,
    "ALKDBICEJHA": 971364298,
    "EOGPGHIICGE": 37916938,
    "NNDLNLDPHNE": 1886378224,
    "refreshCond": [],
    "MPCEDCMCLDL": true,
    "MDBIAFOFBME": 321200092
  },
  {
    "configId": 13006,
    "monsterId": 21030601,
    "affix": [4013, 4026, 4033, 4064],
    "abilityGroup": "",
    "level": 1,
    "reviseLevelId": 1003,
    "cityList": [3],
    "limitTime": 600,
    "JGMCGMALINN": [],
    "clueTextIdList": [],
    "newsTextTextMapHash": 478509532,
    "traitTextTextMapHash": 564749105,
    "MNHJLMFCIAF": 607242973,
    "ALKDBICEJHA": 4245589818,
    "EOGPGHIICGE": 935485418,
    "NNDLNLDPHNE": 3364908840,
    "refreshCond": [],
    "MPCEDCMCLDL": true,
    "MDBIAFOFBME": 322000112
  },
  {
    "configId": 14001,
    "monsterId": 22010101,
    "affix": [4008, 4026, 4064],
    "abilityGroup": "",
    "level": 1,
    "reviseLevelId": 1003,
    "cityList": [4],
    "limitTime": 600,
    "JGMCGMALINN": [],
    "clueTextIdList": [],
    "newsTextTextMapHash": 422517508,
    "traitTextTextMapHash": 4110682201,
    "MNHJLMFCIAF": 3386315093,
    "ALKDBICEJHA": 3172719898,
    "EOGPGHIICGE": 2051799586,
    "NNDLNLDPHNE": 1614922256,
    "refreshCond": [],
    "MPCEDCMCLDL": true
  },
  {
    "configId": 14002,
    "monsterId": 21020201,
    "affix": [4008, 4028, 4064],
    "abilityGroup": "",
    "level": 1,
    "reviseLevelId": 1003,
    "cityList": [4],
    "limitTime": 600,
    "JGMCGMALINN": [],
    "clueTextIdList": [],
    "newsTextTextMapHash": 1593204276,
    "traitTextTextMapHash": 3757220961,
    "MNHJLMFCIAF": 3998606757,
    "ALKDBICEJHA": 1649014778,
    "EOGPGHIICGE": 2418041130,
    "NNDLNLDPHNE": 3447012608,
    "refreshCond": [],
    "MPCEDCMCLDL": true
  },
  {
    "configId": 14003,
    "monsterId": 25310301,
    "affix": [4012, 4028, 4064],
    "abilityGroup": "",
    "level": 1,
    "reviseLevelId": 1003,
    "cityList": [4],
    "limitTime": 600,
    "JGMCGMALINN": [],
    "clueTextIdList": [],
    "newsTextTextMapHash": 2141507964,
    "traitTextTextMapHash": 481776329,
    "MNHJLMFCIAF": 3761044813,
    "ALKDBICEJHA": 3836031634,
    "EOGPGHIICGE": 307518538,
    "NNDLNLDPHNE": 1848345344,
    "refreshCond": [],
    "MPCEDCMCLDL": true
  },
  {
    "configId": 14004,
    "monsterId": 26120301,
    "affix": [4009, 4029, 4064],
    "abilityGroup": "",
    "level": 1,
    "reviseLevelId": 1003,
    "cityList": [4],
    "limitTime": 600,
    "JGMCGMALINN": [],
    "clueTextIdList": [],
    "newsTextTextMapHash": 3284391092,
    "traitTextTextMapHash": 1734094233,
    "MNHJLMFCIAF": 1627271037,
    "ALKDBICEJHA": 1324113178,
    "EOGPGHIICGE": 1321242922,
    "NNDLNLDPHNE": 2973666128,
    "refreshCond": [],
    "MPCEDCMCLDL": true
  },
  {
    "configId": 14005,
    "monsterId": 25310201,
    "affix": [4014, 4027, 4064],
    "abilityGroup": "",
    "level": 1,
    "reviseLevelId": 1003,
    "cityList": [4],
    "limitTime": 600,
    "JGMCGMALINN": [],
    "clueTextIdList": [],
    "newsTextTextMapHash": 3203307612,
    "traitTextTextMapHash": 1195363921,
    "MNHJLMFCIAF": 354930325,
    "ALKDBICEJHA": 2872093418,
    "EOGPGHIICGE": 734573154,
    "NNDLNLDPHNE": 676411520,
    "refreshCond": [],
    "MPCEDCMCLDL": true,
    "MDBIAFOFBME": 330300072
  },
  {
    "configId": 14006,
    "monsterId": 26120201,
    "affix": [4010, 4031, 4064],
    "abilityGroup": "",
    "level": 1,
    "reviseLevelId": 1003,
    "cityList": [4],
    "limitTime": 600,
    "JGMCGMALINN": [],
    "clueTextIdList": [],
    "newsTextTextMapHash": 3730302700,
    "traitTextTextMapHash": 2307273129,
    "MNHJLMFCIAF": 941569029,
    "ALKDBICEJHA": 604212786,
    "EOGPGHIICGE": 1204840946,
    "NNDLNLDPHNE": 2249719352,
    "refreshCond": [],
    "MPCEDCMCLDL": true
  },
  {
    "configId": 14007,
    "monsterId": 21030201,
    "affix": [4013, 4025, 4064],
    "abilityGroup": "",
    "level": 1,
    "reviseLevelId": 1003,
    "cityList": [4],
    "limitTime": 600,
    "JGMCGMALINN": [],
    "clueTextIdList": [],
    "newsTextTextMapHash": 3235629308,
    "traitTextTextMapHash": 85799233,
    "MNHJLMFCIAF": 2363948429,
    "ALKDBICEJHA": 2650359330,
    "EOGPGHIICGE": 1950758474,
    "NNDLNLDPHNE": 4209638560,
    "refreshCond": [],
    "MPCEDCMCLDL": true,
    "MDBIAFOFBME": 330400105
  },
  {
    "configId": 14008,
    "monsterId": 25310101,
    "affix": [4011, 4026, 4064],
    "abilityGroup": "",
    "level": 1,
    "reviseLevelId": 1003,
    "cityList": [4],
    "limitTime": 600,
    "JGMCGMALINN": [],
    "clueTextIdList": [],
    "newsTextTextMapHash": 3152479972,
    "traitTextTextMapHash": 2619766505,
    "MNHJLMFCIAF": 3695192341,
    "ALKDBICEJHA": 4163200386,
    "EOGPGHIICGE": 2153677826,
    "NNDLNLDPHNE": 1691067216,
    "refreshCond": [],
    "MPCEDCMCLDL": true
  },
  {
    "configId": 20001,
    "monsterId": 22010101,
    "affix": [4010, 4011, 4026, 4035, 4040, 4064],
    "abilityGroup": "",
    "createPosType": "HUNTING_POS_GROUND",
    "level": 1,
    "reviseLevelId": 1001,
    "cityList": [1, 2],
    "difficulty": "HUNTING_DIFFICULTY_MEDIUM",
    "limitTime": 600,
    "searchPointNum": 3,
    "JGMCGMALINN": [],
    "clueTextIdList": [1001, 2001, 2004, 3003],
    "newsTextTextMapHash": 2922377204,
    "traitTextTextMapHash": 1962781217,
    "MNHJLMFCIAF": 3359270517,
    "ALKDBICEJHA": 3096455714,
    "EOGPGHIICGE": 2645632834,
    "NNDLNLDPHNE": 4178335416,
    "refreshCond": []
  },
  {
    "configId": 20002,
    "monsterId": 22010201,
    "affix": [4008, 4009, 4028, 4035, 4040, 4064],
    "abilityGroup": "",
    "level": 1,
    "reviseLevelId": 1001,
    "cityList": [1, 2],
    "difficulty": "HUNTING_DIFFICULTY_MEDIUM",
    "limitTime": 600,
    "searchPointNum": 3,
    "JGMCGMALINN": [],
    "clueTextIdList": [1001, 2002, 2003, 3001],
    "newsTextTextMapHash": 3876452772,
    "traitTextTextMapHash": 2616136193,
    "MNHJLMFCIAF": 3313675381,
    "ALKDBICEJHA": 1201585618,
    "EOGPGHIICGE": 3696932258,
    "NNDLNLDPHNE": 2093498752,
    "refreshCond": []
  },
  {
    "configId": 20003,
    "monsterId": 22010301,
    "affix": [4008, 4011, 4027, 4035, 4040, 4064],
    "abilityGroup": "",
    "level": 1,
    "reviseLevelId": 1001,
    "cityList": [1, 2],
    "difficulty": "HUNTING_DIFFICULTY_MEDIUM",
    "limitTime": 600,
    "searchPointNum": 3,
    "JGMCGMALINN": [],
    "clueTextIdList": [1001, 2001, 2002, 3004],
    "newsTextTextMapHash": 682286220,
    "traitTextTextMapHash": 3392276089,
    "MNHJLMFCIAF": 3264047653,
    "ALKDBICEJHA": 872309314,
    "EOGPGHIICGE": 4111821690,
    "NNDLNLDPHNE": 1128263512,
    "refreshCond": []
  },
  {
    "configId": 20004,
    "monsterId": 26030101,
    "affix": [4008, 4010, 4018, 4035, 4040, 4064],
    "abilityGroup": "AbilityGroup_Reputation_Hunting_ClaymoreVulnerable",
    "level": 1,
    "reviseLevelId": 1001,
    "cityList": [2],
    "difficulty": "HUNTING_DIFFICULTY_MEDIUM",
    "limitTime": 600,
    "searchPointNum": 3,
    "JGMCGMALINN": [],
    "clueTextIdList": [1001, 2002, 2004, 3008],
    "newsTextTextMapHash": 3312723700,
    "traitTextTextMapHash": 3912084129,
    "MNHJLMFCIAF": 3561514149,
    "ALKDBICEJHA": 2086926314,
    "EOGPGHIICGE": 1891768098,
    "NNDLNLDPHNE": 2922127072,
    "refreshCond": []
  },
  {
    "configId": 20005,
    "monsterId": 26030101,
    "affix": [4009, 4011, 4017, 4035, 4040, 4064],
    "abilityGroup": "AbilityGroup_Reputation_Hunting_SwordVulnerable",
    "level": 1,
    "reviseLevelId": 1001,
    "cityList": [2],
    "difficulty": "HUNTING_DIFFICULTY_MEDIUM",
    "limitTime": 600,
    "searchPointNum": 3,
    "JGMCGMALINN": [],
    "clueTextIdList": [1001, 2001, 2003, 3006],
    "newsTextTextMapHash": 4190423556,
    "traitTextTextMapHash": 2125389785,
    "MNHJLMFCIAF": 2264366957,
    "ALKDBICEJHA": 3429908850,
    "EOGPGHIICGE": 1939834834,
    "NNDLNLDPHNE": 3772316128,
    "refreshCond": []
  },
  {
    "configId": 20006,
    "monsterId": 26030101,
    "affix": [4010, 4011, 4019, 4035, 4040, 4064],
    "abilityGroup": "AbilityGroup_Reputation_Hunting_PoleVulnerable",
    "level": 1,
    "reviseLevelId": 1001,
    "cityList": [2],
    "difficulty": "HUNTING_DIFFICULTY_MEDIUM",
    "limitTime": 600,
    "searchPointNum": 3,
    "JGMCGMALINN": [],
    "clueTextIdList": [1001, 2001, 2004, 3009],
    "newsTextTextMapHash": 2088092692,
    "traitTextTextMapHash": 480010465,
    "MNHJLMFCIAF": 2345256997,
    "ALKDBICEJHA": 3958288786,
    "EOGPGHIICGE": 2862476322,
    "NNDLNLDPHNE": 2545995496,
    "refreshCond": []
  },
  {
    "configId": 20007,
    "monsterId": 26030101,
    "affix": [4008, 4009, 4016, 4035, 4040, 4064],
    "abilityGroup": "AbilityGroup_Reputation_Hunting_CatalystVulnerable",
    "level": 1,
    "reviseLevelId": 1001,
    "cityList": [2],
    "difficulty": "HUNTING_DIFFICULTY_MEDIUM",
    "limitTime": 600,
    "searchPointNum": 3,
    "JGMCGMALINN": [],
    "clueTextIdList": [1001, 2002, 2003, 3007],
    "newsTextTextMapHash": 1722298396,
    "traitTextTextMapHash": 3173931073,
    "MNHJLMFCIAF": 2203699501,
    "ALKDBICEJHA": 232963658,
    "EOGPGHIICGE": 3318602442,
    "NNDLNLDPHNE": 2782892192,
    "refreshCond": []
  },
  {
    "configId": 20008,
    "monsterId": 20020101,
    "affix": [4010, 4011, 4020, 4033, 4064],
    "abilityGroup": "AbilityGroup_Reputation_Hunting_BowVulnerable",
    "level": 1,
    "reviseLevelId": 1001,
    "cityList": [1, 2],
    "difficulty": "HUNTING_DIFFICULTY_MEDIUM",
    "limitTime": 600,
    "searchPointNum": 3,
    "JGMCGMALINN": [],
    "clueTextIdList": [1001, 2001, 2004, 3005],
    "newsTextTextMapHash": 3375595348,
    "traitTextTextMapHash": 4046550489,
    "MNHJLMFCIAF": 1609249461,
    "ALKDBICEJHA": 3906425682,
    "EOGPGHIICGE": 13326938,
    "NNDLNLDPHNE": 291943088,
    "refreshCond": []
  },
  {
    "configId": 20009,
    "monsterId": 20020101,
    "affix": [4008, 4010, 4017, 4033, 4064],
    "abilityGroup": "AbilityGroup_Reputation_Hunting_SwordVulnerable",
    "level": 1,
    "reviseLevelId": 1001,
    "cityList": [1, 2],
    "difficulty": "HUNTING_DIFFICULTY_MEDIUM",
    "limitTime": 600,
    "searchPointNum": 3,
    "JGMCGMALINN": [],
    "clueTextIdList": [1001, 2002, 2004, 3006],
    "newsTextTextMapHash": 2230754964,
    "traitTextTextMapHash": 1057742145,
    "MNHJLMFCIAF": 1586617773,
    "ALKDBICEJHA": 1890285842,
    "EOGPGHIICGE": 4040342370,
    "NNDLNLDPHNE": 1543192152,
    "refreshCond": []
  },
  {
    "configId": 20010,
    "monsterId": 20020101,
    "affix": [4009, 4011, 4016, 4033, 4064],
    "abilityGroup": "AbilityGroup_Reputation_Hunting_CatalystVulnerable",
    "level": 1,
    "reviseLevelId": 1001,
    "cityList": [1, 2],
    "difficulty": "HUNTING_DIFFICULTY_MEDIUM",
    "limitTime": 600,
    "searchPointNum": 3,
    "JGMCGMALINN": [],
    "clueTextIdList": [1001, 2001, 2003, 3007],
    "newsTextTextMapHash": 485429260,
    "traitTextTextMapHash": 276154793,
    "MNHJLMFCIAF": 829179549,
    "ALKDBICEJHA": 3795232906,
    "EOGPGHIICGE": 3772877834,
    "NNDLNLDPHNE": 945000096,
    "refreshCond": []
  },
  {
    "configId": 20011,
    "monsterId": 20020101,
    "affix": [4009, 4010, 4018, 4033, 4064],
    "abilityGroup": "AbilityGroup_Reputation_Hunting_ClaymoreVulnerable",
    "level": 1,
    "reviseLevelId": 1001,
    "cityList": [1, 2],
    "difficulty": "HUNTING_DIFFICULTY_MEDIUM",
    "limitTime": 600,
    "searchPointNum": 3,
    "JGMCGMALINN": [],
    "clueTextIdList": [1001, 2003, 2004, 3008],
    "newsTextTextMapHash": 1249597836,
    "traitTextTextMapHash": 3774605177,
    "MNHJLMFCIAF": 868597805,
    "ALKDBICEJHA": 3442811626,
    "EOGPGHIICGE": 1387578930,
    "NNDLNLDPHNE": 2968058704,
    "refreshCond": []
  },
  {
    "configId": 20012,
    "monsterId": 20020101,
    "affix": [4008, 4011, 4019, 4033, 4064],
    "abilityGroup": "AbilityGroup_Reputation_Hunting_PoleVulnerable",
    "level": 1,
    "reviseLevelId": 1001,
    "cityList": [1, 2],
    "difficulty": "HUNTING_DIFFICULTY_MEDIUM",
    "limitTime": 600,
    "searchPointNum": 3,
    "JGMCGMALINN": [],
    "clueTextIdList": [1001, 2001, 2002, 3009],
    "newsTextTextMapHash": 1758627956,
    "traitTextTextMapHash": 3573161913,
    "MNHJLMFCIAF": 2112427421,
    "ALKDBICEJHA": 1570326770,
    "EOGPGHIICGE": 974691970,
    "NNDLNLDPHNE": 942221008,
    "refreshCond": []
  },
  {
    "configId": 20013,
    "monsterId": 21020101,
    "affix": [4056, 4063, 4051, 4064],
    "abilityGroup": "",
    "level": 1,
    "reviseLevelId": 1001,
    "cityList": [1, 2],
    "difficulty": "HUNTING_DIFFICULTY_MEDIUM",
    "limitTime": 600,
    "searchPointNum": 3,
    "JGMCGMALINN": [],
    "clueTextIdList": [1001, 2009, 3004],
    "newsTextTextMapHash": 499149908,
    "traitTextTextMapHash": 4238156921,
    "MNHJLMFCIAF": 1192453637,
    "ALKDBICEJHA": 1109691866,
    "EOGPGHIICGE": 1628125810,
    "NNDLNLDPHNE": 778974112,
    "refreshCond": []
  },
  {
    "configId": 20014,
    "monsterId": 21020101,
    "affix": [4056, 4063, 4049, 4064],
    "abilityGroup": "",
    "level": 1,
    "reviseLevelId": 1001,
    "cityList": [1, 2],
    "difficulty": "HUNTING_DIFFICULTY_MEDIUM",
    "limitTime": 600,
    "searchPointNum": 3,
    "JGMCGMALINN": [],
    "clueTextIdList": [1001, 2009, 3002],
    "newsTextTextMapHash": 1566617332,
    "traitTextTextMapHash": 1568958185,
    "MNHJLMFCIAF": 4080303589,
    "ALKDBICEJHA": 3511876434,
    "EOGPGHIICGE": 1175355538,
    "NNDLNLDPHNE": 431911744,
    "refreshCond": []
  },
  {
    "configId": 20015,
    "monsterId": 21020201,
    "affix": [4056, 4063, 4051, 4064],
    "abilityGroup": "",
    "level": 1,
    "reviseLevelId": 1001,
    "cityList": [1, 2],
    "difficulty": "HUNTING_DIFFICULTY_MEDIUM",
    "limitTime": 600,
    "searchPointNum": 3,
    "JGMCGMALINN": [],
    "clueTextIdList": [1001, 2009, 3004],
    "newsTextTextMapHash": 3574820196,
    "traitTextTextMapHash": 1121387041,
    "MNHJLMFCIAF": 1339098085,
    "ALKDBICEJHA": 3597619802,
    "EOGPGHIICGE": 2211610762,
    "NNDLNLDPHNE": 2179795848,
    "refreshCond": []
  },
  {
    "configId": 20016,
    "monsterId": 21020201,
    "affix": [4056, 4063, 4052, 4064],
    "abilityGroup": "",
    "level": 1,
    "reviseLevelId": 1001,
    "cityList": [1, 2],
    "difficulty": "HUNTING_DIFFICULTY_MEDIUM",
    "limitTime": 600,
    "searchPointNum": 3,
    "JGMCGMALINN": [],
    "clueTextIdList": [1001, 2009, 3001],
    "newsTextTextMapHash": 1537140900,
    "traitTextTextMapHash": 4243616833,
    "MNHJLMFCIAF": 1902733453,
    "ALKDBICEJHA": 2230704122,
    "EOGPGHIICGE": 477811594,
    "NNDLNLDPHNE": 750484040,
    "refreshCond": []
  },
  {
    "configId": 20017,
    "monsterId": 21020301,
    "affix": [4056, 4063, 4050, 4064],
    "abilityGroup": "",
    "level": 1,
    "reviseLevelId": 1001,
    "cityList": [2],
    "difficulty": "HUNTING_DIFFICULTY_MEDIUM",
    "limitTime": 600,
    "searchPointNum": 3,
    "JGMCGMALINN": [],
    "clueTextIdList": [1001, 2009, 3003],
    "newsTextTextMapHash": 3795961660,
    "traitTextTextMapHash": 904568465,
    "MNHJLMFCIAF": 2272542621,
    "ALKDBICEJHA": 1387226930,
    "EOGPGHIICGE": 2626183666,
    "NNDLNLDPHNE": 3504548424,
    "refreshCond": []
  },
  {
    "configId": 20018,
    "monsterId": 21020301,
    "affix": [4056, 4063, 4052, 4064],
    "abilityGroup": "",
    "level": 1,
    "reviseLevelId": 1001,
    "cityList": [2],
    "difficulty": "HUNTING_DIFFICULTY_MEDIUM",
    "limitTime": 600,
    "searchPointNum": 3,
    "JGMCGMALINN": [],
    "clueTextIdList": [1001, 2009, 3001],
    "newsTextTextMapHash": 1016149524,
    "traitTextTextMapHash": 629835545,
    "MNHJLMFCIAF": 2646576973,
    "ALKDBICEJHA": 3836253666,
    "EOGPGHIICGE": 991819674,
    "NNDLNLDPHNE": 4006006024,
    "refreshCond": []
  },
  {
    "configId": 20019,
    "monsterId": 21020101,
    "affix": [4040, 4013, 4019, 4024, 4035, 4041, 4064],
    "abilityGroup": "AbilityGroup_Reputation_Hunting_PoleAndFallingVulnerable",
    "level": 1,
    "reviseLevelId": 1001,
    "cityList": [1, 2],
    "difficulty": "HUNTING_DIFFICULTY_MEDIUM",
    "limitTime": 600,
    "searchPointNum": 3,
    "JGMCGMALINN": [],
    "clueTextIdList": [1001, 2006, 2004, 3009, 3010],
    "newsTextTextMapHash": 957289380,
    "traitTextTextMapHash": 1979767441,
    "MNHJLMFCIAF": 3246186381,
    "ALKDBICEJHA": 3104651466,
    "EOGPGHIICGE": 3805295458,
    "NNDLNLDPHNE": 79563496,
    "refreshCond": []
  },
  {
    "configId": 20020,
    "monsterId": 21020201,
    "affix": [4012, 4011, 4017, 4024, 4035, 4041, 4064],
    "abilityGroup": "AbilityGroup_Reputation_Hunting_SwordAndFallingVulnerable",
    "level": 1,
    "reviseLevelId": 1001,
    "cityList": [1, 2],
    "difficulty": "HUNTING_DIFFICULTY_MEDIUM",
    "limitTime": 600,
    "searchPointNum": 3,
    "JGMCGMALINN": [],
    "clueTextIdList": [1001, 2005, 2001, 3006, 3010],
    "newsTextTextMapHash": 1624499660,
    "traitTextTextMapHash": 202447361,
    "MNHJLMFCIAF": 2690869413,
    "ALKDBICEJHA": 3219431522,
    "EOGPGHIICGE": 1504919066,
    "NNDLNLDPHNE": 3891734776,
    "refreshCond": []
  },
  {
    "configId": 20021,
    "monsterId": 21020301,
    "affix": [4009, 4010, 4018, 4024, 4035, 4041, 4064],
    "abilityGroup": "AbilityGroup_Reputation_Hunting_ClaymoreAndFallingVulnerable",
    "level": 1,
    "reviseLevelId": 1001,
    "cityList": [2],
    "difficulty": "HUNTING_DIFFICULTY_MEDIUM",
    "limitTime": 600,
    "searchPointNum": 3,
    "JGMCGMALINN": [],
    "clueTextIdList": [1001, 2003, 2004, 3008, 3010],
    "newsTextTextMapHash": 2176457004,
    "traitTextTextMapHash": 2571816209,
    "MNHJLMFCIAF": 4200649613,
    "ALKDBICEJHA": 2164059386,
    "EOGPGHIICGE": 2498937186,
    "NNDLNLDPHNE": 856731224,
    "refreshCond": []
  },
  {
    "configId": 23001,
    "monsterId": 21020701,
    "affix": [6113, 4011, 4019, 4035, 4040, 4064],
    "abilityGroup": "AbilityGroup_Reputation_Hunting_PoleVulnerable",
    "level": 1,
    "reviseLevelId": 1004,
    "cityList": [3],
    "difficulty": "HUNTING_DIFFICULTY_MEDIUM",
    "limitTime": 600,
    "JGMCGMALINN": [],
    "clueTextIdList": [],
    "newsTextTextMapHash": 4003875676,
    "traitTextTextMapHash": 1106187377,
    "MNHJLMFCIAF": 3978921845,
    "ALKDBICEJHA": 3247468234,
    "EOGPGHIICGE": 1504815730,
    "NNDLNLDPHNE": 1698931704,
    "refreshCond": [],
    "MPCEDCMCLDL": true,
    "MDBIAFOFBME": 321300027
  },
  {
    "configId": 23002,
    "monsterId": 21020201,
    "affix": [6105, 4008, 4026, 4035, 4040, 4064],
    "abilityGroup": "",
    "level": 1,
    "reviseLevelId": 1004,
    "cityList": [3],
    "difficulty": "HUNTING_DIFFICULTY_MEDIUM",
    "limitTime": 600,
    "JGMCGMALINN": [],
    "clueTextIdList": [],
    "newsTextTextMapHash": 2513063476,
    "traitTextTextMapHash": 3229783385,
    "MNHJLMFCIAF": 1464495653,
    "ALKDBICEJHA": 3029843250,
    "EOGPGHIICGE": 2428127034,
    "NNDLNLDPHNE": 2538984208,
    "refreshCond": [],
    "MPCEDCMCLDL": true,
    "MDBIAFOFBME": 321300028
  },
  {
    "configId": 23003,
    "monsterId": 22010301,
    "affix": [6112, 4010, 4025, 4035, 4040, 4064],
    "abilityGroup": "",
    "level": 1,
    "reviseLevelId": 1004,
    "cityList": [3],
    "difficulty": "HUNTING_DIFFICULTY_MEDIUM",
    "limitTime": 600,
    "JGMCGMALINN": [],
    "clueTextIdList": [],
    "newsTextTextMapHash": 105475860,
    "traitTextTextMapHash": 3571472193,
    "MNHJLMFCIAF": 1712547549,
    "ALKDBICEJHA": 4052472874,
    "EOGPGHIICGE": 1346561530,
    "NNDLNLDPHNE": 2725171792,
    "refreshCond": [],
    "MPCEDCMCLDL": true,
    "MDBIAFOFBME": 322000102
  },
  {
    "configId": 23004,
    "monsterId": 21020701,
    "affix": [4132, 4009, 4027, 4035, 4040, 4064],
    "abilityGroup": "",
    "level": 1,
    "reviseLevelId": 1004,
    "cityList": [3],
    "difficulty": "HUNTING_DIFFICULTY_MEDIUM",
    "limitTime": 600,
    "JGMCGMALINN": [],
    "clueTextIdList": [],
    "newsTextTextMapHash": 569407412,
    "traitTextTextMapHash": 153332201,
    "MNHJLMFCIAF": 1183889581,
    "ALKDBICEJHA": 565431098,
    "EOGPGHIICGE": 3087091362,
    "NNDLNLDPHNE": 3522322864,
    "refreshCond": [],
    "MPCEDCMCLDL": true,
    "MDBIAFOFBME": 322000102
  },
  {
    "configId": 23005,
    "monsterId": 22010401,
    "affix": [6113, 4013, 4016, 4035, 4040, 4064],
    "abilityGroup": "AbilityGroup_Reputation_Hunting_CatalystVulnerable",
    "level": 1,
    "reviseLevelId": 1004,
    "cityList": [3],
    "difficulty": "HUNTING_DIFFICULTY_MEDIUM",
    "limitTime": 600,
    "JGMCGMALINN": [],
    "clueTextIdList": [],
    "newsTextTextMapHash": 158272492,
    "traitTextTextMapHash": 106490329,
    "MNHJLMFCIAF": 3874241149,
    "ALKDBICEJHA": 3126415930,
    "EOGPGHIICGE": 2909709018,
    "NNDLNLDPHNE": 2151667184,
    "refreshCond": [],
    "MPCEDCMCLDL": true,
    "MDBIAFOFBME": 321200092
  },
  {
    "configId": 23006,
    "monsterId": 24010101,
    "affix": [4132, 4012, 4018, 4056, 4064],
    "abilityGroup": "AbilityGroup_Reputation_Hunting_ClaymoreVulnerable",
    "level": 1,
    "reviseLevelId": 1004,
    "cityList": [3],
    "difficulty": "HUNTING_DIFFICULTY_MEDIUM",
    "limitTime": 600,
    "JGMCGMALINN": [],
    "clueTextIdList": [],
    "newsTextTextMapHash": 4094144716,
    "traitTextTextMapHash": 558607745,
    "MNHJLMFCIAF": 2351322725,
    "ALKDBICEJHA": 2681275874,
    "EOGPGHIICGE": 2125840618,
    "NNDLNLDPHNE": 2673471000,
    "refreshCond": [],
    "MPCEDCMCLDL": true,
    "MDBIAFOFBME": 322000112
  },
  {
    "configId": 24001,
    "monsterId": 24010101,
    "affix": [4132, 4012, 4028, 4033, 4064],
    "abilityGroup": "",
    "level": 1,
    "reviseLevelId": 1004,
    "cityList": [4],
    "difficulty": "HUNTING_DIFFICULTY_MEDIUM",
    "limitTime": 600,
    "JGMCGMALINN": [],
    "clueTextIdList": [],
    "newsTextTextMapHash": 594528292,
    "traitTextTextMapHash": 1407455481,
    "MNHJLMFCIAF": 2619159189,
    "ALKDBICEJHA": 2362812866,
    "EOGPGHIICGE": 243791274,
    "NNDLNLDPHNE": 3613844080,
    "refreshCond": [],
    "MPCEDCMCLDL": true
  },
  {
    "configId": 24002,
    "monsterId": 22050201,
    "affix": [6119, 4013, 4029, 4061, 4064],
    "abilityGroup": "",
    "level": 1,
    "reviseLevelId": 1004,
    "cityList": [4],
    "difficulty": "HUNTING_DIFFICULTY_MEDIUM",
    "limitTime": 600,
    "JGMCGMALINN": [],
    "clueTextIdList": [],
    "newsTextTextMapHash": 3992218108,
    "traitTextTextMapHash": 2688220897,
    "MNHJLMFCIAF": 1685275269,
    "ALKDBICEJHA": 1701423018,
    "EOGPGHIICGE": 608367754,
    "NNDLNLDPHNE": 2807766256,
    "refreshCond": [],
    "MPCEDCMCLDL": true
  },
  {
    "configId": 24003,
    "monsterId": 25310101,
    "affix": [6118, 4011, 4026, 4033, 4064],
    "abilityGroup": "",
    "level": 1,
    "reviseLevelId": 1004,
    "cityList": [4],
    "difficulty": "HUNTING_DIFFICULTY_MEDIUM",
    "limitTime": 600,
    "JGMCGMALINN": [],
    "clueTextIdList": [],
    "newsTextTextMapHash": 1056494004,
    "traitTextTextMapHash": 2195284953,
    "MNHJLMFCIAF": 3120718517,
    "ALKDBICEJHA": 802467618,
    "EOGPGHIICGE": 1753386938,
    "NNDLNLDPHNE": 3761371576,
    "refreshCond": [],
    "MPCEDCMCLDL": true
  },
  {
    "configId": 24004,
    "monsterId": 26120201,
    "affix": [6101, 4010, 4030, 4033, 4064],
    "abilityGroup": "",
    "level": 1,
    "reviseLevelId": 1004,
    "cityList": [4],
    "difficulty": "HUNTING_DIFFICULTY_MEDIUM",
    "limitTime": 600,
    "JGMCGMALINN": [],
    "clueTextIdList": [],
    "newsTextTextMapHash": 2543573212,
    "traitTextTextMapHash": 2414199089,
    "MNHJLMFCIAF": 3449462989,
    "ALKDBICEJHA": 4253146346,
    "EOGPGHIICGE": 694829618,
    "NNDLNLDPHNE": 1632350640,
    "refreshCond": [],
    "MPCEDCMCLDL": true
  },
  {
    "configId": 24005,
    "monsterId": 25310201,
    "affix": [6107, 4008, 4027, 4033, 4064],
    "abilityGroup": "",
    "level": 1,
    "reviseLevelId": 1004,
    "cityList": [4],
    "difficulty": "HUNTING_DIFFICULTY_MEDIUM",
    "limitTime": 600,
    "JGMCGMALINN": [],
    "clueTextIdList": [],
    "newsTextTextMapHash": 1480045588,
    "traitTextTextMapHash": 450790105,
    "MNHJLMFCIAF": 817039741,
    "ALKDBICEJHA": 1012110082,
    "EOGPGHIICGE": 876520778,
    "NNDLNLDPHNE": 1548733912,
    "refreshCond": [],
    "MPCEDCMCLDL": true,
    "MDBIAFOFBME": 330300072
  },
  {
    "configId": 24006,
    "monsterId": 26120101,
    "affix": [4066, 4014, 4025, 4033, 4064],
    "abilityGroup": "",
    "level": 1,
    "reviseLevelId": 1004,
    "cityList": [4],
    "difficulty": "HUNTING_DIFFICULTY_MEDIUM",
    "limitTime": 600,
    "JGMCGMALINN": [],
    "clueTextIdList": [],
    "newsTextTextMapHash": 2735870772,
    "traitTextTextMapHash": 3221618433,
    "MNHJLMFCIAF": 2934410765,
    "ALKDBICEJHA": 406588498,
    "EOGPGHIICGE": 4143153498,
    "NNDLNLDPHNE": 1357010272,
    "refreshCond": [],
    "MPCEDCMCLDL": true
  },
  {
    "configId": 24007,
    "monsterId": 23020101,
    "affix": [4067, 4013, 4033, 4064, 4069],
    "abilityGroup": "",
    "level": 1,
    "reviseLevelId": 1004,
    "cityList": [4],
    "difficulty": "HUNTING_DIFFICULTY_MEDIUM",
    "limitTime": 600,
    "JGMCGMALINN": [],
    "clueTextIdList": [],
    "newsTextTextMapHash": 4159210404,
    "traitTextTextMapHash": 2675523081,
    "MNHJLMFCIAF": 1663685405,
    "ALKDBICEJHA": 3779398874,
    "EOGPGHIICGE": 2401788882,
    "NNDLNLDPHNE": 953334040,
    "refreshCond": [],
    "MPCEDCMCLDL": true,
    "MDBIAFOFBME": 330400105
  },
  {
    "configId": 24008,
    "monsterId": 25310301,
    "affix": [4067, 4009, 4033, 4064, 4068],
    "abilityGroup": "",
    "level": 1,
    "reviseLevelId": 1004,
    "cityList": [4],
    "difficulty": "HUNTING_DIFFICULTY_MEDIUM",
    "limitTime": 600,
    "JGMCGMALINN": [],
    "clueTextIdList": [],
    "newsTextTextMapHash": 3313580604,
    "traitTextTextMapHash": 2608393177,
    "MNHJLMFCIAF": 1985557741,
    "ALKDBICEJHA": 2770999922,
    "EOGPGHIICGE": 491821338,
    "NNDLNLDPHNE": 159366576,
    "refreshCond": [],
    "MPCEDCMCLDL": true
  },
  {
    "configId": 30001,
    "monsterId": 24010101,
    "affix": [4002, 4025, 4026, 4027, 4028, 4029, 4030, 4031, 4036, 4040, 4064],
    "abilityGroup": "",
    "level": 1,
    "reviseLevelId": 1002,
    "cityList": [1, 2],
    "difficulty": "HUNTING_DIFFICULTY_HARD",
    "limitTime": 600,
    "searchPointNum": 3,
    "JGMCGMALINN": [],
    "clueTextIdList": [1001, 2007, 3013],
    "newsTextTextMapHash": 3928737556,
    "traitTextTextMapHash": 1276398057,
    "MNHJLMFCIAF": 421249869,
    "ALKDBICEJHA": 3088372914,
    "EOGPGHIICGE": 4268407090,
    "NNDLNLDPHNE": 1341498200,
    "refreshCond": []
  },
  {
    "configId": 30002,
    "monsterId": 24010101,
    "affix": [4009, 4013, 4028, 4024, 4036, 4040, 4064],
    "abilityGroup": "AbilityGroup_Reputation_Hunting_FallingAttackVulnerable",
    "level": 1,
    "reviseLevelId": 1002,
    "cityList": [1, 2],
    "difficulty": "HUNTING_DIFFICULTY_HARD",
    "limitTime": 600,
    "searchPointNum": 3,
    "JGMCGMALINN": [],
    "clueTextIdList": [1001, 2003, 2006, 3001, 3010],
    "newsTextTextMapHash": 3617453588,
    "traitTextTextMapHash": 3185951769,
    "MNHJLMFCIAF": 1838612269,
    "ALKDBICEJHA": 3230500594,
    "EOGPGHIICGE": 4253106338,
    "NNDLNLDPHNE": 3550624248,
    "refreshCond": []
  },
  {
    "configId": 30003,
    "monsterId": 24010101,
    "affix": [4008, 4010, 4058, 4061, 4045, 4064],
    "abilityGroup": "AbilityGroup_Reputation_Hunting_SwordVulnerable_High",
    "level": 1,
    "reviseLevelId": 1002,
    "cityList": [1, 2],
    "difficulty": "HUNTING_DIFFICULTY_HARD",
    "limitTime": 600,
    "searchPointNum": 3,
    "JGMCGMALINN": [],
    "clueTextIdList": [1001, 2002, 2004, 2009, 3006],
    "newsTextTextMapHash": 1018055500,
    "traitTextTextMapHash": 428576985,
    "MNHJLMFCIAF": 2996050837,
    "ALKDBICEJHA": 1097650146,
    "EOGPGHIICGE": 3328330066,
    "NNDLNLDPHNE": 599949480,
    "refreshCond": []
  },
  {
    "configId": 30004,
    "monsterId": 24010201,
    "affix": [4008, 4013, 4022, 4034, 4040, 4064],
    "abilityGroup": "AbilityGroup_Reputation_Hunting_ExtraCriticalHurt",
    "level": 1,
    "reviseLevelId": 1002,
    "cityList": [1, 2],
    "difficulty": "HUNTING_DIFFICULTY_HARD",
    "limitTime": 600,
    "searchPointNum": 3,
    "JGMCGMALINN": [],
    "initialPose": 100,
    "clueTextIdList": [1001, 2002, 2006, 3012],
    "newsTextTextMapHash": 1976296628,
    "traitTextTextMapHash": 2191899657,
    "MNHJLMFCIAF": 3610035053,
    "ALKDBICEJHA": 2458337994,
    "EOGPGHIICGE": 826379058,
    "NNDLNLDPHNE": 1472581864,
    "refreshCond": []
  },
  {
    "configId": 30005,
    "monsterId": 24010201,
    "affix": [4011, 4012, 4021, 4034, 4040, 4024, 4064],
    "abilityGroup": "AbilityGroup_Reputation_Hunting_FallingAttackVulnerable",
    "level": 1,
    "reviseLevelId": 1002,
    "cityList": [1, 2],
    "difficulty": "HUNTING_DIFFICULTY_HARD",
    "limitTime": 600,
    "searchPointNum": 3,
    "JGMCGMALINN": [],
    "initialPose": 100,
    "clueTextIdList": [1001, 2001, 2005, 3011, 3010],
    "newsTextTextMapHash": 1933338796,
    "traitTextTextMapHash": 2908448601,
    "MNHJLMFCIAF": 3618752693,
    "ALKDBICEJHA": 2275009914,
    "EOGPGHIICGE": 3824028298,
    "NNDLNLDPHNE": 3090649616,
    "refreshCond": []
  },
  {
    "configId": 30006,
    "monsterId": 24010201,
    "affix": [4002, 4025, 4026, 4027, 4028, 4029, 4030, 4031, 4034, 4040, 4064],
    "abilityGroup": "",
    "level": 1,
    "reviseLevelId": 1002,
    "cityList": [1, 2],
    "difficulty": "HUNTING_DIFFICULTY_HARD",
    "limitTime": 600,
    "searchPointNum": 3,
    "JGMCGMALINN": [],
    "initialPose": 100,
    "clueTextIdList": [1001, 2007, 3013],
    "newsTextTextMapHash": 3075188692,
    "traitTextTextMapHash": 2166185825,
    "MNHJLMFCIAF": 1994114085,
    "ALKDBICEJHA": 1229722770,
    "EOGPGHIICGE": 1464971642,
    "NNDLNLDPHNE": 4079353256,
    "refreshCond": []
  },
  {
    "configId": 30007,
    "monsterId": 24010201,
    "affix": [4009, 4010, 4059, 4046, 4061, 4064],
    "abilityGroup": "AbilityGroup_Reputation_Hunting_ClaymoreVulnerable_High",
    "level": 1,
    "reviseLevelId": 1002,
    "cityList": [1, 2],
    "difficulty": "HUNTING_DIFFICULTY_HARD",
    "limitTime": 600,
    "searchPointNum": 3,
    "JGMCGMALINN": [],
    "initialPose": 100,
    "clueTextIdList": [1001, 2003, 2004, 2009, 3008],
    "newsTextTextMapHash": 2541004044,
    "traitTextTextMapHash": 3250953801,
    "MNHJLMFCIAF": 42076557,
    "ALKDBICEJHA": 127386162,
    "EOGPGHIICGE": 1721657034,
    "NNDLNLDPHNE": 1987034504,
    "refreshCond": []
  },
  {
    "configId": 30008,
    "monsterId": 21020501,
    "affix": [4002, 4025, 4026, 4027, 4028, 4029, 4030, 4031, 4034, 4040, 4064],
    "abilityGroup": "",
    "level": 1,
    "reviseLevelId": 1002,
    "cityList": [2],
    "difficulty": "HUNTING_DIFFICULTY_HARD",
    "limitTime": 600,
    "searchPointNum": 3,
    "JGMCGMALINN": [],
    "clueTextIdList": [1001, 2007, 3013],
    "newsTextTextMapHash": 1080448492,
    "traitTextTextMapHash": 4059266553,
    "MNHJLMFCIAF": 264520901,
    "ALKDBICEJHA": 2362108738,
    "EOGPGHIICGE": 590164314,
    "NNDLNLDPHNE": 4009284104,
    "refreshCond": []
  },
  {
    "configId": 30009,
    "monsterId": 21020501,
    "affix": [4008, 4028, 4034, 4040, 4064],
    "abilityGroup": "AbilityGroup_Reputation_Hunting_ClaymoreVulnerable",
    "level": 1,
    "reviseLevelId": 1002,
    "cityList": [2],
    "difficulty": "HUNTING_DIFFICULTY_HARD",
    "limitTime": 600,
    "searchPointNum": 3,
    "JGMCGMALINN": [],
    "clueTextIdList": [1001, 2002, 3001],
    "newsTextTextMapHash": 2297785124,
    "traitTextTextMapHash": 1650616289,
    "MNHJLMFCIAF": 1062318509,
    "ALKDBICEJHA": 2689162818,
    "EOGPGHIICGE": 2528152178,
    "NNDLNLDPHNE": 484410320,
    "refreshCond": []
  },
  {
    "configId": 30010,
    "monsterId": 21020501,
    "affix": [4010, 4024, 4026, 4034, 4040, 4064],
    "abilityGroup": "AbilityGroup_Reputation_Hunting_SwordAndFallingVulnerable",
    "level": 1,
    "reviseLevelId": 1002,
    "cityList": [2],
    "difficulty": "HUNTING_DIFFICULTY_HARD",
    "limitTime": 600,
    "searchPointNum": 3,
    "JGMCGMALINN": [],
    "clueTextIdList": [1001, 2004, 3003, 3010],
    "newsTextTextMapHash": 305564116,
    "traitTextTextMapHash": 174888273,
    "MNHJLMFCIAF": 3171629029,
    "ALKDBICEJHA": 3508666546,
    "EOGPGHIICGE": 2105588210,
    "NNDLNLDPHNE": 2029997112,
    "refreshCond": []
  },
  {
    "configId": 30011,
    "monsterId": 21020501,
    "affix": [4010, 4016, 4034, 4040, 4064],
    "abilityGroup": "AbilityGroup_Reputation_Hunting_CatalystVulnerable",
    "level": 1,
    "reviseLevelId": 1002,
    "cityList": [2],
    "difficulty": "HUNTING_DIFFICULTY_HARD",
    "limitTime": 600,
    "searchPointNum": 3,
    "JGMCGMALINN": [],
    "clueTextIdList": [1001, 2004, 3007],
    "newsTextTextMapHash": 3610417620,
    "traitTextTextMapHash": 4133950209,
    "MNHJLMFCIAF": 1090398269,
    "ALKDBICEJHA": 4061710650,
    "EOGPGHIICGE": 1765851666,
    "NNDLNLDPHNE": 163124424,
    "refreshCond": []
  },
  {
    "configId": 30012,
    "monsterId": 21020501,
    "affix": [4011, 4027, 4034, 4040, 4064],
    "abilityGroup": "AbilityGroup_Reputation_Hunting_PoleVulnerable",
    "level": 1,
    "reviseLevelId": 1002,
    "cityList": [2],
    "difficulty": "HUNTING_DIFFICULTY_HARD",
    "limitTime": 600,
    "searchPointNum": 3,
    "JGMCGMALINN": [],
    "clueTextIdList": [1001, 2001, 3004],
    "newsTextTextMapHash": 1634627316,
    "traitTextTextMapHash": 4097509025,
    "MNHJLMFCIAF": 3651632973,
    "ALKDBICEJHA": 1378305170,
    "EOGPGHIICGE": 397488490,
    "NNDLNLDPHNE": 4022672048,
    "refreshCond": []
  },
  {
    "configId": 33001,
    "monsterId": 21020801,
    "affix": [6110, 4011, 4025, 4033, 4040, 4064],
    "abilityGroup": "",
    "level": 1,
    "reviseLevelId": 1005,
    "cityList": [3],
    "difficulty": "HUNTING_DIFFICULTY_HARD",
    "limitTime": 600,
    "JGMCGMALINN": [],
    "clueTextIdList": [],
    "newsTextTextMapHash": 561611468,
    "traitTextTextMapHash": 1146876801,
    "MNHJLMFCIAF": 2246133413,
    "ALKDBICEJHA": 3022182970,
    "EOGPGHIICGE": 1356790826,
    "NNDLNLDPHNE": 353962704,
    "refreshCond": [2, 3],
    "MPCEDCMCLDL": true,
    "MDBIAFOFBME": 321300027
  },
  {
    "configId": 33003,
    "monsterId": 25100101,
    "affix": [4008, 4027, 4033, 4040, 4064],
    "abilityGroup": "",
    "level": 1,
    "reviseLevelId": 1005,
    "cityList": [3],
    "difficulty": "HUNTING_DIFFICULTY_HARD",
    "limitTime": 600,
    "JGMCGMALINN": [],
    "clueTextIdList": [],
    "newsTextTextMapHash": 3070864628,
    "traitTextTextMapHash": 4075757425,
    "MNHJLMFCIAF": 2445990621,
    "ALKDBICEJHA": 3712114010,
    "EOGPGHIICGE": 985529634,
    "NNDLNLDPHNE": 2699217176,
    "refreshCond": [9, 10, 11],
    "MPCEDCMCLDL": true,
    "MDBIAFOFBME": 321300027
  },
  {
    "configId": 33004,
    "monsterId": 25100101,
    "affix": [6110, 4011, 4030, 4034, 4040, 4064],
    "abilityGroup": "",
    "level": 1,
    "reviseLevelId": 1005,
    "cityList": [3],
    "difficulty": "HUNTING_DIFFICULTY_HARD",
    "limitTime": 600,
    "JGMCGMALINN": [],
    "clueTextIdList": [],
    "newsTextTextMapHash": 2320311804,
    "traitTextTextMapHash": 35016545,
    "MNHJLMFCIAF": 1131242965,
    "ALKDBICEJHA": 3983534786,
    "EOGPGHIICGE": 1427238490,
    "NNDLNLDPHNE": 1306091720,
    "refreshCond": [11, 12],
    "MPCEDCMCLDL": true,
    "MDBIAFOFBME": 321300027
  },
  {
    "configId": 33005,
    "monsterId": 25100101,
    "affix": [6113, 4012, 4034, 4040, 4126, 4064],
    "abilityGroup": "",
    "level": 1,
    "reviseLevelId": 1005,
    "cityList": [3],
    "difficulty": "HUNTING_DIFFICULTY_HARD",
    "limitTime": 600,
    "JGMCGMALINN": [],
    "clueTextIdList": [],
    "newsTextTextMapHash": 3832598244,
    "traitTextTextMapHash": 873474689,
    "MNHJLMFCIAF": 566193485,
    "ALKDBICEJHA": 3810918322,
    "EOGPGHIICGE": 2438176866,
    "NNDLNLDPHNE": 3385258536,
    "refreshCond": [10, 11, 17],
    "MPCEDCMCLDL": true,
    "MDBIAFOFBME": 321300027
  },
  {
    "configId": 33006,
    "monsterId": 25100201,
    "affix": [4013, 4029, 4034, 4040, 4064],
    "abilityGroup": "",
    "level": 1,
    "reviseLevelId": 1005,
    "cityList": [3],
    "difficulty": "HUNTING_DIFFICULTY_HARD",
    "limitTime": 600,
    "JGMCGMALINN": [],
    "clueTextIdList": [],
    "newsTextTextMapHash": 897356972,
    "traitTextTextMapHash": 4273836137,
    "MNHJLMFCIAF": 3784629221,
    "ALKDBICEJHA": 3330490338,
    "EOGPGHIICGE": 652689026,
    "NNDLNLDPHNE": 2773448192,
    "refreshCond": [4, 5],
    "MPCEDCMCLDL": true,
    "MDBIAFOFBME": 322000102
  },
  {
    "configId": 33007,
    "monsterId": 25100201,
    "affix": [4010, 4017, 4033, 4040, 4064],
    "abilityGroup": "AbilityGroup_Reputation_Hunting_SwordVulnerable",
    "level": 1,
    "reviseLevelId": 1005,
    "cityList": [3],
    "difficulty": "HUNTING_DIFFICULTY_HARD",
    "limitTime": 600,
    "JGMCGMALINN": [],
    "clueTextIdList": [],
    "newsTextTextMapHash": 1649940684,
    "traitTextTextMapHash": 2910082617,
    "MNHJLMFCIAF": 1899882461,
    "ALKDBICEJHA": 2792408098,
    "EOGPGHIICGE": 3343243122,
    "NNDLNLDPHNE": 1790681824,
    "refreshCond": [5, 6, 10],
    "MPCEDCMCLDL": true,
    "MDBIAFOFBME": 322000102
  },
  {
    "configId": 33008,
    "monsterId": 25100201,
    "affix": [6110, 4008, 4034, 4040, 4126, 4064],
    "abilityGroup": "",
    "level": 1,
    "reviseLevelId": 1005,
    "cityList": [3],
    "difficulty": "HUNTING_DIFFICULTY_HARD",
    "limitTime": 600,
    "JGMCGMALINN": [],
    "clueTextIdList": [],
    "newsTextTextMapHash": 2843348172,
    "traitTextTextMapHash": 2927590089,
    "MNHJLMFCIAF": 1160805469,
    "ALKDBICEJHA": 3439125066,
    "EOGPGHIICGE": 1888528818,
    "NNDLNLDPHNE": 544172272,
    "refreshCond": [5, 7, 11],
    "MPCEDCMCLDL": true,
    "MDBIAFOFBME": 322000102
  },
  {
    "configId": 33009,
    "monsterId": 21020801,
    "affix": [4009, 4020, 4033, 4040, 4064],
    "abilityGroup": "AbilityGroup_Reputation_Hunting_BowVulnerable",
    "level": 1,
    "reviseLevelId": 1005,
    "cityList": [3],
    "difficulty": "HUNTING_DIFFICULTY_HARD",
    "limitTime": 600,
    "JGMCGMALINN": [],
    "clueTextIdList": [],
    "newsTextTextMapHash": 194230252,
    "traitTextTextMapHash": 2063285257,
    "MNHJLMFCIAF": 2683521021,
    "ALKDBICEJHA": 3312746642,
    "EOGPGHIICGE": 1816977506,
    "NNDLNLDPHNE": 2518612256,
    "refreshCond": [5, 6, 7],
    "MPCEDCMCLDL": true,
    "MDBIAFOFBME": 321200092
  },
  {
    "configId": 33010,
    "monsterId": 21020801,
    "affix": [4132, 4011, 4016, 4033, 4040, 4064],
    "abilityGroup": "AbilityGroup_Reputation_Hunting_CatalystVulnerable",
    "level": 1,
    "reviseLevelId": 1005,
    "cityList": [3],
    "difficulty": "HUNTING_DIFFICULTY_HARD",
    "limitTime": 600,
    "JGMCGMALINN": [],
    "clueTextIdList": [],
    "newsTextTextMapHash": 1574598572,
    "traitTextTextMapHash": 1945220065,
    "MNHJLMFCIAF": 10995861,
    "ALKDBICEJHA": 3079361586,
    "EOGPGHIICGE": 3645758482,
    "NNDLNLDPHNE": 2884946176,
    "refreshCond": [2, 4],
    "MPCEDCMCLDL": true,
    "MDBIAFOFBME": 321200092
  },
  {
    "configId": 33011,
    "monsterId": 24010301,
    "affix": [
      4132, 4002, 4025, 4026, 4027, 4028, 4029, 4030, 4031, 4035, 4040, 4064
    ],
    "abilityGroup": "",
    "level": 1,
    "reviseLevelId": 1005,
    "cityList": [3],
    "difficulty": "HUNTING_DIFFICULTY_HARD",
    "limitTime": 600,
    "JGMCGMALINN": [],
    "clueTextIdList": [],
    "newsTextTextMapHash": 355403116,
    "traitTextTextMapHash": 1735739993,
    "MNHJLMFCIAF": 4126304941,
    "ALKDBICEJHA": 4028805570,
    "EOGPGHIICGE": 1382711250,
    "NNDLNLDPHNE": 2994527616,
    "refreshCond": [],
    "MPCEDCMCLDL": true,
    "MDBIAFOFBME": 322000102
  },
  {
    "configId": 33012,
    "monsterId": 24010301,
    "affix": [
      6114, 4002, 4025, 4026, 4027, 4028, 4029, 4030, 4031, 4035, 4040, 4064
    ],
    "abilityGroup": "",
    "level": 1,
    "reviseLevelId": 1005,
    "cityList": [3],
    "difficulty": "HUNTING_DIFFICULTY_HARD",
    "limitTime": 600,
    "JGMCGMALINN": [],
    "clueTextIdList": [],
    "newsTextTextMapHash": 1082918612,
    "traitTextTextMapHash": 4167555729,
    "MNHJLMFCIAF": 577530565,
    "ALKDBICEJHA": 1952976810,
    "EOGPGHIICGE": 4233244146,
    "NNDLNLDPHNE": 2833645528,
    "refreshCond": [],
    "MPCEDCMCLDL": true,
    "MDBIAFOFBME": 322000102
  },
  {
    "configId": 33013,
    "monsterId": 24010301,
    "affix": [6113, 4012, 4035, 4040, 4126, 4064],
    "abilityGroup": "",
    "level": 1,
    "reviseLevelId": 1005,
    "cityList": [3],
    "difficulty": "HUNTING_DIFFICULTY_HARD",
    "limitTime": 600,
    "JGMCGMALINN": [],
    "clueTextIdList": [],
    "newsTextTextMapHash": 2281984412,
    "traitTextTextMapHash": 12132865,
    "MNHJLMFCIAF": 611494557,
    "ALKDBICEJHA": 141893034,
    "EOGPGHIICGE": 242552178,
    "NNDLNLDPHNE": 1993042856,
    "refreshCond": [11],
    "MPCEDCMCLDL": true,
    "MDBIAFOFBME": 322000102
  },
  {
    "configId": 33014,
    "monsterId": 24020101,
    "affix": [4013, 4127, 4034, 4040, 4064],
    "abilityGroup": "",
    "level": 1,
    "reviseLevelId": 1005,
    "cityList": [3],
    "difficulty": "HUNTING_DIFFICULTY_HARD",
    "limitTime": 600,
    "JGMCGMALINN": [],
    "clueTextIdList": [],
    "newsTextTextMapHash": 4199078308,
    "traitTextTextMapHash": 3563050385,
    "MNHJLMFCIAF": 3979109781,
    "ALKDBICEJHA": 666160786,
    "EOGPGHIICGE": 1534911890,
    "NNDLNLDPHNE": 2562138264,
    "refreshCond": [3],
    "MPCEDCMCLDL": true,
    "MDBIAFOFBME": 322000112
  },
  {
    "configId": 33015,
    "monsterId": 24020201,
    "affix": [4010, 4127, 4034, 4040, 4064],
    "abilityGroup": "",
    "level": 1,
    "reviseLevelId": 1005,
    "cityList": [3],
    "difficulty": "HUNTING_DIFFICULTY_HARD",
    "limitTime": 600,
    "JGMCGMALINN": [],
    "clueTextIdList": [],
    "newsTextTextMapHash": 2040534332,
    "traitTextTextMapHash": 1106659241,
    "MNHJLMFCIAF": 4001215645,
    "ALKDBICEJHA": 3837147066,
    "EOGPGHIICGE": 3790559826,
    "NNDLNLDPHNE": 3125829912,
    "refreshCond": [2],
    "MPCEDCMCLDL": true,
    "MDBIAFOFBME": 322000112
  },
  {
    "configId": 33016,
    "monsterId": 24020301,
    "affix": [4008, 4127, 4034, 4040, 4064],
    "abilityGroup": "",
    "level": 1,
    "reviseLevelId": 1005,
    "cityList": [3],
    "difficulty": "HUNTING_DIFFICULTY_HARD",
    "limitTime": 600,
    "JGMCGMALINN": [],
    "clueTextIdList": [],
    "newsTextTextMapHash": 2225732,
    "traitTextTextMapHash": 63826001,
    "MNHJLMFCIAF": 3213624189,
    "ALKDBICEJHA": 2268840442,
    "EOGPGHIICGE": 3626614426,
    "NNDLNLDPHNE": 4262500736,
    "refreshCond": [5],
    "MPCEDCMCLDL": true,
    "MDBIAFOFBME": 322000112
  },
  {
    "configId": 33017,
    "monsterId": 24020401,
    "affix": [4009, 4127, 4034, 4040, 4064],
    "abilityGroup": "",
    "level": 1,
    "reviseLevelId": 1005,
    "cityList": [3],
    "difficulty": "HUNTING_DIFFICULTY_HARD",
    "limitTime": 600,
    "JGMCGMALINN": [],
    "clueTextIdList": [],
    "newsTextTextMapHash": 3913306284,
    "traitTextTextMapHash": 2263693121,
    "MNHJLMFCIAF": 100210629,
    "ALKDBICEJHA": 2050175010,
    "EOGPGHIICGE": 3461907074,
    "NNDLNLDPHNE": 2262238856,
    "refreshCond": [4],
    "MPCEDCMCLDL": true,
    "MDBIAFOFBME": 322000112
  },
  {
    "configId": 34001,
    "monsterId": 24030201,
    "affix": [4067, 4012, 4033, 4040, 4064, 4069],
    "abilityGroup": "",
    "level": 1,
    "reviseLevelId": 1005,
    "cityList": [4],
    "difficulty": "HUNTING_DIFFICULTY_HARD",
    "limitTime": 600,
    "JGMCGMALINN": [],
    "clueTextIdList": [],
    "newsTextTextMapHash": 1715225556,
    "traitTextTextMapHash": 2381054865,
    "MNHJLMFCIAF": 3146362437,
    "ALKDBICEJHA": 1743923122,
    "EOGPGHIICGE": 2114737882,
    "NNDLNLDPHNE": 249064480,
    "refreshCond": [2],
    "MPCEDCMCLDL": true
  },
  {
    "configId": 34002,
    "monsterId": 24030201,
    "affix": [6102, 4013, 4048, 4033, 4040, 4064],
    "abilityGroup": "AbilityGroup_Reputation_Hunting_BowVulnerable_High",
    "level": 1,
    "reviseLevelId": 1005,
    "cityList": [4],
    "difficulty": "HUNTING_DIFFICULTY_HARD",
    "limitTime": 600,
    "JGMCGMALINN": [],
    "clueTextIdList": [],
    "newsTextTextMapHash": 874295700,
    "traitTextTextMapHash": 1507392569,
    "MNHJLMFCIAF": 1370777213,
    "ALKDBICEJHA": 3289523154,
    "EOGPGHIICGE": 4050216602,
    "NNDLNLDPHNE": 2912279568,
    "refreshCond": [3],
    "MPCEDCMCLDL": true
  },
  {
    "configId": 34003,
    "monsterId": 22050201,
    "affix": [6119, 4013, 4033, 4040, 4064, 4068],
    "abilityGroup": "",
    "level": 1,
    "reviseLevelId": 1005,
    "cityList": [4],
    "difficulty": "HUNTING_DIFFICULTY_HARD",
    "limitTime": 600,
    "JGMCGMALINN": [],
    "clueTextIdList": [],
    "newsTextTextMapHash": 2045576884,
    "traitTextTextMapHash": 1875333433,
    "MNHJLMFCIAF": 3086785509,
    "ALKDBICEJHA": 2831715210,
    "EOGPGHIICGE": 2487090410,
    "NNDLNLDPHNE": 2448985528,
    "refreshCond": [2],
    "MPCEDCMCLDL": true
  },
  {
    "configId": 34004,
    "monsterId": 22050101,
    "affix": [4132, 4008, 4029, 4033, 4040, 4064],
    "abilityGroup": "",
    "level": 1,
    "reviseLevelId": 1005,
    "cityList": [4],
    "difficulty": "HUNTING_DIFFICULTY_HARD",
    "limitTime": 600,
    "JGMCGMALINN": [],
    "clueTextIdList": [],
    "newsTextTextMapHash": 95797356,
    "traitTextTextMapHash": 3219453345,
    "MNHJLMFCIAF": 2352523301,
    "ALKDBICEJHA": 1299672410,
    "EOGPGHIICGE": 4185293834,
    "NNDLNLDPHNE": 1745022464,
    "refreshCond": [3],
    "MPCEDCMCLDL": true
  },
  {
    "configId": 34005,
    "monsterId": 25310101,
    "affix": [6120, 4012, 4026, 4035, 4040, 4064],
    "abilityGroup": "",
    "level": 1,
    "reviseLevelId": 1005,
    "cityList": [4],
    "difficulty": "HUNTING_DIFFICULTY_HARD",
    "limitTime": 600,
    "JGMCGMALINN": [],
    "clueTextIdList": [],
    "newsTextTextMapHash": 2917318716,
    "traitTextTextMapHash": 3162660257,
    "MNHJLMFCIAF": 3617538941,
    "ALKDBICEJHA": 2724512346,
    "EOGPGHIICGE": 1644689298,
    "NNDLNLDPHNE": 1109383360,
    "refreshCond": [2],
    "MPCEDCMCLDL": true
  },
  {
    "configId": 34006,
    "monsterId": 25310201,
    "affix": [6119, 4011, 4046, 4035, 4040, 4064],
    "abilityGroup": "AbilityGroup_Reputation_Hunting_ClaymoreVulnerable_High",
    "level": 1,
    "reviseLevelId": 1005,
    "cityList": [4],
    "difficulty": "HUNTING_DIFFICULTY_HARD",
    "limitTime": 600,
    "JGMCGMALINN": [],
    "clueTextIdList": [],
    "newsTextTextMapHash": 3203357300,
    "traitTextTextMapHash": 2286139241,
    "MNHJLMFCIAF": 1035524349,
    "ALKDBICEJHA": 2670685514,
    "EOGPGHIICGE": 3293081770,
    "NNDLNLDPHNE": 186595856,
    "refreshCond": [3],
    "MPCEDCMCLDL": true
  },
  {
    "configId": 34007,
    "monsterId": 26120301,
    "affix": [4067, 4009, 4031, 4035, 4040, 4064],
    "abilityGroup": "",
    "level": 1,
    "reviseLevelId": 1005,
    "cityList": [4],
    "difficulty": "HUNTING_DIFFICULTY_HARD",
    "limitTime": 600,
    "JGMCGMALINN": [],
    "clueTextIdList": [],
    "newsTextTextMapHash": 1334117700,
    "traitTextTextMapHash": 2229860001,
    "MNHJLMFCIAF": 3130679701,
    "ALKDBICEJHA": 695197298,
    "EOGPGHIICGE": 203970578,
    "NNDLNLDPHNE": 2576345712,
    "refreshCond": [2],
    "MPCEDCMCLDL": true
  },
  {
    "configId": 34008,
    "monsterId": 26120301,
    "affix": [6110, 4009, 4030, 4035, 4040, 4064],
    "abilityGroup": "",
    "level": 1,
    "reviseLevelId": 1005,
    "cityList": [4],
    "difficulty": "HUNTING_DIFFICULTY_HARD",
    "limitTime": 600,
    "JGMCGMALINN": [],
    "clueTextIdList": [],
    "newsTextTextMapHash": 1737044628,
    "traitTextTextMapHash": 1337493041,
    "MNHJLMFCIAF": 2299854157,
    "ALKDBICEJHA": 1240121458,
    "EOGPGHIICGE": 84274586,
    "NNDLNLDPHNE": 3048609840,
    "refreshCond": [3],
    "MPCEDCMCLDL": true
  },
  {
    "configId": 34009,
    "monsterId": 24030201,
    "affix": [4132, 4010, 4033, 4040, 4064, 4068],
    "abilityGroup": "",
    "level": 1,
    "reviseLevelId": 1005,
    "cityList": [4],
    "difficulty": "HUNTING_DIFFICULTY_HARD",
    "limitTime": 600,
    "JGMCGMALINN": [],
    "clueTextIdList": [],
    "newsTextTextMapHash": 2398859708,
    "traitTextTextMapHash": 738751841,
    "MNHJLMFCIAF": 3907561453,
    "ALKDBICEJHA": 552097874,
    "EOGPGHIICGE": 1187413354,
    "NNDLNLDPHNE": 1928346680,
    "refreshCond": [2],
    "MPCEDCMCLDL": true,
    "MDBIAFOFBME": 330300072
  },
  {
    "configId": 34010,
    "monsterId": 24010301,
    "affix": [6120, 4012, 4045, 4033, 4040, 4064],
    "abilityGroup": "AbilityGroup_Reputation_Hunting_SwordVulnerable_High",
    "level": 1,
    "reviseLevelId": 1005,
    "cityList": [4],
    "difficulty": "HUNTING_DIFFICULTY_HARD",
    "limitTime": 600,
    "JGMCGMALINN": [],
    "clueTextIdList": [],
    "newsTextTextMapHash": 1879449460,
    "traitTextTextMapHash": 40333425,
    "MNHJLMFCIAF": 3516750469,
    "ALKDBICEJHA": 1503694034,
    "EOGPGHIICGE": 4096292570,
    "NNDLNLDPHNE": 370738552,
    "refreshCond": [3],
    "MPCEDCMCLDL": true,
    "MDBIAFOFBME": 330300072
  },
  {
    "configId": 34011,
    "monsterId": 26120101,
    "affix": [4066, 4014, 4048, 4035, 4040, 4064],
    "abilityGroup": "AbilityGroup_Reputation_Hunting_BowVulnerable_High",
    "level": 1,
    "reviseLevelId": 1005,
    "cityList": [4],
    "difficulty": "HUNTING_DIFFICULTY_HARD",
    "limitTime": 600,
    "JGMCGMALINN": [],
    "clueTextIdList": [],
    "newsTextTextMapHash": 1289808972,
    "traitTextTextMapHash": 1431032945,
    "MNHJLMFCIAF": 1656507605,
    "ALKDBICEJHA": 2018834170,
    "EOGPGHIICGE": 171580602,
    "NNDLNLDPHNE": 1446813352,
    "refreshCond": [2],
    "MPCEDCMCLDL": true
  },
  {
    "configId": 34012,
    "monsterId": 26120201,
    "affix": [4010, 4044, 4035, 4040, 4064],
    "abilityGroup": "AbilityGroup_Reputation_Hunting_CatalystVulnerable_High",
    "level": 1,
    "reviseLevelId": 1005,
    "cityList": [4],
    "difficulty": "HUNTING_DIFFICULTY_HARD",
    "limitTime": 600,
    "JGMCGMALINN": [],
    "clueTextIdList": [],
    "newsTextTextMapHash": 1620618356,
    "traitTextTextMapHash": 3502837689,
    "MNHJLMFCIAF": 1869559517,
    "ALKDBICEJHA": 1295675010,
    "EOGPGHIICGE": 2511111114,
    "NNDLNLDPHNE": 3275934968,
    "refreshCond": [3],
    "MPCEDCMCLDL": true
  },
  {
    "configId": 34013,
    "monsterId": 24030201,
    "affix": [4066, 4013, 4025, 4033, 4040, 4064],
    "abilityGroup": "",
    "level": 1,
    "reviseLevelId": 1005,
    "cityList": [4],
    "difficulty": "HUNTING_DIFFICULTY_HARD",
    "limitTime": 600,
    "JGMCGMALINN": [],
    "clueTextIdList": [],
    "newsTextTextMapHash": 1230249740,
    "traitTextTextMapHash": 125813561,
    "MNHJLMFCIAF": 414963861,
    "ALKDBICEJHA": 1385635882,
    "EOGPGHIICGE": 1284423514,
    "NNDLNLDPHNE": 1297907744,
    "refreshCond": [2],
    "MPCEDCMCLDL": true,
    "MDBIAFOFBME": 330400105
  },
  {
    "configId": 34014,
    "monsterId": 24010301,
    "affix": [4067, 4008, 4033, 4040, 4064, 4069],
    "abilityGroup": "",
    "level": 1,
    "reviseLevelId": 1005,
    "cityList": [4],
    "difficulty": "HUNTING_DIFFICULTY_HARD",
    "limitTime": 600,
    "JGMCGMALINN": [],
    "clueTextIdList": [],
    "newsTextTextMapHash": 2186009396,
    "traitTextTextMapHash": 927175921,
    "MNHJLMFCIAF": 159370165,
    "ALKDBICEJHA": 3707965482,
    "EOGPGHIICGE": 303785546,
    "NNDLNLDPHNE": 326640176,
    "refreshCond": [3],
    "MPCEDCMCLDL": true,
    "MDBIAFOFBME": 330400105
  },
  {
    "configId": 34015,
    "monsterId": 25310301,
    "affix": [6110, 4010, 4028, 4035, 4040, 4064],
    "abilityGroup": "",
    "level": 1,
    "reviseLevelId": 1005,
    "cityList": [4],
    "difficulty": "HUNTING_DIFFICULTY_HARD",
    "limitTime": 600,
    "JGMCGMALINN": [],
    "clueTextIdList": [],
    "newsTextTextMapHash": 3374281580,
    "traitTextTextMapHash": 3571499929,
    "MNHJLMFCIAF": 392273269,
    "ALKDBICEJHA": 2344077146,
    "EOGPGHIICGE": 915341234,
    "NNDLNLDPHNE": 2415094048,
    "refreshCond": [2],
    "MPCEDCMCLDL": true
  },
  {
    "configId": 34016,
    "monsterId": 25310201,
    "affix": [4132, 4011, 4047, 4035, 4040, 4064],
    "abilityGroup": "AbilityGroup_Reputation_Hunting_PoleVulnerable_High",
    "level": 1,
    "reviseLevelId": 1005,
    "cityList": [4],
    "difficulty": "HUNTING_DIFFICULTY_HARD",
    "limitTime": 600,
    "JGMCGMALINN": [],
    "clueTextIdList": [],
    "newsTextTextMapHash": 2468018628,
    "traitTextTextMapHash": 2685537241,
    "MNHJLMFCIAF": 300799741,
    "ALKDBICEJHA": 1727940362,
    "EOGPGHIICGE": 1638868626,
    "NNDLNLDPHNE": 3606578928,
    "refreshCond": [3],
    "MPCEDCMCLDL": true
  }
]
