[
  {
    "GFDEKFMBEDN": 1,
    "nameTextMapHash": 805299972,
    "BKKPCOJJBBL": 2012008,
    "openDay": 1,
    "preQuestId": 4005513,
    "guideQuestId": 7269101,
    "pushTipsId": 6053,
    "BFCGADAEMEE": 506211779,
    "PDMGOOBLNHL": 1963197160
  },
  {
    "GFDEKFMBEDN": 2,
    "nameTextMapHash": 3573482412,
    "BKKPCOJJBBL": 2012011,
    "openDay": 3,
    "preQuestId": 4005610,
    "guideQuestId": 7268501,
    "pushTipsId": 6054,
    "BFCGADAEMEE": 2925038859,
    "PDMGOOBLNHL": 1293396712
  },
  {
    "GFDEKFMBEDN": 3,
    "nameTextMapHash": 104309596,
    "BKKPCOJJBBL": 2012012,
    "openDay": 5,
    "preQuestId": 4005714,
    "guideQuestId": 7268601,
    "pushTipsId": 6056,
    "BFCGADAEMEE": 2379351731,
    "PDMGOOBLNHL": 2072022616
  },
  {
    "GFDEKFMBEDN": 4,
    "nameTextMapHash": 1269556372,
    "BKKPCOJJBBL": 2012017,
    "openDay": 5,
    "preQuestId": 4005714,
    "guideQuestId": 7268701,
    "pushTipsId": 6055,
    "BFCGADAEMEE": 2277390699,
    "PDMGOOBLNHL": 2124262336
  },
  {
    "GFDEKFMBEDN": 5,
    "nameTextMapHash": 1198775820,
    "BKKPCOJJBBL": 2012007,
    "openDay": 7,
    "preQuestId": 4005914,
    "BFCGADAEMEE": 4021228739,
    "PDMGOOBLNHL": 3626033888
  }
]
