[
  {
    "HPBGAFECJPN": 1,
    "gadgetId": 70290313,
    "ICKOFGHIKEJ": 5,
    "CKKJOAJPIGO": 3615099497,
    "PPOIEICHPPD": 1516964931,
    "PMJIKDHEIBC": 57444315,
    "EOFAOBKIDCG": 6329853453715417437,
    "CCAPNGDPOHJ": 60.0,
    "ANCEBMKKGPM": [373841, 373842, 373843],
    "AALCHOGJADP": 2012112,
    "BAMEPNCLEPA": 2012116,
    "watcherId": 12012301,
    "questId": 72687
  },
  {
    "HPBGAFECJPN": 2,
    "gadgetId": 70290314,
    "ICKOFGHIKEJ": 6,
    "CKKJOAJPIGO": 4075122977,
    "PPOIEICHPPD": 2429721283,
    "PMJIKDHEIBC": 802570579,
    "EOFAOBKIDCG": 5995658587115908350,
    "CCAPNGDPOHJ": 60.0,
    "ANCEBMKKGPM": [373844, 373845, 373846],
    "AALCHOGJADP": 2012113,
    "BAMEPNCLEPA": 2012117,
    "watcherId": 12012302,
    "questId": 72688
  },
  {
    "HPBGAFECJPN": 3,
    "gadgetId": 70290315,
    "ICKOFGHIKEJ": 7,
    "CKKJOAJPIGO": 2116932033,
    "PPOIEICHPPD": 2886838971,
    "PMJIKDHEIBC": 2136461867,
    "EOFAOBKIDCG": 3031046610767757880,
    "CCAPNGDPOHJ": 60.0,
    "ANCEBMKKGPM": [373847, 373848, 373849],
    "AALCHOGJADP": 2012114,
    "BAMEPNCLEPA": 2012118,
    "watcherId": 12012303,
    "questId": 72689
  },
  {
    "HPBGAFECJPN": 4,
    "gadgetId": 70290316,
    "ICKOFGHIKEJ": 8,
    "CKKJOAJPIGO": 4138581217,
    "PPOIEICHPPD": 2578248883,
    "PMJIKDHEIBC": 3672821827,
    "EOFAOBKIDCG": 9918439949352251458,
    "CCAPNGDPOHJ": 60.0,
    "ANCEBMKKGPM": [373850, 373851, 373852],
    "AALCHOGJADP": 2012115,
    "BAMEPNCLEPA": 2012119,
    "watcherId": 12012304,
    "questId": 72690
  }
]
