[
  {
    "stageId": 1,
    "stageNameTextMapHash": 2012204561,
    "CEEHONLBLHK": [1, 2, 3]
  },
  {
    "stageId": 2,
    "stageNameTextMapHash": 1788582681,
    "CEEHONLBLHK": [4, 5, 6]
  },
  {
    "stageId": 3,
    "stageNameTextMapHash": 4104217369,
    "CEEHONLBLHK": [7, 8, 9]
  },
  {
    "stageId": 4,
    "stageNameTextMapHash": 2868429553,
    "CEEHONLBLHK": [10, 11, 12]
  }
]
