[
  {
    "ID": 1,
    "GNJAIJCHFDP": [
      {
        "AFGLIONNJNN": [1, 2]
      },
      {
        "AFGLIONNJNN": []
      },
      {
        "AFGLIONNJNN": []
      }
    ],
    "DDHPDJNLNJC": [1],
    "ADBJBMOGBHJ": 5
  },
  {
    "ID": 2,
    "GNJAIJCHFDP": [
      {
        "AFGLIONNJNN": [3, 4]
      },
      {
        "AFGLIONNJNN": []
      },
      {
        "AFGLIONNJNN": []
      }
    ],
    "DDHPDJNLNJC": [4],
    "ADBJBMOGBHJ": 5
  },
  {
    "ID": 3,
    "GNJAIJCHFDP": [
      {
        "AFGLIONNJNN": [5, 6, 7, 8, 9, 10, 11, 12, 13, 14]
      },
      {
        "AFGLIONNJNN": []
      },
      {
        "AFGLIONNJNN": []
      }
    ],
    "DDHPDJNLNJC": [14],
    "ADBJBMOGBHJ": 5
  },
  {
    "ID": 4,
    "GNJAIJCHFDP": [
      {
        "AFGLIONNJNN": [15, 16, 17]
      },
      {
        "AFGLIONNJNN": []
      },
      {
        "AFGLIONNJNN": []
      }
    ],
    "DDHPDJNLNJC": [15],
    "ADBJBMOGBHJ": 5
  },
  {
    "ID": 5,
    "GNJAIJCHFDP": [
      {
        "AFGLIONNJNN": [18, 19, 20, 33]
      },
      {
        "AFGLIONNJNN": []
      },
      {
        "AFGLIONNJNN": []
      }
    ],
    "DDHPDJNLNJC": [18],
    "ADBJBMOGBHJ": 5
  },
  {
    "ID": 6,
    "GNJAIJCHFDP": [
      {
        "AFGLIONNJNN": [21, 22]
      },
      {
        "AFGLIONNJNN": []
      },
      {
        "AFGLIONNJNN": []
      }
    ],
    "DDHPDJNLNJC": [21],
    "ADBJBMOGBHJ": 5
  },
  {
    "ID": 7,
    "GNJAIJCHFDP": [
      {
        "AFGLIONNJNN": [23, 24, 25, 26, 27, 28, 29]
      },
      {
        "AFGLIONNJNN": []
      },
      {
        "AFGLIONNJNN": []
      }
    ],
    "DDHPDJNLNJC": [23],
    "ADBJBMOGBHJ": 5
  },
  {
    "ID": 8,
    "GNJAIJCHFDP": [
      {
        "AFGLIONNJNN": [
          100000, 100001, 100002, 100003, 100010, 100011, 100012, 100013,
          100020, 100021, 100022, 100023, 100030, 100031, 100032, 100033,
          100100, 100101, 100102, 100103, 100110, 100111, 100112, 100113,
          100120, 100121, 100122, 100123, 100130, 100131, 100132, 100133,
          100200, 100201, 100202, 100203, 100210, 100211, 100212, 100213,
          100220, 100221, 100222, 100223, 100230, 100231, 100232, 100233,
          100300, 100301, 100302, 100303, 100310, 100311, 100312, 100313,
          100320, 100321, 100322, 100323, 100330, 100331, 100332, 100333
        ]
      },
      {
        "AFGLIONNJNN": []
      },
      {
        "AFGLIONNJNN": []
      }
    ],
    "DDHPDJNLNJC": [100000],
    "ADBJBMOGBHJ": 5
  },
  {
    "ID": 9,
    "GNJAIJCHFDP": [
      {
        "AFGLIONNJNN": [
          200000, 200001, 200002, 200003, 200010, 200011, 200012, 200013,
          200020, 200021, 200022, 200023, 200030, 200031, 200032, 200033,
          200100, 200101, 200102, 200103, 200110, 200111, 200112, 200113,
          200120, 200121, 200122, 200123, 200130, 200131, 200132, 200133,
          200200, 200201, 200202, 200203, 200210, 200211, 200212, 200213,
          200220, 200221, 200222, 200223, 200230, 200231, 200232, 200233,
          200300, 200301, 200302, 200303, 200310, 200311, 200312, 200313,
          200320, 200321, 200322, 200323, 200330, 200331, 200332, 200333
        ]
      },
      {
        "AFGLIONNJNN": []
      },
      {
        "AFGLIONNJNN": []
      }
    ],
    "DDHPDJNLNJC": [200000],
    "ADBJBMOGBHJ": 5
  },
  {
    "ID": 10,
    "GNJAIJCHFDP": [
      {
        "AFGLIONNJNN": [30, 31, 32, 40]
      },
      {
        "AFGLIONNJNN": []
      },
      {
        "AFGLIONNJNN": []
      }
    ],
    "DDHPDJNLNJC": [30],
    "ADBJBMOGBHJ": 5
  },
  {
    "ID": 11,
    "GNJAIJCHFDP": [
      {
        "AFGLIONNJNN": [34, 35, 36, 37]
      },
      {
        "AFGLIONNJNN": []
      },
      {
        "AFGLIONNJNN": []
      }
    ],
    "DDHPDJNLNJC": [34],
    "ADBJBMOGBHJ": 5
  },
  {
    "ID": 12,
    "GNJAIJCHFDP": [
      {
        "AFGLIONNJNN": [38, 39]
      },
      {
        "AFGLIONNJNN": []
      },
      {
        "AFGLIONNJNN": []
      }
    ],
    "DDHPDJNLNJC": [38],
    "ADBJBMOGBHJ": 5
  },
  {
    "ID": 13,
    "GNJAIJCHFDP": [
      {
        "AFGLIONNJNN": [
          204000, 204001, 204002, 204003, 204010, 204011, 204012, 204013
        ]
      },
      {
        "AFGLIONNJNN": []
      },
      {
        "AFGLIONNJNN": []
      }
    ],
    "DDHPDJNLNJC": [204000],
    "ADBJBMOGBHJ": 3
  },
  {
    "ID": 14,
    "GNJAIJCHFDP": [
      {
        "AFGLIONNJNN": [
          204100, 204101, 204102, 204103, 204110, 204111, 204112, 204113
        ]
      },
      {
        "AFGLIONNJNN": []
      },
      {
        "AFGLIONNJNN": []
      }
    ],
    "DDHPDJNLNJC": [204100],
    "ADBJBMOGBHJ": 3
  },
  {
    "ID": 15,
    "GNJAIJCHFDP": [
      {
        "AFGLIONNJNN": [
          204200, 204201, 204202, 204203, 204210, 204211, 204212, 204213
        ]
      },
      {
        "AFGLIONNJNN": []
      },
      {
        "AFGLIONNJNN": []
      }
    ],
    "DDHPDJNLNJC": [204200],
    "ADBJBMOGBHJ": 3
  },
  {
    "ID": 16,
    "GNJAIJCHFDP": [
      {
        "AFGLIONNJNN": [
          204300, 204301, 204302, 204303, 204310, 204311, 204312, 204313
        ]
      },
      {
        "AFGLIONNJNN": []
      },
      {
        "AFGLIONNJNN": []
      }
    ],
    "DDHPDJNLNJC": [204300],
    "ADBJBMOGBHJ": 3
  },
  {
    "ID": 17,
    "GNJAIJCHFDP": [
      {
        "AFGLIONNJNN": [41, 47]
      },
      {
        "AFGLIONNJNN": []
      },
      {
        "AFGLIONNJNN": []
      }
    ],
    "DDHPDJNLNJC": [47],
    "ADBJBMOGBHJ": 3
  },
  {
    "ID": 18,
    "GNJAIJCHFDP": [
      {
        "AFGLIONNJNN": [42, 43, 44, 45, 46]
      },
      {
        "AFGLIONNJNN": []
      },
      {
        "AFGLIONNJNN": []
      }
    ],
    "DDHPDJNLNJC": [42],
    "ADBJBMOGBHJ": 3
  },
  {
    "ID": 19,
    "GNJAIJCHFDP": [
      {
        "AFGLIONNJNN": [55, 56]
      },
      {
        "AFGLIONNJNN": []
      },
      {
        "AFGLIONNJNN": []
      }
    ],
    "DDHPDJNLNJC": [56],
    "ADBJBMOGBHJ": 5
  },
  {
    "ID": 20,
    "GNJAIJCHFDP": [
      {
        "AFGLIONNJNN": [57, 58]
      },
      {
        "AFGLIONNJNN": []
      },
      {
        "AFGLIONNJNN": []
      }
    ],
    "DDHPDJNLNJC": [57],
    "ADBJBMOGBHJ": 5
  },
  {
    "ID": 21,
    "GNJAIJCHFDP": [
      {
        "AFGLIONNJNN": [59, 60]
      },
      {
        "AFGLIONNJNN": []
      },
      {
        "AFGLIONNJNN": []
      }
    ],
    "DDHPDJNLNJC": [60],
    "ADBJBMOGBHJ": 2
  },
  {
    "ID": 22,
    "GNJAIJCHFDP": [
      {
        "AFGLIONNJNN": [62, 65]
      },
      {
        "AFGLIONNJNN": []
      },
      {
        "AFGLIONNJNN": []
      }
    ],
    "DDHPDJNLNJC": [65],
    "ADBJBMOGBHJ": 5
  },
  {
    "ID": 23,
    "GNJAIJCHFDP": [
      {
        "AFGLIONNJNN": [63, 66]
      },
      {
        "AFGLIONNJNN": []
      },
      {
        "AFGLIONNJNN": []
      }
    ],
    "DDHPDJNLNJC": [66],
    "ADBJBMOGBHJ": 5
  },
  {
    "ID": 24,
    "GNJAIJCHFDP": [
      {
        "AFGLIONNJNN": [64, 67]
      },
      {
        "AFGLIONNJNN": []
      },
      {
        "AFGLIONNJNN": []
      }
    ],
    "DDHPDJNLNJC": [67],
    "ADBJBMOGBHJ": 5
  },
  {
    "ID": 25,
    "GNJAIJCHFDP": [
      {
        "AFGLIONNJNN": [68, 69]
      },
      {
        "AFGLIONNJNN": []
      },
      {
        "AFGLIONNJNN": []
      }
    ],
    "DDHPDJNLNJC": [68],
    "ADBJBMOGBHJ": 5
  },
  {
    "ID": 26,
    "GNJAIJCHFDP": [
      {
        "AFGLIONNJNN": [48, 49]
      },
      {
        "AFGLIONNJNN": []
      },
      {
        "AFGLIONNJNN": []
      }
    ],
    "DDHPDJNLNJC": [48],
    "ADBJBMOGBHJ": 3
  },
  {
    "ID": 27,
    "GNJAIJCHFDP": [
      {
        "AFGLIONNJNN": [50, 51]
      },
      {
        "AFGLIONNJNN": []
      },
      {
        "AFGLIONNJNN": []
      }
    ],
    "DDHPDJNLNJC": [50],
    "ADBJBMOGBHJ": 3
  },
  {
    "ID": 28,
    "GNJAIJCHFDP": [
      {
        "AFGLIONNJNN": [52, 53, 54]
      },
      {
        "AFGLIONNJNN": []
      },
      {
        "AFGLIONNJNN": []
      }
    ],
    "DDHPDJNLNJC": [52],
    "ADBJBMOGBHJ": 3
  },
  {
    "ID": 29,
    "GNJAIJCHFDP": [
      {
        "AFGLIONNJNN": [70, 71, 72, 73, 74, 75]
      },
      {
        "AFGLIONNJNN": []
      },
      {
        "AFGLIONNJNN": []
      }
    ],
    "DDHPDJNLNJC": [70],
    "ADBJBMOGBHJ": 3
  },
  {
    "ID": 30,
    "GNJAIJCHFDP": [
      {
        "AFGLIONNJNN": [76, 77]
      },
      {
        "AFGLIONNJNN": []
      },
      {
        "AFGLIONNJNN": []
      }
    ],
    "DDHPDJNLNJC": [76],
    "ADBJBMOGBHJ": 3
  },
  {
    "ID": 31,
    "GNJAIJCHFDP": [
      {
        "AFGLIONNJNN": [78, 79]
      },
      {
        "AFGLIONNJNN": []
      },
      {
        "AFGLIONNJNN": []
      }
    ],
    "DDHPDJNLNJC": [78],
    "ADBJBMOGBHJ": 3
  }
]
