[
  {
    "id": 2,
    "type": "HomeWorld",
    "nameTextMapHash": 3071628724,
    "CHFAGLCGOFM": 2904399338,
    "MAALGBPCKDN": 10,
    "icon": "UI_MarkSwitch_Homeworld",
    "hideBeforeUnlock": true,
    "sceneIdList": [2001, 2002, 2003]
  },
  {
    "id": 3,
    "type": "Islands",
    "nameTextMapHash": 2157852924,
    "CHFAGLCGOFM": 4231616786,
    "MAALGBPCKDN": 20,
    "icon": "UI_MarkSwitch_GoldenAppleIsles",
    "hideBeforeUnlock": true,
    "sceneIdList": [4],
    "IBGMAOMOKAK": -335.3139953613281,
    "EOHJCODAFHL": -655.7260131835938
  },
  {
    "id": 4,
    "nameTextMapHash": 706446876,
    "CHFAGLCGOFM": 49482922,
    "MAALGBPCKDN": 100,
    "icon": "UI_MarkSwitch_Bigworld",
    "unlockByDefault": true,
    "cityID": 1,
    "FICGJBKJJEC": 10,
    "sceneIdList": [3]
  },
  {
    "id": 5,
    "nameTextMapHash": 1982412604,
    "CHFAGLCGOFM": 1428887970,
    "MAALGBPCKDN": 100,
    "icon": "UI_MarkSwitch_Bigworld",
    "hideBeforeUnlock": true,
    "cityID": 2,
    "FICGJBKJJEC": 128,
    "sceneIdList": [3]
  },
  {
    "id": 6,
    "nameTextMapHash": 869248244,
    "CHFAGLCGOFM": 853904250,
    "MAALGBPCKDN": 100,
    "icon": "UI_MarkSwitch_Bigworld",
    "hideBeforeUnlock": true,
    "cityID": 3,
    "FICGJBKJJEC": 242,
    "sceneIdList": [3]
  },
  {
    "id": 7,
    "type": "Abyssalisle",
    "nameTextMapHash": 1862653596,
    "CHFAGLCGOFM": 1002315562,
    "MAALGBPCKDN": 70,
    "icon": "UI_MarkSwitch_Bigworld",
    "hideBeforeUnlock": true,
    "FICGJBKJJEC": 31,
    "sceneIdList": [5]
  },
  {
    "id": 8,
    "type": "MichiaeMatsuri",
    "nameTextMapHash": 2887066388,
    "CHFAGLCGOFM": 2106142714,
    "MAALGBPCKDN": 20,
    "icon": "UI_MarkSwitch_Bigworld",
    "hideBeforeUnlock": true,
    "FICGJBKJJEC": 2,
    "sceneIdList": [7]
  },
  {
    "id": 9,
    "type": "TheChasm",
    "nameTextMapHash": 297471884,
    "CHFAGLCGOFM": 3468523274,
    "MAALGBPCKDN": 70,
    "icon": "UI_MarkSwitch_Bigworld",
    "hideBeforeUnlock": true,
    "FICGJBKJJEC": 1,
    "sceneIdList": [6]
  },
  {
    "id": 10,
    "type": "DreamIsland",
    "nameTextMapHash": 3682200372,
    "CHFAGLCGOFM": 1255928274,
    "MAALGBPCKDN": 5,
    "icon": "UI_MarkSwitch_GoldenAppleIsles",
    "hideBeforeUnlock": true,
    "FICGJBKJJEC": 33,
    "sceneIdList": [9]
  },
  {
    "id": 11,
    "nameTextMapHash": 1074864084,
    "CHFAGLCGOFM": 2308207546,
    "MAALGBPCKDN": 100,
    "icon": "UI_MarkSwitch_Bigworld",
    "hideBeforeUnlock": true,
    "cityID": 4,
    "FICGJBKJJEC": 482,
    "sceneIdList": [3]
  },
  {
    "id": 12,
    "type": "CattailTavern",
    "nameTextMapHash": 4293069292,
    "CHFAGLCGOFM": 88855090,
    "MAALGBPCKDN": 5,
    "icon": "UI_MarkSwitch_Bigworld",
    "hideBeforeUnlock": true,
    "FICGJBKJJEC": 1,
    "sceneIdList": [1076]
  }
]
