[
  {
    "matchId": 1001,
    "matchIconHash": 14828682038547769261,
    "matchBtnName": "UI_ONLINE_MATCH_BUTTON_SINGLE",
    "matchBtnTips": "UI_ONLINE_AUTOMATCH_SINGLE",
    "requirementDescTextMapHash": 3708003537,
    "matchLimitReasonDescTextMapHash": 2562319488,
    "limitWarningDescTextMapHash": 2357156636,
    "inviteGuestDescTextMapHash": 4225393239,
    "inviteHostDescTextMapHash": 2164695162,
    "matchStartDesc": "UI_ONLINE_MATCH_TIP",
    "matchTitleTextMapHash": 2537487916,
    "matchSuccessDescTextMapHash": 2561181040,
    "NNMCBKHANGC": 3320857126
  },
  {
    "matchId": 1002,
    "matchIconHash": 3328308462011042033,
    "matchBtnName": "UI_ONLINE_MATCH_BUTTON_SINGLE",
    "matchBtnTips": "UI_ONLINE_AUTOMATCH_SINGLE",
    "requirementDescTextMapHash": 266058065,
    "matchLimitReasonDescTextMapHash": 1777073024,
    "limitWarningDescTextMapHash": 3733421308,
    "inviteGuestDescTextMapHash": 1561050023,
    "inviteHostDescTextMapHash": 2180587170,
    "matchStartDesc": "UI_ONLINE_MATCH_TIP",
    "matchTitleTextMapHash": 3510721180,
    "matchSuccessDescTextMapHash": 760144696,
    "NNMCBKHANGC": 3868587806
  },
  {
    "matchId": 1003,
    "matchIconHash": 7479442363256246268,
    "matchBtnName": "UI_ONLINE_MATCH_BUTTON_SINGLE",
    "matchBtnTips": "UI_ONLINE_AUTOMATCH_SINGLE",
    "requirementDescTextMapHash": 4098067777,
    "matchLimitReasonDescTextMapHash": 1443791360,
    "limitWarningDescTextMapHash": 2223407860,
    "inviteGuestDescTextMapHash": 2478497503,
    "inviteHostDescTextMapHash": 3944731234,
    "matchStartDesc": "UI_ONLINE_MATCH_TIP",
    "matchTitleTextMapHash": 2198166212,
    "matchSuccessDescTextMapHash": 1982250352,
    "NNMCBKHANGC": 677224526
  },
  {
    "matchId": 1004,
    "matchIconHash": 7479442363256246268,
    "matchBtnName": "UI_ONLINE_MATCH_BUTTON_SINGLE",
    "matchBtnTips": "UI_ONLINE_AUTOMATCH_SINGLE",
    "requirementDescTextMapHash": 1043780809,
    "matchLimitReasonDescTextMapHash": 1247883200,
    "limitWarningDescTextMapHash": 633702004,
    "inviteGuestDescTextMapHash": 3041103279,
    "inviteHostDescTextMapHash": 240390610,
    "matchStartDesc": "UI_ONLINE_MATCH_TIP",
    "matchTitleTextMapHash": 2622074348,
    "matchSuccessDescTextMapHash": 163157112,
    "NNMCBKHANGC": 4146544310
  },
  {
    "matchId": 1005,
    "matchIconHash": 2883116014885764205,
    "matchBtnName": "UI_ONLINE_MATCH_BUTTON_SINGLE",
    "matchBtnTips": "UI_ONLINE_AUTOMATCH_SINGLE",
    "requirementDescTextMapHash": 282069993,
    "matchLimitReasonDescTextMapHash": 4277136864,
    "limitWarningDescTextMapHash": 3722984092,
    "inviteGuestDescTextMapHash": 1800051343,
    "inviteHostDescTextMapHash": 4115536146,
    "matchStartDesc": "UI_ONLINE_MATCH_TIP",
    "matchTitleTextMapHash": 408084212,
    "matchSuccessDescTextMapHash": 897187624,
    "NNMCBKHANGC": 1446954998
  },
  {
    "matchId": 1006,
    "matchIconHash": 17366766719072818797,
    "matchBtnName": "UI_ONLINE_MATCH_BUTTON_SINGLE",
    "matchBtnTips": "UI_ONLINE_AUTOMATCH_SINGLE",
    "requirementDescTextMapHash": 544011673,
    "matchLimitReasonDescTextMapHash": 2949935840,
    "limitWarningDescTextMapHash": 3173229492,
    "inviteGuestDescTextMapHash": 3210790175,
    "inviteHostDescTextMapHash": 2994955362,
    "matchStartDesc": "UI_ONLINE_MATCH_TIP",
    "matchTitleTextMapHash": 1887758436,
    "matchSuccessDescTextMapHash": 349412744,
    "NNMCBKHANGC": 2265489166
  },
  {
    "matchId": 1007,
    "matchIconHash": 11707213720367908349,
    "matchBtnName": "UI_ONLINE_MATCH_BUTTON_SINGLE",
    "matchBtnTips": "UI_ONLINE_AUTOMATCH_SINGLE",
    "requirementDescTextMapHash": 3652897537,
    "matchLimitReasonDescTextMapHash": 171373992,
    "limitWarningDescTextMapHash": 2087105236,
    "inviteGuestDescTextMapHash": 3436651879,
    "inviteHostDescTextMapHash": 1190122418,
    "matchStartDesc": "UI_ONLINE_MATCH_TIP",
    "matchTitleTextMapHash": 587246052,
    "matchSuccessDescTextMapHash": 3198666128,
    "NNMCBKHANGC": 4097314038
  }
]
