[
  {
    "BCMOHBGGMOD": "DUNGEON_SUB_BOSS",
    "IOIILDAEIBE": true,
    "minLevel": 50,
    "AGHPDAGFGBD": 55,
    "LLMLEMBBHAE": 5
  },
  {
    "BCMOHBGGMOD": "DUNGEON_SUB_TALENT",
    "IOIILDAEIBE": true,
    "minLevel": 45,
    "AGHPDAGFGBD": 50,
    "LLMLEMBBHAE": 5
  },
  {
    "BCMOHBGGMOD": "DUNGEON_SUB_RELIQUARY",
    "IOIILDAEIBE": true,
    "minLevel": 45,
    "AGHPDAGFGBD": 50,
    "LLMLEMBBHAE": 5
  }
]
