[
  {
    "GGHOHGHJANF": 1,
    "NGGEFNONDKA": 898913422,
    "JBIACLIKKCG": 502698121,
    "PIFHDLGDKMP": ["30", "20", ""],
    "iconPath": "UI_Activity_MichiaeMatsuri_Buff_01",
    "materialId": 101693,
    "GOOMFFOPMNG": 1,
    "GHMDBJKKNLL": "SGV_MichiaeMatsuri_CrystalSkill_1"
  },
  {
    "GGHOHGHJANF": 2,
    "NGGEFNONDKA": 3986722446,
    "JBIACLIKKCG": 444618249,
    "PIFHDLGDKMP": ["25", "", ""],
    "iconPath": "UI_Activity_MichiaeMatsuri_Buff_02",
    "materialId": 101693,
    "GOOMFFOPMNG": 1,
    "GHMDBJKKNLL": "SGV_MichiaeMatsuri_CrystalSkill_2"
  },
  {
    "GGHOHGHJANF": 3,
    "NGGEFNONDKA": 1101168414,
    "JBIACLIKKCG": 3354851753,
    "PIFHDLGDKMP": ["30", "", ""],
    "iconPath": "UI_Activity_MichiaeMatsuri_Buff_03",
    "materialId": 101693,
    "GOOMFFOPMNG": 1,
    "GHMDBJKKNLL": "SGV_MichiaeMatsuri_CrystalSkill_3"
  },
  {
    "GGHOHGHJANF": 4,
    "NGGEFNONDKA": 1772757286,
    "JBIACLIKKCG": 2639596649,
    "PIFHDLGDKMP": ["15", "", ""],
    "iconPath": "UI_Activity_MichiaeMatsuri_Buff_04",
    "materialId": 101693,
    "GOOMFFOPMNG": 1,
    "GHMDBJKKNLL": "SGV_MichiaeMatsuri_CrystalSkill_4"
  },
  {
    "GGHOHGHJANF": 5,
    "NGGEFNONDKA": 3980700158,
    "JBIACLIKKCG": 1582779417,
    "PIFHDLGDKMP": ["100", "", ""],
    "iconPath": "UI_Activity_MichiaeMatsuri_Buff_05",
    "materialId": 101693,
    "GOOMFFOPMNG": 1,
    "GHMDBJKKNLL": "SGV_MichiaeMatsuri_CrystalSkill_5"
  },
  {
    "GGHOHGHJANF": 6,
    "NGGEFNONDKA": 1034463622,
    "JBIACLIKKCG": 2871046121,
    "PIFHDLGDKMP": ["15", "20", ""],
    "iconPath": "UI_Activity_MichiaeMatsuri_Buff_06",
    "materialId": 101693,
    "GOOMFFOPMNG": 1,
    "GHMDBJKKNLL": "SGV_MichiaeMatsuri_CrystalSkill_6"
  }
]
