[
  {
    "LGHAMPIBBIJ": 30069,
    "DLNBMHCPJDE": [0.0, 0.0, -1.0],
    "JHEMIHPJHCG": 180.0,
    "PIMGIPJICMA": 30076,
    "HEKODNLGKCG": 415,
    "IBCPBBJBJFN": 4090,
    "LBMAEGFLMGL": "MusicGameEvent2"
  },
  {
    "LGHAMPIBBIJ": 30070,
    "DLNBMHCPJDE": [0.0, 0.0, -1.0],
    "JHEMIHPJHCG": 180.0,
    "PIMGIPJICMA": 30077,
    "HEKODNLGKCG": 414,
    "IBCPBBJBJFN": 4090,
    "LBMAEGFLMGL": "MusicGameEvent2"
  },
  {
    "LGHAMPIBBIJ": 30071,
    "DLNBMHCPJDE": [0.0, 0.0, -1.0],
    "JHEMIHPJHCG": 180.0,
    "PIMGIPJICMA": 30078,
    "HEKODNLGKCG": 413,
    "IBCPBBJBJFN": 4090,
    "LBMAEGFLMGL": "MusicGameEvent2"
  },
  {
    "LGHAMPIBBIJ": 30072,
    "DLNBMHCPJDE": [0.0, 0.0, -1.0],
    "JHEMIHPJHCG": 180.0,
    "PIMGIPJICMA": 30079,
    "HEKODNLGKCG": 412,
    "IBCPBBJBJFN": 4090,
    "LBMAEGFLMGL": "MusicGameEvent2"
  },
  {
    "LGHAMPIBBIJ": 30073,
    "DLNBMHCPJDE": [0.0, 0.0, -1.0],
    "JHEMIHPJHCG": 180.0,
    "PIMGIPJICMA": 30081,
    "HEKODNLGKCG": 411,
    "IBCPBBJBJFN": 4090,
    "LBMAEGFLMGL": "MusicGameEvent2"
  },
  {
    "LGHAMPIBBIJ": 30074,
    "DLNBMHCPJDE": [0.0, 0.0, -1.0],
    "JHEMIHPJHCG": 180.0,
    "PIMGIPJICMA": 30082,
    "HEKODNLGKCG": 410,
    "IBCPBBJBJFN": 4090,
    "LBMAEGFLMGL": "MusicGameEvent2"
  },
  {
    "LGHAMPIBBIJ": 30075,
    "DLNBMHCPJDE": [0.0, 0.0, -1.0],
    "JHEMIHPJHCG": 180.0,
    "PIMGIPJICMA": 30080,
    "HEKODNLGKCG": 409,
    "IBCPBBJBJFN": 4090,
    "LBMAEGFLMGL": "MusicGameEvent2"
  },
  {
    "LGHAMPIBBIJ": 30076,
    "DLNBMHCPJDE": [],
    "LBMAEGFLMGL": "MusicGameEvent3"
  },
  {
    "LGHAMPIBBIJ": 30046,
    "DLNBMHCPJDE": [],
    "LBMAEGFLMGL": "MusicGameEvent4"
  }
]
