[
  {
    "id": 5072,
    "KBMPKKPECHJ": [-400.0, 400.0, 10.0],
    "GBPPLEBNIBE": [0.75, 2.0, 0.25],
    "LKGOHNJHFNA": [0.0, 100.0, 0.0],
    "NKNHEIIBGNJ": [-100.0, 100.0],
    "DGMHHBFCOMM": [-200.0, 200.0],
    "KBMEEIJKABL": 100,
    "GJEABMNBIOK": 400,
    "FFFGAPPAPAC": 4,
    "DKOJEJBLEHP": 2,
    "DGCFNDNCABG": 15,
    "AKDDJJAOJJI": 50,
    "EHDMMENOEEL": 500,
    "FCOJNPHDPFA": [2.0, 50.0],
    "DJDHAODHCLB": 1.0,
    "NABIMMBAIEJ": [60.0, 90.0, 100.0],
    "CPJEPGPHKJO": 90,
    "PKDGBDJOJOB": 3.0,
    "JIGNPAMCNGH": 1.0,
    "NMDDLPOPIGJ": 50,
    "AJEBGDPAHPF": [1500.0, 500.0],
    "PGGCFDJKMEL": [1000.0, 250.0],
    "OLGOAPPNBAB": [1800.0, 2400.0],
    "EAGAEKGDCJB": [900.0, 450.0],
    "ANCFPPAIOMN": 4,
    "LIDHNAMHNLK": [11032, 11033, 11034, 11035, 11040, 11041, 11042],
    "ABJLHPJMGEJ": [50, 100],
    "KMKPELBIIOD": [11037, 11038, 11039],
    "PBKALPHBGOA": [0.5, 1.0, 15.0],
    "IMJAGFIMPEO": [1.0, 0.75, 0.5],
    "OCAIIFGDBKK": [11042]
  },
  {
    "id": 2020,
    "KBMPKKPECHJ": [-400.0, 400.0, 10.0],
    "GBPPLEBNIBE": [0.75, 2.0, 0.25],
    "LKGOHNJHFNA": [0.0, 100.0, 0.0],
    "NKNHEIIBGNJ": [-100.0, 100.0],
    "DGMHHBFCOMM": [-200.0, 200.0],
    "KBMEEIJKABL": 150,
    "GJEABMNBIOK": 400,
    "FFFGAPPAPAC": 4,
    "DKOJEJBLEHP": 50,
    "DGCFNDNCABG": 15,
    "AKDDJJAOJJI": 50,
    "EHDMMENOEEL": 1200,
    "FCOJNPHDPFA": [2.0, 50.0],
    "DJDHAODHCLB": 1.0,
    "NABIMMBAIEJ": [60.0, 90.0, 100.0],
    "CPJEPGPHKJO": 90,
    "PKDGBDJOJOB": 5.0,
    "NMDDLPOPIGJ": 50,
    "AJEBGDPAHPF": [1500.0, 500.0],
    "PGGCFDJKMEL": [1000.0, 250.0],
    "OLGOAPPNBAB": [1800.0, 2400.0],
    "EAGAEKGDCJB": [900.0, 450.0],
    "ANCFPPAIOMN": 4,
    "LIDHNAMHNLK": [6115, 6116, 6117, 6118, 6110, 6111, 6112],
    "ABJLHPJMGEJ": [50, 100],
    "KMKPELBIIOD": [6107, 6108, 6109],
    "PBKALPHBGOA": [0.5, 1.0, 15.0],
    "IMJAGFIMPEO": [1.0, 0.75, 0.5],
    "OCAIIFGDBKK": [6112]
  }
]
