[
  {
    "id": 1,
    "NDKJEKNPCAH": "QTEStep_Template_ClickChangeBar_202007"
  },
  {
    "id": 2,
    "NDKJEKNPCAH": "QTEStep_Template_ClickChangeBar_202008"
  },
  {
    "id": 3,
    "NDKJEKNPCAH": "QTEStep_TestCs_Button_Click"
  },
  {
    "id": 4,
    "NDKJEKNPCAH": "QTEStep_TestCs_Button_MultiClick"
  },
  {
    "id": 5,
    "NDKJEKNPCAH": "QTEStep_TestCs_Button_Direction"
  },
  {
    "id": 6,
    "NDKJEKNPCAH": "QTEStep_Template_Button_Click",
    "KCHJNLNCJJA": 7
  },
  {
    "id": 7,
    "NDKJEKNPCAH": "QTEStep_Template_Button_Direction",
    "KCHJNLNCJJA": 8
  },
  {
    "id": 8,
    "NDKJEKNPCAH": "QTEStep_Template_Button_MultiClick"
  }
]
