[
  {
    "id": 1,
    "GFLKIFOHGHA": "Oculus",
    "name": "\u98ce\u5143\u7d20\u7ed3\u6676\u96f7\u8fbe\u63d0\u793a",
    "radius": 80.0,
    "effectName": "Eff_UI_Mark_WindCrystal",
    "iconName": "UI_MarkWindCrystal",
    "audioName": "Play_ui_feedback_windCrystal_appear",
    "HFFBBJMDOCC": []
  },
  {
    "id": 2,
    "GFLKIFOHGHA": "Ore",
    "name": "\u77ff\u77f3\u96f7\u8fbe\u63d0\u793a",
    "radius": 160.0,
    "effectName": "",
    "iconName": "UI_MarkPoint_Ore",
    "audioName": "",
    "HFFBBJMDOCC": []
  },
  {
    "id": 3,
    "GFLKIFOHGHA": "HarvetGadget",
    "name": "\u91c7\u96c6\u7269\u96f7\u8fbe\u63d0\u793a",
    "radius": 160.0,
    "effectName": "",
    "iconName": "UI_MarkPoint_LocalItem",
    "audioName": "",
    "HFFBBJMDOCC": []
  },
  {
    "id": 4,
    "GFLKIFOHGHA": "SmallMeteorite",
    "name": "\u5c0f\u9668\u77f3\u96f7\u8fbe\u63d0\u793a",
    "radius": 160.0,
    "offsetRadius": 20.0,
    "areaRadius": 30.0,
    "effectName": "Eff_UI_Mark_WindCrystal",
    "iconName": "UI_MarkPoint_LocalItem",
    "audioName": "Play_ui_feedback_windCrystal_appear",
    "HFFBBJMDOCC": []
  },
  {
    "id": 5,
    "GFLKIFOHGHA": "General",
    "name": "\u7eef\u7ea2\u7389\u9ad3\u96f7\u8fbe\u63d0\u793a",
    "radius": 80.0,
    "effectName": "Eff_UI_Mark_WindCrystal",
    "iconName": "UI_MarkPoint_DulinsEssence",
    "audioName": "Play_ui_feedback_windCrystal_appear",
    "HFFBBJMDOCC": []
  },
  {
    "id": 6,
    "GFLKIFOHGHA": "General",
    "name": "\u8eb2\u732b\u732b\u80fd\u91cf\u7403\u96f7\u8fbe\u63d0\u793a",
    "radius": 160.0,
    "effectName": "",
    "iconName": "UI_MarkPoint_EnergyBall",
    "audioName": "",
    "HFFBBJMDOCC": []
  },
  {
    "id": 7,
    "GFLKIFOHGHA": "General",
    "name": "\u56de\u58f0\u6d77\u87ba\u96f7\u8fbe\u63d0\u793a",
    "radius": 160.0,
    "effectName": "Eff_UI_Mark_WindCrystal",
    "iconName": "UI_MarkPoint_EchoShell",
    "audioName": "Play_ui_feedback_windCrystal_appear",
    "HFFBBJMDOCC": []
  },
  {
    "id": 8,
    "GFLKIFOHGHA": "General",
    "name": "\u9010\u6708\u795e\u77b3\u96f7\u8fbe\u63d0\u793a",
    "radius": 80.0,
    "effectName": "Eff_UI_Mark_WindCrystal",
    "iconName": "UI_MarkPonint_LunaRiteMoonlitSigil",
    "audioName": "Play_ui_feedback_windCrystal_appear",
    "HFFBBJMDOCC": []
  },
  {
    "id": 9,
    "GFLKIFOHGHA": "ReginFeatherIntact",
    "name": "\u9e64\u89c2\u7fbd\u6bdb\u96f7\u8fbe\u63d0\u793a",
    "radius": 80.0,
    "NADHHKGFLKC": true,
    "effectName": "Eff_UI_Mark_WindCrystal",
    "iconName": "UI_MarkPoint_ReginFeatherIntact",
    "audioName": "Play_ui_feedback_windCrystal_appear",
    "HFFBBJMDOCC": []
  },
  {
    "id": 10,
    "GFLKIFOHGHA": "General",
    "name": "\u9e64\u89c2\u6816\u6728\u80fd\u91cf\u4f53\u96f7\u8fbe\u63d0\u793a",
    "radius": 80.0,
    "effectName": "Eff_UI_Mark_WindCrystal",
    "iconName": "UI_MarkPoint_ReginEnergyBall",
    "audioName": "Play_ui_feedback_windCrystal_appear",
    "HFFBBJMDOCC": []
  },
  {
    "id": 11,
    "GFLKIFOHGHA": "AbyssalisleHarvest",
    "name": "\u6e0a\u4e0b\u5bab\u6d3b\u52a8\u77ff\u77f3\u96f7\u8fbe\u63d0\u793a",
    "radius": 160.0,
    "effectName": "",
    "iconName": "UI_MarkPoint_Ore",
    "audioName": "",
    "HFFBBJMDOCC": []
  },
  {
    "id": 12,
    "GFLKIFOHGHA": "General",
    "name": "\u6d77\u706f\u8282\u7fa4\u7389\u9601\u788e\u7247\u7bb1\u5b50",
    "radius": 160.0,
    "effectName": "Eff_UI_Mark_WindCrystal",
    "iconName": "UI_MarkPoint_LanternRiteV2_Salvage_QunyugeDebris",
    "audioName": "",
    "HFFBBJMDOCC": []
  },
  {
    "id": 13,
    "GFLKIFOHGHA": "General",
    "name": "\u6e0a\u4e0b\u5bab\u952e\u7eb9",
    "radius": 80.0,
    "effectName": "Eff_UI_Mark_WindCrystal",
    "iconName": "UI_MarkPoint_Kagimon",
    "audioName": "Play_ui_feedback_windCrystal_appear",
    "HFFBBJMDOCC": []
  },
  {
    "id": 14,
    "GFLKIFOHGHA": "AbyssalislePlant",
    "name": "\u6e0a\u4e0b\u5bab\u6d3b\u52a8\u690d\u7269\u96f7\u8fbe\u63d0\u793a",
    "radius": 160.0,
    "effectName": "",
    "iconName": "UI_MarkPoint_LocalItem",
    "audioName": "",
    "HFFBBJMDOCC": []
  },
  {
    "id": 15,
    "GFLKIFOHGHA": "General",
    "name": "\u5929\u7a7a\u7ed3\u6676\u96f7\u8fbe\u63d0\u793a",
    "radius": 80.0,
    "effectName": "Eff_UI_Mark_WindCrystal",
    "iconName": "UI_MarkPoint_CelestiaSplinter",
    "audioName": "Play_ui_feedback_windCrystal_appear",
    "HFFBBJMDOCC": []
  },
  {
    "id": 16,
    "GFLKIFOHGHA": "General",
    "name": "\u8089\u9e3d\u5730\u57ce\u5165\u53e3",
    "radius": 160.0,
    "effectName": "Eff_UI_Mark_WindCrystal",
    "iconName": "UI_MarkPoint_RogueDiaryDungeon",
    "audioName": "",
    "HFFBBJMDOCC": []
  },
  {
    "id": 17,
    "GFLKIFOHGHA": "General",
    "name": "\u8327\u578b\u7a7a\u95f4",
    "radius": 160.0,
    "effectName": "Eff_UI_Mark_WindCrystal",
    "iconName": "UI_MarkPoint_RogueDiary",
    "audioName": "",
    "HFFBBJMDOCC": []
  },
  {
    "id": 18,
    "GFLKIFOHGHA": "ActivityTreasureHuntBall",
    "name": "\u5bfb\u5b9d\u4ed9\u7075\u80fd\u91cf\u7403\u96f7\u8fbe\u63d0\u793a",
    "radius": 160.0,
    "effectName": "Eff_UI_Mark_WindCrystal",
    "iconName": "UI_MarkPoint_TreasureHuntBall",
    "audioName": "",
    "MKHEHKACMBE": true,
    "HFFBBJMDOCC": []
  },
  {
    "id": 19,
    "GFLKIFOHGHA": "EchoShell",
    "name": "2.8\u56de\u58f0\u6d77\u87ba",
    "radius": 160.0,
    "effectName": "Eff_UI_Mark_WindCrystal",
    "iconName": "UI_MarkPoint_EchoShell",
    "audioName": "Play_ui_feedback_windCrystal_appear",
    "HFFBBJMDOCC": []
  },
  {
    "id": 20,
    "GFLKIFOHGHA": "General",
    "name": "\u672a\u7206\u53d1\u6b7b\u57df\u96f7\u8fbe\u63d0\u793a",
    "radius": 160.0,
    "effectName": "Eff_UI_Mark_WindCrystal",
    "iconName": "UI_MarkPoint_LensSmoke",
    "audioName": "",
    "HFFBBJMDOCC": []
  },
  {
    "id": 21,
    "GFLKIFOHGHA": "ActivityVintagePresent",
    "name": "3.1\u627e\u793c\u7269\u6d3b\u52a8\u96f7\u8fbe\u63d0\u793a",
    "radius": 30.0,
    "effectName": "Eff_UI_Mark_WindCrystal",
    "iconName": "UI_MarkPoint_Vintage1",
    "audioName": "",
    "HFFBBJMDOCC": []
  },
  {
    "id": 22,
    "GFLKIFOHGHA": "General",
    "name": "3.4\u7cbe\u7075\u53f0\u5ea7\u96f7\u8fbe\u63d0\u793a",
    "IOHLHMOAFME": true,
    "radius": 160.0,
    "effectName": "Eff_UI_Mark_WindCrystal",
    "iconName": "UI_MarkPoint_Refuge",
    "audioName": "",
    "HFFBBJMDOCC": []
  },
  {
    "id": 23,
    "GFLKIFOHGHA": "General",
    "name": "3.3\u77ed\u8ddd\u5bfb\u7269\u6c14\u7403\u63d0\u793a",
    "radius": 160.0,
    "effectName": "Eff_UI_Mark_WindCrystal",
    "iconName": "UI_MarkPoint_CoinCollect_01",
    "audioName": "",
    "HFFBBJMDOCC": []
  },
  {
    "id": 24,
    "GFLKIFOHGHA": "Oculus",
    "name": "3.6\u82b1\u7075\u80fd\u91cf\u7fbd\u6bdb-\u63a2\u7d22",
    "radius": 80.0,
    "effectName": "Eff_UI_Mark_WindCrystal",
    "iconName": "UI_MarkPoint_OfferingPari02",
    "audioName": "Play_ui_feedback_windCrystal_appear",
    "HFFBBJMDOCC": []
  },
  {
    "id": 25,
    "GFLKIFOHGHA": "Oculus",
    "name": "3.6\u82b1\u7075\u80fd\u91cf\u7fbd\u6bdb-\u4ea4\u4e92",
    "radius": 80.0,
    "effectName": "Eff_UI_Mark_WindCrystal",
    "iconName": "UI_MarkPoint_OfferingPari01",
    "audioName": "Play_ui_feedback_windCrystal_appear",
    "HFFBBJMDOCC": []
  },
  {
    "id": 26,
    "GFLKIFOHGHA": "General",
    "name": "3.6 \u4f9b\u5949\u76f8\u5173NPC\u5730\u56feMark",
    "radius": 80.0,
    "effectName": "Eff_UI_Mark_WindCrystal",
    "iconName": "UI_MarkPoint_OfferingPari02",
    "audioName": "Play_ui_feedback_windCrystal_appear",
    "HFFBBJMDOCC": []
  },
  {
    "id": 28,
    "GFLKIFOHGHA": "Oculus",
    "name": "3.6\u82b1\u7075\u80fd\u91cf\u7fbd\u6bdb-\u8ffd\u9010\u79fb\u52a8",
    "radius": 80.0,
    "NADHHKGFLKC": true,
    "effectName": "Eff_UI_Mark_WindCrystal",
    "iconName": "UI_MarkPoint_OfferingPari02",
    "audioName": "Play_ui_feedback_windCrystal_appear",
    "HFFBBJMDOCC": []
  }
]
