[
  {
    "id": 1,
    "dailyNum": 3,
    "ECPPGEMDKNI": 21,
    "privilegeType": [
      {
        "type": "REUNION_PRIVILEGE_TYPE_DUNGEON",
        "subType": "DUNGEON_DAILY_FIGHT"
      },
      {
        "type": "REUNION_PRIVILEGE_TYPE_BLOSSOM",
        "subType": "BLOSSOM_REFRESH_SCOIN;BLOSSOM_REFRESH_EXP"
      }
    ]
  }
]
