[
  {
    "id": 1,
    "dungeonId": 3017,
    "LDDDHCCLGPH": 1,
    "DMKJNMIAGIM": [3, 7, 11],
    "OKDMBBGOPOG": {},
    "DBOHHNAEDMH": [
      {
        "type": "ROGUE_CELL_TYPE_SPRING",
        "NGCBPNFENJJ": [2, 2]
      },
      {
        "NGCBPNFENJJ": []
      },
      {
        "NGCBPNFENJJ": []
      }
    ]
  },
  {
    "id": 2,
    "dungeonId": 3017,
    "LDDDHCCLGPH": 2,
    "DMKJNMIAGIM": [2, 3, 6, 7, 8, 10],
    "OKDMBBGOPOG": {},
    "DBOHHNAEDMH": [
      {
        "type": "ROGUE_CELL_TYPE_STORE",
        "NGCBPNFENJJ": [2, 2]
      },
      {
        "NGCBPNFENJJ": []
      },
      {
        "NGCBPNFENJJ": []
      }
    ]
  },
  {
    "id": 3,
    "dungeonId": 3017,
    "LDDDHCCLGPH": 3,
    "DMKJNMIAGIM": [2, 3, 5, 6, 8, 10, 11],
    "OKDMBBGOPOG": {},
    "DBOHHNAEDMH": [
      {
        "type": "ROGUE_CELL_TYPE_ELITE",
        "NGCBPNFENJJ": [3, 4]
      },
      {
        "NGCBPNFENJJ": []
      },
      {
        "NGCBPNFENJJ": []
      }
    ]
  },
  {
    "id": 4,
    "dungeonId": 3020,
    "LDDDHCCLGPH": 1,
    "DMKJNMIAGIM": [4, 5, 7, 9, 10],
    "OKDMBBGOPOG": {},
    "DBOHHNAEDMH": [
      {
        "type": "ROGUE_CELL_TYPE_SPRING",
        "NGCBPNFENJJ": [2, 2]
      },
      {
        "NGCBPNFENJJ": []
      },
      {
        "NGCBPNFENJJ": []
      }
    ]
  },
  {
    "id": 5,
    "dungeonId": 3020,
    "LDDDHCCLGPH": 2,
    "DMKJNMIAGIM": [3, 5, 7, 8, 9, 11],
    "OKDMBBGOPOG": {},
    "DBOHHNAEDMH": [
      {
        "type": "ROGUE_CELL_TYPE_STORE",
        "NGCBPNFENJJ": [2, 3]
      },
      {
        "NGCBPNFENJJ": []
      },
      {
        "NGCBPNFENJJ": []
      }
    ]
  },
  {
    "id": 6,
    "dungeonId": 3020,
    "LDDDHCCLGPH": 3,
    "DMKJNMIAGIM": [2, 3, 5, 7, 9, 10, 11],
    "OKDMBBGOPOG": {},
    "DBOHHNAEDMH": [
      {
        "type": "ROGUE_CELL_TYPE_ELITE",
        "NGCBPNFENJJ": [4, 4]
      },
      {
        "NGCBPNFENJJ": []
      },
      {
        "NGCBPNFENJJ": []
      }
    ]
  },
  {
    "id": 7,
    "dungeonId": 3018,
    "LDDDHCCLGPH": 1,
    "DMKJNMIAGIM": [5, 9],
    "OKDMBBGOPOG": {},
    "DBOHHNAEDMH": [
      {
        "type": "ROGUE_CELL_TYPE_SPRING",
        "NGCBPNFENJJ": [2, 2]
      },
      {
        "NGCBPNFENJJ": []
      },
      {
        "NGCBPNFENJJ": []
      }
    ]
  },
  {
    "id": 8,
    "dungeonId": 3018,
    "LDDDHCCLGPH": 2,
    "DMKJNMIAGIM": [2, 5, 10, 13],
    "OKDMBBGOPOG": {},
    "DBOHHNAEDMH": [
      {
        "type": "ROGUE_CELL_TYPE_STORE",
        "NGCBPNFENJJ": [2, 3]
      },
      {
        "NGCBPNFENJJ": []
      },
      {
        "NGCBPNFENJJ": []
      }
    ]
  },
  {
    "id": 9,
    "dungeonId": 3018,
    "LDDDHCCLGPH": 3,
    "DMKJNMIAGIM": [2, 3, 6, 8, 11, 13],
    "OKDMBBGOPOG": {},
    "DBOHHNAEDMH": [
      {
        "type": "ROGUE_CELL_TYPE_ELITE",
        "NGCBPNFENJJ": [3, 4]
      },
      {
        "NGCBPNFENJJ": []
      },
      {
        "NGCBPNFENJJ": []
      }
    ]
  },
  {
    "id": 10,
    "dungeonId": 3021,
    "LDDDHCCLGPH": 1,
    "DMKJNMIAGIM": [3, 10, 12],
    "OKDMBBGOPOG": {},
    "DBOHHNAEDMH": [
      {
        "type": "ROGUE_CELL_TYPE_SPRING",
        "NGCBPNFENJJ": [2, 2]
      },
      {
        "NGCBPNFENJJ": []
      },
      {
        "NGCBPNFENJJ": []
      }
    ]
  },
  {
    "id": 11,
    "dungeonId": 3021,
    "LDDDHCCLGPH": 2,
    "DMKJNMIAGIM": [7, 8, 11],
    "OKDMBBGOPOG": {},
    "DBOHHNAEDMH": [
      {
        "type": "ROGUE_CELL_TYPE_STORE",
        "NGCBPNFENJJ": [2, 2]
      },
      {
        "NGCBPNFENJJ": []
      },
      {
        "NGCBPNFENJJ": []
      }
    ]
  },
  {
    "id": 12,
    "dungeonId": 3021,
    "LDDDHCCLGPH": 3,
    "DMKJNMIAGIM": [4, 6, 7, 8, 9, 11, 12],
    "OKDMBBGOPOG": {},
    "DBOHHNAEDMH": [
      {
        "type": "ROGUE_CELL_TYPE_ELITE",
        "NGCBPNFENJJ": [3, 4]
      },
      {
        "NGCBPNFENJJ": []
      },
      {
        "NGCBPNFENJJ": []
      }
    ]
  },
  {
    "id": 13,
    "dungeonId": 3022,
    "LDDDHCCLGPH": 1,
    "DMKJNMIAGIM": [4, 6, 9, 12, 15],
    "OKDMBBGOPOG": {},
    "DBOHHNAEDMH": [
      {
        "type": "ROGUE_CELL_TYPE_SPRING",
        "NGCBPNFENJJ": [1, 2]
      },
      {
        "NGCBPNFENJJ": []
      },
      {
        "NGCBPNFENJJ": []
      }
    ]
  },
  {
    "id": 14,
    "dungeonId": 3022,
    "LDDDHCCLGPH": 2,
    "DMKJNMIAGIM": [4, 8, 9, 10, 5, 12, 11],
    "OKDMBBGOPOG": {},
    "DBOHHNAEDMH": [
      {
        "type": "ROGUE_CELL_TYPE_STORE",
        "NGCBPNFENJJ": [1, 3]
      },
      {
        "NGCBPNFENJJ": []
      },
      {
        "NGCBPNFENJJ": []
      }
    ]
  },
  {
    "id": 15,
    "dungeonId": 3022,
    "LDDDHCCLGPH": 3,
    "DMKJNMIAGIM": [4, 5, 6, 8, 9, 10, 11, 12, 15],
    "OKDMBBGOPOG": {},
    "DBOHHNAEDMH": [
      {
        "type": "ROGUE_CELL_TYPE_ELITE",
        "NGCBPNFENJJ": [4, 4]
      },
      {
        "NGCBPNFENJJ": []
      },
      {
        "NGCBPNFENJJ": []
      }
    ]
  },
  {
    "id": 16,
    "dungeonId": 3019,
    "LDDDHCCLGPH": 1,
    "DMKJNMIAGIM": [4, 6, 8, 11],
    "OKDMBBGOPOG": {},
    "DBOHHNAEDMH": [
      {
        "type": "ROGUE_CELL_TYPE_SPRING",
        "NGCBPNFENJJ": [1, 2]
      },
      {
        "NGCBPNFENJJ": []
      },
      {
        "NGCBPNFENJJ": []
      }
    ]
  },
  {
    "id": 17,
    "dungeonId": 3019,
    "LDDDHCCLGPH": 2,
    "DMKJNMIAGIM": [3, 4, 8, 9, 11, 13],
    "OKDMBBGOPOG": {},
    "DBOHHNAEDMH": [
      {
        "type": "ROGUE_CELL_TYPE_STORE",
        "NGCBPNFENJJ": [1, 2]
      },
      {
        "NGCBPNFENJJ": []
      },
      {
        "NGCBPNFENJJ": []
      }
    ]
  },
  {
    "id": 18,
    "dungeonId": 3019,
    "LDDDHCCLGPH": 3,
    "DMKJNMIAGIM": [5, 4, 6, 9, 10, 13, 11, 8],
    "OKDMBBGOPOG": {},
    "DBOHHNAEDMH": [
      {
        "type": "ROGUE_CELL_TYPE_ELITE",
        "NGCBPNFENJJ": [4, 4]
      },
      {
        "NGCBPNFENJJ": []
      },
      {
        "NGCBPNFENJJ": []
      }
    ]
  },
  {
    "id": 19,
    "dungeonId": 3023,
    "LDDDHCCLGPH": 1,
    "DMKJNMIAGIM": [10],
    "OKDMBBGOPOG": {},
    "DBOHHNAEDMH": [
      {
        "type": "ROGUE_CELL_TYPE_SPRING",
        "NGCBPNFENJJ": [1, 1]
      },
      {
        "NGCBPNFENJJ": []
      },
      {
        "NGCBPNFENJJ": []
      }
    ]
  },
  {
    "id": 20,
    "dungeonId": 3023,
    "LDDDHCCLGPH": 2,
    "DMKJNMIAGIM": [6, 16],
    "OKDMBBGOPOG": {},
    "DBOHHNAEDMH": [
      {
        "type": "ROGUE_CELL_TYPE_STORE",
        "NGCBPNFENJJ": [1, 1]
      },
      {
        "NGCBPNFENJJ": []
      },
      {
        "NGCBPNFENJJ": []
      }
    ]
  },
  {
    "id": 21,
    "dungeonId": 3023,
    "LDDDHCCLGPH": 3,
    "DMKJNMIAGIM": [4, 10],
    "OKDMBBGOPOG": {},
    "DBOHHNAEDMH": [
      {
        "type": "ROGUE_CELL_TYPE_SPRING",
        "NGCBPNFENJJ": [1, 2]
      },
      {
        "NGCBPNFENJJ": []
      },
      {
        "NGCBPNFENJJ": []
      }
    ]
  },
  {
    "id": 22,
    "dungeonId": 3023,
    "LDDDHCCLGPH": 4,
    "DMKJNMIAGIM": [4, 18],
    "OKDMBBGOPOG": {},
    "DBOHHNAEDMH": [
      {
        "type": "ROGUE_CELL_TYPE_STORE",
        "NGCBPNFENJJ": [1, 1]
      },
      {
        "NGCBPNFENJJ": []
      },
      {
        "NGCBPNFENJJ": []
      }
    ]
  },
  {
    "id": 23,
    "dungeonId": 3023,
    "LDDDHCCLGPH": 5,
    "DMKJNMIAGIM": [3, 5, 15, 17],
    "OKDMBBGOPOG": {},
    "DBOHHNAEDMH": [
      {
        "type": "ROGUE_CELL_TYPE_ELITE",
        "NGCBPNFENJJ": [3, 4]
      },
      {
        "NGCBPNFENJJ": []
      },
      {
        "NGCBPNFENJJ": []
      }
    ]
  },
  {
    "id": 24,
    "dungeonId": 3024,
    "LDDDHCCLGPH": 1,
    "DMKJNMIAGIM": [9, 13],
    "OKDMBBGOPOG": {},
    "DBOHHNAEDMH": [
      {
        "type": "ROGUE_CELL_TYPE_SPRING",
        "NGCBPNFENJJ": [2, 2]
      },
      {
        "NGCBPNFENJJ": []
      },
      {
        "NGCBPNFENJJ": []
      }
    ]
  },
  {
    "id": 25,
    "dungeonId": 3024,
    "LDDDHCCLGPH": 2,
    "DMKJNMIAGIM": [3, 11, 15, 17],
    "OKDMBBGOPOG": {},
    "DBOHHNAEDMH": [
      {
        "type": "ROGUE_CELL_TYPE_STORE",
        "NGCBPNFENJJ": [2, 2]
      },
      {
        "NGCBPNFENJJ": []
      },
      {
        "NGCBPNFENJJ": []
      }
    ]
  },
  {
    "id": 26,
    "dungeonId": 3024,
    "LDDDHCCLGPH": 3,
    "DMKJNMIAGIM": [3, 8, 11, 14, 15, 17],
    "OKDMBBGOPOG": {},
    "DBOHHNAEDMH": [
      {
        "type": "ROGUE_CELL_TYPE_ELITE",
        "NGCBPNFENJJ": [4, 4]
      },
      {
        "NGCBPNFENJJ": []
      },
      {
        "NGCBPNFENJJ": []
      }
    ]
  },
  {
    "id": 27,
    "dungeonId": 3025,
    "LDDDHCCLGPH": 1,
    "DMKJNMIAGIM": [9, 10],
    "OKDMBBGOPOG": {},
    "DBOHHNAEDMH": [
      {
        "type": "ROGUE_CELL_TYPE_SPRING",
        "NGCBPNFENJJ": [1, 1]
      },
      {
        "NGCBPNFENJJ": []
      },
      {
        "NGCBPNFENJJ": []
      }
    ]
  },
  {
    "id": 28,
    "dungeonId": 3025,
    "LDDDHCCLGPH": 2,
    "DMKJNMIAGIM": [4, 2],
    "OKDMBBGOPOG": {},
    "DBOHHNAEDMH": [
      {
        "type": "ROGUE_CELL_TYPE_SPRING",
        "NGCBPNFENJJ": [1, 1]
      },
      {
        "NGCBPNFENJJ": []
      },
      {
        "NGCBPNFENJJ": []
      }
    ]
  },
  {
    "id": 29,
    "dungeonId": 3025,
    "LDDDHCCLGPH": 3,
    "DMKJNMIAGIM": [2, 10],
    "OKDMBBGOPOG": {},
    "DBOHHNAEDMH": [
      {
        "type": "ROGUE_CELL_TYPE_STORE",
        "NGCBPNFENJJ": [1, 1]
      },
      {
        "NGCBPNFENJJ": []
      },
      {
        "NGCBPNFENJJ": []
      }
    ]
  },
  {
    "id": 30,
    "dungeonId": 3025,
    "LDDDHCCLGPH": 4,
    "DMKJNMIAGIM": [4, 9],
    "OKDMBBGOPOG": {},
    "DBOHHNAEDMH": [
      {
        "type": "ROGUE_CELL_TYPE_STORE",
        "NGCBPNFENJJ": [1, 1]
      },
      {
        "NGCBPNFENJJ": []
      },
      {
        "NGCBPNFENJJ": []
      }
    ]
  },
  {
    "id": 31,
    "dungeonId": 3025,
    "LDDDHCCLGPH": 5,
    "DMKJNMIAGIM": [1, 2, 5, 6, 7, 8, 10, 11],
    "OKDMBBGOPOG": {},
    "DBOHHNAEDMH": [
      {
        "type": "ROGUE_CELL_TYPE_ELITE",
        "NGCBPNFENJJ": [7, 7]
      },
      {
        "NGCBPNFENJJ": []
      },
      {
        "NGCBPNFENJJ": []
      }
    ]
  },
  {
    "id": 32,
    "dungeonId": 3026,
    "LDDDHCCLGPH": 1,
    "DMKJNMIAGIM": [5, 11, 16],
    "OKDMBBGOPOG": {},
    "DBOHHNAEDMH": [
      {
        "type": "ROGUE_CELL_TYPE_SPRING",
        "NGCBPNFENJJ": [2, 2]
      },
      {
        "NGCBPNFENJJ": []
      },
      {
        "NGCBPNFENJJ": []
      }
    ]
  },
  {
    "id": 33,
    "dungeonId": 3026,
    "LDDDHCCLGPH": 2,
    "DMKJNMIAGIM": [5, 6, 11, 12],
    "OKDMBBGOPOG": {},
    "DBOHHNAEDMH": [
      {
        "type": "ROGUE_CELL_TYPE_STORE",
        "NGCBPNFENJJ": [2, 2]
      },
      {
        "NGCBPNFENJJ": []
      },
      {
        "NGCBPNFENJJ": []
      }
    ]
  },
  {
    "id": 34,
    "dungeonId": 3026,
    "LDDDHCCLGPH": 3,
    "DMKJNMIAGIM": [3, 4, 7, 8, 10, 13, 15, 16],
    "OKDMBBGOPOG": {},
    "DBOHHNAEDMH": [
      {
        "type": "ROGUE_CELL_TYPE_ELITE",
        "NGCBPNFENJJ": [7, 7]
      },
      {
        "NGCBPNFENJJ": []
      },
      {
        "NGCBPNFENJJ": []
      }
    ]
  }
]
