[
  {
    "id": 1,
    "questId": 7369701,
    "PPJHDPOOFHN": 3866621305,
    "BJDGNKMKHGD": 2563757057,
    "condID": 5132001
  },
  {
    "id": 2,
    "questId": 7369706,
    "PPJHDPOOFHN": 3311010729,
    "BJDGNKMKHGD": 2147345457,
    "condID": 5132004
  },
  {
    "id": 3,
    "questId": 7369801,
    "PPJHDPOOFHN": 1554548681,
    "BJDGNKMKHGD": 3308603985,
    "condID": 5132005
  },
  {
    "id": 4,
    "questId": 7369806,
    "PPJHDPOOFHN": 1195535073,
    "BJDGNKMKHGD": 3739509777,
    "condID": 5132008
  },
  {
    "id": 5,
    "questId": 7369901,
    "PPJHDPOOFHN": 3560884073,
    "BJDGNKMKHGD": 544062609,
    "condID": 5132009
  },
  {
    "id": 6,
    "questId": 7369906,
    "PPJHDPOOFHN": 1980521953,
    "BJDGNKMKHGD": 3652416025,
    "condID": 5132012
  },
  {
    "id": 7,
    "questId": 7370001,
    "PPJHDPOOFHN": 1523729585,
    "BJDGNKMKHGD": 816306649,
    "condID": 5132013
  },
  {
    "id": 8,
    "questId": 7370006,
    "PPJHDPOOFHN": 2022932993,
    "BJDGNKMKHGD": 4238192897,
    "condID": 5132016
  },
  {
    "id": 9,
    "questId": 7370101,
    "PPJHDPOOFHN": 2033095609,
    "BJDGNKMKHGD": 1889677441,
    "condID": 5132017
  },
  {
    "id": 10,
    "questId": 7370106,
    "PPJHDPOOFHN": 2487772017,
    "BJDGNKMKHGD": 3217472057,
    "condID": 5132020
  },
  {
    "id": 11,
    "questId": 7370201,
    "PPJHDPOOFHN": 3035922833,
    "BJDGNKMKHGD": 3986295057,
    "condID": 5132021
  },
  {
    "id": 12,
    "questId": 7370206,
    "PPJHDPOOFHN": 2335783817,
    "BJDGNKMKHGD": 763698801,
    "condID": 5132024
  }
]
