[
  {
    "id": 1,
    "OBFKDAFJJPN": [
      {
        "JGNFODNAMEO": [0.5, 0.5, 0.5],
        "GNJOEFIBHFE": 101,
        "JEEAJMEPHDD": 1.5,
        "EOPHJLLMHPK": 1500,
        "PHODGPEAPEF": 0.5
      },
      {
        "JGNFODNAMEO": [0.5, 0.5, 0.5],
        "GNJOEFIBHFE": 201,
        "JEEAJMEPHDD": 1.5,
        "PHODGPEAPEF": 0.5
      },
      {
        "JGNFODNAMEO": [0.5, 0.5, 0.5],
        "GNJOEFIBHFE": 301,
        "JEEAJMEPHDD": 1.5,
        "PHODGPEAPEF": 0.5
      }
    ]
  },
  {
    "id": 2,
    "OBFKDAFJJPN": [
      {
        "JGNFODNAMEO": [0.5, 0.5, 0.5],
        "GNJOEFIBHFE": 102,
        "JEEAJMEPHDD": 1.5,
        "EOPHJLLMHPK": 1500,
        "PHODGPEAPEF": 0.5
      },
      {
        "JGNFODNAMEO": [0.5, 0.5, 0.5],
        "GNJOEFIBHFE": 201,
        "JEEAJMEPHDD": 1.5,
        "PHODGPEAPEF": 0.5
      },
      {
        "JGNFODNAMEO": [0.5, 0.5, 0.5],
        "GNJOEFIBHFE": 301,
        "JEEAJMEPHDD": 1.5,
        "PHODGPEAPEF": 0.5
      }
    ]
  },
  {
    "id": 3,
    "OBFKDAFJJPN": [
      {
        "JGNFODNAMEO": [0.5, 0.5, 0.5],
        "GNJOEFIBHFE": 110,
        "JEEAJMEPHDD": 1.5,
        "EOPHJLLMHPK": 1500,
        "PHODGPEAPEF": 0.5
      },
      {
        "JGNFODNAMEO": [0.5, 0.5, 0.5],
        "GNJOEFIBHFE": 201,
        "JEEAJMEPHDD": 1.5,
        "PHODGPEAPEF": 0.5
      },
      {
        "JGNFODNAMEO": [0.5, 0.5, 0.5],
        "GNJOEFIBHFE": 301,
        "JEEAJMEPHDD": 1.5,
        "PHODGPEAPEF": 0.5
      }
    ]
  },
  {
    "id": 4,
    "OBFKDAFJJPN": [
      {
        "JGNFODNAMEO": [0.5, 0.5, 0.5],
        "GNJOEFIBHFE": 110,
        "JEEAJMEPHDD": 1.5,
        "EOPHJLLMHPK": 1500,
        "PHODGPEAPEF": 0.5
      },
      {
        "JGNFODNAMEO": [0.5, 0.5, 0.5],
        "GNJOEFIBHFE": 201,
        "JEEAJMEPHDD": 1.5,
        "PHODGPEAPEF": 0.5
      },
      {
        "JGNFODNAMEO": [0.5, 0.5, 0.5],
        "GNJOEFIBHFE": 301,
        "JEEAJMEPHDD": 1.5,
        "PHODGPEAPEF": 0.5
      }
    ]
  },
  {
    "id": 5,
    "OBFKDAFJJPN": [
      {
        "JGNFODNAMEO": [0.5, 0.5, 0.5],
        "GNJOEFIBHFE": 120,
        "JEEAJMEPHDD": 1.5,
        "EOPHJLLMHPK": 1500,
        "PHODGPEAPEF": 0.5
      },
      {
        "JGNFODNAMEO": [0.5, 0.5, 0.5],
        "GNJOEFIBHFE": 201,
        "JEEAJMEPHDD": 1.5,
        "PHODGPEAPEF": 0.5
      },
      {
        "JGNFODNAMEO": [0.5, 0.5, 0.5],
        "GNJOEFIBHFE": 301,
        "JEEAJMEPHDD": 1.5,
        "PHODGPEAPEF": 0.5
      }
    ]
  },
  {
    "id": 6,
    "OBFKDAFJJPN": [
      {
        "JGNFODNAMEO": [0.5, 0.5, 0.5],
        "GNJOEFIBHFE": 103,
        "JEEAJMEPHDD": 1.5,
        "EOPHJLLMHPK": 1500,
        "PHODGPEAPEF": 0.5
      },
      {
        "JGNFODNAMEO": [0.5, 0.5, 0.5],
        "GNJOEFIBHFE": 201,
        "JEEAJMEPHDD": 1.5,
        "PHODGPEAPEF": 0.5
      },
      {
        "JGNFODNAMEO": [0.5, 0.5, 0.5],
        "GNJOEFIBHFE": 301,
        "JEEAJMEPHDD": 1.5,
        "PHODGPEAPEF": 0.5
      }
    ]
  },
  {
    "id": 7,
    "OBFKDAFJJPN": [
      {
        "JGNFODNAMEO": [0.5, 0.5, 0.5],
        "GNJOEFIBHFE": 110,
        "JEEAJMEPHDD": 1.5,
        "EOPHJLLMHPK": 1500,
        "PHODGPEAPEF": 0.5
      },
      {
        "JGNFODNAMEO": [0.5, 0.5, 0.5],
        "GNJOEFIBHFE": 201,
        "JEEAJMEPHDD": 1.5,
        "PHODGPEAPEF": 0.5
      },
      {
        "JGNFODNAMEO": [0.5, 0.5, 0.5],
        "GNJOEFIBHFE": 301,
        "JEEAJMEPHDD": 1.5,
        "PHODGPEAPEF": 0.5
      }
    ]
  },
  {
    "id": 8,
    "OBFKDAFJJPN": [
      {
        "JGNFODNAMEO": [0.5, 0.5, 0.5],
        "GNJOEFIBHFE": 130,
        "JEEAJMEPHDD": 1.5,
        "EOPHJLLMHPK": 1500,
        "PHODGPEAPEF": 0.5
      },
      {
        "JGNFODNAMEO": [0.5, 0.5, 0.5],
        "GNJOEFIBHFE": 201,
        "JEEAJMEPHDD": 1.5,
        "PHODGPEAPEF": 0.5
      },
      {
        "JGNFODNAMEO": [0.5, 0.5, 0.5],
        "GNJOEFIBHFE": 301,
        "JEEAJMEPHDD": 1.5,
        "PHODGPEAPEF": 0.5
      }
    ]
  },
  {
    "id": 9,
    "OBFKDAFJJPN": [
      {
        "JGNFODNAMEO": [0.5, 0.5, 0.5],
        "GNJOEFIBHFE": 104,
        "JEEAJMEPHDD": 1.5,
        "EOPHJLLMHPK": 1500,
        "PHODGPEAPEF": 0.5
      },
      {
        "JGNFODNAMEO": [0.5, 0.5, 0.5],
        "GNJOEFIBHFE": 201,
        "JEEAJMEPHDD": 1.5,
        "PHODGPEAPEF": 0.5
      },
      {
        "JGNFODNAMEO": [0.5, 0.5, 0.5],
        "GNJOEFIBHFE": 301,
        "JEEAJMEPHDD": 1.5,
        "PHODGPEAPEF": 0.5
      }
    ]
  },
  {
    "id": 10,
    "OBFKDAFJJPN": [
      {
        "JGNFODNAMEO": [0.5, 0.5, 0.5],
        "GNJOEFIBHFE": 105,
        "JEEAJMEPHDD": 1.5,
        "EOPHJLLMHPK": 1500,
        "PHODGPEAPEF": 0.5
      },
      {
        "JGNFODNAMEO": [0.5, 0.5, 0.5],
        "GNJOEFIBHFE": 201,
        "JEEAJMEPHDD": 1.5,
        "PHODGPEAPEF": 0.5
      },
      {
        "JGNFODNAMEO": [0.5, 0.5, 0.5],
        "GNJOEFIBHFE": 301,
        "JEEAJMEPHDD": 1.5,
        "PHODGPEAPEF": 0.5
      }
    ]
  },
  {
    "id": 11,
    "OBFKDAFJJPN": [
      {
        "JGNFODNAMEO": [0.5, 0.5, 0.5],
        "GNJOEFIBHFE": 105,
        "JEEAJMEPHDD": 1.5,
        "EOPHJLLMHPK": 1500,
        "PHODGPEAPEF": 0.5
      },
      {
        "JGNFODNAMEO": [0.5, 0.5, 0.5],
        "GNJOEFIBHFE": 201,
        "JEEAJMEPHDD": 1.5,
        "PHODGPEAPEF": 0.5
      },
      {
        "JGNFODNAMEO": [0.5, 0.5, 0.5],
        "GNJOEFIBHFE": 301,
        "JEEAJMEPHDD": 1.5,
        "PHODGPEAPEF": 0.5
      }
    ]
  },
  {
    "id": 12,
    "OBFKDAFJJPN": [
      {
        "JGNFODNAMEO": [0.5, 0.5, 0.5],
        "GNJOEFIBHFE": 105,
        "JEEAJMEPHDD": 1.5,
        "EOPHJLLMHPK": 1500,
        "PHODGPEAPEF": 0.5
      },
      {
        "JGNFODNAMEO": [0.5, 0.5, 0.5],
        "GNJOEFIBHFE": 210,
        "JEEAJMEPHDD": 1.5,
        "PHODGPEAPEF": 0.5
      },
      {
        "JGNFODNAMEO": [0.5, 0.5, 0.5],
        "GNJOEFIBHFE": 305,
        "JEEAJMEPHDD": 1.5,
        "PHODGPEAPEF": 0.5
      }
    ]
  },
  {
    "id": 13,
    "OBFKDAFJJPN": [
      {
        "JGNFODNAMEO": [0.5, 0.5, 0.5],
        "GNJOEFIBHFE": 105,
        "JEEAJMEPHDD": 1.5,
        "EOPHJLLMHPK": 1500,
        "PHODGPEAPEF": 0.5
      },
      {
        "JGNFODNAMEO": [0.5, 0.5, 0.5],
        "GNJOEFIBHFE": 205,
        "JEEAJMEPHDD": 1.5,
        "PHODGPEAPEF": 0.5
      },
      {
        "JGNFODNAMEO": [0.5, 0.5, 0.5],
        "GNJOEFIBHFE": 310,
        "JEEAJMEPHDD": 1.5,
        "PHODGPEAPEF": 0.5
      }
    ]
  },
  {
    "id": 14,
    "OBFKDAFJJPN": [
      {
        "JGNFODNAMEO": [0.5, 0.5, 0.5],
        "GNJOEFIBHFE": 105,
        "JEEAJMEPHDD": 1.5,
        "EOPHJLLMHPK": 1500,
        "PHODGPEAPEF": 0.5
      },
      {
        "JGNFODNAMEO": [0.5, 0.5, 0.5],
        "GNJOEFIBHFE": 210,
        "JEEAJMEPHDD": 1.5,
        "PHODGPEAPEF": 0.5
      },
      {
        "JGNFODNAMEO": [0.5, 0.5, 0.5],
        "GNJOEFIBHFE": 305,
        "JEEAJMEPHDD": 1.5,
        "PHODGPEAPEF": 0.5
      }
    ]
  },
  {
    "id": 15,
    "OBFKDAFJJPN": [
      {
        "JGNFODNAMEO": [0.5, 0.5, 0.5],
        "GNJOEFIBHFE": 105,
        "JEEAJMEPHDD": 1.5,
        "EOPHJLLMHPK": 1500,
        "PHODGPEAPEF": 0.5
      },
      {
        "JGNFODNAMEO": [0.5, 0.5, 0.5],
        "GNJOEFIBHFE": 220,
        "JEEAJMEPHDD": 1.5,
        "PHODGPEAPEF": 0.5
      },
      {
        "JGNFODNAMEO": [0.5, 0.5, 0.5],
        "GNJOEFIBHFE": 320,
        "JEEAJMEPHDD": 1.5,
        "PHODGPEAPEF": 0.5
      }
    ]
  },
  {
    "id": 16,
    "OBFKDAFJJPN": [
      {
        "JGNFODNAMEO": [0.5, 0.5, 0.5],
        "GNJOEFIBHFE": 105,
        "JEEAJMEPHDD": 1.5,
        "EOPHJLLMHPK": 1500,
        "PHODGPEAPEF": 0.5
      },
      {
        "JGNFODNAMEO": [0.5, 0.5, 0.5],
        "GNJOEFIBHFE": 205,
        "JEEAJMEPHDD": 1.5,
        "PHODGPEAPEF": 0.5
      },
      {
        "JGNFODNAMEO": [0.5, 0.5, 0.5],
        "GNJOEFIBHFE": 310,
        "JEEAJMEPHDD": 1.5,
        "PHODGPEAPEF": 0.5
      }
    ]
  },
  {
    "id": 17,
    "OBFKDAFJJPN": [
      {
        "JGNFODNAMEO": [0.5, 0.5, 0.5],
        "GNJOEFIBHFE": 105,
        "JEEAJMEPHDD": 1.5,
        "EOPHJLLMHPK": 1500,
        "PHODGPEAPEF": 0.5
      },
      {
        "JGNFODNAMEO": [0.5, 0.5, 0.5],
        "GNJOEFIBHFE": 210,
        "JEEAJMEPHDD": 1.5,
        "PHODGPEAPEF": 0.5
      },
      {
        "JGNFODNAMEO": [0.5, 0.5, 0.5],
        "GNJOEFIBHFE": 305,
        "JEEAJMEPHDD": 1.5,
        "PHODGPEAPEF": 0.5
      }
    ]
  },
  {
    "id": 18,
    "OBFKDAFJJPN": [
      {
        "JGNFODNAMEO": [0.5, 0.5, 0.5],
        "GNJOEFIBHFE": 140,
        "JEEAJMEPHDD": 1.5,
        "EOPHJLLMHPK": 1500,
        "PHODGPEAPEF": 0.5
      },
      {
        "JGNFODNAMEO": [0.5, 0.5, 0.5],
        "GNJOEFIBHFE": 230,
        "JEEAJMEPHDD": 1.5,
        "PHODGPEAPEF": 0.5
      },
      {
        "JGNFODNAMEO": [0.5, 0.5, 0.5],
        "GNJOEFIBHFE": 330,
        "JEEAJMEPHDD": 1.5,
        "PHODGPEAPEF": 0.5
      }
    ]
  },
  {
    "id": 19,
    "OBFKDAFJJPN": [
      {
        "JGNFODNAMEO": [0.5, 0.5, 0.5],
        "GNJOEFIBHFE": 105,
        "JEEAJMEPHDD": 1.5,
        "EOPHJLLMHPK": 1500,
        "PHODGPEAPEF": 0.5
      },
      {
        "JGNFODNAMEO": [0.5, 0.5, 0.5],
        "GNJOEFIBHFE": 205,
        "JEEAJMEPHDD": 1.5,
        "PHODGPEAPEF": 0.5
      },
      {
        "JGNFODNAMEO": [0.5, 0.5, 0.5],
        "GNJOEFIBHFE": 305,
        "JEEAJMEPHDD": 1.5,
        "PHODGPEAPEF": 0.5
      }
    ]
  },
  {
    "id": 20,
    "OBFKDAFJJPN": [
      {
        "JGNFODNAMEO": [0.5, 0.5, 0.5],
        "GNJOEFIBHFE": 105,
        "JEEAJMEPHDD": 1.5,
        "EOPHJLLMHPK": 1500,
        "PHODGPEAPEF": 0.5
      },
      {
        "JGNFODNAMEO": [0.5, 0.5, 0.5],
        "GNJOEFIBHFE": 205,
        "JEEAJMEPHDD": 1.5,
        "PHODGPEAPEF": 0.5
      },
      {
        "JGNFODNAMEO": [0.5, 0.5, 0.5],
        "GNJOEFIBHFE": 305,
        "JEEAJMEPHDD": 1.5,
        "PHODGPEAPEF": 0.5
      }
    ]
  },
  {
    "id": 21,
    "OBFKDAFJJPN": [
      {
        "JGNFODNAMEO": [0.5, 0.5, 0.5],
        "GNJOEFIBHFE": 106,
        "JEEAJMEPHDD": 1.5,
        "EOPHJLLMHPK": 10000,
        "PHODGPEAPEF": 0.5
      },
      {
        "JGNFODNAMEO": [0.5, 0.5, 0.5],
        "GNJOEFIBHFE": 206,
        "JEEAJMEPHDD": 1.5,
        "PHODGPEAPEF": 0.5
      },
      {
        "JGNFODNAMEO": [0.5, 0.5, 0.5],
        "GNJOEFIBHFE": 306,
        "JEEAJMEPHDD": 1.5,
        "PHODGPEAPEF": 0.5
      }
    ]
  },
  {
    "id": 22,
    "OBFKDAFJJPN": [
      {
        "JGNFODNAMEO": [0.5, 0.5, 0.5],
        "GNJOEFIBHFE": 106,
        "JEEAJMEPHDD": 1.5,
        "EOPHJLLMHPK": 10000,
        "PHODGPEAPEF": 0.5
      },
      {
        "JGNFODNAMEO": [0.5, 0.5, 0.5],
        "GNJOEFIBHFE": 206,
        "JEEAJMEPHDD": 1.5,
        "PHODGPEAPEF": 0.5
      },
      {
        "JGNFODNAMEO": [0.5, 0.5, 0.5],
        "GNJOEFIBHFE": 306,
        "JEEAJMEPHDD": 1.5,
        "PHODGPEAPEF": 0.5
      }
    ]
  },
  {
    "id": 23,
    "OBFKDAFJJPN": [
      {
        "JGNFODNAMEO": [0.5, 0.5, 0.5],
        "GNJOEFIBHFE": 106,
        "JEEAJMEPHDD": 1.5,
        "EOPHJLLMHPK": 20000,
        "PHODGPEAPEF": 0.5
      },
      {
        "JGNFODNAMEO": [0.5, 0.5, 0.5],
        "GNJOEFIBHFE": 206,
        "JEEAJMEPHDD": 1.5,
        "PHODGPEAPEF": 0.5
      },
      {
        "JGNFODNAMEO": [0.5, 0.5, 0.5],
        "GNJOEFIBHFE": 306,
        "JEEAJMEPHDD": 1.5,
        "PHODGPEAPEF": 0.5
      }
    ]
  },
  {
    "id": 24,
    "OBFKDAFJJPN": [
      {
        "JGNFODNAMEO": [
          0.6000000238418579, 0.6000000238418579, 0.6000000238418579
        ],
        "GNJOEFIBHFE": 106,
        "JEEAJMEPHDD": 1.5,
        "EOPHJLLMHPK": 20000,
        "PHODGPEAPEF": 0.5
      },
      {
        "JGNFODNAMEO": [
          0.6000000238418579, 0.6000000238418579, 0.6000000238418579
        ],
        "GNJOEFIBHFE": 206,
        "JEEAJMEPHDD": 1.5,
        "PHODGPEAPEF": 0.5
      },
      {
        "JGNFODNAMEO": [
          0.6000000238418579, 0.6000000238418579, 0.6000000238418579
        ],
        "GNJOEFIBHFE": 306,
        "JEEAJMEPHDD": 1.5,
        "PHODGPEAPEF": 0.5
      }
    ]
  },
  {
    "id": 25,
    "OBFKDAFJJPN": [
      {
        "JGNFODNAMEO": [
          0.6000000238418579, 0.6000000238418579, 0.6000000238418579
        ],
        "GNJOEFIBHFE": 106,
        "JEEAJMEPHDD": 1.5,
        "EOPHJLLMHPK": 20000,
        "PHODGPEAPEF": 0.5
      },
      {
        "JGNFODNAMEO": [
          0.6000000238418579, 0.6000000238418579, 0.6000000238418579
        ],
        "GNJOEFIBHFE": 206,
        "JEEAJMEPHDD": 1.5,
        "PHODGPEAPEF": 0.5
      },
      {
        "JGNFODNAMEO": [
          0.6000000238418579, 0.6000000238418579, 0.6000000238418579
        ],
        "GNJOEFIBHFE": 306,
        "JEEAJMEPHDD": 1.5,
        "PHODGPEAPEF": 0.5
      }
    ]
  },
  {
    "id": 26,
    "OBFKDAFJJPN": [
      {
        "JGNFODNAMEO": [
          0.6000000238418579, 0.6000000238418579, 0.6000000238418579
        ],
        "GNJOEFIBHFE": 999,
        "JEEAJMEPHDD": 1.5,
        "EOPHJLLMHPK": 20000,
        "PHODGPEAPEF": 0.5
      },
      {
        "JGNFODNAMEO": [
          0.6000000238418579, 0.6000000238418579, 0.6000000238418579
        ],
        "GNJOEFIBHFE": 999,
        "JEEAJMEPHDD": 1.5,
        "PHODGPEAPEF": 0.5
      },
      {
        "JGNFODNAMEO": [
          0.6000000238418579, 0.6000000238418579, 0.6000000238418579
        ],
        "GNJOEFIBHFE": 999,
        "JEEAJMEPHDD": 1.5,
        "PHODGPEAPEF": 0.5
      }
    ]
  },
  {
    "id": 27,
    "OBFKDAFJJPN": [
      {
        "JGNFODNAMEO": [
          0.699999988079071, 0.699999988079071, 0.699999988079071
        ],
        "GNJOEFIBHFE": 999,
        "JEEAJMEPHDD": 1.5,
        "EOPHJLLMHPK": 40000,
        "PHODGPEAPEF": 0.5
      },
      {
        "JGNFODNAMEO": [
          0.699999988079071, 0.699999988079071, 0.699999988079071
        ],
        "GNJOEFIBHFE": 999,
        "JEEAJMEPHDD": 1.5,
        "PHODGPEAPEF": 0.5
      },
      {
        "JGNFODNAMEO": [
          0.699999988079071, 0.699999988079071, 0.699999988079071
        ],
        "GNJOEFIBHFE": 999,
        "JEEAJMEPHDD": 1.5,
        "PHODGPEAPEF": 0.5
      }
    ]
  },
  {
    "id": 28,
    "OBFKDAFJJPN": [
      {
        "JGNFODNAMEO": [
          0.699999988079071, 0.699999988079071, 0.699999988079071
        ],
        "GNJOEFIBHFE": 999,
        "JEEAJMEPHDD": 1.5,
        "EOPHJLLMHPK": 40000,
        "PHODGPEAPEF": 0.5
      },
      {
        "JGNFODNAMEO": [
          0.699999988079071, 0.699999988079071, 0.699999988079071
        ],
        "GNJOEFIBHFE": 999,
        "JEEAJMEPHDD": 1.5,
        "PHODGPEAPEF": 0.5
      },
      {
        "JGNFODNAMEO": [
          0.699999988079071, 0.699999988079071, 0.699999988079071
        ],
        "GNJOEFIBHFE": 999,
        "JEEAJMEPHDD": 1.5,
        "PHODGPEAPEF": 0.5
      }
    ]
  },
  {
    "id": 29,
    "OBFKDAFJJPN": [
      {
        "JGNFODNAMEO": [
          0.699999988079071, 0.699999988079071, 0.699999988079071
        ],
        "GNJOEFIBHFE": 999,
        "JEEAJMEPHDD": 1.5,
        "EOPHJLLMHPK": 40000,
        "PHODGPEAPEF": 0.5
      },
      {
        "JGNFODNAMEO": [
          0.699999988079071, 0.699999988079071, 0.699999988079071
        ],
        "GNJOEFIBHFE": 999,
        "JEEAJMEPHDD": 1.5,
        "PHODGPEAPEF": 0.5
      },
      {
        "JGNFODNAMEO": [
          0.699999988079071, 0.699999988079071, 0.699999988079071
        ],
        "GNJOEFIBHFE": 999,
        "JEEAJMEPHDD": 1.5,
        "PHODGPEAPEF": 0.5
      }
    ]
  },
  {
    "id": 30,
    "OBFKDAFJJPN": [
      {
        "JGNFODNAMEO": [
          0.800000011920929, 0.800000011920929, 0.800000011920929
        ],
        "GNJOEFIBHFE": 999,
        "JEEAJMEPHDD": 1.5,
        "EOPHJLLMHPK": 40000,
        "PHODGPEAPEF": 0.5
      },
      {
        "JGNFODNAMEO": [
          0.800000011920929, 0.800000011920929, 0.800000011920929
        ],
        "GNJOEFIBHFE": 999,
        "JEEAJMEPHDD": 1.5,
        "PHODGPEAPEF": 0.5
      },
      {
        "JGNFODNAMEO": [
          0.800000011920929, 0.800000011920929, 0.800000011920929
        ],
        "GNJOEFIBHFE": 999,
        "JEEAJMEPHDD": 1.5,
        "PHODGPEAPEF": 0.5
      }
    ]
  },
  {
    "id": 31,
    "OBFKDAFJJPN": [
      {
        "JGNFODNAMEO": [
          0.800000011920929, 0.800000011920929, 0.800000011920929
        ],
        "GNJOEFIBHFE": 999,
        "JEEAJMEPHDD": 1.5,
        "EOPHJLLMHPK": 40000,
        "PHODGPEAPEF": 0.5
      },
      {
        "JGNFODNAMEO": [
          0.800000011920929, 0.800000011920929, 0.800000011920929
        ],
        "GNJOEFIBHFE": 999,
        "JEEAJMEPHDD": 1.5,
        "PHODGPEAPEF": 0.5
      },
      {
        "JGNFODNAMEO": [
          0.800000011920929, 0.800000011920929, 0.800000011920929
        ],
        "GNJOEFIBHFE": 999,
        "JEEAJMEPHDD": 1.5,
        "PHODGPEAPEF": 0.5
      }
    ]
  },
  {
    "id": 32,
    "OBFKDAFJJPN": [
      {
        "JGNFODNAMEO": [
          0.800000011920929, 0.800000011920929, 0.800000011920929
        ],
        "GNJOEFIBHFE": 999,
        "JEEAJMEPHDD": 1.5,
        "EOPHJLLMHPK": 40000,
        "PHODGPEAPEF": 0.5
      },
      {
        "JGNFODNAMEO": [
          0.800000011920929, 0.800000011920929, 0.800000011920929
        ],
        "GNJOEFIBHFE": 999,
        "JEEAJMEPHDD": 1.5,
        "PHODGPEAPEF": 0.5
      },
      {
        "JGNFODNAMEO": [
          0.800000011920929, 0.800000011920929, 0.800000011920929
        ],
        "GNJOEFIBHFE": 999,
        "JEEAJMEPHDD": 1.5,
        "PHODGPEAPEF": 0.5
      }
    ]
  },
  {
    "id": 33,
    "OBFKDAFJJPN": [
      {
        "JGNFODNAMEO": [
          0.8999999761581421, 0.8999999761581421, 0.8999999761581421
        ],
        "GNJOEFIBHFE": 999,
        "JEEAJMEPHDD": 1.5,
        "EOPHJLLMHPK": 60000,
        "PHODGPEAPEF": 0.5
      },
      {
        "JGNFODNAMEO": [
          0.8999999761581421, 0.8999999761581421, 0.8999999761581421
        ],
        "GNJOEFIBHFE": 999,
        "JEEAJMEPHDD": 1.5,
        "PHODGPEAPEF": 0.5
      },
      {
        "JGNFODNAMEO": [
          0.8999999761581421, 0.8999999761581421, 0.8999999761581421
        ],
        "GNJOEFIBHFE": 999,
        "JEEAJMEPHDD": 1.5,
        "PHODGPEAPEF": 0.5
      }
    ]
  },
  {
    "id": 34,
    "OBFKDAFJJPN": [
      {
        "JGNFODNAMEO": [
          0.8999999761581421, 0.8999999761581421, 0.8999999761581421
        ],
        "GNJOEFIBHFE": 999,
        "JEEAJMEPHDD": 1.5,
        "EOPHJLLMHPK": 60000,
        "PHODGPEAPEF": 0.5
      },
      {
        "JGNFODNAMEO": [
          0.8999999761581421, 0.8999999761581421, 0.8999999761581421
        ],
        "GNJOEFIBHFE": 999,
        "JEEAJMEPHDD": 1.5,
        "PHODGPEAPEF": 0.5
      },
      {
        "JGNFODNAMEO": [
          0.8999999761581421, 0.8999999761581421, 0.8999999761581421
        ],
        "GNJOEFIBHFE": 999,
        "JEEAJMEPHDD": 1.5,
        "PHODGPEAPEF": 0.5
      }
    ]
  },
  {
    "id": 35,
    "OBFKDAFJJPN": [
      {
        "JGNFODNAMEO": [
          0.8999999761581421, 0.8999999761581421, 0.8999999761581421
        ],
        "GNJOEFIBHFE": 999,
        "JEEAJMEPHDD": 1.5,
        "EOPHJLLMHPK": 60000,
        "PHODGPEAPEF": 0.5
      },
      {
        "JGNFODNAMEO": [
          0.8999999761581421, 0.8999999761581421, 0.8999999761581421
        ],
        "GNJOEFIBHFE": 999,
        "JEEAJMEPHDD": 1.5,
        "PHODGPEAPEF": 0.5
      },
      {
        "JGNFODNAMEO": [
          0.8999999761581421, 0.8999999761581421, 0.8999999761581421
        ],
        "GNJOEFIBHFE": 999,
        "JEEAJMEPHDD": 1.5,
        "PHODGPEAPEF": 0.5
      }
    ]
  },
  {
    "id": 36,
    "OBFKDAFJJPN": [
      {
        "JGNFODNAMEO": [
          0.9900000095367432, 0.9900000095367432, 0.9900000095367432
        ],
        "GNJOEFIBHFE": 999,
        "JEEAJMEPHDD": 1.5,
        "EOPHJLLMHPK": 60000,
        "PHODGPEAPEF": 0.5
      },
      {
        "JGNFODNAMEO": [
          0.9900000095367432, 0.9900000095367432, 0.9900000095367432
        ],
        "GNJOEFIBHFE": 999,
        "JEEAJMEPHDD": 1.5,
        "PHODGPEAPEF": 0.5
      },
      {
        "JGNFODNAMEO": [
          0.9900000095367432, 0.9900000095367432, 0.9900000095367432
        ],
        "GNJOEFIBHFE": 999,
        "JEEAJMEPHDD": 1.5,
        "PHODGPEAPEF": 0.5
      }
    ]
  },
  {
    "id": 37,
    "OBFKDAFJJPN": [
      {
        "JGNFODNAMEO": [
          0.9900000095367432, 0.9900000095367432, 0.9900000095367432
        ],
        "GNJOEFIBHFE": 999,
        "JEEAJMEPHDD": 1.5,
        "EOPHJLLMHPK": 60000,
        "PHODGPEAPEF": 0.5
      },
      {
        "JGNFODNAMEO": [
          0.9900000095367432, 0.9900000095367432, 0.9900000095367432
        ],
        "GNJOEFIBHFE": 999,
        "JEEAJMEPHDD": 1.5,
        "PHODGPEAPEF": 0.5
      },
      {
        "JGNFODNAMEO": [
          0.9900000095367432, 0.9900000095367432, 0.9900000095367432
        ],
        "GNJOEFIBHFE": 999,
        "JEEAJMEPHDD": 1.5,
        "PHODGPEAPEF": 0.5
      }
    ]
  },
  {
    "id": 38,
    "OBFKDAFJJPN": [
      {
        "JGNFODNAMEO": [
          0.9900000095367432, 0.9900000095367432, 0.9900000095367432
        ],
        "GNJOEFIBHFE": 999,
        "JEEAJMEPHDD": 1.5,
        "EOPHJLLMHPK": 60000,
        "PHODGPEAPEF": 0.5
      },
      {
        "JGNFODNAMEO": [
          0.9900000095367432, 0.9900000095367432, 0.9900000095367432
        ],
        "GNJOEFIBHFE": 999,
        "JEEAJMEPHDD": 1.5,
        "PHODGPEAPEF": 0.5
      },
      {
        "JGNFODNAMEO": [
          0.9900000095367432, 0.9900000095367432, 0.9900000095367432
        ],
        "GNJOEFIBHFE": 999,
        "JEEAJMEPHDD": 1.5,
        "PHODGPEAPEF": 0.5
      }
    ]
  },
  {
    "id": 39,
    "OBFKDAFJJPN": [
      {
        "JGNFODNAMEO": [
          0.9900000095367432, 0.9900000095367432, 0.9900000095367432
        ],
        "GNJOEFIBHFE": 999,
        "JEEAJMEPHDD": 1.5,
        "EOPHJLLMHPK": 60000,
        "PHODGPEAPEF": 0.5
      },
      {
        "JGNFODNAMEO": [
          0.9900000095367432, 0.9900000095367432, 0.9900000095367432
        ],
        "GNJOEFIBHFE": 999,
        "JEEAJMEPHDD": 1.5,
        "PHODGPEAPEF": 0.5
      },
      {
        "JGNFODNAMEO": [
          0.9900000095367432, 0.9900000095367432, 0.9900000095367432
        ],
        "GNJOEFIBHFE": 999,
        "JEEAJMEPHDD": 1.5,
        "PHODGPEAPEF": 0.5
      }
    ]
  },
  {
    "id": 40,
    "OBFKDAFJJPN": [
      {
        "JGNFODNAMEO": [
          0.9900000095367432, 0.9900000095367432, 0.9900000095367432
        ],
        "GNJOEFIBHFE": 999,
        "JEEAJMEPHDD": 1.5,
        "EOPHJLLMHPK": 60000,
        "PHODGPEAPEF": 0.5
      },
      {
        "JGNFODNAMEO": [
          0.9900000095367432, 0.9900000095367432, 0.9900000095367432
        ],
        "GNJOEFIBHFE": 999,
        "JEEAJMEPHDD": 1.5,
        "PHODGPEAPEF": 0.5
      },
      {
        "JGNFODNAMEO": [
          0.9900000095367432, 0.9900000095367432, 0.9900000095367432
        ],
        "GNJOEFIBHFE": 999,
        "JEEAJMEPHDD": 1.5,
        "PHODGPEAPEF": 0.5
      }
    ]
  },
  {
    "id": 41,
    "OBFKDAFJJPN": [
      {
        "JGNFODNAMEO": [
          0.9900000095367432, 0.9900000095367432, 0.9900000095367432
        ],
        "GNJOEFIBHFE": 999,
        "JEEAJMEPHDD": 1.5,
        "EOPHJLLMHPK": 60000,
        "PHODGPEAPEF": 0.5
      },
      {
        "JGNFODNAMEO": [
          0.9900000095367432, 0.9900000095367432, 0.9900000095367432
        ],
        "GNJOEFIBHFE": 999,
        "JEEAJMEPHDD": 1.5,
        "PHODGPEAPEF": 0.5
      },
      {
        "JGNFODNAMEO": [
          0.9900000095367432, 0.9900000095367432, 0.9900000095367432
        ],
        "GNJOEFIBHFE": 999,
        "JEEAJMEPHDD": 1.5,
        "PHODGPEAPEF": 0.5
      }
    ]
  },
  {
    "id": 42,
    "OBFKDAFJJPN": [
      {
        "JGNFODNAMEO": [
          0.9900000095367432, 0.9900000095367432, 0.9900000095367432
        ],
        "GNJOEFIBHFE": 999,
        "JEEAJMEPHDD": 1.5,
        "EOPHJLLMHPK": 60000,
        "PHODGPEAPEF": 0.5
      },
      {
        "JGNFODNAMEO": [
          0.9900000095367432, 0.9900000095367432, 0.9900000095367432
        ],
        "GNJOEFIBHFE": 999,
        "JEEAJMEPHDD": 1.5,
        "PHODGPEAPEF": 0.5
      },
      {
        "JGNFODNAMEO": [
          0.9900000095367432, 0.9900000095367432, 0.9900000095367432
        ],
        "GNJOEFIBHFE": 999,
        "JEEAJMEPHDD": 1.5,
        "PHODGPEAPEF": 0.5
      }
    ]
  },
  {
    "id": 43,
    "OBFKDAFJJPN": [
      {
        "JGNFODNAMEO": [
          0.9900000095367432, 0.9900000095367432, 0.9900000095367432
        ],
        "GNJOEFIBHFE": 999,
        "JEEAJMEPHDD": 1.5,
        "EOPHJLLMHPK": 60000,
        "PHODGPEAPEF": 0.5
      },
      {
        "JGNFODNAMEO": [
          0.9900000095367432, 0.9900000095367432, 0.9900000095367432
        ],
        "GNJOEFIBHFE": 999,
        "JEEAJMEPHDD": 1.5,
        "PHODGPEAPEF": 0.5
      },
      {
        "JGNFODNAMEO": [
          0.9900000095367432, 0.9900000095367432, 0.9900000095367432
        ],
        "GNJOEFIBHFE": 999,
        "JEEAJMEPHDD": 1.5,
        "PHODGPEAPEF": 0.5
      }
    ]
  },
  {
    "id": 44,
    "OBFKDAFJJPN": [
      {
        "JGNFODNAMEO": [
          0.9900000095367432, 0.9900000095367432, 0.9900000095367432
        ],
        "GNJOEFIBHFE": 999,
        "JEEAJMEPHDD": 1.5,
        "EOPHJLLMHPK": 60000,
        "PHODGPEAPEF": 0.5
      },
      {
        "JGNFODNAMEO": [
          0.9900000095367432, 0.9900000095367432, 0.9900000095367432
        ],
        "GNJOEFIBHFE": 999,
        "JEEAJMEPHDD": 1.5,
        "PHODGPEAPEF": 0.5
      },
      {
        "JGNFODNAMEO": [
          0.9900000095367432, 0.9900000095367432, 0.9900000095367432
        ],
        "GNJOEFIBHFE": 999,
        "JEEAJMEPHDD": 1.5,
        "PHODGPEAPEF": 0.5
      }
    ]
  },
  {
    "id": 45,
    "OBFKDAFJJPN": [
      {
        "JGNFODNAMEO": [
          0.9900000095367432, 0.9900000095367432, 0.9900000095367432
        ],
        "GNJOEFIBHFE": 999,
        "JEEAJMEPHDD": 1.5,
        "EOPHJLLMHPK": 60000,
        "PHODGPEAPEF": 0.5
      },
      {
        "JGNFODNAMEO": [
          0.9900000095367432, 0.9900000095367432, 0.9900000095367432
        ],
        "GNJOEFIBHFE": 999,
        "JEEAJMEPHDD": 1.5,
        "PHODGPEAPEF": 0.5
      },
      {
        "JGNFODNAMEO": [
          0.9900000095367432, 0.9900000095367432, 0.9900000095367432
        ],
        "GNJOEFIBHFE": 999,
        "JEEAJMEPHDD": 1.5,
        "PHODGPEAPEF": 0.5
      }
    ]
  }
]
