[
  {
    "EventID": 1,
    "SceneID": 3,
    "AreaID": 1,
    "EventType": "EXPLORE_EVENT_UNLOCK_POINT",
    "Param": ["7", "", ""],
    "ExploreWeight": 10
  },
  {
    "EventID": 2,
    "SceneID": 3,
    "AreaID": 1,
    "EventType": "EXPLORE_EVENT_OPEN_CHEST",
    "Param": ["13003063", "1330", ""],
    "ExploreWeight": 10
  },
  {
    "EventID": 3,
    "SceneID": 3,
    "AreaID": 1,
    "EventType": "EXPLORE_EVENT_OPEN_CHEST",
    "Param": ["13003001", "1346", ""],
    "ExploreWeight": 10
  },
  {
    "EventID": 4,
    "SceneID": 3,
    "AreaID": 1,
    "EventType": "EXPLORE_EVENT_OPEN_CHEST",
    "Param": ["13003010", "1372", ""],
    "ExploreWeight": 10
  },
  {
    "EventID": 5,
    "SceneID": 3,
    "AreaID": 1,
    "EventType": "EXPLORE_EVENT_OPEN_CHEST",
    "Param": ["13003004", "229", ""],
    "ExploreWeight": 10
  },
  {
    "EventID": 6,
    "SceneID": 3,
    "AreaID": 1,
    "EventType": "EXPLORE_EVENT_OPEN_CHEST",
    "Param": ["13003025", "410", ""],
    "ExploreWeight": 10
  },
  {
    "EventID": 7,
    "SceneID": 3,
    "AreaID": 1,
    "EventType": "EXPLORE_EVENT_OPEN_CHEST",
    "Param": ["13003021", "1373", ""],
    "ExploreWeight": 10
  },
  {
    "EventID": 8,
    "SceneID": 3,
    "AreaID": 1,
    "EventType": "EXPLORE_EVENT_OPEN_CHEST",
    "Param": ["13003001", "1027", ""],
    "ExploreWeight": 10
  },
  {
    "EventID": 9,
    "SceneID": 3,
    "AreaID": 1,
    "EventType": "EXPLORE_EVENT_OPEN_CHEST",
    "Param": ["13003044", "1069", ""],
    "ExploreWeight": 10
  },
  {
    "EventID": 10,
    "SceneID": 3,
    "AreaID": 1,
    "EventType": "EXPLORE_EVENT_OPEN_CHEST",
    "Param": ["13003044", "1070", ""],
    "ExploreWeight": 10
  },
  {
    "EventID": 11,
    "SceneID": 3,
    "AreaID": 1,
    "EventType": "EXPLORE_EVENT_OPEN_CHEST",
    "Param": ["13003044", "1071", ""],
    "ExploreWeight": 10
  },
  {
    "EventID": 12,
    "SceneID": 3,
    "AreaID": 1,
    "EventType": "EXPLORE_EVENT_OPEN_CHEST",
    "Param": ["13003044", "1072", ""],
    "ExploreWeight": 10
  },
  {
    "EventID": 13,
    "SceneID": 3,
    "AreaID": 1,
    "EventType": "EXPLORE_EVENT_OPEN_CHEST",
    "Param": ["13003044", "1073", ""],
    "ExploreWeight": 10
  },
  {
    "EventID": 14,
    "SceneID": 3,
    "AreaID": 1,
    "EventType": "EXPLORE_EVENT_OPEN_CHEST",
    "Param": ["13003014", "1196", ""],
    "ExploreWeight": 10
  },
  {
    "EventID": 15,
    "SceneID": 3,
    "AreaID": 1,
    "EventType": "EXPLORE_EVENT_OPEN_CHEST",
    "Param": ["13003010", "1212", ""],
    "ExploreWeight": 10
  },
  {
    "EventID": 16,
    "SceneID": 3,
    "AreaID": 1,
    "EventType": "EXPLORE_EVENT_CLEAR_GROUP_MONSTER",
    "Param": ["13003001", "", ""],
    "ExploreWeight": 10
  },
  {
    "EventID": 17,
    "SceneID": 3,
    "AreaID": 1,
    "EventType": "EXPLORE_EVENT_CLEAR_GROUP_MONSTER",
    "Param": ["13003047", "", ""],
    "ExploreWeight": 10
  },
  {
    "EventID": 18,
    "SceneID": 3,
    "AreaID": 1,
    "EventType": "EXPLORE_EVENT_CLEAR_GROUP_MONSTER",
    "Param": ["13003058", "", ""],
    "ExploreWeight": 10
  },
  {
    "EventID": 19,
    "SceneID": 3,
    "AreaID": 1,
    "EventType": "EXPLORE_EVENT_CLEAR_GROUP_MONSTER",
    "Param": ["13003028", "", ""],
    "ExploreWeight": 10
  },
  {
    "EventID": 20,
    "SceneID": 3,
    "AreaID": 1,
    "EventType": "EXPLORE_EVENT_CLEAR_GROUP_MONSTER",
    "Param": ["13003064", "", ""],
    "ExploreWeight": 10
  },
  {
    "EventID": 21,
    "SceneID": 3,
    "AreaID": 1,
    "EventType": "EXPLORE_EVENT_ITEM_ADD",
    "Param": ["100001", "", ""],
    "ExploreWeight": 10
  },
  {
    "EventID": 22,
    "SceneID": 3,
    "AreaID": 1,
    "EventType": "EXPLORE_EVENT_ITEM_ADD",
    "Param": ["100012", "", ""],
    "ExploreWeight": 10
  },
  {
    "EventID": 23,
    "SceneID": 3,
    "AreaID": 1,
    "EventType": "EXPLORE_EVENT_ITEM_ADD",
    "Param": ["100013", "", ""],
    "ExploreWeight": 10
  },
  {
    "EventID": 24,
    "SceneID": 3,
    "AreaID": 1,
    "EventType": "EXPLORE_EVENT_ITEM_ADD",
    "Param": ["100014", "", ""],
    "ExploreWeight": 10
  },
  {
    "EventID": 25,
    "SceneID": 3,
    "AreaID": 1,
    "EventType": "EXPLORE_EVENT_ITEM_ADD",
    "Param": ["100015", "", ""],
    "ExploreWeight": 10
  },
  {
    "EventID": 26,
    "SceneID": 3,
    "AreaID": 1,
    "EventType": "EXPLORE_EVENT_ITEM_ADD",
    "Param": ["100016", "", ""],
    "ExploreWeight": 10
  },
  {
    "EventID": 27,
    "SceneID": 3,
    "AreaID": 1,
    "EventType": "EXPLORE_EVENT_ITEM_ADD",
    "Param": ["100017", "", ""],
    "ExploreWeight": 10
  },
  {
    "EventID": 28,
    "SceneID": 3,
    "AreaID": 1,
    "EventType": "EXPLORE_EVENT_ITEM_ADD",
    "Param": ["100018", "", ""],
    "ExploreWeight": 10
  },
  {
    "EventID": 29,
    "SceneID": 3,
    "AreaID": 1,
    "EventType": "EXPLORE_EVENT_ITEM_ADD",
    "Param": ["100011", "", ""],
    "ExploreWeight": 10
  },
  {
    "EventID": 30,
    "SceneID": 3,
    "AreaID": 1,
    "EventType": "EXPLORE_EVENT_ITEM_ADD",
    "Param": ["100021", "", ""],
    "ExploreWeight": 10
  },
  {
    "EventID": 31,
    "SceneID": 3,
    "AreaID": 1,
    "EventType": "EXPLORE_EVENT_ITEM_ADD",
    "Param": ["100031", "", ""],
    "ExploreWeight": 10
  },
  {
    "EventID": 32,
    "SceneID": 3,
    "AreaID": 1,
    "EventType": "EXPLORE_EVENT_ITEM_ADD",
    "Param": ["100041", "", ""],
    "ExploreWeight": 10
  },
  {
    "EventID": 33,
    "SceneID": 3,
    "AreaID": 1,
    "EventType": "EXPLORE_EVENT_ITEM_ADD",
    "Param": ["100051", "", ""],
    "ExploreWeight": 10
  },
  {
    "EventID": 34,
    "SceneID": 3,
    "AreaID": 1,
    "EventType": "EXPLORE_EVENT_ITEM_ADD",
    "Param": ["100052", "", ""],
    "ExploreWeight": 10
  },
  {
    "EventID": 35,
    "SceneID": 3,
    "AreaID": 1,
    "EventType": "EXPLORE_EVENT_ITEM_ADD",
    "Param": ["100061", "", ""],
    "ExploreWeight": 10
  },
  {
    "EventID": 36,
    "SceneID": 3,
    "AreaID": 1,
    "EventType": "EXPLORE_EVENT_ITEM_ADD",
    "Param": ["101001", "", ""],
    "ExploreWeight": 10
  },
  {
    "EventID": 37,
    "SceneID": 3,
    "AreaID": 1,
    "EventType": "EXPLORE_EVENT_ITEM_ADD",
    "Param": ["101002", "", ""],
    "ExploreWeight": 10
  },
  {
    "EventID": 38,
    "SceneID": 3,
    "AreaID": 1,
    "EventType": "EXPLORE_EVENT_ITEM_ADD",
    "Param": ["101003", "", ""],
    "ExploreWeight": 10
  },
  {
    "EventID": 39,
    "SceneID": 3,
    "AreaID": 2,
    "EventType": "EXPLORE_EVENT_ENTER_FORCE",
    "Param": ["1", "", ""],
    "ExploreWeight": 10
  },
  {
    "EventID": 40,
    "SceneID": 3,
    "AreaID": 2,
    "EventType": "EXPLORE_EVENT_UNLOCK_POINT",
    "Param": ["4", "", ""],
    "ExploreWeight": 10
  },
  {
    "EventID": 41,
    "SceneID": 3,
    "AreaID": 2,
    "EventType": "EXPLORE_EVENT_OPEN_CHEST",
    "Param": ["13001029", "510", ""],
    "ExploreWeight": 10
  },
  {
    "EventID": 42,
    "SceneID": 3,
    "AreaID": 2,
    "EventType": "EXPLORE_EVENT_OPEN_CHEST",
    "Param": ["13001034", "528", ""],
    "ExploreWeight": 10
  },
  {
    "EventID": 43,
    "SceneID": 3,
    "AreaID": 2,
    "EventType": "EXPLORE_EVENT_OPEN_CHEST",
    "Param": ["13001037", "606", ""],
    "ExploreWeight": 10
  },
  {
    "EventID": 44,
    "SceneID": 3,
    "AreaID": 2,
    "EventType": "EXPLORE_EVENT_OPEN_CHEST",
    "Param": ["13001041", "671", ""],
    "ExploreWeight": 10
  },
  {
    "EventID": 45,
    "SceneID": 3,
    "AreaID": 2,
    "EventType": "EXPLORE_EVENT_OPEN_CHEST",
    "Param": ["13001010", "58", ""],
    "ExploreWeight": 10
  },
  {
    "EventID": 46,
    "SceneID": 3,
    "AreaID": 2,
    "EventType": "EXPLORE_EVENT_OPEN_CHEST",
    "Param": ["13001002", "73", ""],
    "ExploreWeight": 10
  },
  {
    "EventID": 47,
    "SceneID": 3,
    "AreaID": 2,
    "EventType": "EXPLORE_EVENT_OPEN_CHEST",
    "Param": ["13001014", "91", ""],
    "ExploreWeight": 10
  },
  {
    "EventID": 48,
    "SceneID": 3,
    "AreaID": 2,
    "EventType": "EXPLORE_EVENT_OPEN_CHEST",
    "Param": ["13001027", "472", ""],
    "ExploreWeight": 10
  },
  {
    "EventID": 49,
    "SceneID": 3,
    "AreaID": 2,
    "EventType": "EXPLORE_EVENT_OPEN_CHEST",
    "Param": ["13001030", "511", ""],
    "ExploreWeight": 10
  },
  {
    "EventID": 50,
    "SceneID": 3,
    "AreaID": 2,
    "EventType": "EXPLORE_EVENT_OPEN_CHEST",
    "Param": ["13001036", "589", ""],
    "ExploreWeight": 10
  },
  {
    "EventID": 51,
    "SceneID": 3,
    "AreaID": 2,
    "EventType": "EXPLORE_EVENT_OPEN_CHEST",
    "Param": ["13001042", "803", ""],
    "ExploreWeight": 10
  },
  {
    "EventID": 52,
    "SceneID": 3,
    "AreaID": 2,
    "EventType": "EXPLORE_EVENT_OPEN_CHEST",
    "Param": ["13001031", "816", ""],
    "ExploreWeight": 10
  },
  {
    "EventID": 53,
    "SceneID": 3,
    "AreaID": 2,
    "EventType": "EXPLORE_EVENT_CLEAR_GROUP_MONSTER",
    "Param": ["13001020", "", ""],
    "ExploreWeight": 10
  },
  {
    "EventID": 54,
    "SceneID": 3,
    "AreaID": 2,
    "EventType": "EXPLORE_EVENT_CLEAR_GROUP_MONSTER",
    "Param": ["13001039", "", ""],
    "ExploreWeight": 10
  },
  {
    "EventID": 55,
    "SceneID": 3,
    "AreaID": 2,
    "EventType": "EXPLORE_EVENT_CLEAR_GROUP_MONSTER",
    "Param": ["13001019", "", ""],
    "ExploreWeight": 10
  },
  {
    "EventID": 56,
    "SceneID": 3,
    "AreaID": 2,
    "EventType": "EXPLORE_EVENT_CLEAR_GROUP_MONSTER",
    "Param": ["13001001", "", ""],
    "ExploreWeight": 10
  },
  {
    "EventID": 57,
    "SceneID": 3,
    "AreaID": 2,
    "EventType": "EXPLORE_EVENT_CLEAR_GROUP_MONSTER",
    "Param": ["13001009", "", ""],
    "ExploreWeight": 10
  },
  {
    "EventID": 58,
    "SceneID": 3,
    "AreaID": 2,
    "EventType": "EXPLORE_EVENT_CLEAR_GROUP_MONSTER",
    "Param": ["13001015", "", ""],
    "ExploreWeight": 10
  },
  {
    "EventID": 59,
    "SceneID": 3,
    "AreaID": 2,
    "EventType": "EXPLORE_EVENT_ITEM_ADD",
    "Param": ["100001", "", ""],
    "ExploreWeight": 10
  },
  {
    "EventID": 60,
    "SceneID": 3,
    "AreaID": 2,
    "EventType": "EXPLORE_EVENT_ITEM_ADD",
    "Param": ["100012", "", ""],
    "ExploreWeight": 10
  },
  {
    "EventID": 61,
    "SceneID": 3,
    "AreaID": 2,
    "EventType": "EXPLORE_EVENT_ITEM_ADD",
    "Param": ["100013", "", ""],
    "ExploreWeight": 10
  },
  {
    "EventID": 62,
    "SceneID": 3,
    "AreaID": 2,
    "EventType": "EXPLORE_EVENT_ITEM_ADD",
    "Param": ["100014", "", ""],
    "ExploreWeight": 10
  },
  {
    "EventID": 63,
    "SceneID": 3,
    "AreaID": 2,
    "EventType": "EXPLORE_EVENT_ITEM_ADD",
    "Param": ["100015", "", ""],
    "ExploreWeight": 10
  },
  {
    "EventID": 64,
    "SceneID": 3,
    "AreaID": 2,
    "EventType": "EXPLORE_EVENT_ITEM_ADD",
    "Param": ["100016", "", ""],
    "ExploreWeight": 10
  },
  {
    "EventID": 65,
    "SceneID": 3,
    "AreaID": 2,
    "EventType": "EXPLORE_EVENT_ITEM_ADD",
    "Param": ["100017", "", ""],
    "ExploreWeight": 10
  },
  {
    "EventID": 66,
    "SceneID": 3,
    "AreaID": 2,
    "EventType": "EXPLORE_EVENT_ITEM_ADD",
    "Param": ["100018", "", ""],
    "ExploreWeight": 10
  },
  {
    "EventID": 67,
    "SceneID": 3,
    "AreaID": 2,
    "EventType": "EXPLORE_EVENT_ITEM_ADD",
    "Param": ["100011", "", ""],
    "ExploreWeight": 10
  },
  {
    "EventID": 68,
    "SceneID": 3,
    "AreaID": 2,
    "EventType": "EXPLORE_EVENT_ITEM_ADD",
    "Param": ["100021", "", ""],
    "ExploreWeight": 10
  },
  {
    "EventID": 69,
    "SceneID": 3,
    "AreaID": 2,
    "EventType": "EXPLORE_EVENT_ITEM_ADD",
    "Param": ["100031", "", ""],
    "ExploreWeight": 10
  },
  {
    "EventID": 70,
    "SceneID": 3,
    "AreaID": 2,
    "EventType": "EXPLORE_EVENT_ITEM_ADD",
    "Param": ["100041", "", ""],
    "ExploreWeight": 10
  },
  {
    "EventID": 71,
    "SceneID": 3,
    "AreaID": 2,
    "EventType": "EXPLORE_EVENT_ITEM_ADD",
    "Param": ["100051", "", ""],
    "ExploreWeight": 10
  },
  {
    "EventID": 72,
    "SceneID": 3,
    "AreaID": 2,
    "EventType": "EXPLORE_EVENT_ITEM_ADD",
    "Param": ["100052", "", ""],
    "ExploreWeight": 10
  },
  {
    "EventID": 73,
    "SceneID": 3,
    "AreaID": 2,
    "EventType": "EXPLORE_EVENT_ITEM_ADD",
    "Param": ["100061", "", ""],
    "ExploreWeight": 10
  },
  {
    "EventID": 74,
    "SceneID": 3,
    "AreaID": 2,
    "EventType": "EXPLORE_EVENT_ITEM_ADD",
    "Param": ["101001", "", ""],
    "ExploreWeight": 10
  },
  {
    "EventID": 75,
    "SceneID": 3,
    "AreaID": 2,
    "EventType": "EXPLORE_EVENT_ITEM_ADD",
    "Param": ["101002", "", ""],
    "ExploreWeight": 10
  },
  {
    "EventID": 76,
    "SceneID": 3,
    "AreaID": 2,
    "EventType": "EXPLORE_EVENT_ITEM_ADD",
    "Param": ["101003", "", ""],
    "ExploreWeight": 10
  },
  {
    "EventID": 77,
    "SceneID": 3,
    "AreaID": 3,
    "EventType": "EXPLORE_EVENT_UNLOCK_POINT",
    "Param": ["3", "", ""],
    "ExploreWeight": 10
  },
  {
    "EventID": 78,
    "SceneID": 3,
    "AreaID": 4,
    "EventType": "EXPLORE_EVENT_UNLOCK_POINT",
    "Param": ["29", "", ""],
    "ExploreWeight": 10
  }
]
