[
  ////////////////////////////////////////////////////////////////
  //
  //  Pose
  //
  ////////////////////////////////////////////////////////////////
  {
    "Default": {
      "$type": "ConfigAbility",
      "abilityName": "Monster_Hound_Kanis_Rock_Pose",
      "onAdded": [
        {
          "$type": "ApplyModifier",
          "modifierName": "UNIQUE_Kanis_BeHitCheck"
        },
        // 用于区分岩小狗
        {
          "$type": "SetGlobalValue",
          "key": "_KANIS_Rock_TAG_",
          "value": 1,
          "target": "Self"
        }
      ],
      "abilityMixins": [
        // _KANIS_POSE_TAG_
        // 0:未激活
        // 1:未激活→激活
        // 2:激活
        {
          "$type": "AttachModifierToSelfGlobalValueMixin",
          "globalValueKey": "_KANIS_POSE_TAG_",
          "defaultGlobalValueOnCreate": 0,
          "removeAppliedModifier": true,
          "valueSteps": [-0.5, 0.5, 1.5, 2.5],
          "modifierNameSteps": [
            "Pose_None",
            "Pose_NormalToActivated",
            "Pose_Activated"
          ]
        },
        {
          "$type": "AttachToPoseIDMixin",
          "poseIDs": [201, 301, 401],
          "modifierName": "Kanis_ChargeBar_Handler"
        }
      ],
      "modifiers": {
        "Kanis_ChargeBar_Handler": {
          "onAdded": [
            {
              "$type": "ApplyModifier",
              "modifierName": "UNIQUE_Kanis_ChargeBar"
            }
          ],
          "onRemoved": [
            {
              "$type": "RemoveUniqueModifier",
              "modifierName": "UNIQUE_Kanis_ChargeBar"
            }
          ]
        },
        "UNIQUE_Kanis_ChargeBar": {
          "isUnique": true,
          "onAdded": [
            {
              "$type": "SetChargeBarValue",
              "value": 0
            }
          ],
          "onRemoved": [
            {
              "$type": "SetChargeBarValue",
              "value": 0
            }
          ],
          "modifierMixins": [
            {
              "$type": "ChargeBarMixin",
              "chargeBarElementType": "Rock",
              "chargeBarIconID": 2,
              "initialValue": 0,
              "maxValue": 100
            },
            {
              "$type": "AttachModifierToSelfGlobalValueMixin",
              "globalValueKey": "_CHARGEBAR_VALUE",
              "valueSteps": [99.5, 100.5],
              "removeAppliedModifier": true,
              "modifierNameSteps": ["ChargeActivated"]
            }
          ]
        },
        // 通过充能条来控制怪物激活/未激活的pose切换
        "ChargeActivated": {
          "onAdded": [
            {
              "$type": "SetGlobalValue",
              "key": "_KANIS_POSE_TAG_",
              "value": 1
            }
          ]
        },
        "Pose_None": {
          "onAdded": [
            {
              "$type": "SetPoseInt",
              "intID": "ActivatedTag",
              "value": 0
            },
            {
              "$type": "SetAnimatorBool",
              "boolID": "ActivatedTag",
              "value": false
            },
            {
              "$type": "SetAnimatorBool",
              "boolID": "ShaderActivatedTag",
              "value": false
            }
          ]
        },
        "Pose_NormalToActivated": {
          "onAdded": [
            {
              "$type": "SetPoseInt",
              "intID": "ActivatedTag",
              "value": 1
            }
          ]
        },
        "Pose_Activated": {
          "state": "DefenseDown",
          "properties": {
            "Actor_RockSubHurtDelta": -0.3
          },
          "onAdded": [
            {
              "$type": "SetPoseInt",
              "intID": "ActivatedTag",
              "value": 2
            },
            {
              "$type": "SetAnimatorBool",
              "boolID": "ActivatedTag",
              "value": true
            },
            {
              "$type": "SetAnimatorBool",
              "boolID": "ShaderActivatedTag",
              "value": true
            },
            {
              "$type": "TriggerAbility",
              "abilityName": "Monster_Hound_Kanis_Rock_EyeEff_Remove"
            }
          ],
          "onRemoved": [
            {
              "$type": "TriggerAbility",
              "abilityName": "Monster_Hound_Kanis_Rock_EyeEff_Add"
            }
          ]
        },
        "UNIQUE_Kanis_BeHitCheck": {
          "isUnique": true,
          "onBeingHit": [
            {
              "$type": "Predicated",
              "target": "Target",
              "targetPredicates": [
                {
                  "$type": "ByEntityTypes",
                  "entityTypes": ["Avatar"]
                },
                {
                  "$type": "ByHitElement",
                  "element": "Rock"
                }
              ],
              "successActions": [
                {
                  "$type": "AddChargeBarValue",
                  "value": 34,
                  "target": "Self"
                }
              ]
            },
            {
              "$type": "Predicated",
              "target": "TargetOriginOwner",
              "targetPredicates": [
                {
                  "$type": "ByEntityTypes",
                  "entityTypes": ["Avatar"]
                },
                {
                  "$type": "ByHitElement",
                  "element": "Rock"
                }
              ],
              "successActions": [
                {
                  "$type": "AddChargeBarValue",
                  "value": 34,
                  "target": "Self"
                }
              ]
            }
          ]
        }
      }
    }
  },
  ////////////////////////////////////////////////////////////////
  //
  //  Eye Effect
  //
  ////////////////////////////////////////////////////////////////
  {
    "Default": {
      "$type": "ConfigAbility",
      "abilityName": "Monster_Hound_Kanis_Rock_EyeEff_Add",
      "onAdded": [
        {
          "$type": "ApplyModifier",
          "modifierName": "UNIQUE_Kanis_Rock_EyeEff"
        }
      ],
      "onAbilityStart": [
        {
          "$type": "ApplyModifier",
          "modifierName": "UNIQUE_Kanis_Rock_EyeEff"
        }
      ],
      "modifiers": {
        "UNIQUE_Kanis_Rock_EyeEff": {
          "isUnique": true,
          "onAdded": [
            {
              "$type": "AttachEffect",
              "effectPattern": "Eff_Monster_Kanis_Rock_Eye",
              "born": {
                "$type": "ConfigBornByAttachPoint",
                "attachPointName": "Head",
                "offset": {
                  "x": 0.0,
                  "y": 0.0,
                  "z": 0.0
                }
              }
            }
          ]
        }
      }
    }
  },
  {
    "Default": {
      "$type": "ConfigAbility",
      "abilityName": "Monster_Hound_Kanis_Rock_EyeEff_Remove",
      "onAbilityStart": [
        {
          "$type": "RemoveUniqueModifier",
          "target": "Self",
          "modifierName": "UNIQUE_Kanis_Rock_EyeEff"
        }
      ]
    }
  },
  ////////////////////////////////////////////////////////////////
  //
  //  Steer
  //
  ////////////////////////////////////////////////////////////////
  {
    "Default": {
      "$type": "ConfigAbility",
      "abilityName": "Monster_Hound_Kanis_Rock_Steer",
      "abilityMixins": [
        {
          "$type": "SteerAttackMixin",
          "steerStateIDs": ["Turn"],
          "startNormalizedTime": 0,
          "endNormalizedTime": 1.0,
          "angularSpeed": 120
        },
        {
          "$type": "SteerAttackMixin",
          "steerStateIDs": ["WavePaw"],
          "startNormalizedTime": 0,
          "endNormalizedTime": 0.25,
          "angularSpeed": 240
        },
        {
          "$type": "SteerAttackMixin",
          "steerStateIDs": ["Strike_BS"],
          "startNormalizedTime": 0,
          "endNormalizedTime": 0.4,
          "angularSpeed": 180
        },
        {
          "$type": "SteerAttackMixin",
          "steerStateIDs": ["Biting_BS"],
          "startNormalizedTime": 0,
          "endNormalizedTime": 0.9,
          "angularSpeed": 240
        },
        {
          "$type": "SteerAttackMixin",
          "steerStateIDs": ["JumpBack_BS"],
          "startNormalizedTime": 0,
          "endNormalizedTime": 0.2,
          "angularSpeed": 240
        }
      ]
    }
  },
  ////////////////////////////////////////////////////////////////
  //
  //  Strike
  //
  ////////////////////////////////////////////////////////////////
  {
    "Default": {
      "$type": "ConfigAbility",
      "abilityName": "Monster_Hound_Kanis_Rock_Strike_State",
      "abilityMixins": [
        {
          "$type": "AttachToStateIDMixin",
          "stateIDs": ["Strike_Loop"],
          "modifierName": "UNIQUE_Strike_Actions"
        }
      ],
      "modifiers": {
        "UNIQUE_Strike_Actions": {
          "isUnique": true,
          "onAdded": [
            {
              "$type": "FireEffect",
              "effectPattern": "Eff_Monster_Kanis_Rock_Strike_BS"
            },
            {
              "$type": "ClearLockTarget",
              "target": "CurLocalAvatar"
            },
            {
              "$type": "AttachModifier",
              "modifierName": "Strike_Invincible",
              "target": "Self"
            },
            {
              "$type": "AttachModifier",
              "modifierName": "Strike_DenyLockOn",
              "target": "Self"
            },
            {
              "$type": "TriggerSetVisible",
              "visible": false,
              "target": "Self"
            },
            {
              "$type": "HideUIBillBoard",
              "hide": true,
              "target": "Self"
            },
            {
              "$type": "EnableHitBoxByName",
              "hitBoxNames": ["HitBox"],
              "setEnable": false
            },
            {
              "$type": "EnablePushColliderName",
              "pushColliderNames": ["PushCollider"],
              "setEnable": false
            },
            {
              "$type": "ApplyModifier",
              "modifierName": "Strike_Blink",
              "target": "Self"
            },
            {
              "$type": "Randomed",
              "chance": 0.5,
              "successActions": [
                {
                  "$type": "SetAISkillCDAvailableNow",
                  "skillIDs": [201],
                  "predicates": [
                    {
                      "$type": "ByTargetGlobalValue",
                      "key": "_KANIS_POSE_TAG_",
                      "value": 0,
                      "compareType": "NoneOrEqual"
                    }
                  ]
                },
                {
                  "$type": "SetAISkillCDAvailableNow",
                  "skillIDs": [202],
                  "predicates": [
                    {
                      "$type": "ByTargetGlobalValue",
                      "key": "_KANIS_POSE_TAG_",
                      "value": 1,
                      "compareType": "Equal"
                    }
                  ]
                }
              ]
            },
            {
              "$type": "TriggerAbility",
              "abilityName": "Monster_Hound_Kanis_Rock_EyeEff_Remove",
              "predicates": [
                {
                  "$type": "ByNot",
                  "predicates": [
                    {
                      "$type": "ByTargetGlobalValue",
                      "key": "_KANIS_POSE_TAG_",
                      "value": 2,
                      "compareType": "Equal"
                    }
                  ]
                }
              ]
            }
          ],
          "onRemoved": [
            {
              "$type": "EnableHitBoxByName",
              "hitBoxNames": ["HitBox"],
              "setEnable": true
            },
            {
              "$type": "EnablePushColliderName",
              "pushColliderNames": ["PushCollider"],
              "setEnable": true
            },
            {
              "$type": "TriggerSetVisible",
              "visible": true,
              "target": "Self"
            },
            {
              "$type": "HideUIBillBoard",
              "hide": false,
              "target": "Self"
            },
            {
              "$type": "TriggerAbility",
              "abilityName": "Monster_Hound_Kanis_Rock_EyeEff_Add",
              "predicates": [
                {
                  "$type": "ByNot",
                  "predicates": [
                    {
                      "$type": "ByTargetGlobalValue",
                      "key": "_KANIS_POSE_TAG_",
                      "value": 2,
                      "compareType": "Equal"
                    }
                  ]
                }
              ]
            }
          ]
        },
        "Strike_Invincible": {
          "state": "Invincible"
        },
        "Strike_DenyLockOn": {
          "state": "DenyLockOn"
        },
        "Strike_Blink": {
          "duration": 0.3,
          "onAdded": [
            {
              "$type": "TriggerAbility",
              "abilityName": "Monster_Hound_Kanis_Rock_Strike_FindBlinkPoint"
            }
          ],
          "onRemoved": [
            {
              "$type": "TriggerAbility",
              "abilityName": "Monster_Hound_Kanis_Rock_Strike_DoBlink"
            }
          ]
        }
      }
    }
  },
  {
    "Default": {
      "$type": "ConfigAbility",
      "abilityName": "Monster_Hound_Kanis_Rock_Strike_FindBlinkPoint",
      "onAbilityStart": [
        {
          "$type": "TryFindBlinkPointByBorn",
          "target": "SelfAttackTarget",
          "hitSceneTest": true,
          "hitSceneType": "BlinkHitSceneTestByThreeSegments",
          "limitY": 2.5,
          "born": {
            "$type": "ConfigBornByTargetLinearPoint",
            "linearOffset": 0.85,
            "baseOnTarget": true,
            "linearXZ": false,
            "linearMax": 25,
            "offset": {
              "x": 0,
              "y": 0,
              "z": 0
            },
            "onGround": true
          },
          "predicates": [
            {
              "$type": "ByTargetGlobalValue",
              "key": "_ROUGUE_HOUNDSTRIKE_TAG_",
              "value": 0,
              "compareType": "NoneOrEqual",
              "target": "Self"
            }
          ]
        },
        {
          "$type": "TryFindBlinkPointByBorn",
          "target": "SelfAttackTarget",
          "hitSceneTest": true,
          "hitSceneType": "BlinkHitSceneTestByThreeSegments",
          "limitY": 2.5,
          "born": {
            "$type": "ConfigBornByTargetLinearPoint",
            "linearOffset": 0.85,
            "baseOnTarget": true,
            "linearXZ": false,
            "linearMax": 25,
            "offset": {
              "x": 0,
              "y": 0,
              "z": 0
            },
            "onGround": true
          },
          "predicates": [
            {
              "$type": "ByTargetGlobalValue",
              "key": "_ROUGUE_HOUNDSTRIKE_TAG_",
              "value": 1,
              "compareType": "Equal",
              "target": "Self"
            }
          ]
        }
      ]
    }
  },
  {
    "Default": {
      "$type": "ConfigAbility",
      "abilityName": "Monster_Hound_Kanis_Rock_Strike_DoBlink",
      "onAbilityStart": [
        {
          "$type": "DoBlink"
        },
        {
          "$type": "TurnDirectionToPos",
          "target": "SelfAttackTarget",
          "toPos": {
            "$type": "ConfigBornByTarget"
          }
        }
      ]
    }
  },
  {
    "Default": {
      "$type": "ConfigAbility",
      "abilityName": "Monster_Hound_Kanis_Rock_Strike_Attack",
      "onAbilityStart": [
        {
          "$type": "TriggerAttackEvent",
          "targetType": "Enemy",
          "attackEvent": {
            "attackPattern": {
              "$type": "ConfigAttackCircle",
              "triggerType": "TriggerNoRepeat",
              "height": 2.0,
              "fanAngle": 200.0,
              "radius": 2.5,
              "born": {
                "$type": "ConfigBornBySelf",
                "offset": {
                  "x": 0.0,
                  "y": -0.2,
                  "z": 0.72
                },
                "direction": {
                  "$type": "ConfigDirectionByDefault",
                  "angleOffset": {
                    "x": 0.0,
                    "y": 30.0,
                    "z": 0.0
                  }
                }
              }
            },
            "attackInfo": {
              "attackTag": "Hound_Corruption_Tag",
              "attackProperty": {
                "damagePercentage": 1.0,
                "strikeType": "Default",
                "attackType": "Default",
                "elementType": "Rock",
                "elementDurability": 50,
                "enBreak": 20.0
              },
              "hitPattern": {
                "onHitEffectName": "Eff_Monster_Riftstalker_Hit",
                "hitImpulseType": "LV2",
                "hitHaltTime": 0.0,
                "hitHaltTimeScale": 0.05,
                "muteHitText": false
              }
            }
          }
        },
        {
          "$type": "FireEffect",
          "effectPattern": "Eff_Monster_Kanis_Rock_Strike_Attack"
        }
      ]
    }
  },
  ////////////////////////////////////////////////////////////////
  //
  //  Biting
  //
  ////////////////////////////////////////////////////////////////
  {
    "Default": {
      "$type": "ConfigAbility",
      "abilityName": "Monster_Hound_Kanis_Rock_Biting",
      "abilityMixins": [
        {
          "$type": "AttachToNormalizedTimeMixin",
          "stateID": "Biting",
          "modifierName": "Biting_Action",
          "normalizeStart": 0.05,
          "normalizeEnd": 1
        }
      ],
      "modifiers": {
        "Biting_Action": {
          "onAdded": [
            {
              "$type": "Predicated",
              "target": "SelfAttackTarget",
              "targetPredicates": [
                {
                  "$type": "ByTargetPositionToSelfPosition",
                  "compareType": "XZ",
                  "value": 3.5,
                  "logic": "LesserOrEqual"
                }
              ],
              "successActions": [
                {
                  "$type": "TryFindBlinkPointByBorn",
                  "target": "SelfAttackTarget",
                  "hitSceneTest": true,
                  "hitSceneType": "BlinkHitSceneTestByThreeSegments",
                  "born": {
                    "$type": "ConfigBornBySelf",
                    "offset": {
                      "x": 0,
                      "y": 0,
                      "z": 1.0
                    }
                  }
                },
                {
                  "$type": "FixedMonsterRushMove",
                  "timeRange": 0.6,
                  "animatorStateIDs": ["Biting"],
                  "target": "Self",
                  "isInAir": false,
                  "toPos": {
                    "$type": "ConfigBornByTeleportToPoint"
                  }
                },
                {
                  "$type": "FireEffect",
                  "effectPattern": "Eff_Monster_Kanis_Rock_Biting"
                }
              ],
              "failActions": [
                {
                  "$type": "TryFindBlinkPointByBorn",
                  "target": "SelfAttackTarget",
                  "hitSceneTest": true,
                  "hitSceneType": "BlinkHitSceneTestByThreeSegments",
                  "born": {
                    "$type": "ConfigBornByTarget",
                    "offset": {
                      "x": 0,
                      "y": 0,
                      "z": -1.3
                    }
                  }
                },
                {
                  "$type": "FixedMonsterRushMove",
                  "timeRange": 1.0,
                  "animatorStateIDs": ["Biting"],
                  "target": "Self",
                  "isInAir": false,
                  "toPos": {
                    "$type": "ConfigBornByTeleportToPoint"
                  }
                },
                {
                  "$type": "FireEffect",
                  "effectPattern": "Eff_Monster_Kanis_Rock_Biting"
                }
              ]
            }
          ]
        }
      }
    }
  },
  ////////////////////////////////////////////////////////////////
  //
  //  Activated
  //
  ////////////////////////////////////////////////////////////////
  {
    "Default": {
      "$type": "ConfigAbility",
      "abilityName": "Monster_Hound_Kanis_Rock_Acitvated",
      "abilityMixins": [
        {
          "$type": "AttachToNormalizedTimeMixin",
          "stateID": "Activated",
          "modifierName": "Kanis_Activated_Actions",
          "normalizeStart": 0.05,
          "normalizeEnd": 1
        }
      ],
      "modifiers": {
        "Kanis_Activated_Actions": {
          "onAdded": [
            {
              "$type": "SetGlobalValue",
              "key": "_KANIS_POSE_TAG_",
              "value": 2
            }
          ],
          "onRemoved": [
            {
              "$type": "RemoveUniqueModifier",
              "modifierName": "UNIQUE_Kanis_ChargeBar"
            },
            {
              "$type": "SetAISkillCDAvailableNow",
              "skillIDs": [601]
            }
          ]
        }
      }
    }
  }
]
