[
  ////////////////////////////////////////////////////////////////
  //
  //  Elite_BackHit
  //
  ////////////////////////////////////////////////////////////////
  {
    "Default": {
      "$type": "ConfigAbility",
      "abilityName": "Monster_Gator_Sacred_SacredAttack06_Elite",
      "isDynamicAbility": true,
      "onAdded": [
        {
          "$type": "SetGlobalValue",
          "key": "_Monster_Gator_Sacred_Elite",
          "value": 1
        }
      ]
    }
  },
  ////////////////////////////////////////////////////////////////
  //
  //  HeadControlOff
  //
  ////////////////////////////////////////////////////////////////
  {
    "Default": {
      "$type": "ConfigAbility",
      "abilityName": "Monster_Gator_Sacred_HeadControlOff",
      "abilityMixins": [
        {
          "$type": "AttachToAIAlertnessMixin",
          "alertness": [0, 1],
          "modifierName": "HeadControl_Disable"
        }
      ],
      "modifiers": {
        "HeadControl_Disable": {
          "onAdded": [
            {
              "$type": "EnableHeadControl",
              "enable": false
            }
          ],
          "onRemoved": [
            {
              "$type": "EnableHeadControl",
              "enable": true
            }
          ]
        }
      }
    }
  },
  ////////////////////////////////////////////////////////////////
  //
  //  SteerAttack
  //
  ////////////////////////////////////////////////////////////////
  {
    "Default": {
      "$type": "ConfigAbility",
      "abilityName": "Monster_Gator_Sacred_SteerAttack",
      "onAdded": [
        {
          "$type": "SetGlobalValue",
          "key": "Monster_Gator_Sacred",
          "value": 1,
          "target": "Self"
        }
      ],
      "abilityMixins": [
        {
          "$type": "SteerAttackMixin",
          "steerStateIDs": ["Attack_01_BS"],
          "startNormalizedTime": 0.1,
          "endNormalizedTime": 0.3,
          "angularSpeed": 120,
          "attackTrigger": ""
        },
        {
          "$type": "SteerAttackMixin",
          "steerStateIDs": ["Attack_01_Loop"],
          "startNormalizedTime": 0.0,
          "endNormalizedTime": 20.0,
          "angularSpeed": 90,
          "attackTrigger": ""
        },
        {
          "$type": "SteerAttackMixin",
          "steerStateIDs": ["Attack_01_AS"],
          "startNormalizedTime": 0.0,
          "endNormalizedTime": 0.13,
          "angularSpeed": 120,
          "attackTrigger": ""
        },
        {
          "$type": "SteerAttackMixin",
          "steerStateIDs": ["Sacred_Attack01_BS"],
          "startNormalizedTime": 0.1,
          "endNormalizedTime": 0.5,
          "angularSpeed": 120,
          "attackTrigger": ""
        },
        {
          "$type": "SteerAttackMixin",
          "steerStateIDs": ["Sacred_Attack01_BS"],
          "startNormalizedTime": 0.75,
          "endNormalizedTime": 1.0,
          "angularSpeed": 120,
          "attackTrigger": ""
        },
        {
          "$type": "SteerAttackMixin",
          "steerStateIDs": ["Sacred_Attack01_Loop"],
          "startNormalizedTime": 0.0,
          "endNormalizedTime": 20.0,
          "angularSpeed": 90,
          "attackTrigger": ""
        },
        {
          "$type": "SteerAttackMixin",
          "steerStateIDs": ["Sacred_Attack01_AS"],
          "startNormalizedTime": 0.0,
          "endNormalizedTime": 0.25,
          "angularSpeed": 120,
          "attackTrigger": ""
        },
        {
          "$type": "SteerAttackMixin",
          "steerStateIDs": ["Sacred_Attack02"],
          "startNormalizedTime": 0.03,
          "endNormalizedTime": 0.1,
          "angularSpeed": 120,
          "attackTrigger": ""
        },
        {
          "$type": "SteerAttackMixin",
          "steerStateIDs": ["Sacred_Attack02"],
          "startNormalizedTime": 0.28,
          "endNormalizedTime": 0.45,
          "angularSpeed": 120,
          "attackTrigger": ""
        },
        {
          "$type": "SteerAttackMixin",
          "steerStateIDs": ["Sacred_Attack03"],
          "startNormalizedTime": 0.0,
          "endNormalizedTime": 0.06,
          "angularSpeed": 120,
          "attackTrigger": ""
        },
        {
          "$type": "SteerAttackMixin",
          "steerStateIDs": ["Sacred_Attack04"],
          "startNormalizedTime": 0.0,
          "endNormalizedTime": 0.1,
          "angularSpeed": 120,
          "attackTrigger": ""
        },
        {
          "$type": "SteerAttackMixin",
          "steerStateIDs": ["Sacred_Attack04"],
          "startNormalizedTime": 0.18,
          "endNormalizedTime": 0.23,
          "angularSpeed": 120,
          "attackTrigger": ""
        },
        {
          "$type": "SteerAttackMixin",
          "steerStateIDs": ["Sacred_Attack04"],
          "startNormalizedTime": 0.32,
          "endNormalizedTime": 0.38,
          "angularSpeed": 120,
          "attackTrigger": ""
        },
        {
          "$type": "SteerAttackMixin",
          "steerStateIDs": ["Sacred_Attack04"],
          "startNormalizedTime": 0.42,
          "endNormalizedTime": 0.5,
          "angularSpeed": 120,
          "attackTrigger": ""
        },
        {
          "$type": "SteerAttackMixin",
          "steerStateIDs": ["Sacred_Attack04"],
          "startNormalizedTime": 0.54,
          "endNormalizedTime": 0.6,
          "angularSpeed": 120,
          "attackTrigger": ""
        },
        {
          "$type": "SteerAttackMixin",
          "steerStateIDs": ["Sacred_Attack05"],
          "startNormalizedTime": 0.05,
          "endNormalizedTime": 0.11,
          "angularSpeed": 120,
          "attackTrigger": ""
        },
        {
          "$type": "SteerAttackMixin",
          "steerStateIDs": ["Sacred_Attack05"],
          "startNormalizedTime": 0.53,
          "endNormalizedTime": 0.7,
          "angularSpeed": 120,
          "attackTrigger": ""
        },
        {
          "$type": "SteerAttackMixin",
          "steerStateIDs": ["Sacred_Attack06_AS2"],
          "startNormalizedTime": 0.0,
          "endNormalizedTime": 0.2,
          "angularSpeed": 120,
          "attackTrigger": ""
        },
        {
          "$type": "SteerAttackMixin",
          "steerStateIDs": ["TurnRight"],
          "startNormalizedTime": 0.1,
          "endNormalizedTime": 0.43,
          "angularSpeed": 180,
          "attackTrigger": ""
        },
        {
          "$type": "SteerAttackMixin",
          "steerStateIDs": ["TurnLeft"],
          "startNormalizedTime": 0.1,
          "endNormalizedTime": 0.43,
          "angularSpeed": 180,
          "attackTrigger": ""
        }
      ]
    }
  },
  ////////////////////////////////////////////////////////////////
  //
  //  Attack01
  //
  ////////////////////////////////////////////////////////////////
  {
    "Default": {
      "$type": "ConfigAbility",
      "abilityName": "Monster_Gator_Sacred_Attack01",
      "abilityMixins": [
        {
          "$type": "AttachToStateIDMixin",
          "stateIDs": ["Attack_01_BS"],
          "modifierName": "Attack01ParamReset"
        },
        {
          "$type": "AttachToStateIDMixin",
          "stateIDs": ["Attack_01_Loop"],
          "modifierName": "Attack01RunCheck"
        }
      ],
      "modifiers": {
        "Attack01ParamReset": {
          "duration": 0.5,
          "onAdded": [
            {
              "$type": "SetAnimatorInt",
              "intID": "Attack01Target",
              "value": 0
            },
            {
              "$type": "SetAnimatorInt",
              "intID": "WaterAttack01Target",
              "value": 0
            }
          ]
        },
        "Attack01RunCheck": {
          "thinkInterval": 0.1,
          "onThinkInterval": [
            {
              "$type": "Predicated",
              "target": "SelfAttackTarget",
              "targetPredicates": [
                {
                  "$type": "ByTargetPositionToSelfPosition",
                  "compareType": "XZ",
                  "value": 6,
                  "logic": "LesserOrEqual"
                },
                {
                  "$type": "ByTargetPositionToSelfPosition",
                  "compareType": "Y",
                  "value": 3,
                  "logic": "LesserOrEqual"
                }
              ],
              "successActions": [
                {
                  "$type": "SetAnimatorInt",
                  "intID": "Attack01Target",
                  "value": 1
                }
              ],
              "failActions": [
                {
                  "$type": "SetAnimatorInt",
                  "intID": "Attack01Target",
                  "value": 0
                }
              ]
            }
          ]
        }
      }
    }
  },
  ////////////////////////////////////////////////////////////////
  //
  //  SacredAttack06
  //
  ////////////////////////////////////////////////////////////////
  {
    "Default": {
      "$type": "ConfigAbility",
      "abilityName": "Monster_Gator_Sacred_SacredAttack06",
      "abilityMixins": [
        {
          "$type": "AttachToStateIDMixin",
          "stateIDs": ["Sacred_Attack06"],
          "modifierName": "Attack06ParamReset"
        },
        {
          "$type": "AttachToStateIDMixin",
          "stateIDs": ["Sacred_Attack06"],
          "modifierName": "Attack06RunCheck"
        }
      ],
      "modifiers": {
        "Attack06ParamReset": {
          "duration": 0.5,
          "onAdded": [
            {
              "$type": "SetAnimatorInt",
              "intID": "BackHit",
              "value": 0
            }
          ]
        },
        "Attack06RunCheck": {
          "thinkInterval": 0.1,
          "onThinkInterval": [
            {
              "$type": "Predicated",
              "target": "SelfAttackTarget",
              "targetPredicates": [
                {
                  "$type": "ByTargetPositionToSelfPosition",
                  "compareType": "XZ",
                  "value": 8,
                  "logic": "LesserOrEqual"
                },
                {
                  "$type": "ByTargetGlobalValue",
                  "target": "Self",
                  "key": "_Monster_Gator_Sacred_Elite",
                  "value": 1,
                  "compareType": "Equal"
                }
              ],
              "successActions": [
                {
                  "$type": "SetAnimatorInt",
                  "intID": "BackHit",
                  "value": 1
                }
              ],
              "failActions": [
                {
                  "$type": "SetAnimatorInt",
                  "intID": "BackHit",
                  "value": 0
                }
              ]
            }
          ]
        }
      }
    }
  },
  ////////////////////////////////////////////////////////////////
  //
  //  SacredAttack01
  //
  ////////////////////////////////////////////////////////////////
  {
    "Default": {
      "$type": "ConfigAbility",
      "abilityName": "Monster_Gator_Sacred_SacredAttack01",
      "abilityMixins": [
        {
          "$type": "AttachToStateIDMixin",
          "stateIDs": ["Sacred_Attack01_Loop"],
          "modifierName": "SacredAttack01Hit"
        },
        {
          "$type": "AttachToStateIDMixin",
          "stateIDs": ["Sacred_Attack01_Loop"],
          "modifierName": "SacredAttack01LoopEffect"
        },
        {
          "$type": "AttachToNormalizedTimeMixin",
          "normalizeStart": 0,
          "normalizeEnd": 0.1,
          "stateID": "Sacred_Attack01_AS",
          "modifierName": "SacredAttack01LoopEffect"
        },
        {
          "$type": "AttachToNormalizedTimeMixin",
          "normalizeStart": 0,
          "normalizeEnd": 0.13,
          "stateID": "Sacred_Attack01_AS",
          "modifierName": "SacredAttack01Hit"
        },
        {
          "$type": "AttachToNormalizedTimeMixin",
          "normalizeStart": 0,
          "normalizeEnd": 0.13,
          "stateID": "Sacred_Attack01_AS2",
          "modifierName": "SacredAttack01Hit"
        },
        {
          "$type": "AttachToStateIDMixin",
          "stateIDs": ["Sacred_Attack01_BS"],
          "modifierName": "SacredAttack01ParamReset"
        },
        {
          "$type": "AttachToStateIDMixin",
          "stateIDs": ["Sacred_Attack01_Loop"],
          "modifierName": "SacredAttack01RunCheck"
        }
      ],
      "modifiers": {
        "SacredAttack01LoopEffect": {
          "onAdded": [
            {
              "$type": "AttachEffect",
              "effectPattern": "Eff_Monster_Gator_Sacred_SacredAttack01_Loop"
            }
          ]
        },
        "SacredAttack01ParamReset": {
          "duration": 0.5,
          "onAdded": [
            {
              "$type": "SetAnimatorInt",
              "intID": "Attack01Target",
              "value": 0
            },
            {
              "$type": "SetAnimatorInt",
              "intID": "WaterAttack01Target",
              "value": 0
            }
          ]
        },
        "SacredAttack01RunCheck": {
          "thinkInterval": 0.1,
          "onThinkInterval": [
            {
              "$type": "Predicated",
              "target": "SelfAttackTarget",
              "targetPredicates": [
                {
                  "$type": "ByTargetPositionToSelfPosition",
                  "compareType": "XZ",
                  "value": 8,
                  "logic": "LesserOrEqual"
                },
                {
                  "$type": "ByTargetPositionToSelfPosition",
                  "compareType": "Y",
                  "value": 3,
                  "logic": "LesserOrEqual"
                }
              ],
              "successActions": [
                {
                  "$type": "SetAnimatorInt",
                  "intID": "Attack01Target",
                  "value": 1
                }
              ],
              "failActions": [
                {
                  "$type": "SetAnimatorInt",
                  "intID": "Attack01Target",
                  "value": 0
                }
              ]
            }
          ]
        },
        "SacredAttack01Hit": {
          "thinkInterval": 0.1,
          "onThinkInterval": [
            {
              "$type": "TriggerAttackEvent",
              "target": "Self",
              "targetType": "Enemy",
              "attackEvent": {
                "attackPattern": {
                  "$type": "ConfigAttackBox",
                  "triggerType": "TriggerNoRepeat",
                  "born": {
                    "$type": "ConfigBornBySelf",
                    "offset": {
                      "x": 0.0,
                      "y": 0.0,
                      "z": 0.0
                    }
                  },
                  "size": {
                    "x": 2,
                    "y": 4,
                    "z": 3
                  }
                },
                "attackInfo": {
                  // "attenuationTag": "Animal_Boar_03_RushAttack",
                  // "attenuationGroup":"Animal_Boar_03_RushAttack",
                  "attackProperty": {
                    "damagePercentage": 0.1,
                    "strikeType": "Blunt",
                    "enBreak": 200,
                    "elementType": "Water",
                    "elementDurability": 30
                  },
                  "hitPattern": {
                    "hitImpulseType": "LV3",
                    "hitHaltTime": 0.0,
                    "hitHaltTimeScale": 0.05,
                    "muteHitText": true,
                    "retreatType": "ByTangent"
                  }
                }
              }
            }
          ]
        }
      }
    }
  },
  ////////////////////////////////////////////////////////////////
  //
  //  SacredAttack02
  //
  ////////////////////////////////////////////////////////////////
  {
    "Default": {
      "$type": "ConfigAbility",
      "abilityName": "Monster_Gator_Sacred_SacredAttack02",
      "abilityMixins": [
        {
          "$type": "AttachToNormalizedTimeMixin",
          "normalizeStart": 0.46,
          "normalizeEnd": 0.54,
          "stateID": "Sacred_Attack02",
          "modifierName": "SacredAttack02_FollowBullet"
        }
      ],
      "modifiers": {
        "SacredAttack02_FollowBullet": {
          "modifierMixins": [
            {
              "$type": "AttachActionToModifierMixin",
              "onAdded": [
                {
                  "$type": "EnablePushColliderName",
                  "pushColliderNames": ["PushCollider"],
                  "setEnable": false
                },
                {
                  "$type": "EnablePushColliderName",
                  "pushColliderNames": ["PushCollider_Dash"],
                  "setEnable": true
                }
              ],
              "onRemoved": [
                {
                  "$type": "EnablePushColliderName",
                  "pushColliderNames": ["PushCollider"],
                  "setEnable": true
                },
                {
                  "$type": "EnablePushColliderName",
                  "pushColliderNames": ["PushCollider_Dash"],
                  "setEnable": false
                }
              ]
            }
          ],
          "onAdded": [
            {
              "$type": "AttachEffect",
              "effectPattern": "Eff_Monster_Gator_Sacred_SacredAttack02_Hit2"
            },
            {
              "$type": "TriggerBullet",
              "bulletID": 42406101,
              "target": "Self",
              "born": {
                "$type": "ConfigBornByAttachPoint",
                "attachPointName": "RootNode",
                "attachPointTargetType": "Self"
              },
              "lifeByOwnerV2": true,
              "trackTarget": "Self"
            }
          ],
          "onRemoved": [
            {
              "$type": "KillSelf",
              "otherTargets": {
                "$type": "SelectTargetsByChildren",
                "configID": 42406101,
                "sortType": "Default"
              }
            }
          ]
        }
      }
    }
  },
  {
    "Default": {
      "$type": "ConfigAbility",
      "abilityName": "Monster_Gator_Sacred_SacredAttack02_DashHit",
      "onAbilityStart": [
        {
          "$type": "TriggerAttackEvent",
          "targetType": "Enemy",
          "attackEvent": {
            "attackPattern": {
              "$type": "ConfigAttackSphere",
              "triggerType": "TriggerNoRepeat",
              "radius": 0.5,
              "born": {
                "$type": "ConfigBornByCollisionPoint"
              }
            },
            "attackInfo": {
              "canBeModifiedBy": "OriginOwner",
              "attackProperty": {
                "damagePercentage": 0.9,
                "strikeType": "Blunt",
                "enBreak": 200,
                "elementType": "Water",
                "elementDurability": 30
              },
              "hitPattern": {
                "onHitEffectName": "default",
                "hitImpulseType": "LV5",
                "hitHaltTime": 0.0,
                "hitHaltTimeScale": 0.01,
                "muteHitText": false
              }
            }
          }
        },
        {
          "$type": "KillSelf"
        }
      ]
    }
  },
  ////////////////////////////////////////////////////////////////
  //
  //  SacredAttack03
  //
  ////////////////////////////////////////////////////////////////
  {
    "Default": {
      "$type": "ConfigAbility",
      "abilityName": "Monster_Gator_Sacred_SacredAttack03_Hit1",
      "onAbilityStart": [
        {
          "$type": "TriggerBullet",
          "bulletID": 42406102,
          "born": {
            "$type": "ConfigBornBySelf",
            "offset": {
              "x": -0.237,
              "y": 0.762,
              "z": 2.449
            },
            "direction": {
              "$type": "ConfigDirectionByAttackTarget"
            }
          }
        }
      ]
    }
  },
  {
    "Default": {
      "$type": "ConfigAbility",
      "abilityName": "Monster_Gator_Sacred_SacredAttack03_Hit2",
      "onAbilityStart": [
        {
          "$type": "TriggerBullet",
          "bulletID": 42406103,
          "born": {
            "$type": "ConfigBornBySelf",
            "offset": {
              "x": 0.86,
              "y": 0.547,
              "z": 2.25
            },
            "direction": {
              "$type": "ConfigDirectionByAttackTarget"
            }
          }
        }
      ]
    }
  },
  {
    "Default": {
      "$type": "ConfigAbility",
      "abilityName": "Monster_Gator_Sacred_SacredAttack03_Hit3",
      "onAbilityStart": [
        {
          "$type": "TriggerBullet",
          "bulletID": 42406104,
          "born": {
            "$type": "ConfigBornBySelf",
            "offset": {
              "x": 4.348,
              "y": 3,
              "z": -0.585
            },
            "direction": {
              "$type": "ConfigDirectionByAttackTarget"
            }
          }
        }
      ]
    }
  },
  {
    "Default": {
      "$type": "ConfigAbility",
      "abilityName": "Monster_Gator_Sacred_SacredAttack03_Hit1Bullet",
      "onAdded": [
        {
          "$type": "AttachEffect",
          "effectPattern": "Eff_Monster_Gator_Sacred_SacredAttack03_Bullet1" //临时，小雪球飞行特效
        }
      ],
      "onKill": [
        {
          "$type": "AttachEffect",
          "effectPattern": "Eff_Monster_Gator_Sacred_SacredAttack03_Bullet1_Explode" //临时，小雪球飞行特效
        }
      ],
      "onAbilityStart": [
        {
          "$type": "TriggerAttackEvent",
          "targetType": "Enemy",
          "attackEvent": {
            "attackPattern": {
              "$type": "ConfigAttackSphere",
              "triggerType": "TriggerNoRepeat",
              "radius": 0.5,
              "born": {
                "$type": "ConfigBornByCollisionPoint"
              }
            },
            "attackInfo": {
              "canBeModifiedBy": "OriginOwner",
              "attackProperty": {
                "damagePercentage": 0.6,
                "strikeType": "Blunt",
                "enBreak": 200,
                "elementType": "Water",
                "elementDurability": 30
              },
              "hitPattern": {
                "hitImpulseType": "LV4",
                "hitHaltTime": 0.0,
                "hitHaltTimeScale": 0.01,
                "muteHitText": false
              }
            }
          }
        }
      ]
    }
  },
  {
    "Default": {
      "$type": "ConfigAbility",
      "abilityName": "Monster_Gator_Sacred_SacredAttack03_Hit2Bullet",
      "onAdded": [
        {
          "$type": "AttachEffect",
          "effectPattern": "Eff_Monster_Gator_Sacred_SacredAttack03_Bullet2" //临时，小雪球飞行特效
        }
      ],
      "onKill": [
        {
          "$type": "AttachEffect",
          "effectPattern": "Eff_Monster_Gator_Sacred_SacredAttack03_Bullet2_Explode" //临时，小雪球飞行特效
        }
      ],
      "onAbilityStart": [
        {
          "$type": "TriggerAttackEvent",
          "targetType": "Enemy",
          "attackEvent": {
            "attackPattern": {
              "$type": "ConfigAttackSphere",
              "triggerType": "TriggerNoRepeat",
              "radius": 0.5,
              "born": {
                "$type": "ConfigBornByCollisionPoint"
              }
            },
            "attackInfo": {
              "canBeModifiedBy": "OriginOwner",
              "attackProperty": {
                "damagePercentage": 0.6,
                "strikeType": "Blunt",
                "enBreak": 200,
                "elementType": "Water",
                "elementDurability": 30
              },
              "hitPattern": {
                "hitImpulseType": "LV4",
                "hitHaltTime": 0.0,
                "hitHaltTimeScale": 0.01,
                "muteHitText": false
              }
            }
          }
        }
      ]
    }
  },
  {
    "Default": {
      "$type": "ConfigAbility",
      "abilityName": "Monster_Gator_Sacred_SacredAttack03_Hit3Bullet",
      "onAdded": [
        {
          "$type": "AttachEffect",
          "effectPattern": "Eff_Monster_Gator_Sacred_SacredAttack03_Bullet3" //临时，小雪球飞行特效
        }
      ],
      "onAbilityStart": [
        {
          "$type": "TriggerAttackEvent",
          "targetType": "Enemy",
          "attackEvent": {
            "attackPattern": {
              "$type": "ConfigAttackSphere",
              "triggerType": "TriggerNoRepeat",
              "radius": 0.5,
              "born": {
                "$type": "ConfigBornByCollisionPoint"
              }
            },
            "attackInfo": {
              "canBeModifiedBy": "OriginOwner",
              "attackProperty": {
                "damagePercentage": 0.8,
                "strikeType": "Blunt",
                "enBreak": 200,
                "elementType": "Water",
                "elementDurability": 30
              },
              "hitPattern": {
                "hitImpulseType": "LV5",
                "hitHaltTime": 0.0,
                "hitHaltTimeScale": 0.01,
                "muteHitText": false
              }
            }
          }
        }
      ]
    }
  },
  ////////////////////////////////////////////////////////////////
  //
  //  SacredAttack05
  //
  ////////////////////////////////////////////////////////////////
  {
    "Default": {
      "$type": "ConfigAbility",
      "abilityName": "Monster_Gator_Sacred_SacredAttack05_BS",
      "onAbilityStart": [
        {
          "$type": "SetGlobalPos",
          "key": "ThunderPos1",
          "target": "SelfAttackTarget",
          "setTarget": false,
          "born": {
            "$type": "ConfigBornByTarget",
            "offset": {
              "x": 0,
              "y": 0,
              "z": 0
            },
            "onGround": true
          }
        },
        {
          "$type": "FireEffect",
          "effectPattern": "Eff_Monster_Gator_Sacred_SacredAttack05_Warning",
          "born": {
            "$type": "ConfigBornByGlobalValue",
            "positionKey": "ThunderPos1"
          }
        }
      ]
    }
  },
  {
    "Default": {
      "$type": "ConfigAbility",
      "abilityName": "Monster_Gator_Sacred_SacredAttack05_Hit1",
      "onAbilityStart": [
        {
          "$type": "ActCameraShake",
          "cameraShake": {
            "shakeRange": 5.0,
            "shakeTime": 0.4,
            "shakeDistance": 30
          },
          "born": {
            "$type": "ConfigBornByGlobalValue",
            "positionKey": "ThunderPos1"
          }
        },
        {
          "$type": "FireEffect",
          "effectPattern": "Eff_Monster_Gator_Sacred_SacredAttack05_Hit_1", //临时，雷击特效
          "born": {
            "$type": "ConfigBornByGlobalValue",
            "positionKey": "ThunderPos1"
          }
        },
        {
          "$type": "TriggerAttackEvent",
          "targetType": "Enemy",
          "attackEvent": {
            "attackPattern": {
              "$type": "ConfigAttackCircle",
              "triggerType": "TriggerNoRepeat",
              "height": 3.0,
              "fanAngle": 360.0,
              "radius": 5,
              "born": {
                "$type": "ConfigBornByGlobalValue",
                "positionKey": "ThunderPos1"
              }
            },
            "attackInfo": {
              "canBeModifiedBy": "OriginOwner",
              "attackProperty": {
                "damagePercentage": 0.8,
                "strikeType": "Blunt",
                "enBreak": 200,
                "elementType": "Water",
                "elementDurability": 30
              },
              "hitPattern": {
                "hitImpulseType": "LV5",
                "hitHaltTime": 0.0,
                "hitHaltTimeScale": 0.01,
                "muteHitText": false
              }
            }
          }
        }
      ]
    }
  },
  {
    "Default": {
      "$type": "ConfigAbility",
      "abilityName": "Monster_Gator_Sacred_SacredAttack05_Hit2",
      "onAbilityStart": [
        {
          "$type": "FireEffect",
          "effectPattern": "Eff_Monster_Gator_Sacred_SacredAttack05_Hit_2", //临时，雷击特效
          "born": {
            "$type": "ConfigBornByGlobalValue",
            "positionKey": "ThunderPos1"
          }
        },
        {
          "$type": "TriggerAttackEvent",
          "targetType": "Enemy",
          "attackEvent": {
            "attackPattern": {
              "$type": "ConfigAttackCircle",
              "triggerType": "TriggerNoRepeat",
              "height": 3.0,
              "fanAngle": 360.0,
              "innerRadius": 5,
              "radius": 9,
              "born": {
                "$type": "ConfigBornByGlobalValue",
                "positionKey": "ThunderPos1"
              }
            },
            "attackInfo": {
              "canBeModifiedBy": "OriginOwner",
              "attackProperty": {
                "damagePercentage": 1.0,
                "strikeType": "Blunt",
                "enBreak": 200,
                "elementType": "Water",
                "elementDurability": 30
              },
              "hitPattern": {
                "hitImpulseType": "LV4",
                "hitHaltTime": 0.0,
                "hitHaltTimeScale": 0.01,
                "muteHitText": false
              }
            }
          }
        }
      ]
    }
  },
  ////////////////////////////////////////////////////////////////
  //
  //  SacredEnergy
  //
  ////////////////////////////////////////////////////////////////
  {
    "Default": {
      "$type": "ConfigAbility",
      "abilityName": "Monster_Gator_Sacred_SacredEnergy_Accum"
    }
  },
  {
    "Default": {
      "$type": "ConfigAbility",
      "abilityName": "Monster_Gator_Sacred_SacredEnergy_Accum_Create",
      "onAbilityStart": [
        {
          "$type": "SetSelfAttackTarget",
          "otherTargets": {
            "$type": "SelectTargetsByShape",
            "shapeName": "CircleR50",
            "centerBasedOn": "Self",
            "campTargetType": "All",
            "campBasedOn": "Self",
            "sortType": "Nearest",
            "entityTypePriority": ["Gadget"]
          },
          "predicates": [
            {
              "$type": "ByTargetGlobalValue",
              "key": "Gator_SacredEnergy_Gadget",
              "value": 1,
              "compareType": "Equal"
            }
          ]
        },
        {
          "$type": "TriggerBullet",
          "bulletID": 42406106,
          "target": "SelfAttackTarget",
          "born": {
            "$type": "ConfigBornBySelf"
          }
        },
        {
          "$type": "ResetAIAttackTarget"
        }
      ]
    }
  },
  {
    "Default": {
      "$type": "ConfigAbility",
      "abilityName": "Monster_Gator_Sacred_SacredEnergy_Detect",
      "onAbilityStart": [
        {
          "$type": "TriggerBullet",
          "bulletID": 42406105,
          "lifeByOwnerIsAlive": true,
          "born": {
            "$type": "ConfigBornBySelf",
            "offset": {
              "x": 0,
              "y": 1.0,
              "z": 2.0
            },
            "direction": {
              "$type": "ConfigDirectionByDefault",
              "angleOffset": {
                "x": 0,
                "y": 0,
                "z": 0
              }
            }
          }
        }
      ]
    }
  },
  {
    "Default": {
      "$type": "ConfigAbility",
      "abilityName": "Monster_Gator_Sacred_SacredEnergy_Create",
      "onAbilityStart": [
        {
          "$type": "CreateGadget",
          "gadgetID": 42406107,
          "campID": 4001,
          "byServer": true,
          "born": {
            "$type": "ConfigBornByCollisionPoint",
            "onGround": true,
            "alongGround": true
          }
        },
        {
          "$type": "KillSelf"
        }
      ]
    }
  },
  {
    "Default": {
      "$type": "ConfigAbility",
      "abilityName": "Monster_Gator_Sacred_SacredEnergy_CreateO",
      "onAbilityStart": [
        {
          "$type": "CreateGadget",
          "gadgetID": 42406107,
          "campID": 4001,
          "byServer": true,
          "born": {
            "$type": "ConfigBornBySelf",
            "onGround": true,
            "alongGround": true
          }
        },
        {
          "$type": "KillSelf"
        }
      ]
    }
  },
  {
    "Default": {
      "$type": "ConfigAbility",
      "abilityName": "Monster_Gator_Sacred_SacredEnergy_Gadget",
      "onAdded": [
        {
          "$type": "ApplyModifier",
          "modifierName": "DarkHoundGadget_DelayHandler"
        },
        {
          "$type": "ApplyModifier",
          "modifierName": "DarkHoundGadget_DelayHandler_Effect"
        },
        {
          "$type": "SetGlobalValue",
          "key": "_CHARGEBAR_VALUE",
          "value": 0
        },
        {
          "$type": "SetGlobalValue",
          "key": "Gator_SacredEnergy_Gadget",
          "value": 1
        },
        {
          "$type": "EnablePushColliderName",
          "pushColliderNames": ["PushCollider_Occluder"],
          "setEnable": true
        },
        {
          "$type": "EnablePushColliderName",
          "pushColliderNames": ["PushCollider"],
          "setEnable": false
        }
      ],
      "modifiers": {
        "DarkHoundGadget_DelayHandler_Effect": {
          "duration": 1.35,
          "onRemoved": [
            {
              "$type": "FireEffect",
              "effectPattern": "Eff_Monster_Gator_Sacred_SacredAttack05_SacredEnergy_Hit"
            }
          ]
        },
        "DarkHoundGadget_DelayHandler": {
          "duration": 1.4,
          "onRemoved": [
            {
              "$type": "ApplyModifier",
              "modifierName": "DarkHoundGadget_ChargeState"
            },
            {
              "$type": "EnablePushColliderName",
              "pushColliderNames": ["PushCollider"],
              "setEnable": true
            }
          ]
        },
        "DarkHoundGadget_ChargeState": {
          "duration": 10,
          "modifierMixins": [
            {
              "$type": "ChargeBarMixin",
              "chargeBarElementType": "Water",
              "chargeBarIconID": 1,
              "initialValue": 0,
              "maxValue": 10
            },
            {
              "$type": "AttachModifierToSelfGlobalValueMixin",
              "globalValueKey": "_CHARGEBAR_VALUE",
              "valueSteps": [9.5, 10.5],
              "removeAppliedModifier": true,
              "modifierNameSteps": ["DarkHoundGadget_ChargeEnd"]
            }
          ],
          "onAdded": [
            {
              "$type": "AttachEffect",
              "effectPattern": "Eff_Monster_Gator_Sacred_SacredEnergy"
            },
            {
              "$type": "AttachEffect",
              "effectPattern": "Eff_Monster_Gator_Sacred_SacredSmoke"
            }
          ],
          "onBeingHit": [
            {
              "$type": "SetSelfAttackTarget",
              "target": "Target"
            },
            {
              "$type": "FireEffect",
              "effectPattern": "Eff_Monster_Gator_Sacred_SacredEnergyBeHit",
              "born": {
                "$type": "ConfigBornByHitPoint",
                "offset": {
                  "x": 0.0,
                  "y": 0.0,
                  "z": 0.0
                }
              }
            },
            {
              "$type": "AddChargeBarValue",
              "value": 5,
              "predicates": [
                {
                  "$type": "ByAny",
                  "predicates": [
                    {
                      "$type": "ByHitElement",
                      "element": "Water"
                    }
                  ]
                }
              ]
            },
            {
              "$type": "AddChargeBarValue",
              "value": 1.25,
              "predicates": [
                {
                  "$type": "ByAny",
                  "predicates": [
                    {
                      "$type": "ByHitElement",
                      "element": "Wind"
                    },
                    {
                      "$type": "ByHitElement",
                      "element": "Fire"
                    },
                    {
                      "$type": "ByHitElement",
                      "element": "Electric"
                    },
                    {
                      "$type": "ByHitElement",
                      "element": "Ice"
                    },
                    {
                      "$type": "ByHitElement",
                      "element": "Grass"
                    },
                    {
                      "$type": "ByHitElement",
                      "element": "Rock"
                    }
                  ]
                }
              ]
            }
          ],
          "onRemoved": [
            {
              "$type": "EnableHitBoxByName",
              "hitBoxNames": ["HitBox"],
              "setEnable": false
            },
            {
              "$type": "FireEffect",
              "effectPattern": "Eff_Monster_Gator_Sacred_SacredEnergyDisappear",
              "predicates": [
                {
                  "$type": "ByTargetGlobalValue",
                  "compareType": "LessAndEqual",
                  "key": "_CHARGEBAR_VALUE",
                  "target": "Self",
                  "value": 9
                }
              ]
            },
            {
              "$type": "TriggerBullet",
              "target": "OriginOwner",
              "bulletID": 42406109,
              "trackTarget": "Target",
              "born": {
                "$type": "ConfigBornByAttachPoint",
                "attachPointName": "RootNode",
                "attachPointTargetType": "Self",
                "offset": {
                  "x": 0.0,
                  "y": 0.0,
                  "z": 0.0
                },
                "direction": {
                  "$type": "ConfigDirectionByAttachPoint",
                  "attachPointName": "RootNode",
                  "attachPointTargetType": "Self",
                  "angleOffset": {
                    "x": 0.0,
                    "y": 0.0,
                    "z": 0.0
                  }
                }
              },
              "predicates": [
                {
                  "$type": "ByTargetGlobalValue",
                  "compareType": "LessAndEqual",
                  "key": "_CHARGEBAR_VALUE",
                  "target": "Self",
                  "value": 9
                }
              ]
            },
            {
              "$type": "KillSelf",
              "duration": 0.2
            }
          ]
        },
        "DarkHoundGadget_ChargeEnd": {
          "onAdded": [
            {
              "$type": "ApplyModifier",
              "modifierName": "FireHolyHound_Timer"
            },
            {
              "$type": "ApplyModifier",
              "target": "OriginOwner",
              "modifierName": "SacredEnergy_Recover_CountDown"
            },
            {
              "$type": "EnableHitBoxByName",
              "hitBoxNames": ["HitBox"],
              "setEnable": false
            },
            {
              "$type": "RemoveModifier",
              "modifierName": "DarkHoundGadget_ChargeState"
            }
          ]
        },
        "SacredEnergy_Recover_CountDown": {
          "stacking": "Refresh",
          "duration": 13,
          "onRemoved": [
            {
              "$type": "SetGlobalValue",
              "target": "Self",
              "key": "SacredEnergy_Recover_Gator",
              "value": 1,
              "predicates": [
                {
                  "$type": "ByAnimatorBool",
                  "target": "Self",
                  "parameter": "EnhanceSkin",
                  "logic": "Equal",
                  "value": false
                }
              ]
            }
          ]
        },
        "FireHolyHound_Timer": {
          "duration": 0.65,
          "onAdded": [
            {
              "$type": "FireEffect",
              "effectPattern": "Eff_Monster_Gator_Sacred_SacredEnergyTransform"
            },
            {
              "$type": "Predicated",
              "target": "Other",
              "otherTargets": {
                "$type": "SelectTargetsByShape",
                "shapeName": "CircleR50",
                "centerBasedOn": "Self",
                "campTargetType": "Enemy",
                "campBasedOn": "Self",
                "topLimit": 1,
                "entityTypePriority": ["Avatar"],
                "sortType": "Nearest"
              },
              "successActions": [
                {
                  "$type": "ApplyModifier",
                  "target": "TargetTeam",
                  "modifierName": "Gator_SacredEnergy_TargetTeam"
                },
                {
                  "$type": "TriggerBullet",
                  "target": "Target",
                  "bulletID": 42406108,
                  "trackTarget": "Target",
                  "born": {
                    "$type": "ConfigBornByAttachPoint",
                    "attachPointName": "RootNode",
                    "attachPointTargetType": "Self",
                    "offset": {
                      "x": 0.0,
                      "y": 0.0,
                      "z": 0.0
                    },
                    "direction": {
                      "$type": "ConfigDirectionByAttachPoint",
                      "attachPointName": "RootNode",
                      "attachPointTargetType": "Self",
                      "angleOffset": {
                        "x": 0.0,
                        "y": 0.0,
                        "z": 0.0
                      }
                    }
                  }
                }
              ]
            }
          ]
        },
        //给team上标记
        "Gator_SacredEnergy_TargetTeam": {
          "duration": 10,
          "modifierMixins": [
            {
              "$type": "CurLocalAvatarMixinV2",
              "modifierName": "Gator_SacredEnergy_Target"
            }
          ]
        },
        "Gator_SacredEnergy_Target": {
          "onAdded": [
            {
              "$type": "SetGlobalValue",
              "target": "Self",
              "value": 1,
              "key": "SacredEnergy_Target_Gator"
            }
          ],
          "onRemoved": [
            {
              "$type": "SetGlobalValue",
              "target": "Self",
              "value": 0,
              "key": "SacredEnergy_Target_Gator"
            }
          ]
        }
      }
    }
  },
  {
    "Default": {
      "$type": "ConfigAbility",
      "abilityName": "Monster_Gator_Sacred_SacredEnergy_Bullet",
      "onAdded": [
        {
          "$type": "ApplyModifier",
          "modifierName": "HolyHoundBullet_Effect"
        }
      ],
      "onAbilityStart": [
        {
          "$type": "Predicated",
          "target": "Target",
          "targetPredicates": [
            {
              "$type": "ByTargetGlobalValue",
              "key": "SacredEnergy_Target_Gator",
              "value": 1,
              "compareType": "Equal"
            }
          ],
          "successActions": [
            {
              "$type": "ApplyModifier",
              "target": "TargetTeam",
              "modifierName": "Have_Gator_SacredEnergy_Team"
            },
            {
              "$type": "FireEffect",
              "target": "Target",
              "effectPattern": "Eff_Monster_Gator_Sacred_SacredEnergyHitPlayer",
              "born": {
                "$type": "ConfigBornByAttachPoint",
                "attachPointName": "RootNode"
              }
            },
            {
              "$type": "KillSelf",
              "target": "Self"
            }
          ]
        }
      ],
      "modifiers": {
        "HolyHoundBullet_Effect": {
          "onAdded": [
            {
              "$type": "AttachEffect",
              "effectPattern": "Eff_Monster_Gator_Sacred_SacredEnergyBullet"
            }
          ]
        },
        "Have_Gator_SacredEnergy_Team": {
          "duration": 10,
          "modifierMixins": [
            {
              "$type": "CurLocalAvatarMixinV2",
              "modifierName": "Have_Gator_SacredEnergy"
            }
          ]
        },
        "Have_Gator_SacredEnergy": {
          "onAdded": [
            {
              "$type": "SetGlobalValue",
              "target": "Self",
              "value": 1,
              "key": "SacredEnergy_Gator"
            },
            {
              "$type": "AttachEffect",
              "effectPattern": "Eff_Monster_Gator_Sacred_SacredEnergyOnPlayer"
            }
          ],
          "onRemoved": [
            {
              "$type": "SetGlobalValue",
              "target": "Self",
              "value": 0,
              "key": "SacredEnergy_Gator"
            }
          ],
          "onAttackLanded": [
            {
              "$type": "Predicated",
              "target": "Other",
              "targetPredicates": [
                {
                  "$type": "ByTargetGlobalValue",
                  "compareType": "Equal",
                  "key": "Monster_Gator_Sacred",
                  "value": 1
                },
                // {
                //     "$type": "ByTargetType",
                //     "targetType": "CasterOriginOwner",
                // },
                {
                  "$type": "ByEntityTypes",
                  "entityTypes": ["Monster"]
                },
                {
                  "$type": "ByAttackTags",
                  "attackTags": [
                    "NormalAttack_01",
                    "NormalAttack_02",
                    "NormalAttack_03",
                    "NormalAttack_04",
                    "NormalAttack_05",
                    "NormalAttack_06",
                    "ExtraAttack",
                    "FallingAttack",
                    "Elemental_Art",
                    "Elemental_Art_Hold",
                    "Elemental_Art_Extra",
                    "Elemental_Burst"
                  ]
                },
                {
                  "$type": "ByTargetGlobalValue",
                  "target": "Self",
                  "key": "SacredEnergy_Gator",
                  "value": 1,
                  "compareType": "Equal"
                }
              ],
              "successActions": [
                {
                  "$type": "SetAnimatorTrigger",
                  "target": "Other",
                  "triggerID": "WeakTrigger"
                },
                {
                  "$type": "FireEffect",
                  "effectPattern": "Eff_Monster_Gator_Sacred_ScaredBeHit",
                  "target": "Other"
                },
                {
                  "$type": "RemoveModifier",
                  "target": "Team",
                  "modifierName": "Have_Gator_SacredEnergy_Team"
                }
              ]
            }
          ]
        }
      }
    }
  },
  {
    "Default": {
      "$type": "ConfigAbility",
      "abilityName": "Monster_Gator_Sacred_SacredEnergy_Bullet_ToMonster",
      "onAdded": [
        {
          "$type": "ApplyModifier",
          "modifierName": "HolyHoundBullet_Effect"
        }
      ],
      "onAbilityStart": [
        {
          "$type": "Predicated",
          "target": "Target",
          "targetPredicates": [
            {
              "$type": "ByTargetGlobalValue",
              "key": "Monster_Gator_Sacred",
              "value": 1,
              "compareType": "Equal"
            },
            {
              "$type": "ByTargetGlobalValue",
              "key": "_SACRED_ENTITY_ALERTNESS_TAG_",
              "value": 1,
              "compareType": "Equal"
            }
          ],
          "successActions": [
            {
              "$type": "SetGlobalValue",
              "target": "Target",
              "key": "SacredEnergy_Recover_Gator",
              "value": 1
            },
            {
              "$type": "FireEffect",
              "target": "Target",
              "effectPattern": "Eff_Monster_Gator_Sacred_SacredEnergyHitMonster"
            },
            {
              "$type": "KillSelf",
              "target": "Self"
            }
          ]
        }
      ],
      "modifiers": {
        "HolyHoundBullet_Effect": {
          "onAdded": [
            {
              "$type": "AttachEffect",
              "effectPattern": "Eff_Monster_Gator_Sacred_SacredEnergyBullet"
            }
          ]
        }
      }
    }
  },
  ////////////////////////////////////////////////////////////////
  //
  //  EnhanceDefence
  //
  ////////////////////////////////////////////////////////////////
  {
    "Default": {
      "$type": "ConfigAbility",
      "abilityName": "Monster_Gator_Sacred_EnhanceDefence",
      "abilityMixins": [
        {
          "$type": "AttachToPoseIDMixin",
          "poseIDs": [1, 2, 3, 101, 102, 103, 201, 202],
          "modifierName": "Gator_Sacred_EnhanceDefence"
        }
      ],
      "modifiers": {
        "Gator_Sacred_EnhanceDefence": {
          "properties": {
            "Actor_PhysicalSubHurtDelta": 0.3,
            "Actor_FireSubHurtDelta": 0.3,
            "Actor_ElecSubHurtDelta": 0.3,
            "Actor_WaterSubHurtDelta": 0.6,
            "Actor_GrassSubHurtDelta": 0.3,
            "Actor_WindSubHurtDelta": 0.3,
            "Actor_IceSubHurtDelta": 0.3,
            "Actor_RockSubHurtDelta": 0.3
          }
        }
      }
    }
  }
]
