[
  ////////////////////////////////////////////////////////////////
  //
  //  Steer
  //
  ////////////////////////////////////////////////////////////////
  {
    "Default": {
      "$type": "ConfigAbility",
      "abilityName": "Monster_Scorpion_Sacred_SteerAttack",
      "onAdded": [
        {
          "$type": "SetGlobalValue",
          "key": "Monster_Scorpion_Sacred",
          "value": 1,
          "target": "Self"
        }
      ],
      "abilityMixins": [
        {
          "$type": "SteerAttackMixin",
          "steerStateIDs": ["Attack_01"],
          "startNormalizedTime": 0.2,
          "endNormalizedTime": 0.5,
          "angularSpeed": 120,
          "attackTrigger": ""
        },
        {
          "$type": "SteerAttackMixin",
          "steerStateIDs": ["Attack_01"],
          "startNormalizedTime": 0.65,
          "endNormalizedTime": 0.95,
          "angularSpeed": 60,
          "attackTrigger": ""
        },
        {
          "$type": "SteerAttackMixin",
          "steerStateIDs": ["Sacred_Attack01"],
          "startNormalizedTime": 0.1,
          "endNormalizedTime": 0.2,
          "angularSpeed": 120,
          "attackTrigger": ""
        },
        {
          "$type": "SteerAttackMixin",
          "steerStateIDs": ["Sacred_Attack01"],
          "startNormalizedTime": 0.24,
          "endNormalizedTime": 0.28,
          "angularSpeed": 120,
          "attackTrigger": ""
        },
        {
          "$type": "SteerAttackMixin",
          "steerStateIDs": ["Sacred_Attack01"],
          "startNormalizedTime": 0.5,
          "endNormalizedTime": 0.56,
          "angularSpeed": 120,
          "attackTrigger": ""
        },
        {
          "$type": "SteerAttackMixin",
          "steerStateIDs": ["Sacred_Attack02"],
          "startNormalizedTime": 0.4,
          "endNormalizedTime": 1.0,
          "angularSpeed": 180,
          "attackTrigger": ""
        },
        {
          "$type": "SteerAttackMixin",
          "steerStateIDs": ["Sacred_Attack03"],
          "startNormalizedTime": 0.0,
          "endNormalizedTime": 0.12,
          "angularSpeed": 60,
          "attackTrigger": ""
        },
        {
          "$type": "SteerAttackMixin",
          "steerStateIDs": ["Sacred_Attack03"],
          "startNormalizedTime": 0.25,
          "endNormalizedTime": 0.35,
          "angularSpeed": 120,
          "attackTrigger": ""
        },
        {
          "$type": "SteerAttackMixin",
          "steerStateIDs": ["Sacred_Attack03"],
          "startNormalizedTime": 0.44,
          "endNormalizedTime": 0.5,
          "angularSpeed": 120,
          "attackTrigger": ""
        },
        {
          "$type": "SteerAttackMixin",
          "steerStateIDs": ["Sacred_Attack03"],
          "startNormalizedTime": 0.58,
          "endNormalizedTime": 0.65,
          "angularSpeed": 60,
          "attackTrigger": ""
        },
        {
          "$type": "SteerAttackMixin",
          "steerStateIDs": ["Sacred_Attack04"],
          "startNormalizedTime": 0.08,
          "endNormalizedTime": 0.14,
          "angularSpeed": 180,
          "attackTrigger": ""
        },
        {
          "$type": "SteerAttackMixin",
          "steerStateIDs": ["Sacred_Attack05"],
          "startNormalizedTime": 0.1,
          "endNormalizedTime": 0.35,
          "angularSpeed": 180,
          "attackTrigger": ""
        },
        {
          "$type": "SteerAttackMixin",
          "steerStateIDs": ["Sacred_Attack05"],
          "startNormalizedTime": 0.45,
          "endNormalizedTime": 0.6,
          "angularSpeed": 120,
          "attackTrigger": ""
        }
      ]
    }
  },
  ////////////////////////////////////////////////////////////////
  //
  //  Sacred_Attack02
  //
  ////////////////////////////////////////////////////////////////
  {
    "Default": {
      "$type": "ConfigAbility",
      "abilityName": "Monster_Scorpion_Sacred_Attack02_Collider",
      "onAbilityStart": [
        {
          "$type": "ApplyModifier",
          "modifierName": "StateControl"
        }
      ],
      "modifiers": {
        "StateControl": {
          "duration": 3.42,
          "onAdded": [
            {
              "$type": "HideUIBillBoard",
              "hide": true
            },
            {
              "$type": "ApplyModifier",
              "modifierName": "UnderGround_Invincible"
            },
            {
              "$type": "ApplyModifier",
              "modifierName": "UnderGround_DenyLockOn"
            },
            {
              "$type": "EnablePushColliderName",
              "pushColliderNames": [
                "PushCollider",
                "PushCollider_R",
                "PushCollider_L"
              ],
              "setEnable": false
            }
          ],
          "onRemoved": [
            {
              "$type": "HideUIBillBoard",
              "hide": false
            },
            {
              "$type": "RemoveModifier",
              "modifierName": "UnderGround_Invincible"
            },
            {
              "$type": "RemoveModifier",
              "modifierName": "UnderGround_DenyLockOn"
            },
            {
              "$type": "EnablePushColliderName",
              "pushColliderNames": [
                "PushCollider",
                "PushCollider_R",
                "PushCollider_L"
              ],
              "setEnable": true
            }
          ]
        },
        "UnderGround_Invincible": {
          "state": "Invincible"
        },
        "UnderGround_DenyLockOn": {
          "state": "DenyLockOn"
        }
      }
    }
  },
  {
    "Default": {
      "$type": "ConfigAbility",
      "abilityName": "Monster_Scorpion_Sacred_Attack02_Find",
      "onAbilityStart": [
        {
          "$type": "TryFindBlinkPoint",
          "target": "SelfAttackTarget",
          "minRange": 0,
          "maxRange": 1
        }
      ]
    }
  },
  {
    "Default": {
      "$type": "ConfigAbility",
      "abilityName": "Monster_Scorpion_Sacred_Attack02_WarningEffect",
      "onAbilityStart": [
        {
          "$type": "FireEffect",
          "effectPattern": "Eff_Monster_Scorpion_Sacred_SacredAttack02_Warning",
          "born": {
            "$type": "ConfigBornBySelf",
            "onGround": true,
            "alongGround": true
          }
        }
      ]
    }
  },
  {
    "Default": {
      "$type": "ConfigAbility",
      "abilityName": "Monster_Scorpion_Sacred_Attack02_Blink",
      "onAbilityStart": [
        {
          "$type": "DoBlink"
        }
      ]
    }
  },
  ////////////////////////////////////////////////////////////////
  //
  //  Sacred_Attack03
  //
  ////////////////////////////////////////////////////////////////
  {
    "Default": {
      "$type": "ConfigAbility",
      "abilityName": "Monster_Scorpion_Sacred_Attack03_Bullet",
      "onAbilityStart": [
        {
          "$type": "TriggerBullet",
          "bulletID": 42406001,
          "born": {
            "$type": "ConfigBornByAttachPoint",
            "attachPointName": "TailBulletPoint",
            "offset": {
              "x": 0.0,
              "y": 0.0,
              "z": 0.0
            },
            "direction": {
              "$type": "ConfigDirectionByEntity",
              "angleOffset": {
                "x": 30.0,
                "y": 0.0, //角度偏移
                "z": 0.0
              }
            }
          }
        }
      ]
    }
  },
  {
    "Default": {
      "$type": "ConfigAbility",
      "abilityName": "Monster_Scorpion_Sacred_SacredAttack03_Check",
      "abilityMixins": [
        {
          "$type": "AttachToStateIDMixin",
          "stateIDs": ["Sacred_Attack03"],
          "modifierName": "SacredAttack03Check"
        }
      ],
      "modifiers": {
        "SacredAttack03Check": {
          "thinkInterval": 0.1,
          "onThinkInterval": [
            {
              "$type": "Predicated",
              "target": "SelfAttackTarget",
              "targetPredicates": [
                {
                  "$type": "ByTargetPositionToSelfPosition",
                  "compareType": "XZ",
                  "value": 8,
                  "logic": "Greater"
                }
              ],
              "successActions": [
                {
                  "$type": "SetAnimatorBool",
                  "boolID": "SacredAttack03Break",
                  "value": true
                }
              ],
              "failActions": [
                {
                  "$type": "SetAnimatorBool",
                  "boolID": "SacredAttack03Break",
                  "value": false
                }
              ]
            }
          ],
          "onRemoved": [
            {
              "$type": "SetAnimatorBool",
              "boolID": "SacredAttack03Break",
              "value": false
            }
          ]
        }
      }
    }
  },
  ////////////////////////////////////////////////////////////////
  //
  //  Sacred_Attack04
  //
  ////////////////////////////////////////////////////////////////
  {
    "Default": {
      "$type": "ConfigAbility",
      "abilityName": "Monster_Scorpion_Sacred_SacredAttack04_Effect",
      "abilityMixins": [
        {
          "$type": "AttachToStateIDMixin",
          "stateIDs": [
            "Sacred_Attack04_BS",
            "Sacred_Attack04_Loop1",
            "Sacred_Attack04_Loop2",
            "Sacred_Attack04_Loop3",
            "Sacred_Attack04_AS"
          ],
          "modifierName": "SacredAttack04_LoopEffect"
        }
      ],
      "modifiers": {
        "SacredAttack04_LoopEffect": {
          "onAdded": [
            {
              "$type": "AttachEffect",
              "effectPattern": "Eff_Monster_Scorpion_Sacred_SacredAttack04_Loop"
            }
          ]
        }
      }
    }
  },
  {
    "Default": {
      "$type": "ConfigAbility",
      "abilityName": "Monster_Scorpion_Sacred_SacredAttack04_Hit1",
      "onAbilityStart": [
        {
          "$type": "SetGlobalPos",
          "key": "ThunderPos1",
          "target": "Self",
          "born": {
            "$type": "ConfigBornBySelf",
            "offset": {
              "x": -3.536,
              "y": 0,
              "z": 3.536
            },
            "onGround": true
          }
        },
        {
          "$type": "ApplyModifier",
          "modifierName": "ElectricBulletHit1"
        }
      ],
      "modifiers": {
        "ElectricBulletHit1": {
          "duration": 0.7,
          "onRemoved": [
            {
              "$type": "FireEffect",
              "effectPattern": "Eff_Monster_Scorpion_Sacred_SacredAttack04_Explode", //临时，雷击特效
              "born": {
                "$type": "ConfigBornByGlobalValue",
                "positionKey": "ThunderPos1"
              }
            },
            {
              "$type": "TriggerAttackEvent",
              "targetType": "Enemy",
              "attackEvent": {
                "attackPattern": {
                  "$type": "ConfigAttackCircle",
                  "triggerType": "TriggerNoRepeat",
                  "height": 3.0,
                  "fanAngle": 360.0,
                  "radius": 3.0,
                  "born": {
                    "$type": "ConfigBornByGlobalValue",
                    "positionKey": "ThunderPos1"
                  }
                },
                "attackInfo": {
                  "canBeModifiedBy": "OriginOwner",
                  "attackProperty": {
                    "damagePercentage": 0.8,
                    "strikeType": "Blunt",
                    "enBreak": 100.0,
                    "elementDurability": 30,
                    "elementType": "Electric"
                  },
                  "hitPattern": {
                    "hitImpulseType": "LV3",
                    "hitHaltTime": 0.0,
                    "hitHaltTimeScale": 0.01,
                    "muteHitText": false
                  }
                }
              }
            }
          ]
        }
      }
    }
  },
  {
    "Default": {
      "$type": "ConfigAbility",
      "abilityName": "Monster_Scorpion_Sacred_SacredAttack04_Hit2",
      "onAbilityStart": [
        {
          "$type": "SetGlobalPos",
          "key": "ThunderPos2",
          "target": "Self",
          "born": {
            "$type": "ConfigBornBySelf",
            "offset": {
              "x": 0,
              "y": 0,
              "z": 5
            },
            "onGround": true
          }
        },
        {
          "$type": "ApplyModifier",
          "modifierName": "ElectricBulletHit2"
        }
      ],
      "modifiers": {
        "ElectricBulletHit2": {
          "duration": 0.7,
          "onRemoved": [
            {
              "$type": "FireEffect",
              "effectPattern": "Eff_Monster_Scorpion_Sacred_SacredAttack04_Explode", //临时，雷击特效
              "born": {
                "$type": "ConfigBornByGlobalValue",
                "positionKey": "ThunderPos2"
              }
            },
            {
              "$type": "TriggerAttackEvent",
              "targetType": "Enemy",
              "attackEvent": {
                "attackPattern": {
                  "$type": "ConfigAttackCircle",
                  "triggerType": "TriggerNoRepeat",
                  "height": 3.0,
                  "fanAngle": 360.0,
                  "radius": 3,
                  "born": {
                    "$type": "ConfigBornByGlobalValue",
                    "positionKey": "ThunderPos2"
                  }
                },
                "attackInfo": {
                  "canBeModifiedBy": "OriginOwner",
                  "attackProperty": {
                    "damagePercentage": 0.8,
                    "strikeType": "Blunt",
                    "enBreak": 100.0,
                    "elementDurability": 30,
                    "elementType": "Electric"
                  },
                  "hitPattern": {
                    "hitImpulseType": "LV3",
                    "hitHaltTime": 0.0,
                    "hitHaltTimeScale": 0.01,
                    "muteHitText": false
                  }
                }
              }
            }
          ]
        }
      }
    }
  },
  {
    "Default": {
      "$type": "ConfigAbility",
      "abilityName": "Monster_Scorpion_Sacred_SacredAttack04_Hit3",
      "onAbilityStart": [
        {
          "$type": "SetGlobalPos",
          "key": "ThunderPos3",
          "target": "Self",
          "born": {
            "$type": "ConfigBornBySelf",
            "offset": {
              "x": 3.536,
              "y": 0,
              "z": 3.536
            },
            "onGround": true
          }
        },
        {
          "$type": "ApplyModifier",
          "modifierName": "ElectricBulletHit3"
        }
      ],
      "modifiers": {
        "ElectricBulletHit3": {
          "duration": 0.7,
          "onRemoved": [
            {
              "$type": "FireEffect",
              "effectPattern": "Eff_Monster_Scorpion_Sacred_SacredAttack04_Explode", //临时，雷击特效
              "born": {
                "$type": "ConfigBornByGlobalValue",
                "positionKey": "ThunderPos3"
              }
            },
            {
              "$type": "TriggerAttackEvent",
              "targetType": "Enemy",
              "attackEvent": {
                "attackPattern": {
                  "$type": "ConfigAttackCircle",
                  "triggerType": "TriggerNoRepeat",
                  "height": 3.0,
                  "fanAngle": 360.0,
                  "radius": 3,
                  "born": {
                    "$type": "ConfigBornByGlobalValue",
                    "positionKey": "ThunderPos3"
                  }
                },
                "attackInfo": {
                  "canBeModifiedBy": "OriginOwner",
                  "attackProperty": {
                    "damagePercentage": 0.8,
                    "strikeType": "Blunt",
                    "enBreak": 100.0,
                    "elementDurability": 30,
                    "elementType": "Electric"
                  },
                  "hitPattern": {
                    "hitImpulseType": "LV3",
                    "hitHaltTime": 0.0,
                    "hitHaltTimeScale": 0.01,
                    "muteHitText": false
                  }
                }
              }
            }
          ]
        }
      }
    }
  },
  {
    "Default": {
      "$type": "ConfigAbility",
      "abilityName": "Monster_Scorpion_Sacred_SacredAttack04_Hit4",
      "onAbilityStart": [
        {
          "$type": "SetGlobalPos",
          "key": "ThunderPos4",
          "target": "Self",
          "born": {
            "$type": "ConfigBornBySelf",
            "offset": {
              "x": 5,
              "y": 0,
              "z": 0
            },
            "onGround": true
          }
        },
        {
          "$type": "ApplyModifier",
          "modifierName": "ElectricBulletHit4"
        }
      ],
      "modifiers": {
        "ElectricBulletHit4": {
          "duration": 0.7,
          "onRemoved": [
            {
              "$type": "FireEffect",
              "effectPattern": "Eff_Monster_Scorpion_Sacred_SacredAttack04_Explode", //临时，雷击特效
              "born": {
                "$type": "ConfigBornByGlobalValue",
                "positionKey": "ThunderPos4"
              }
            },
            {
              "$type": "TriggerAttackEvent",
              "targetType": "Enemy",
              "attackEvent": {
                "attackPattern": {
                  "$type": "ConfigAttackCircle",
                  "triggerType": "TriggerNoRepeat",
                  "height": 3.0,
                  "fanAngle": 360.0,
                  "radius": 3,
                  "born": {
                    "$type": "ConfigBornByGlobalValue",
                    "positionKey": "ThunderPos4"
                  }
                },
                "attackInfo": {
                  "canBeModifiedBy": "OriginOwner",
                  "attackProperty": {
                    "damagePercentage": 0.8,
                    "strikeType": "Blunt",
                    "enBreak": 100.0,
                    "elementDurability": 30,
                    "elementType": "Electric"
                  },
                  "hitPattern": {
                    "hitImpulseType": "LV3",
                    "hitHaltTime": 0.0,
                    "hitHaltTimeScale": 0.01,
                    "muteHitText": false
                  }
                }
              }
            }
          ]
        }
      }
    }
  },
  {
    "Default": {
      "$type": "ConfigAbility",
      "abilityName": "Monster_Scorpion_Sacred_SacredAttack04_Hit5",
      "onAbilityStart": [
        {
          "$type": "SetGlobalPos",
          "key": "ThunderPos5",
          "target": "Self",
          "born": {
            "$type": "ConfigBornBySelf",
            "offset": {
              "x": 3.536,
              "y": 0,
              "z": -3.536
            },
            "onGround": true
          }
        },
        {
          "$type": "ApplyModifier",
          "modifierName": "ElectricBulletHit5"
        }
      ],
      "modifiers": {
        "ElectricBulletHit5": {
          "duration": 0.7,
          "onRemoved": [
            {
              "$type": "FireEffect",
              "effectPattern": "Eff_Monster_Scorpion_Sacred_SacredAttack04_Explode", //临时，雷击特效
              "born": {
                "$type": "ConfigBornByGlobalValue",
                "positionKey": "ThunderPos5"
              }
            },
            {
              "$type": "TriggerAttackEvent",
              "targetType": "Enemy",
              "attackEvent": {
                "attackPattern": {
                  "$type": "ConfigAttackCircle",
                  "triggerType": "TriggerNoRepeat",
                  "height": 3.0,
                  "fanAngle": 360.0,
                  "radius": 3,
                  "born": {
                    "$type": "ConfigBornByGlobalValue",
                    "positionKey": "ThunderPos5"
                  }
                },
                "attackInfo": {
                  "canBeModifiedBy": "OriginOwner",
                  "attackProperty": {
                    "damagePercentage": 0.8,
                    "strikeType": "Blunt",
                    "enBreak": 100.0,
                    "elementDurability": 30,
                    "elementType": "Electric"
                  },
                  "hitPattern": {
                    "hitImpulseType": "LV3",
                    "hitHaltTime": 0.0,
                    "hitHaltTimeScale": 0.01,
                    "muteHitText": false
                  }
                }
              }
            }
          ]
        }
      }
    }
  },
  {
    "Default": {
      "$type": "ConfigAbility",
      "abilityName": "Monster_Scorpion_Sacred_SacredAttack04_Hit6",
      "onAbilityStart": [
        {
          "$type": "SetGlobalPos",
          "key": "ThunderPos6",
          "target": "Self",
          "born": {
            "$type": "ConfigBornBySelf",
            "offset": {
              "x": 0,
              "y": 0,
              "z": -5
            },
            "onGround": true
          }
        },
        {
          "$type": "ApplyModifier",
          "modifierName": "ElectricBulletHit6"
        }
      ],
      "modifiers": {
        "ElectricBulletHit6": {
          "duration": 0.7,
          "onRemoved": [
            {
              "$type": "FireEffect",
              "effectPattern": "Eff_Monster_Scorpion_Sacred_SacredAttack04_Explode", //临时，雷击特效
              "born": {
                "$type": "ConfigBornByGlobalValue",
                "positionKey": "ThunderPos6"
              }
            },
            {
              "$type": "TriggerAttackEvent",
              "targetType": "Enemy",
              "attackEvent": {
                "attackPattern": {
                  "$type": "ConfigAttackCircle",
                  "triggerType": "TriggerNoRepeat",
                  "height": 3.0,
                  "fanAngle": 360.0,
                  "radius": 3,
                  "born": {
                    "$type": "ConfigBornByGlobalValue",
                    "positionKey": "ThunderPos6"
                  }
                },
                "attackInfo": {
                  "canBeModifiedBy": "OriginOwner",
                  "attackProperty": {
                    "damagePercentage": 0.8,
                    "strikeType": "Blunt",
                    "enBreak": 100.0,
                    "elementDurability": 30,
                    "elementType": "Electric"
                  },
                  "hitPattern": {
                    "hitImpulseType": "LV3",
                    "hitHaltTime": 0.0,
                    "hitHaltTimeScale": 0.01,
                    "muteHitText": false
                  }
                }
              }
            }
          ]
        }
      }
    }
  },
  {
    "Default": {
      "$type": "ConfigAbility",
      "abilityName": "Monster_Scorpion_Sacred_SacredAttack04_Hit7",
      "onAbilityStart": [
        {
          "$type": "SetGlobalPos",
          "key": "ThunderPos7",
          "target": "Self",
          "born": {
            "$type": "ConfigBornBySelf",
            "offset": {
              "x": -3.536,
              "y": 0,
              "z": -3.536
            },
            "onGround": true
          }
        },
        {
          "$type": "ApplyModifier",
          "modifierName": "ElectricBulletHit7"
        }
      ],
      "modifiers": {
        "ElectricBulletHit7": {
          "duration": 0.7,
          "onRemoved": [
            {
              "$type": "FireEffect",
              "effectPattern": "Eff_Monster_Scorpion_Sacred_SacredAttack04_Explode", //临时，雷击特效
              "born": {
                "$type": "ConfigBornByGlobalValue",
                "positionKey": "ThunderPos7"
              }
            },
            {
              "$type": "TriggerAttackEvent",
              "targetType": "Enemy",
              "attackEvent": {
                "attackPattern": {
                  "$type": "ConfigAttackCircle",
                  "triggerType": "TriggerNoRepeat",
                  "height": 3.0,
                  "fanAngle": 360.0,
                  "radius": 3,
                  "born": {
                    "$type": "ConfigBornByGlobalValue",
                    "positionKey": "ThunderPos7"
                  }
                },
                "attackInfo": {
                  "canBeModifiedBy": "OriginOwner",
                  "attackProperty": {
                    "damagePercentage": 0.8,
                    "strikeType": "Blunt",
                    "enBreak": 100.0,
                    "elementDurability": 30,
                    "elementType": "Electric"
                  },
                  "hitPattern": {
                    "hitImpulseType": "LV3",
                    "hitHaltTime": 0.0,
                    "hitHaltTimeScale": 0.01,
                    "muteHitText": false
                  }
                }
              }
            }
          ]
        }
      }
    }
  },
  {
    "Default": {
      "$type": "ConfigAbility",
      "abilityName": "Monster_Scorpion_Sacred_SacredAttack04_Hit8",
      "onAbilityStart": [
        {
          "$type": "SetGlobalPos",
          "key": "ThunderPos8",
          "target": "Self",
          "born": {
            "$type": "ConfigBornBySelf",
            "offset": {
              "x": -5,
              "y": 0,
              "z": 0
            },
            "onGround": true
          }
        },
        {
          "$type": "ApplyModifier",
          "modifierName": "ElectricBulletHit8"
        }
      ],
      "modifiers": {
        "ElectricBulletHit8": {
          "duration": 0.7,
          "onRemoved": [
            {
              "$type": "FireEffect",
              "effectPattern": "Eff_Monster_Scorpion_Sacred_SacredAttack04_Explode", //临时，雷击特效
              "born": {
                "$type": "ConfigBornByGlobalValue",
                "positionKey": "ThunderPos8"
              }
            },
            {
              "$type": "TriggerAttackEvent",
              "targetType": "Enemy",
              "attackEvent": {
                "attackPattern": {
                  "$type": "ConfigAttackCircle",
                  "triggerType": "TriggerNoRepeat",
                  "height": 3.0,
                  "fanAngle": 360.0,
                  "radius": 3,
                  "born": {
                    "$type": "ConfigBornByGlobalValue",
                    "positionKey": "ThunderPos8"
                  }
                },
                "attackInfo": {
                  "canBeModifiedBy": "OriginOwner",
                  "attackProperty": {
                    "damagePercentage": 0.8,
                    "strikeType": "Blunt",
                    "enBreak": 100.0,
                    "elementDurability": 30,
                    "elementType": "Electric"
                  },
                  "hitPattern": {
                    "hitImpulseType": "LV3",
                    "hitHaltTime": 0.0,
                    "hitHaltTimeScale": 0.01,
                    "muteHitText": false
                  }
                }
              }
            }
          ]
        }
      }
    }
  },
  ////////////////////////////////////////////////////////////////
  //
  //  Sacred_Attack05
  //
  ////////////////////////////////////////////////////////////////
  {
    "Default": {
      "$type": "ConfigAbility",
      "abilityName": "Monster_Scorpion_Sacred_Attack05_Bullet",
      "onAbilityStart": [
        {
          "$type": "TriggerBullet",
          "bulletID": 42406002,
          "born": {
            "$type": "ConfigBornByAttachPoint",
            "attachPointName": "SacredBulletPoint"
          }
        },
        {
          "$type": "TriggerBullet",
          "bulletID": 42406006,
          "born": {
            "$type": "ConfigBornByAttachPoint",
            "attachPointName": "SacredBulletPoint"
          }
        }
      ]
    }
  },
  {
    "Default": {
      "$type": "ConfigAbility",
      "abilityName": "Monster_Scorpion_Sacred_Attack05_BulletExplode",
      "onAbilityStart": [
        {
          "$type": "FireEffect",
          "effectPattern": "Eff_Monster_Scorpion_Sacred_SacredAttack05_BulletExplode",
          "born": {
            "$type": "ConfigBornByCollisionPoint",
            "offset": {
              "x": 0.0,
              "y": 0.0,
              "z": 0.0
            },
            "onGround": true
          }
        },
        {
          "$type": "TriggerAttackEvent",
          "targetType": "Enemy",
          "attackEvent": {
            "attackPattern": {
              "$type": "ConfigAttackSphere",
              "triggerType": "TriggerOnce",
              "radius": 3.5,
              "born": {
                "$type": "ConfigBornByCollisionPoint",
                "offset": {
                  "x": 0.0,
                  "y": 0.0,
                  "z": 0.0
                }
              }
            },
            "attackInfo": {
              "attackProperty": {
                "damagePercentage": 1.0,
                "strikeType": "Blunt",
                "enBreak": 200.0,
                "elementDurability": 30,
                "elementType": "Electric"
              },
              "hitPattern": {
                "onHitEffectName": "default",
                "hitImpulseType": "LV5",
                "hitHaltTime": 0.0,
                "hitHaltTimeScale": 0.01,
                "muteHitText": false
              }
            }
          }
        }
      ]
    }
  },
  ////////////////////////////////////////////////////////////////
  //
  //  SacredEnergy
  //
  ////////////////////////////////////////////////////////////////
  {
    "Default": {
      "$type": "ConfigAbility",
      "abilityName": "Monster_Scorpion_Sacred_SacredEnergy_Accum"
    }
  },
  {
    "Default": {
      "$type": "ConfigAbility",
      "abilityName": "Monster_Scorpion_Sacred_SacredEnergy_Accum_Create",
      "onAbilityStart": [
        {
          "$type": "SetSelfAttackTarget",
          "otherTargets": {
            "$type": "SelectTargetsByShape",
            "shapeName": "CircleR50",
            "centerBasedOn": "Self",
            "campTargetType": "All",
            "campBasedOn": "Self",
            "sortType": "Nearest",
            "entityTypePriority": ["Gadget"]
          },
          "predicates": [
            {
              "$type": "ByTargetGlobalValue",
              "key": "Scorpion_SacredEnergy_Gadget",
              "value": 1,
              "compareType": "Equal"
            }
          ]
        },
        {
          "$type": "TriggerBullet",
          "bulletID": 42406005,
          "target": "SelfAttackTarget",
          "born": {
            "$type": "ConfigBornBySelf"
          }
        },
        {
          "$type": "ResetAIAttackTarget"
        }
      ]
    }
  },
  {
    "Default": {
      "$type": "ConfigAbility",
      "abilityName": "Monster_Scorpion_Sacred_SacredEnergy_Detect",
      "onAbilityStart": [
        {
          "$type": "TriggerBullet",
          "bulletID": 42406001,
          "lifeByOwnerIsAlive": true,
          "born": {
            "$type": "ConfigBornBySelf",
            "offset": {
              "x": 0,
              "y": 1.0,
              "z": 2.0
            },
            "direction": {
              "$type": "ConfigDirectionByDefault",
              "angleOffset": {
                "x": 0,
                "y": 0,
                "z": 0
              }
            }
          }
        }
      ]
    }
  },
  {
    "Default": {
      "$type": "ConfigAbility",
      "abilityName": "Monster_Scorpion_Sacred_SacredEnergy_Create",
      "onAbilityStart": [
        {
          "$type": "CreateGadget",
          "gadgetID": 42406003,
          "campID": 4001,
          "byServer": true,
          "born": {
            "$type": "ConfigBornByCollisionPoint",
            "onGround": true,
            "alongGround": true
          }
        },
        {
          "$type": "KillSelf"
        }
      ]
    }
  },
  {
    "Default": {
      "$type": "ConfigAbility",
      "abilityName": "Monster_Scorpion_Sacred_SacredEnergy_CreateO",
      "onAbilityStart": [
        {
          "$type": "CreateGadget",
          "gadgetID": 42406003,
          "campID": 4001,
          "byServer": true,
          "born": {
            "$type": "ConfigBornBySelf",
            "onGround": true,
            "alongGround": true
          }
        },
        {
          "$type": "KillSelf"
        }
      ]
    }
  },
  {
    "Default": {
      "$type": "ConfigAbility",
      "abilityName": "Monster_Scorpion_Sacred_SacredEnergy_Gadget",
      "onAdded": [
        {
          "$type": "ApplyModifier",
          "modifierName": "DarkHoundGadget_DelayHandler"
        },
        {
          "$type": "ApplyModifier",
          "modifierName": "DarkHoundGadget_DelayHandler_Effect"
        },
        {
          "$type": "SetGlobalValue",
          "key": "_CHARGEBAR_VALUE",
          "value": 0
        },
        {
          "$type": "SetGlobalValue",
          "key": "Scorpion_SacredEnergy_Gadget",
          "value": 1
        },
        {
          "$type": "EnablePushColliderName",
          "pushColliderNames": ["PushCollider_Occluder"],
          "setEnable": true
        },
        {
          "$type": "EnablePushColliderName",
          "pushColliderNames": ["PushCollider"],
          "setEnable": false
        }
      ],
      "modifiers": {
        "DarkHoundGadget_DelayHandler_Effect": {
          "duration": 1.35,
          "onRemoved": [
            {
              "$type": "FireEffect",
              "effectPattern": "Eff_Monster_Scorpion_Sacred_SacredAttack05_SacredEnergy_Hit"
            }
          ]
        },
        "DarkHoundGadget_DelayHandler": {
          "duration": 1.4,
          "onRemoved": [
            {
              "$type": "ApplyModifier",
              "modifierName": "DarkHoundGadget_ChargeState"
            },
            {
              "$type": "EnablePushColliderName",
              "pushColliderNames": ["PushCollider"],
              "setEnable": true
            }
          ]
        },
        "DarkHoundGadget_ChargeState": {
          "duration": 10,
          "modifierMixins": [
            {
              "$type": "ChargeBarMixin",
              "chargeBarElementType": "Electric",
              "chargeBarIconID": 1,
              "initialValue": 0,
              "maxValue": 10
            },
            {
              "$type": "AttachModifierToSelfGlobalValueMixin",
              "globalValueKey": "_CHARGEBAR_VALUE",
              "valueSteps": [9.5, 10.5],
              "removeAppliedModifier": true,
              "modifierNameSteps": ["DarkHoundGadget_ChargeEnd"]
            }
          ],
          "onAdded": [
            {
              "$type": "AttachEffect",
              "effectPattern": "Eff_Monster_Scorpion_Sacred_SacredEnergy"
            },
            {
              "$type": "AttachEffect",
              "effectPattern": "Eff_Monster_Scorpion_Sacred_SacredSmoke"
            }
          ],
          "onBeingHit": [
            {
              "$type": "SetSelfAttackTarget",
              "target": "Target"
            },
            {
              "$type": "FireEffect",
              "effectPattern": "Eff_Monster_Scorpion_Sacred_SacredEnergyBeHit",
              "born": {
                "$type": "ConfigBornBySelf",
                "offset": {
                  "x": 0.0,
                  "y": 0.0,
                  "z": 0.0
                }
              }
            },
            {
              "$type": "AddChargeBarValue",
              "value": 5,
              "predicates": [
                {
                  "$type": "ByAny",
                  "predicates": [
                    {
                      "$type": "ByHitElement",
                      "element": "Electric"
                    }
                  ]
                }
              ]
            },
            {
              "$type": "AddChargeBarValue",
              "value": 1.25,
              "predicates": [
                {
                  "$type": "ByAny",
                  "predicates": [
                    {
                      "$type": "ByHitElement",
                      "element": "Wind"
                    },
                    {
                      "$type": "ByHitElement",
                      "element": "Fire"
                    },
                    {
                      "$type": "ByHitElement",
                      "element": "Water"
                    },
                    {
                      "$type": "ByHitElement",
                      "element": "Ice"
                    },
                    {
                      "$type": "ByHitElement",
                      "element": "Grass"
                    },
                    {
                      "$type": "ByHitElement",
                      "element": "Rock"
                    }
                  ]
                }
              ]
            }
          ],
          "onRemoved": [
            {
              "$type": "EnableHitBoxByName",
              "hitBoxNames": ["HitBox"],
              "setEnable": false
            },
            {
              "$type": "FireEffect",
              "effectPattern": "Eff_Monster_Scorpion_Sacred_SacredEnergyDisappear",
              "predicates": [
                {
                  "$type": "ByTargetGlobalValue",
                  "compareType": "LessAndEqual",
                  "key": "_CHARGEBAR_VALUE",
                  "target": "Self",
                  "value": 9
                }
              ]
            },
            {
              "$type": "TriggerBullet",
              "target": "OriginOwner",
              "bulletID": 42406007,
              "trackTarget": "Target",
              "born": {
                "$type": "ConfigBornByAttachPoint",
                "attachPointName": "RootNode",
                "attachPointTargetType": "Self",
                "offset": {
                  "x": 0.0,
                  "y": 0.0,
                  "z": 0.0
                },
                "direction": {
                  "$type": "ConfigDirectionByAttachPoint",
                  "attachPointName": "RootNode",
                  "attachPointTargetType": "Self",
                  "angleOffset": {
                    "x": 0.0,
                    "y": 0.0,
                    "z": 0.0
                  }
                }
              },
              "predicates": [
                {
                  "$type": "ByTargetGlobalValue",
                  "compareType": "LessAndEqual",
                  "key": "_CHARGEBAR_VALUE",
                  "target": "Self",
                  "value": 9
                }
              ]
            },
            {
              "$type": "KillSelf",
              "duration": 0.2
            }
          ]
        },
        "DarkHoundGadget_ChargeEnd": {
          "onAdded": [
            {
              "$type": "ApplyModifier",
              "modifierName": "FireHolyHound_Timer"
            },
            {
              "$type": "ApplyModifier",
              "target": "OriginOwner",
              "modifierName": "SacredEnergy_Recover_CountDown"
            },
            {
              "$type": "EnableHitBoxByName",
              "hitBoxNames": ["HitBox"],
              "setEnable": false
            },
            {
              "$type": "RemoveModifier",
              "modifierName": "DarkHoundGadget_ChargeState"
            }
          ]
        },
        "SacredEnergy_Recover_CountDown": {
          "stacking": "Refresh",
          "duration": 13,
          "onRemoved": [
            {
              "$type": "SetGlobalValue",
              "target": "Self",
              "key": "SacredEnergy_Recover_Scorpion",
              "value": 1,
              "predicates": [
                {
                  "$type": "ByAnimatorBool",
                  "target": "Self",
                  "parameter": "EnhanceSkin",
                  "logic": "Equal",
                  "value": false
                }
              ]
            }
          ]
        },
        "FireHolyHound_Timer": {
          "duration": 0.65,
          "onAdded": [
            {
              "$type": "FireEffect",
              "effectPattern": "Eff_Monster_Scorpion_Sacred_SacredEnergyTransform"
            },
            {
              "$type": "Predicated",
              "target": "Other",
              "otherTargets": {
                "$type": "SelectTargetsByShape",
                "shapeName": "CircleR50",
                "centerBasedOn": "Self",
                "campTargetType": "Enemy",
                "campBasedOn": "Self",
                "topLimit": 1,
                "entityTypePriority": ["Avatar"],
                "sortType": "Nearest"
              },
              "successActions": [
                {
                  "$type": "ApplyModifier",
                  "target": "TargetTeam",
                  "modifierName": "Scorpion_SacredEnergy_TargetTeam"
                },
                {
                  "$type": "TriggerBullet",
                  "target": "Target",
                  "bulletID": 42406004,
                  "trackTarget": "Target",
                  "born": {
                    "$type": "ConfigBornByAttachPoint",
                    "attachPointName": "RootNode",
                    "attachPointTargetType": "Self",
                    "offset": {
                      "x": 0.0,
                      "y": 0.0,
                      "z": 0.0
                    },
                    "direction": {
                      "$type": "ConfigDirectionByAttachPoint",
                      "attachPointName": "RootNode",
                      "attachPointTargetType": "Self",
                      "angleOffset": {
                        "x": 0.0,
                        "y": 0.0,
                        "z": 0.0
                      }
                    }
                  }
                }
              ]
            }
          ]
        },
        //给team上标记
        "Scorpion_SacredEnergy_TargetTeam": {
          "duration": 10,
          "modifierMixins": [
            {
              "$type": "CurLocalAvatarMixinV2",
              "modifierName": "Scorpion_SacredEnergy_Target"
            }
          ]
        },
        "Scorpion_SacredEnergy_Target": {
          "onAdded": [
            {
              "$type": "SetGlobalValue",
              "target": "Self",
              "value": 1,
              "key": "SacredEnergy_Target_Scorpion"
            }
          ],
          "onRemoved": [
            {
              "$type": "SetGlobalValue",
              "target": "Self",
              "value": 0,
              "key": "SacredEnergy_Target_Scorpion"
            }
          ]
        }
      }
    }
  },
  {
    "Default": {
      "$type": "ConfigAbility",
      "abilityName": "Monster_Scorpion_Sacred_SacredEnergy_Bullet",
      "onAdded": [
        {
          "$type": "ApplyModifier",
          "modifierName": "HolyHoundBullet_Effect"
        }
      ],
      "onAbilityStart": [
        {
          "$type": "Predicated",
          "target": "Target",
          "targetPredicates": [
            {
              "$type": "ByTargetGlobalValue",
              "key": "SacredEnergy_Target_Scorpion",
              "value": 1,
              "compareType": "Equal"
            }
          ],
          "successActions": [
            {
              "$type": "ApplyModifier",
              "target": "TargetTeam",
              "modifierName": "Have_Scorpion_SacredEnergy_Team"
            },
            {
              "$type": "FireEffect",
              "target": "Target",
              "effectPattern": "Eff_Monster_Scorpion_Sacred_SacredEnergyHitPlayer",
              "born": {
                "$type": "ConfigBornByAttachPoint",
                "attachPointName": "RootNode"
              }
            },
            {
              "$type": "KillSelf",
              "target": "Self"
            }
          ]
        }
      ],
      "modifiers": {
        "HolyHoundBullet_Effect": {
          "onAdded": [
            {
              "$type": "AttachEffect",
              "effectPattern": "Eff_Monster_Scorpion_Sacred_SacredEnergyBullet"
            }
          ]
        },
        "Have_Scorpion_SacredEnergy_Team": {
          "duration": 10,
          "modifierMixins": [
            {
              "$type": "CurLocalAvatarMixinV2",
              "modifierName": "Have_Scorpion_SacredEnergy"
            }
          ]
        },
        "Have_Scorpion_SacredEnergy": {
          "onAdded": [
            {
              "$type": "SetGlobalValue",
              "target": "Self",
              "value": 1,
              "key": "SacredEnergy_Scorpion"
            },
            {
              "$type": "AttachEffect",
              "effectPattern": "Eff_Monster_Scorpion_Sacred_SacredEnergyOnPlayer"
            }
          ],
          "onRemoved": [
            {
              "$type": "SetGlobalValue",
              "target": "Self",
              "value": 0,
              "key": "SacredEnergy_Scorpion"
            }
          ],
          "onAttackLanded": [
            {
              "$type": "Predicated",
              "target": "Other",
              "targetPredicates": [
                {
                  "$type": "ByTargetGlobalValue",
                  "compareType": "Equal",
                  "key": "Monster_Scorpion_Sacred",
                  "value": 1
                },
                // {
                //     "$type": "ByTargetType",
                //     "targetType": "CasterOriginOwner",
                // },
                {
                  "$type": "ByEntityTypes",
                  "entityTypes": ["Monster"]
                },
                {
                  "$type": "ByAttackTags",
                  "attackTags": [
                    "NormalAttack_01",
                    "NormalAttack_02",
                    "NormalAttack_03",
                    "NormalAttack_04",
                    "NormalAttack_05",
                    "NormalAttack_06",
                    "ExtraAttack",
                    "FallingAttack",
                    "Elemental_Art",
                    "Elemental_Art_Hold",
                    "Elemental_Art_Extra",
                    "Elemental_Burst"
                  ]
                },
                {
                  "$type": "ByTargetGlobalValue",
                  "target": "Self",
                  "key": "SacredEnergy_Scorpion",
                  "value": 1,
                  "compareType": "Equal"
                }
              ],
              "successActions": [
                {
                  "$type": "SetAnimatorTrigger",
                  "target": "Other",
                  "triggerID": "WeakTrigger"
                },
                {
                  "$type": "FireEffect",
                  "effectPattern": "Eff_Monster_Scorpion_Sacred_ScaredBeHit",
                  "target": "Other"
                },
                {
                  "$type": "RemoveModifier",
                  "target": "Team",
                  "modifierName": "Have_Scorpion_SacredEnergy_Team"
                }
              ]
            }
          ]
        }
      }
    }
  },
  {
    "Default": {
      "$type": "ConfigAbility",
      "abilityName": "Monster_Scorpion_Sacred_SacredEnergy_Bullet_ToMonster",
      "onAdded": [
        {
          "$type": "ApplyModifier",
          "modifierName": "HolyHoundBullet_Effect"
        }
      ],
      "onAbilityStart": [
        {
          "$type": "Predicated",
          "target": "Target",
          "targetPredicates": [
            {
              "$type": "ByTargetGlobalValue",
              "key": "Monster_Scorpion_Sacred",
              "value": 1,
              "compareType": "Equal"
            },
            {
              "$type": "ByTargetGlobalValue",
              "key": "_SACRED_ENTITY_ALERTNESS_TAG_",
              "value": 1,
              "compareType": "Equal"
            }
          ],
          "successActions": [
            {
              "$type": "SetGlobalValue",
              "target": "Target",
              "key": "SacredEnergy_Recover_Scorpion",
              "value": 1
            },
            {
              "$type": "FireEffect",
              "target": "Target",
              "effectPattern": "Eff_Monster_Scorpion_Sacred_SacredEnergyHitMonster"
            },
            {
              "$type": "KillSelf",
              "target": "Self"
            }
          ]
        }
      ],
      "modifiers": {
        "HolyHoundBullet_Effect": {
          "onAdded": [
            {
              "$type": "AttachEffect",
              "effectPattern": "Eff_Monster_Scorpion_Sacred_SacredEnergyBullet"
            }
          ]
        }
      }
    }
  },
  ////////////////////////////////////////////////////////////////
  //
  //  EnhanceDefence
  //
  ////////////////////////////////////////////////////////////////
  {
    "Default": {
      "$type": "ConfigAbility",
      "abilityName": "Monster_Scorpion_Sacred_EnhanceDefence",
      "abilityMixins": [
        {
          "$type": "AttachToPoseIDMixin",
          "poseIDs": [1, 2, 3, 101, 102, 103, 201, 202],
          "modifierName": "Scorpion_Sacred_EnhanceDefence"
        }
      ],
      "modifiers": {
        "Scorpion_Sacred_EnhanceDefence": {
          "properties": {
            "Actor_PhysicalSubHurtDelta": 0.3,
            "Actor_FireSubHurtDelta": 0.3,
            "Actor_ElecSubHurtDelta": 0.6,
            "Actor_WaterSubHurtDelta": 0.3,
            "Actor_GrassSubHurtDelta": 0.3,
            "Actor_WindSubHurtDelta": 0.3,
            "Actor_IceSubHurtDelta": 0.3,
            "Actor_RockSubHurtDelta": 0.3
          }
        }
      }
    }
  }
]
