[
  ////////////////////////////////////////////////////////////////
  //
  //  SteerAttack
  //
  ////////////////////////////////////////////////////////////////
  {
    "Default": {
      "$type": "ConfigAbility",
      "abilityName": "Monster_Panther_Sacred_SteerAttack",
      "onAdded": [
        {
          "$type": "SetGlobalValue",
          "key": "Monster_Panther_Sacred",
          "value": 1,
          "target": "Self"
        }
      ],
      "abilityMixins": [
        {
          "$type": "SteerAttackMixin",
          "steerStateIDs": ["Attack_02_Jump_Back"],
          "startNormalizedTime": 0.2,
          "endNormalizedTime": 0.5,
          "angularSpeed": 240,
          "attackTrigger": ""
        },
        {
          "$type": "SteerAttackMixin",
          "steerStateIDs": ["Attack_02"],
          "startNormalizedTime": 0.28,
          "endNormalizedTime": 0.46,
          "angularSpeed": 180,
          "attackTrigger": ""
        },
        {
          "$type": "SteerAttackMixin",
          "steerStateIDs": ["Attack_02"],
          "startNormalizedTime": 0.55,
          "endNormalizedTime": 0.62,
          "angularSpeed": 180,
          "attackTrigger": ""
        },
        {
          "$type": "SteerAttackMixin",
          "steerStateIDs": ["TurnRight"],
          "startNormalizedTime": 0.1,
          "endNormalizedTime": 0.45,
          "angularSpeed": 240,
          "attackTrigger": ""
        },
        {
          "$type": "SteerAttackMixin",
          "steerStateIDs": ["TurnLeft"],
          "startNormalizedTime": 0.1,
          "endNormalizedTime": 0.45,
          "angularSpeed": 240,
          "attackTrigger": ""
        },
        {
          "$type": "SteerAttackMixin",
          "steerStateIDs": ["Sacred_Attack01"],
          "startNormalizedTime": 0.23,
          "endNormalizedTime": 0.34,
          "angularSpeed": 180,
          "attackTrigger": ""
        },
        {
          "$type": "SteerAttackMixin",
          "steerStateIDs": ["Sacred_Attack01"],
          "startNormalizedTime": 0.468,
          "endNormalizedTime": 0.518,
          "angularSpeed": 180,
          "attackTrigger": ""
        },
        {
          "$type": "SteerAttackMixin",
          "steerStateIDs": ["Sacred_Attack01"],
          "startNormalizedTime": 0.468,
          "endNormalizedTime": 0.518,
          "angularSpeed": 180,
          "attackTrigger": ""
        },
        {
          "$type": "SteerAttackMixin",
          "steerStateIDs": ["Sacred_Attack01"],
          "startNormalizedTime": 0.654,
          "endNormalizedTime": 0.864,
          "angularSpeed": 40,
          "attackTrigger": ""
        },
        {
          "$type": "SteerAttackMixin",
          "steerStateIDs": ["Sacred_Attack02"],
          "startNormalizedTime": 0.05,
          "endNormalizedTime": 0.1,
          "angularSpeed": 180,
          "attackTrigger": ""
        },
        {
          "$type": "SteerAttackMixin",
          "steerStateIDs": ["Sacred_Attack02"],
          "startNormalizedTime": 0.43,
          "endNormalizedTime": 0.52,
          "angularSpeed": 360,
          "attackTrigger": ""
        },
        {
          "$type": "SteerAttackMixin",
          "steerStateIDs": ["Sacred_Attack03"],
          "startNormalizedTime": 0.26,
          "endNormalizedTime": 0.3,
          "angularSpeed": 180,
          "attackTrigger": ""
        },
        {
          "$type": "SteerAttackMixin",
          "steerStateIDs": ["Sacred_Attack03"],
          "startNormalizedTime": 0.37,
          "endNormalizedTime": 0.43,
          "angularSpeed": 180,
          "attackTrigger": ""
        },
        {
          "$type": "SteerAttackMixin",
          "steerStateIDs": ["Sacred_Attack03"],
          "startNormalizedTime": 0.45,
          "endNormalizedTime": 0.48,
          "angularSpeed": 180,
          "attackTrigger": ""
        },
        {
          "$type": "SteerAttackMixin",
          "steerStateIDs": ["Sacred_Attack03"],
          "startNormalizedTime": 0.55,
          "endNormalizedTime": 0.57,
          "angularSpeed": 180,
          "attackTrigger": ""
        },
        {
          "$type": "SteerAttackMixin",
          "steerStateIDs": ["Sacred_Attack03"],
          "startNormalizedTime": 0.59,
          "endNormalizedTime": 0.65,
          "angularSpeed": 180,
          "attackTrigger": ""
        },
        {
          "$type": "SteerAttackMixin",
          "steerStateIDs": ["Sacred_Attack03"],
          "startNormalizedTime": 0.59,
          "endNormalizedTime": 0.65,
          "angularSpeed": 180,
          "attackTrigger": ""
        },
        {
          "$type": "SteerAttackMixin",
          "steerStateIDs": ["Sacred_Attack03"],
          "startNormalizedTime": 0.72,
          "endNormalizedTime": 0.76,
          "angularSpeed": 180,
          "attackTrigger": ""
        },
        {
          "$type": "SteerAttackMixin",
          "steerStateIDs": ["Sacred_Attack03"],
          "startNormalizedTime": 0.86,
          "endNormalizedTime": 0.9,
          "angularSpeed": 180,
          "attackTrigger": ""
        },
        {
          "$type": "SteerAttackMixin",
          "steerStateIDs": ["Sacred_Attack04_BS"],
          "startNormalizedTime": 0.2,
          "endNormalizedTime": 1.0,
          "angularSpeed": 180,
          "attackTrigger": ""
        },
        {
          "$type": "SteerAttackMixin",
          "steerStateIDs": ["Sacred_Attack04_Loop"],
          "startNormalizedTime": 0.0,
          "endNormalizedTime": 20.0,
          "angularSpeed": 240,
          "attackTrigger": ""
        },
        // {
        // 	"$type": "SteerAttackMixin",
        // 	"steerStateIDs": ["Sacred_Attack04_AS"],
        // 	"startNormalizedTime": 0.0,
        // 	"endNormalizedTime": 0.16,
        // 	"angularSpeed": 120,
        // 	"attackTrigger" : "",
        // },
        // {
        // 	"$type": "SteerAttackMixin",
        // 	"steerStateIDs": ["Sacred_Attack04_AS"],
        // 	"startNormalizedTime": 0.267,
        // 	"endNormalizedTime": 0.36,
        // 	"angularSpeed": 240,
        // 	"attackTrigger" : "",
        // },
        {
          "$type": "SteerAttackMixin",
          "steerStateIDs": ["Sacred_Attack04_AS"],
          "startNormalizedTime": 0.546,
          "endNormalizedTime": 0.701,
          "angularSpeed": 60,
          "attackTrigger": ""
        },
        {
          "$type": "SteerAttackMixin",
          "steerStateIDs": ["Sacred_Attack05_BS"],
          "startNormalizedTime": 0.22,
          "endNormalizedTime": 1.0,
          "angularSpeed": 60,
          "attackTrigger": ""
        },
        {
          "$type": "SteerAttackMixin",
          "steerStateIDs": ["Sacred_Attack05_Loop"],
          "startNormalizedTime": 0.1,
          "endNormalizedTime": 0.25,
          "angularSpeed": 3600,
          "attackTrigger": ""
        }
      ]
    }
  },
  ////////////////////////////////////////////////////////////////
  //
  //  MeleeAtk
  //
  ////////////////////////////////////////////////////////////////
  {
    "Default": {
      "$type": "ConfigAbility",
      "abilityName": "Monster_Panther_Sacred_MeleeAtk",
      "onAdded": [
        {
          "$type": "ApplyModifier",
          "modifierName": "Attack02_Distance_Calculation"
        }
      ],
      "modifiers": {
        "Attack02_Distance_Calculation": {
          "thinkInterval": 0.015,
          "onThinkInterval": [
            {
              "$type": "Predicated",
              "target": "SelfAttackTarget",
              "targetPredicates": [
                {
                  "$type": "ByTargetPositionToSelfPosition",
                  "compareType": "XZ",
                  "value": 3,
                  "logic": "GreaterOrEqual"
                }
              ],
              "successActions": [
                {
                  "$type": "SetAnimatorInt",
                  "intID": "Attack02Jump",
                  "value": 1
                }
              ],
              "failActions": [
                {
                  "$type": "SetAnimatorInt",
                  "intID": "Attack02Jump",
                  "value": 0
                }
              ]
            }
          ]
        }
      }
    }
  },
  ////////////////////////////////////////////////////////////////
  //
  //  SacredAttack02
  //
  ////////////////////////////////////////////////////////////////
  {
    "Default": {
      "$type": "ConfigAbility",
      "abilityName": "Monster_Panther_Sacred_Attack02_BulletHit",
      "onAbilityStart": [
        {
          "$type": "TriggerBullet",
          "bulletID": 42406405,
          "born": {
            "$type": "ConfigBornBySelf",
            "offset": {
              "x": -0.75,
              "y": 1.0,
              "z": 3
            },
            "direction": {
              "$type": "ConfigDirectionByDefault",
              "angleOffsetCorrect": {
                "x": 0,
                "y": 12,
                "z": 0
              }
            }
          }
        }
      ]
    }
  },
  {
    "Default": {
      "$type": "ConfigAbility",
      "abilityName": "Monster_Panther_Sacred_Attack02_GrassBlade",
      "onAdded": [
        {
          "$type": "ApplyModifier",
          "modifierName": "GrassBlade"
        }
      ],
      "onAbilityStart": [
        {
          "$type": "Predicated",
          "target": "Target",
          "targetPredicates": [
            {
              "$type": "ByEntityTypes",
              "entityTypes": ["Avatar"]
            }
          ],
          "successActions": [
            {
              "$type": "TriggerAttackEvent",
              "targetType": "Enemy",
              "attackEvent": {
                "attackPattern": {
                  "$type": "ConfigAttackSphere",
                  "triggerType": "TriggerNoRepeat",
                  "radius": 1,
                  "born": {
                    "$type": "ConfigBornByCollisionPoint"
                  }
                },
                "attackInfo": {
                  "canBeModifiedBy": "OriginOwner",
                  "attackProperty": {
                    "damagePercentage": 1.0,
                    "strikeType": "Slash",
                    "elementType": "Grass",
                    "enBreak": 100,
                    "elementDurability": 30
                  },
                  "hitPattern": {
                    "onHitEffectName": "",
                    "hitImpulseType": "LV4"
                  }
                }
              }
            }
          ]
        }
      ],
      "modifiers": {
        "GrassBlade": {
          "onAdded": [
            {
              "$type": "AttachEffect",
              "effectPattern": "Eff_Monster_Panther_Sacred_SacredAttack02_GrassBlade"
            }
          ]
        }
      }
    }
  },
  ////////////////////////////////////////////////////////////////
  //
  //  SacredAttack03
  //
  ////////////////////////////////////////////////////////////////
  {
    "Default": {
      "$type": "ConfigAbility",
      "abilityName": "Monster_Panther_Sacred_SacredAttack03_Hit3_1",
      "onAbilityStart": [
        {
          "$type": "SetGlobalPos",
          "key": "ThunderPos1",
          "target": "Self",
          "born": {
            "$type": "ConfigBornBySelf",
            "offset": {
              "x": 0,
              "y": 0,
              "z": 2
            },
            "onGround": true
          }
        },
        {
          "$type": "ApplyModifier",
          "modifierName": "GrassHit1"
        }
      ],
      "modifiers": {
        "GrassHit1": {
          "duration": 0.1,
          "onAdded": [
            {
              "$type": "FireEffect",
              "effectPattern": "Eff_Monster_Panther_Sacred_SacredAttack03_Hit3_1", //临时，雷击特效
              "born": {
                "$type": "ConfigBornByGlobalValue",
                "positionKey": "ThunderPos1"
              }
            },
            {
              "$type": "TriggerAttackEvent",
              "targetType": "Enemy",
              "attackEvent": {
                "attackPattern": {
                  "$type": "ConfigAttackCircle",
                  "triggerType": "TriggerNoRepeat",
                  "height": 3.0,
                  "fanAngle": 120.0,
                  "radius": 4.0,
                  "born": {
                    "$type": "ConfigBornByGlobalValue",
                    "positionKey": "ThunderPos1"
                  }
                },
                "attackInfo": {
                  "canBeModifiedBy": "OriginOwner",
                  "attackProperty": {
                    "damagePercentage": 0.9,
                    "strikeType": "Blunt",
                    "enBreak": 100.0,
                    "elementDurability": 30,
                    "elementType": "Grass"
                  },
                  "hitPattern": {
                    "hitImpulseType": "LV4",
                    "hitHaltTime": 0.0,
                    "hitHaltTimeScale": 0.01,
                    "muteHitText": false
                  }
                }
              }
            }
          ]
        }
      }
    }
  },
  {
    "Default": {
      "$type": "ConfigAbility",
      "abilityName": "Monster_Panther_Sacred_SacredAttack03_Hit3_2",
      "onAbilityStart": [
        {
          "$type": "ApplyModifier",
          "modifierName": "GrassHit2"
        }
      ],
      "modifiers": {
        "GrassHit2": {
          "duration": 0.1,
          "onAdded": [
            {
              "$type": "TriggerAttackEvent",
              "targetType": "Enemy",
              "attackEvent": {
                "attackPattern": {
                  "$type": "ConfigAttackCircle",
                  "triggerType": "TriggerNoRepeat",
                  "height": 3.0,
                  "fanAngle": 120.0,
                  "innerRadius": 4,
                  "radius": 7.0,
                  "born": {
                    "$type": "ConfigBornByGlobalValue",
                    "positionKey": "ThunderPos1"
                  }
                },
                "attackInfo": {
                  "canBeModifiedBy": "OriginOwner",
                  "attackProperty": {
                    "damagePercentage": 0.9,
                    "strikeType": "Blunt",
                    "enBreak": 100.0,
                    "elementDurability": 30,
                    "elementType": "Grass"
                  },
                  "hitPattern": {
                    "hitImpulseType": "LV4",
                    "hitHaltTime": 0.0,
                    "hitHaltTimeScale": 0.01,
                    "muteHitText": false
                  }
                }
              }
            }
          ]
        }
      }
    }
  },
  {
    "Default": {
      "$type": "ConfigAbility",
      "abilityName": "Monster_Panther_Sacred_SacredAttack03_Hit3_3",
      "onAbilityStart": [
        {
          "$type": "ApplyModifier",
          "modifierName": "GrassHit3"
        }
      ],
      "modifiers": {
        "GrassHit3": {
          "duration": 0.1,
          "onAdded": [
            {
              "$type": "TriggerAttackEvent",
              "targetType": "Enemy",
              "attackEvent": {
                "attackPattern": {
                  "$type": "ConfigAttackCircle",
                  "triggerType": "TriggerNoRepeat",
                  "height": 3.0,
                  "fanAngle": 120.0,
                  "innerRadius": 7,
                  "radius": 11.0,
                  "born": {
                    "$type": "ConfigBornByGlobalValue",
                    "positionKey": "ThunderPos1"
                  }
                },
                "attackInfo": {
                  "canBeModifiedBy": "OriginOwner",
                  "attackProperty": {
                    "damagePercentage": 0.9,
                    "strikeType": "Blunt",
                    "enBreak": 100.0,
                    "elementDurability": 30,
                    "elementType": "Grass"
                  },
                  "hitPattern": {
                    "hitImpulseType": "LV4",
                    "hitHaltTime": 0.0,
                    "hitHaltTimeScale": 0.01,
                    "muteHitText": false
                  }
                }
              }
            }
          ]
        }
      }
    }
  },
  ////////////////////////////////////////////////////////////////
  //
  //  SacredAttack04
  //
  ////////////////////////////////////////////////////////////////
  {
    "Default": {
      "$type": "ConfigAbility",
      "abilityName": "Monster_Panther_Sacred_SacredAttack04",
      "abilityMixins": [
        {
          "$type": "AttachToStateIDMixin",
          "stateIDs": ["Sacred_Attack04_Loop"],
          "modifierName": "SacredAttack04Hit"
        },
        {
          "$type": "AttachToStateIDMixin",
          "stateIDs": ["Sacred_Attack04_Loop"],
          "modifierName": "SacredAttack04LoopEffect"
        },
        {
          "$type": "AttachToNormalizedTimeMixin",
          "normalizeStart": 0.85,
          "normalizeEnd": 0.99,
          "stateID": "Sacred_Attack04_BS",
          "modifierName": "SacredAttack04Hit"
        },
        {
          "$type": "AttachToStateIDMixin",
          "stateIDs": ["Sacred_Attack04_BS"],
          "modifierName": "SacredAttack04ParamReset"
        },
        {
          "$type": "AttachToStateIDMixin",
          "stateIDs": ["Sacred_Attack04_Loop"],
          "modifierName": "SacredAttack04RunCheck"
        }
      ],
      "modifiers": {
        "SacredAttack04LoopEffect": {
          "onAdded": [
            {
              "$type": "AttachEffect",
              "effectPattern": "Eff_Monster_Panther_Sacred_SacredAttack04_Loop"
            }
          ]
        },
        "SacredAttack04ParamReset": {
          "duration": 0.5,
          "onAdded": [
            {
              "$type": "SetAnimatorInt",
              "intID": "Attack04Target",
              "value": 0
            }
          ]
        },
        "SacredAttack04RunCheck": {
          "thinkInterval": 0.1,
          "onThinkInterval": [
            {
              "$type": "Predicated",
              "target": "SelfAttackTarget",
              "targetPredicates": [
                {
                  "$type": "ByTargetPositionToSelfPosition",
                  "compareType": "XZ",
                  "value": 7,
                  "logic": "LesserOrEqual"
                }
              ],
              "successActions": [
                {
                  "$type": "SetAnimatorInt",
                  "intID": "Attack04Target",
                  "value": 1
                }
              ],
              "failActions": [
                {
                  "$type": "SetAnimatorInt",
                  "intID": "Attack04Target",
                  "value": 0
                }
              ]
            }
          ]
        },
        "SacredAttack04Hit": {
          "thinkInterval": 0.1,
          "onThinkInterval": [
            {
              "$type": "TriggerAttackEvent",
              "target": "Self",
              "targetType": "Enemy",
              "attackEvent": {
                "attackPattern": {
                  "$type": "ConfigAttackBox",
                  "triggerType": "TriggerNoRepeat",
                  "born": {
                    "$type": "ConfigBornBySelf",
                    "offset": {
                      "x": 0.0,
                      "y": 0.0,
                      "z": 0.0
                    }
                  },
                  "size": {
                    "x": 2,
                    "y": 4,
                    "z": 3
                  }
                },
                "attackInfo": {
                  "attackProperty": {
                    "damagePercentage": 0.1,
                    "strikeType": "Blunt",
                    "enBreak": 200,
                    "elementType": "Grass",
                    "elementDurability": 30
                  },
                  "hitPattern": {
                    "hitImpulseType": "LV3",
                    "hitHaltTime": 0.0,
                    "hitHaltTimeScale": 0.05,
                    "muteHitText": true,
                    "retreatType": "ByTangent"
                  }
                }
              }
            }
          ]
        }
      }
    }
  },
  ////////////////////////////////////////////////////////////////
  //
  //  Sacred_Attack05
  //
  ////////////////////////////////////////////////////////////////
  {
    "Default": {
      "$type": "ConfigAbility",
      "abilityName": "Monster_Panther_Sacred_Attack05_Dither",
      "onAbilityStart": [
        {
          "$type": "ApplyModifier",
          "modifierName": "DitherControl"
        }
      ],
      "modifiers": {
        "DitherControl": {
          "duration": 2.0,
          "onAdded": [
            {
              "$type": "StartDither",
              "duration": 1.667
            }
          ]
        }
      }
    }
  },
  {
    "Default": {
      "$type": "ConfigAbility",
      "abilityName": "Monster_Panther_Sacred_Attack05_Collider",
      "onAbilityStart": [
        {
          "$type": "ApplyModifier",
          "modifierName": "StateControl"
        }
      ],
      "modifiers": {
        "StateControl": {
          "duration": 1.0,
          "modifierMixins": [
            {
              "$type": "AttachActionToModifierMixin",
              "onAdded": [
                {
                  "$type": "HideUIBillBoard",
                  "hide": true
                },
                {
                  "$type": "ApplyModifier",
                  "modifierName": "UnderGround_Invincible"
                },
                {
                  "$type": "ApplyModifier",
                  "modifierName": "UnderGround_DenyLockOn"
                },
                {
                  "$type": "EnablePushColliderName",
                  "pushColliderNames": ["PushCollider"],
                  "setEnable": false
                },
                {
                  "$type": "TriggerSetVisible",
                  "visible": false,
                  "target": "Self"
                }
              ],
              "onRemoved": [
                {
                  "$type": "HideUIBillBoard",
                  "hide": false
                },
                {
                  "$type": "RemoveModifier",
                  "modifierName": "UnderGround_Invincible"
                },
                {
                  "$type": "RemoveModifier",
                  "modifierName": "UnderGround_DenyLockOn"
                },
                {
                  "$type": "EnablePushColliderName",
                  "pushColliderNames": ["PushCollider"],
                  "setEnable": true
                },
                {
                  "$type": "TriggerSetVisible",
                  "visible": true,
                  "target": "Self"
                }
              ]
            }
          ]
        },
        "UnderGround_Invincible": {
          "state": "Invincible"
        },
        "UnderGround_DenyLockOn": {
          "state": "DenyLockOn"
        }
      }
    }
  },
  {
    "Default": {
      "$type": "ConfigAbility",
      "abilityName": "Monster_Panther_Sacred_Attack05_Find",
      "onAbilityStart": [
        {
          "$type": "TryFindBlinkPointByBorn",
          "target": "SelfAttackTarget",
          "hitSceneTest": true,
          "hitSceneType": "BlinkHitSceneTestByThreeSegments",
          "limitY": 15.0,
          "born": {
            "$type": "ConfigBornByTarget",
            "onGround": true,
            "offset": {
              "x": 0,
              "y": 0.0,
              "z": -7.72
            },
            "bornRandom": {
              "$type": "BornRandomFromCenter",
              "maxRandomRange": 0.15,
              "minRandomRange": 0.05
            }
          }
        },
        {
          "$type": "FireEffect",
          "effectPattern": "Eff_Monster_Panther_Sacred_SacredAttack05_AirFog",
          "born": {
            "$type": "ConfigBornByTeleportToPoint",
            "offset": {
              "x": 0,
              "y": 2.0,
              "z": 0
            }
          }
        },
        {
          "$type": "FireEffect",
          "target": "SelfAttackTarget",
          "effectPattern": "Eff_Monster_Panther_Sacred_SacredAttack05_Warning",
          "born": {
            "$type": "ConfigBornByTarget",
            "onGround": true
          }
        }
      ]
    }
  },
  {
    "Default": {
      "$type": "ConfigAbility",
      "abilityName": "Monster_Panther_Sacred_Attack05_Blink",
      "onAbilityStart": [
        {
          "$type": "FireEffect",
          "effectPattern": "Eff_Monster_Panther_Sacred_SacredAttack05_AirFog_AS",
          "born": {
            "$type": "ConfigBornByTeleportToPoint"
          }
        },
        {
          "$type": "TurnDirectionToPos",
          "toPos": {
            "$type": "ConfigBornByTeleportToPoint"
          }
        },
        {
          "$type": "DoBlink"
        }
      ]
    }
  },
  ////////////////////////////////////////////////////////////////
  //
  //  HeadControlOff
  //
  ////////////////////////////////////////////////////////////////
  {
    "Default": {
      "$type": "ConfigAbility",
      "abilityName": "Monster_Panther_Sacred_HeadControlOff",
      "abilityMixins": [
        {
          "$type": "AttachToAIAlertnessMixin",
          "alertness": [0, 1],
          "modifierName": "HeadControl_Disable"
        }
      ],
      "modifiers": {
        "HeadControl_Disable": {
          "onAdded": [
            {
              "$type": "EnableHeadControl",
              "enable": false
            }
          ],
          "onRemoved": [
            {
              "$type": "EnableHeadControl",
              "enable": true
            }
          ]
        }
      }
    }
  },
  ////////////////////////////////////////////////////////////////
  //
  //  SacredEnergy
  //
  ////////////////////////////////////////////////////////////////
  {
    "Default": {
      "$type": "ConfigAbility",
      "abilityName": "Monster_Panther_Sacred_SacredEnergy_Accum"
    }
  },
  {
    "Default": {
      "$type": "ConfigAbility",
      "abilityName": "Monster_Panther_Sacred_SacredEnergy_Accum_Create",
      "onAbilityStart": [
        {
          "$type": "SetSelfAttackTarget",
          "otherTargets": {
            "$type": "SelectTargetsByShape",
            "shapeName": "CircleR50",
            "centerBasedOn": "Self",
            "campTargetType": "All",
            "campBasedOn": "Self",
            "sortType": "Nearest",
            "entityTypePriority": ["Gadget"]
          },
          "predicates": [
            {
              "$type": "ByTargetGlobalValue",
              "key": "Panther_SacredEnergy_Gadget",
              "value": 1,
              "compareType": "Equal"
            }
          ]
        },
        {
          "$type": "TriggerBullet",
          "bulletID": 42406402,
          "target": "SelfAttackTarget",
          "born": {
            "$type": "ConfigBornBySelf"
          }
        },
        {
          "$type": "ResetAIAttackTarget"
        }
      ]
    }
  },
  {
    "Default": {
      "$type": "ConfigAbility",
      "abilityName": "Monster_Panther_Sacred_SacredEnergy_Detect",
      "onAbilityStart": [
        {
          "$type": "TriggerBullet",
          "bulletID": 42406401,
          "lifeByOwnerIsAlive": true,
          "born": {
            "$type": "ConfigBornBySelf",
            "offset": {
              "x": 0,
              "y": 1.0,
              "z": 2.0
            },
            "direction": {
              "$type": "ConfigDirectionByDefault",
              "angleOffset": {
                "x": 0,
                "y": 0,
                "z": 0
              }
            }
          }
        }
      ]
    }
  },
  {
    "Default": {
      "$type": "ConfigAbility",
      "abilityName": "Monster_Panther_Sacred_SacredEnergy_Create",
      "onAbilityStart": [
        {
          "$type": "CreateGadget",
          "gadgetID": 42406403,
          "campID": 4001,
          "byServer": true,
          "born": {
            "$type": "ConfigBornByCollisionPoint",
            "onGround": true,
            "alongGround": true
          }
        },
        {
          "$type": "KillSelf"
        }
      ]
    }
  },
  {
    "Default": {
      "$type": "ConfigAbility",
      "abilityName": "Monster_Panther_Sacred_SacredEnergy_CreateO",
      "onAbilityStart": [
        {
          "$type": "CreateGadget",
          "gadgetID": 42406403,
          "campID": 4001,
          "byServer": true,
          "born": {
            "$type": "ConfigBornBySelf",
            "onGround": true,
            "alongGround": true
          }
        },
        {
          "$type": "KillSelf"
        }
      ]
    }
  },
  {
    "Default": {
      "$type": "ConfigAbility",
      "abilityName": "Monster_Panther_Sacred_SacredEnergy_Gadget",
      "onAdded": [
        {
          "$type": "ApplyModifier",
          "modifierName": "DarkHoundGadget_DelayHandler"
        },
        {
          "$type": "ApplyModifier",
          "modifierName": "DarkHoundGadget_DelayHandler_Effect"
        },
        {
          "$type": "SetGlobalValue",
          "key": "_CHARGEBAR_VALUE",
          "value": 0
        },
        {
          "$type": "SetGlobalValue",
          "key": "Panther_SacredEnergy_Gadget",
          "value": 1
        },
        {
          "$type": "EnablePushColliderName",
          "pushColliderNames": ["PushCollider_Occluder"],
          "setEnable": true
        },
        {
          "$type": "EnablePushColliderName",
          "pushColliderNames": ["PushCollider"],
          "setEnable": false
        }
      ],
      "modifiers": {
        "DarkHoundGadget_DelayHandler_Effect": {
          "duration": 1.35,
          "onRemoved": [
            {
              "$type": "FireEffect",
              "effectPattern": "Eff_Monster_Panther_Sacred_SacredAttack05_SacredEnergy_Hit"
            }
          ]
        },
        "DarkHoundGadget_DelayHandler": {
          "duration": 1.4,
          "onRemoved": [
            {
              "$type": "ApplyModifier",
              "modifierName": "DarkHoundGadget_ChargeState"
            },
            {
              "$type": "EnablePushColliderName",
              "pushColliderNames": ["PushCollider"],
              "setEnable": true
            }
          ]
        },
        "DarkHoundGadget_ChargeState": {
          "duration": 10,
          "modifierMixins": [
            {
              "$type": "ChargeBarMixin",
              "chargeBarElementType": "Grass",
              "chargeBarIconID": 1,
              "initialValue": 0,
              "maxValue": 10
            },
            {
              "$type": "AttachModifierToSelfGlobalValueMixin",
              "globalValueKey": "_CHARGEBAR_VALUE",
              "valueSteps": [9.5, 10.5],
              "removeAppliedModifier": true,
              "modifierNameSteps": ["DarkHoundGadget_ChargeEnd"]
            }
          ],
          "onAdded": [
            {
              "$type": "AttachEffect",
              "effectPattern": "Eff_Monster_Panther_Sacred_SacredEnergy"
            },
            {
              "$type": "AttachEffect",
              "effectPattern": "Eff_Monster_Panther_Sacred_SacredSmoke"
            }
          ],
          "onBeingHit": [
            {
              "$type": "SetSelfAttackTarget",
              "target": "Target"
            },
            {
              "$type": "FireEffect",
              "effectPattern": "Eff_Monster_Panther_Sacred_SacredEnergyBeHit",
              "born": {
                "$type": "ConfigBornBySelf",
                "offset": {
                  "x": 0.0,
                  "y": 0.0,
                  "z": 0.0
                }
              }
            },
            {
              "$type": "AddChargeBarValue",
              "value": 5,
              "predicates": [
                {
                  "$type": "ByAny",
                  "predicates": [
                    {
                      "$type": "ByHitElement",
                      "element": "Grass"
                    }
                  ]
                }
              ]
            },
            {
              "$type": "AddChargeBarValue",
              "value": 1.25,
              "predicates": [
                {
                  "$type": "ByAny",
                  "predicates": [
                    {
                      "$type": "ByHitElement",
                      "element": "Wind"
                    },
                    {
                      "$type": "ByHitElement",
                      "element": "Fire"
                    },
                    {
                      "$type": "ByHitElement",
                      "element": "Water"
                    },
                    {
                      "$type": "ByHitElement",
                      "element": "Ice"
                    },
                    {
                      "$type": "ByHitElement",
                      "element": "Electric"
                    },
                    {
                      "$type": "ByHitElement",
                      "element": "Rock"
                    }
                  ]
                }
              ]
            }
          ],
          "onRemoved": [
            {
              "$type": "EnableHitBoxByName",
              "hitBoxNames": ["HitBox"],
              "setEnable": false
            },
            {
              "$type": "FireEffect",
              "effectPattern": "Eff_Monster_Panther_Sacred_SacredEnergyDisappear",
              "predicates": [
                {
                  "$type": "ByTargetGlobalValue",
                  "compareType": "LessAndEqual",
                  "key": "_CHARGEBAR_VALUE",
                  "target": "Self",
                  "value": 9
                }
              ]
            },
            {
              "$type": "TriggerBullet",
              "target": "OriginOwner",
              "bulletID": 42406406,
              "trackTarget": "Target",
              "born": {
                "$type": "ConfigBornByAttachPoint",
                "attachPointName": "RootNode",
                "attachPointTargetType": "Self",
                "offset": {
                  "x": 0.0,
                  "y": 0.0,
                  "z": 0.0
                },
                "direction": {
                  "$type": "ConfigDirectionByAttachPoint",
                  "attachPointName": "RootNode",
                  "attachPointTargetType": "Self",
                  "angleOffset": {
                    "x": 0.0,
                    "y": 0.0,
                    "z": 0.0
                  }
                }
              },
              "predicates": [
                {
                  "$type": "ByTargetGlobalValue",
                  "compareType": "LessAndEqual",
                  "key": "_CHARGEBAR_VALUE",
                  "target": "Self",
                  "value": 9
                }
              ]
            },
            {
              "$type": "KillSelf",
              "duration": 0.2
            }
          ]
        },
        "DarkHoundGadget_ChargeEnd": {
          "onAdded": [
            {
              "$type": "ApplyModifier",
              "modifierName": "FireHolyHound_Timer"
            },
            {
              "$type": "ApplyModifier",
              "target": "OriginOwner",
              "modifierName": "SacredEnergy_Recover_CountDown"
            },
            {
              "$type": "EnableHitBoxByName",
              "hitBoxNames": ["HitBox"],
              "setEnable": false
            },
            {
              "$type": "RemoveModifier",
              "modifierName": "DarkHoundGadget_ChargeState"
            }
          ]
        },
        "SacredEnergy_Recover_CountDown": {
          "stacking": "Refresh",
          "duration": 13,
          "onRemoved": [
            {
              "$type": "SetGlobalValue",
              "target": "Self",
              "key": "SacredEnergy_Recover_Panther",
              "value": 1,
              "predicates": [
                {
                  "$type": "ByAnimatorBool",
                  "target": "Self",
                  "parameter": "EnhanceSkin",
                  "logic": "Equal",
                  "value": false
                }
              ]
            }
          ]
        },
        "FireHolyHound_Timer": {
          "duration": 0.65,
          "onAdded": [
            {
              "$type": "FireEffect",
              "effectPattern": "Eff_Monster_Panther_Sacred_SacredEnergyTransform"
            },
            {
              "$type": "Predicated",
              "target": "Other",
              "otherTargets": {
                "$type": "SelectTargetsByShape",
                "shapeName": "CircleR50",
                "centerBasedOn": "Self",
                "campTargetType": "Enemy",
                "campBasedOn": "Self",
                "topLimit": 1,
                "entityTypePriority": ["Avatar"],
                "sortType": "Nearest"
              },
              "successActions": [
                {
                  "$type": "ApplyModifier",
                  "target": "TargetTeam",
                  "modifierName": "Panther_SacredEnergy_TargetTeam"
                },
                {
                  "$type": "TriggerBullet",
                  "target": "Target",
                  "bulletID": 42406404,
                  "trackTarget": "Target",
                  "born": {
                    "$type": "ConfigBornByAttachPoint",
                    "attachPointName": "RootNode",
                    "attachPointTargetType": "Self",
                    "offset": {
                      "x": 0.0,
                      "y": 0.0,
                      "z": 0.0
                    },
                    "direction": {
                      "$type": "ConfigDirectionByAttachPoint",
                      "attachPointName": "RootNode",
                      "attachPointTargetType": "Self",
                      "angleOffset": {
                        "x": 0.0,
                        "y": 0.0,
                        "z": 0.0
                      }
                    }
                  }
                }
              ]
            }
          ]
        },
        //给team上标记
        "Panther_SacredEnergy_TargetTeam": {
          "duration": 10,
          "modifierMixins": [
            {
              "$type": "CurLocalAvatarMixinV2",
              "modifierName": "Panther_SacredEnergy_Target"
            }
          ]
        },
        "Panther_SacredEnergy_Target": {
          "onAdded": [
            {
              "$type": "SetGlobalValue",
              "target": "Self",
              "value": 1,
              "key": "SacredEnergy_Target_Panther"
            }
          ],
          "onRemoved": [
            {
              "$type": "SetGlobalValue",
              "target": "Self",
              "value": 0,
              "key": "SacredEnergy_Target_Panther"
            }
          ]
        }
      }
    }
  },
  {
    "Default": {
      "$type": "ConfigAbility",
      "abilityName": "Monster_Panther_Sacred_SacredEnergy_Bullet",
      "onAdded": [
        {
          "$type": "ApplyModifier",
          "modifierName": "HolyHoundBullet_Effect"
        }
      ],
      "onAbilityStart": [
        {
          "$type": "Predicated",
          "target": "Target",
          "targetPredicates": [
            {
              "$type": "ByTargetGlobalValue",
              "key": "SacredEnergy_Target_Panther",
              "value": 1,
              "compareType": "Equal"
            }
          ],
          "successActions": [
            {
              "$type": "ApplyModifier",
              "target": "TargetTeam",
              "modifierName": "Have_Panther_SacredEnergy_Team"
            },
            {
              "$type": "FireEffect",
              "target": "Target",
              "effectPattern": "Eff_Monster_Panther_Sacred_SacredEnergyHitPlayer",
              "born": {
                "$type": "ConfigBornByAttachPoint",
                "attachPointName": "RootNode"
              }
            },
            {
              "$type": "KillSelf",
              "target": "Self"
            }
          ]
        }
      ],
      "modifiers": {
        "HolyHoundBullet_Effect": {
          "onAdded": [
            {
              "$type": "AttachEffect",
              "effectPattern": "Eff_Monster_Panther_Sacred_SacredEnergyBullet"
            }
          ]
        },
        "Have_Panther_SacredEnergy_Team": {
          "duration": 10,
          "modifierMixins": [
            {
              "$type": "CurLocalAvatarMixinV2",
              "modifierName": "Have_Panther_SacredEnergy"
            }
          ]
        },
        "Have_Panther_SacredEnergy": {
          "onAdded": [
            {
              "$type": "SetGlobalValue",
              "target": "Self",
              "value": 1,
              "key": "SacredEnergy_Panther"
            },
            {
              "$type": "AttachEffect",
              "effectPattern": "Eff_Monster_Panther_Sacred_SacredEnergyOnPlayer"
            }
          ],
          "onRemoved": [
            {
              "$type": "SetGlobalValue",
              "target": "Self",
              "value": 0,
              "key": "SacredEnergy_Panther"
            }
          ],
          "onAttackLanded": [
            {
              "$type": "Predicated",
              "target": "Other",
              "targetPredicates": [
                {
                  "$type": "ByTargetGlobalValue",
                  "compareType": "Equal",
                  "key": "Monster_Panther_Sacred",
                  "value": 1
                },
                // {
                //     "$type": "ByTargetType",
                //     "targetType": "CasterOriginOwner",
                // },
                {
                  "$type": "ByEntityTypes",
                  "entityTypes": ["Monster"]
                },
                {
                  "$type": "ByAttackTags",
                  "attackTags": [
                    "NormalAttack_01",
                    "NormalAttack_02",
                    "NormalAttack_03",
                    "NormalAttack_04",
                    "NormalAttack_05",
                    "NormalAttack_06",
                    "ExtraAttack",
                    "FallingAttack",
                    "Elemental_Art",
                    "Elemental_Art_Hold",
                    "Elemental_Art_Extra",
                    "Elemental_Burst"
                  ]
                },
                {
                  "$type": "ByTargetGlobalValue",
                  "target": "Self",
                  "key": "SacredEnergy_Panther",
                  "value": 1,
                  "compareType": "Equal"
                }
              ],
              "successActions": [
                {
                  "$type": "SetAnimatorTrigger",
                  "target": "Other",
                  "triggerID": "WeakTrigger"
                },
                {
                  "$type": "FireEffect",
                  "effectPattern": "Eff_Monster_Panther_Sacred_ScaredBeHit",
                  "target": "Other"
                },
                {
                  "$type": "RemoveModifier",
                  "target": "Team",
                  "modifierName": "Have_Panther_SacredEnergy_Team"
                }
              ]
            }
          ]
        }
      }
    }
  },
  {
    "Default": {
      "$type": "ConfigAbility",
      "abilityName": "Monster_Panther_Sacred_SacredEnergy_Bullet_ToMonster",
      "onAdded": [
        {
          "$type": "ApplyModifier",
          "modifierName": "HolyHoundBullet_Effect"
        }
      ],
      "onAbilityStart": [
        {
          "$type": "Predicated",
          "target": "Target",
          "targetPredicates": [
            {
              "$type": "ByTargetGlobalValue",
              "key": "Monster_Panther_Sacred",
              "value": 1,
              "compareType": "Equal"
            },
            {
              "$type": "ByTargetGlobalValue",
              "key": "_SACRED_ENTITY_ALERTNESS_TAG_",
              "value": 1,
              "compareType": "Equal"
            }
          ],
          "successActions": [
            {
              "$type": "SetGlobalValue",
              "target": "Target",
              "key": "SacredEnergy_Recover_Panther",
              "value": 1
            },
            {
              "$type": "FireEffect",
              "target": "Target",
              "effectPattern": "Eff_Monster_Panther_Sacred_SacredEnergyHitMonster"
            },
            {
              "$type": "KillSelf",
              "target": "Self"
            }
          ]
        }
      ],
      "modifiers": {
        "HolyHoundBullet_Effect": {
          "onAdded": [
            {
              "$type": "AttachEffect",
              "effectPattern": "Eff_Monster_Panther_Sacred_SacredEnergyBullet"
            }
          ]
        }
      }
    }
  },
  ////////////////////////////////////////////////////////////////
  //
  //  EnhanceDefence
  //
  ////////////////////////////////////////////////////////////////
  {
    "Default": {
      "$type": "ConfigAbility",
      "abilityName": "Monster_Panther_Sacred_EnhanceDefence",
      "abilityMixins": [
        {
          "$type": "AttachToPoseIDMixin",
          "poseIDs": [1, 2, 3, 101, 102, 103, 201, 202],
          "modifierName": "Panther_Sacred_EnhanceDefence"
        }
      ],
      "modifiers": {
        "Panther_Sacred_EnhanceDefence": {
          "properties": {
            "Actor_PhysicalSubHurtDelta": 0.3,
            "Actor_FireSubHurtDelta": 0.3,
            "Actor_ElecSubHurtDelta": 0.3,
            "Actor_WaterSubHurtDelta": 0.3,
            "Actor_GrassSubHurtDelta": 0.6,
            "Actor_WindSubHurtDelta": 0.3,
            "Actor_IceSubHurtDelta": 0.3,
            "Actor_RockSubHurtDelta": 0.3
          }
        }
      }
    }
  }
]
