[
  ///////操控者

  ////////////////////////////////////////////////////////////////
  //
  //  The Choosen one
  //
  ////////////////////////////////////////////////////////////////
  {
    "Default": {
      "$type": "ConfigAbility",
      "abilityName": "Monster_Apep_Underling_SeedOfArjuna_Chose",
      "onAbilityStart": [
        {
          "$type": "Predicated",
          "otherTargets": {
            "$type": "SelectTargetsByShape",
            "shapeName": "CircleR50",
            "centerBasedOn": "Self",
            "campTargetType": "SelfCamp",
            "campBasedOn": "Self",
            "sortType": "Nearest",
            "topLimit": 1
          },
          "targetPredicates": [],
          "successActions": [],
          "predicates": [
            {
              "$type": "ByTargetRaycastVisiable"
            },
            //优先选已经在攻击距离内的近战小怪
            {
              "$type": "ByTargetGlobalValue",
              "key": "_MONSTER_Apep_Underling_SeedofKarna_Melee_Reachable",
              "value": 1
            }
          ]
        },
        {
          "$type": "ApplyModifier",
          "otherTargets": {
            "$type": "SelectTargetsByShape",
            "shapeName": "CircleR50",
            "centerBasedOn": "Self",
            "campTargetType": "SelfCamp",
            "campBasedOn": "Self",
            "sortType": "Nearest",
            "topLimit": 1
          },
          "modifierName": "Monster_Apep_Underling_SeedOfArjuna_ChosenOne",
          "predicates": [
            {
              "$type": "ByTargetRaycastVisiable"
            },
            //优先选已经在攻击距离内的近战小怪
            {
              "$type": "ByTargetGlobalValue",
              "key": "_MONSTER_Apep_Underling_SeedofKarna_Melee_Reachable",
              "value": 1
            }
          ]
        }
      ],
      "modifiers": {
        "Monster_Apep_Underling_SeedOfArjuna_ChosenOne": {
          "onAdded": [
            {
              "$type": "SetGlobalValue",
              "key": "_MONSTER_Apep_Underling_SeedOfArjuna_ChosenOne",
              "value": 1
            }
          ],
          "onRemoved": [
            {
              "$type": "SetGlobalValue",
              "key": "_MONSTER_Apep_Underling_SeedOfArjuna_ChosenOne",
              "value": 0
            }
          ]
        }
      }
    }
  }
]
