{
  "$type": "ConfigMonster",
  "common": {
    "mass": 1000000000.0,
    "height": 22,
    "affectedByWorld": false,
    "scale": 0.8,
    "viewSize": 1.5,
    "effectAttachShape": {
      "$type": "ConfigEffectAttachSkinnedMesh",
      "mesh": "EffectMesh"
    },
    "disableTickDistance": 10000,
    "clearAIOnSetLightDeactive": true,
    "clearAnimatorOnSetLightDeactive": true,
    "shouldPauseAnimatorBeforeReady": true,
    "meshEffectNodeList": [
      {
        "attachMeshName": "EffectMesh01",
        "followTargetPath": "EffectMesh01_FollowPoint"
      },
      {
        "attachMeshName": "EffectMesh02",
        "followTargetPath": "EffectMesh02_FollowPoint"
      },
      {
        "attachMeshName": "EffectMesh03",
        "followTargetPath": "EffectMesh03_FollowPoint"
      }
    ]
  },
  "model": {
    "canBakeMesh": false
  },
  "billboard": {
    "$type": "ConfigCombatBillboard",
    "offset": {
      "x": 0,
      "y": 2.5,
      "z": 0
    },
    "radiusOffset": 1.0,
    "enableSelfAdapt": true,
    "showHPBar": true,
    "size": "Big"
  },
  "cameraAdjustMap": {
    "default": {
      "$type": "ConfigSpecialCamera",
      "priority": 1.0,
      "enterRadius": 10,
      "exitRadius": 65,
      "heightAdjust": 1,
      "fov": 52.5,
      "zoom": 12,
      "sphericalY": -10, //俯仰角，正值为俯视角，负值为仰视角
      "lockSphericalY": false,
      "sphericalYUp": 30, //往俯视角调整时，角度范围=sphericalY+YUp
      "sphericalYDown": 20, //往仰视角调整时，角度范围=sphericalY-YDown
      "autoTurnStartMin": 25,
      "autoTurnStartMax": 30,
      "autoTurnEndMin": 55,
      "autoTurnEndMax": 60,
      "enterShape": "CircleR30",
      "exitShape": "CircleR40",
      "shapeCenterOffset": {
        "x": 0,
        "y": 0,
        "z": 0
      }
    }
  },
  "specialPoint": {
    "bulletAim": "AimPoint",
    "ignoreTransform": true,
    "selectedPointRadius": 5,
    "selectedPoints": [
      "SelectedPoint1",
      "SelectedPoint2",
      "SelectedPoint3",
      "SelectedPoint4"
    ],
    "hitPoints": [
      "SelectedPoint1",
      "SelectedPoint2",
      "SelectedPoint3",
      "SelectedPoint4"
    ]
  },
  "move": {
    "$type": "ConfigAnimatorMove",
    "velocityForce": {
      "includeForces": ["FixedRushMoveType", "RushMoveType"]
    },
    "monsterSizeType": "OtherType",
    "destroyRockWhenInit": true,
    "initWithGroundHitCheck": false,
    "handleCombatTaskImmediately": true
  },
  "combat": {
    "property": {
      "endureType": "Monster_Boss_Other",
      "weight": 1000
    },
    "combatLock": {
      "denyLockOn": false,
      "lockWeightYaxisThreshold": 15,
      "lockWeightYaxisParam": 0.2,
      "lockType": "Avatar&Monster_Lv4"
    },
    "beHit": {
      "hitBloodEffect": "",
      "hitAutoRedirect": false,
      "muteAllHit": false,
      "muteAllHitEffect": false,
      "muteAllHitText": false,
      "blendShake": {
        "$type": "ConfigBeHitBlendShakeByAinmator",
        "shakeFlagMap": [
          {
            "shakeFlag": 0.33,
            "hitBoxNames": ["HeadBox"]
          },
          {
            "shakeFlag": 0.66,
            "hitBoxNames": ["HitBox_01", "HitBox_02"]
          },
          {
            "shakeFlag": 1,
            "hitBoxNames": ["HitBox_Tail01"]
          }
        ]
      }
    },
    "die": {
      "hasAnimatorDie": true,
      "dieDisappearEffect": "Eff_Death_Common",
      "dieDisappearEffectDelay": 0.0,
      "dieEndTime": 1.5,
      "dieForceDisappearTime": 3,
      "dieModelFadeDelay": 0.0,
      "dieShaderData": "MonsterDie",
      "muteHitBox": true,
      "dieDenyLockOn": true,
      "dieIsGhostToEnemy": true,
      "dieIgnoreTriggerBullet": true,
      "muteBillboard": true,
      "mutePushCollider": true
    },
    "animEvents": {
      "Alert": {
        "attackPattern": {
          "$type": "ConfigAttackCircle",
          "triggerType": "TriggerNoRepeat",
          "fanAngle": 360.0,
          "radius": 6,
          "height": 2.0,
          "born": {
            "$type": "ConfigBornBySelf",
            "offset": {
              "x": 0,
              "y": 0.0,
              "z": 0
            }
          }
        },
        "attackInfo": {
          "attackProperty": {
            "damagePercentage": 0.0,
            "strikeType": "Blunt",
            "enBreak": 200.0
          },
          "hitPattern": {
            "onHitEffectName": "default",
            "hitImpulseType": "LV4",
            "muteHitText": false
          },
          "forceCameraShake": true,
          "cameraShake": {
            "shakeType": "CustomVector",
            "shakeRange": 1.2,
            "shakeTime": 0.15,
            "shakeDistance": 40.0,
            "shakeDir": {
              "x": 0,
              "y": -1,
              "z": 0
            }
          }
        }
      },
      "Swipe_FirstHit": {
        "attackPattern": {
          "$type": "ConfigAttackCircle",
          "triggerType": "TriggerNoRepeat",
          "fanAngle": 25.0,
          "radius": 25.0,
          "height": 3.0,
          "born": {
            "$type": "ConfigBornBySelf",
            "offset": {
              "x": 0.0,
              "y": 0.0,
              "z": 0.0
            },
            "direction": {
              "$type": "ConfigDirectionByEntity",
              "angleOffset": {
                "x": 0.0,
                "y": -45.0,
                "z": 0.0
              }
            }
          }
        },
        "attackInfo": {
          "attackProperty": {
            "damagePercentage": 0.5,
            "strikeType": "Blunt",
            "enBreak": 100.0
          },
          "hitPattern": {
            "onHitEffectName": "default",
            "hitImpulseType": "LV5",
            "muteHitText": false
          },
          "forceCameraShake": true,
          "cameraShake": {
            "shakeType": "CustomVector",
            "shakeRange": 1.8,
            "shakeTime": 0.3,
            "shakeDistance": 40.0,
            "shakeDir": {
              "x": 0,
              "y": -1,
              "z": 0
            }
          }
        }
      },
      "RushAtk_LastHit": {
        "attackPattern": {
          "$type": "ConfigAttackCircle",
          "triggerType": "TriggerNoRepeat",
          "fanAngle": 360.0,
          "radius": 10.0,
          "height": 3.0,
          "born": {
            "$type": "ConfigBornBySelf",
            "offset": {
              "x": -0.8,
              "y": 0.0,
              "z": 5.0
            }
          }
        },
        "attackInfo": {
          "attackProperty": {
            "damagePercentage": 0.7,
            "strikeType": "Blunt",
            "enBreak": 200.0
          },
          "hitPattern": {
            "onHitEffectName": "default",
            "hitImpulseType": "LV5",
            "muteHitText": false
          },
          "forceCameraShake": true,
          "cameraShake": {
            "shakeType": "CustomVector",
            "shakeRange": 1.2,
            "shakeTime": 0.15,
            "shakeDistance": 40.0,
            "shakeDir": {
              "x": 0,
              "y": -1,
              "z": 0
            }
          }
        }
      },
      "SandTomb_Out": {
        "attackPattern": {
          "$type": "ConfigAttackCircle",
          "triggerType": "TriggerNoRepeat",
          "fanAngle": 360.0,
          "radius": 7.5,
          "height": 20.0,
          "born": {
            "$type": "ConfigBornBySelf",
            "offset": {
              "x": 1.0,
              "y": 0.0,
              "z": 3.0
            }
          }
        },
        "attackInfo": {
          "attackProperty": {
            "damagePercentage": 0.7,
            "strikeType": "Blunt",
            "enBreak": 200.0
          },
          "hitPattern": {
            "onHitEffectName": "default",
            "hitImpulseType": "LV5",
            "muteHitText": false
          },
          "forceCameraShake": true,
          "cameraShake": {
            "shakeType": "CustomVector",
            "shakeRange": 1.2,
            "shakeTime": 0.15,
            "shakeDistance": 40.0,
            "shakeDir": {
              "x": 0,
              "y": -1,
              "z": 0
            }
          }
        }
      },
      "SandTomb_In": {
        "attackPattern": {
          "$type": "ConfigAttackCircle",
          "triggerType": "TriggerNoRepeat",
          "fanAngle": 360.0,
          "radius": 7.5,
          "height": 5.0,
          "born": {
            "$type": "ConfigBornBySelf",
            "offset": {
              "x": -9.0,
              "y": 0.0,
              "z": -15.7
            }
          }
        },
        "attackInfo": {
          "attackProperty": {
            "damagePercentage": 0.7,
            "strikeType": "Blunt",
            "enBreak": 200.0
          },
          "hitPattern": {
            "onHitEffectName": "default",
            "hitImpulseType": "LV4",
            "muteHitText": false
          },
          "forceCameraShake": true,
          "cameraShake": {
            "shakeType": "CustomVector",
            "shakeRange": 1.2,
            "shakeTime": 0.2,
            "shakeDistance": 40.0,
            "shakeDir": {
              "x": 0,
              "y": -1,
              "z": 0
            }
          }
        }
      }
    }
  },
  "stateLayers": {
    "defaultLayer": {
      "$type": "ConfigNormalStateLayer",
      "stateIDs": {
        "Born": {
          "$type": "ConfigMonsterStateIDInfo",
          "animatorStates": {
            "Born": []
          },
          "canSyncMove": true,
          "resetAnimatorTriggerOnExit": ["DoSkill"]
        },
        "Standby": {
          "$type": "ConfigMonsterStateIDInfo",
          "animatorStates": {
            "Standby": []
          },
          "canDoSkill": true,
          "canSyncMove": true,
          "resetAnimatorTriggerOnExit": ["DoSkill"]
        },
        "UnderGround": {
          "$type": "ConfigMonsterStateIDInfo",
          "animatorStates": {
            "UnderGround": [],
            "UnderGroundAlert": []
          },
          "canDoSkill": true,
          "canSyncMove": true,
          "resetAnimatorTriggerOnExit": ["DoSkill"]
        },
        "WeakBS": {
          "$type": "ConfigMonsterStateIDInfo",
          "animatorStates": {
            "WeakBS": [
              "Monster_Nithhoggr_None_Weak",
              "Audio_Monster_Nithhoggr_Weak_BS"
            ]
          },
          "canSyncMove": true,
          "cullingModelAlwaysAnimate": true,
          "resetAnimatorTriggerOnExit": ["BeHit", "DoSkill"]
        },
        "WeakLoop": {
          "$type": "ConfigMonsterStateIDInfo",
          "animatorStates": {
            "WeakLoop": []
          },
          "canDoSkill": true,
          "canSyncMove": true,
          "cullingModelAlwaysAnimate": true,
          "resetAnimatorTriggerOnExit": ["BeHit", "DoSkill"]
        },
        "WeakEnd": {
          "$type": "ConfigMonsterStateIDInfo",
          "animatorStates": {
            "WeakAS": ["Audio_Monster_Nithhoggr_Weak_AS"]
          },
          "canSyncMove": true,
          "cullingModelAlwaysAnimate": true,
          "resetAnimatorTriggerOnExit": ["BeHit", "DoSkill"]
        },
        "AbsorbFailed": {
          "$type": "ConfigMonsterStateIDInfo",
          "animatorStates": {
            "AbsorbFailed": [
              "Monster_Nithhoggr_None_AbsorbFailed",
              "Audio_Monster_Nithhoggr_AbsorbFailed_Body"
            ]
          },
          "cullingModelAlwaysAnimate": true,
          "resetAnimatorTriggerOnExit": ["BeHit", "DoSkill"]
        },
        "Alert": {
          "$type": "ConfigMonsterStateIDInfo",
          "animatorStates": {
            "AlertBS": [],
            "Alert": [
              "Monster_Nithhoggr_None_Alert",
              "Audio_Monster_Nithhoggr_Alert"
            ]
          },
          "canSteer": true,
          "cullingModelAlwaysAnimate": true,
          "resetAnimatorTriggerOnExit": ["BeHit", "DoSkill"]
        },
        "Alert_TailUnderground": {
          "$type": "ConfigMonsterStateIDInfo",
          "animatorStates": {
            "Alert_TailUnderground": ["Monster_Nithhoggr_None_AlertHit"]
          },
          "canSteer": true,
          "cullingModelAlwaysAnimate": true,
          "resetAnimatorTriggerOnExit": ["BeHit", "DoSkill"]
        },
        "DiveOut": {
          "$type": "ConfigMonsterStateIDInfo",
          "animatorStates": {
            "DiveOut": [
              "Monster_Nithhoggr_None_DiveOut",
              "Audio_Monster_Nithhoggr_DiveOut"
            ],
            "DiveOut_TailUnderground": []
          },
          "canSteer": true,
          "cullingModelAlwaysAnimate": true,
          "resetAnimatorTriggerOnExit": ["BeHit", "DoSkill"]
        },
        "DiveIn": {
          "$type": "ConfigMonsterStateIDInfo",
          "animatorStates": {
            "DiveIn_TailUnderground": [
              "Monster_Nithhoggr_None_DiveIn",
              "Audio_Monster_Nithhoggr_DiveIn"
            ],
            "DiveIn": [],
            "DiveIn_Underground": []
          },
          "canSteer": true,
          "cullingModelAlwaysAnimate": true,
          "resetAnimatorTriggerOnExit": ["BeHit", "DoSkill"]
        },
        "ReshapeEarth": {
          "$type": "ConfigMonsterStateIDInfo",
          "animatorStates": {
            "ReshapeEarth_TailUnderground": [
              "Monster_Nithhoggr_None_ReshapeEarthBS",
              "Audio_Monster_Nithhoggr_ReshapeEarth"
            ],
            "ReshapeEarth": ["Monster_Nithhoggr_None_ReshapeEarth"],
            "ReshapeEarthAS": [
              "Monster_Nithhoggr_None_ReshapeEarthAS",
              "Audio_Monster_Nithhoggr_ReshapeEarth_AS"
            ],
            "ReshapeEarthAS_TailUnderground": []
          },
          "canSteer": true,
          "cullingModelAlwaysAnimate": true,
          "resetAnimatorTriggerOnExit": ["BeHit", "DoSkill"]
        },
        "Swipe": {
          "$type": "ConfigMonsterStateIDInfo",
          "animatorStates": {
            "Swipe": [
              "Monster_Nithhoggr_None_Swipe",
              "Audio_Monster_Nithhoggr_Swipe"
            ]
          },
          "canSteer": true,
          "cullingModelAlwaysAnimate": true,
          "resetAnimatorTriggerOnExit": ["BeHit", "DoSkill"]
        },
        "SandTomb": {
          "$type": "ConfigMonsterStateIDInfo",
          "animatorStates": {
            "SkillDiveIn": [
              "Monster_Nithhoggr_None_DiveIn",
              "Audio_Monster_Nithhoggr_DiveIn"
            ],
            "SandTomb": [
              "Monster_Nithhoggr_None_SandTomb",
              "Audio_Monster_Nithhoggr_SandTomb"
            ]
          },
          "canSteer": true,
          "cullingModelAlwaysAnimate": true,
          "resetAnimatorTriggerOnExit": ["BeHit", "DoSkill"]
        },
        "RushAtk": {
          "$type": "ConfigMonsterStateIDInfo",
          "animatorStates": {
            "RushAtkBS": ["Audio_Monster_Nithhoggr_RushAtk"],
            "RushAtkMoving_TailUnderground": [],
            "RushAtkMoving": [],
            "RushAtkAS": ["Monster_Nithhoggr_None_RushAtk"],
            "RushAtkAS_TailUnderground": ["Monster_Nithhoggr_None_RushAtk"]
          },
          "canSteer": true,
          "cullingModelAlwaysAnimate": true,
          "resetAnimatorTriggerOnExit": ["BeHit", "DoSkill"]
        },
        "AbsorbEnergy": {
          "$type": "ConfigMonsterStateIDInfo",
          "animatorStates": {
            "AbsorbEnergyBS": ["Audio_Monster_Nithhoggr_AbsorbEnergy"],
            "AbsorbEnergy": ["Monster_Nithhoggr_None_AbsorbEnergy"],
            "AbsorbEnergyAS": [
              "Monster_Nithhoggr_None_AbsorbEnergyAS",
              "Audio_Monster_Nithhoggr_AbsorbEnergy_AS"
            ],
            "AbsorbEnergyAS_TailUnderground": []
          },
          "canSteer": true,
          "cullingModelAlwaysAnimate": true,
          "resetAnimatorTriggerOnExit": ["BeHit", "DoSkill"]
        },
        "EnergyBurst": {
          "$type": "ConfigMonsterStateIDInfo",
          "animatorStates": {
            "EnergyBurstBS": [
              "Monster_Nithhoggr_None_EnergyBurst",
              "Audio_Monster_Nithhoggr_EnergyBurst"
            ],
            "EnergyBurstAS": ["Monster_Nithhoggr_None_EnergyBurst"]
          },
          "canSteer": true,
          "cullingModelAlwaysAnimate": true,
          "resetAnimatorTriggerOnExit": ["BeHit", "DoSkill"]
        },
        "Die": {
          "$type": "ConfigMonsterStateIDInfo",
          "animatorStates": {
            "Die": ["Monster_Nithhoggr_None_Die", "Audio_Monster_Nithhoggr_Die"]
          },
          "resetAnimatorTriggerOnExit": ["BeHit", "DoSkill"]
        }
      }
    }
  },
  "abilities": [
    {
      "abilityName": "Monster_Nithhoggr_None_Born"
    },
    {
      "abilityName": "Monster_Nithhoggr_None_DrillerControl"
    },
    {
      "abilityName": "Monster_Nithhoggr_None_HitFlagControl"
    },
    {
      "abilityName": "Monster_Nithhoggr_None_StageController"
    },
    {
      "abilityName": "Monster_Nithhoggr_None_CoreState"
    },
    {
      "abilityName": "Monster_Nithhoggr_None_Alert"
    },
    {
      "abilityName": "Monster_Nithhoggr_None_UndergroundPositionSet"
    },
    {
      "abilityName": "Monster_Nithhoggr_None_DiveIn"
    },
    {
      "abilityName": "Monster_Nithhoggr_None_DiveOut"
    },
    {
      "abilityName": "Monster_Nithhoggr_None_SandTomb"
    },
    {
      "abilityName": "Monster_Nithhoggr_None_AbsorbEnergy"
    },
    {
      "abilityName": "Monster_Nithhoggr_None_RushAtk"
    },
    {
      "abilityName": "Monster_Nithhoggr_None_ReshapeEarth"
    },
    {
      "abilityName": "Monster_Nithhoggr_None_ReshapeEarth_DirectionEffect"
    },
    {
      "abilityName": "Monster_Nithhoggr_None_Swipe"
    },
    {
      "abilityName": "Monster_Nithhoggr_None_EnergyBurst"
    },
    {
      "abilityName": "Monster_Nithhoggr_None_Steer"
    },
    {
      "abilityName": "Monster_Nithhoggr_None_Weak"
    }
  ],
  "initialPoses": {
    "Default": {
      "initialPoseID": 0
    }
  },
  "aibeta": {
    "enable": true,
    "network": {
      "syncSkill": true
    },
    "moveSetting": {
      "almostReachedDistanceRun": 2.5,
      "almostReachedDistanceWalk": 2.5,
      "useNavMesh": false
    },
    "skillGCD": 0.5,
    "skillSetting": {
      "skillEliteSet": {
        "0": [111, 121, 131],
        "1": [111, 131],
        "2": [114, 122, 142]
      }
    },
    "profiling": {
      "lodStrategy": "Best"
    },
    "sensing": {
      "settings": {
        "DefaultSetting": {
          "enableVision": false,
          "feelRange": 30
        }
      }
    },
    "defendArea": {
      "defendRange": 40
    },
    "threat": {
      "clearThreatTargetDistance": 65,
      "clearThreatEdgeDistance": 5,
      "clearThreatByTargetOutOfZone": true,
      "viewThreatGrow": 35.0,
      "feelThreatGrow": 500.0,
      "threatDecreaseSpeed": 200,
      "clearThreatTimerByTargetOutOfZone": 7.5,
      "resistTauntLevel": "Monster_TauntLevel_4"
    },
    "returnToBornTactic": {
      "enable": true,
      "defaultSetting": {
        "speedLevel": 0,
        "fadeoutBeginTime": 1,
        "fadeoutEndTime": 5.75
      }
    },
    "skillGroupCDConfigs": [],
    "skills": {
      "1": {
        "name": "OnAlert",
        "stateIDs": ["Alert", "Alert_TailUnderground"],
        "skillType": "OnAlert",
        "skillQueryingTime": 3.5,
        "triggerGCD": false,
        "castCondition": {
          "pose": [1]
        }
      },
      "101": {
        "name": "DiveOut",
        "stateIDs": ["DiveOut"],
        "flagTargetReachable": "11",
        "flagTargetInZone": "11",
        "flagSelfInZone": "11",
        "skillQueryingTime": 3.5,
        "initialCD": 0.5,
        "cd": 0.5,
        // "triggerGCD": false,
        "castCondition": {
          "needReInitCD": true,
          "pose": [204]
        }
      },
      //强制diveIn，配合转阶段技能
      "102": {
        "name": "DiveOut",
        "stateIDs": ["DiveOut"],
        "flagTargetReachable": "11",
        "flagTargetInZone": "11",
        "flagSelfInZone": "11",
        "skillQueryingTime": 3.5,
        "priority": 2,
        "initialCD": 999999,
        "cd": 999999,
        // "triggerGCD": false,
        "castCondition": {
          "pose": [204]
        }
      },
      "111": {
        "name": "DiveIn",
        "stateIDs": ["DiveIn"],
        "flagTargetReachable": "11",
        "flagTargetInZone": "11",
        "flagSelfInZone": "11",
        "skillQueryingTime": 3.5,
        "initialCD": 10,
        "cd": 30,
        "castCondition": {
          "pose": [202],
          "needReInitCD": true
        }
      },
      //强制diveIn，配合转阶段技能
      "112": {
        "name": "DiveIn",
        "stateIDs": ["DiveIn"],
        "flagTargetReachable": "11",
        "flagTargetInZone": "11",
        "flagSelfInZone": "11",
        "skillQueryingTime": 3.5,
        "priority": 2,
        "initialCD": 5,
        "cd": 5,
        "castCondition": {
          "pose": [203],
          "SkillAnchorRangeMin": 8
        }
      },
      //强制diveIn，配合转阶段技能
      "113": {
        "name": "DiveIn",
        "stateIDs": ["DiveIn"],
        "flagTargetReachable": "11",
        "flagTargetInZone": "11",
        "flagSelfInZone": "11",
        "skillQueryingTime": 3.5,
        "priority": 2,
        "initialCD": 5,
        "cd": 5,
        "castCondition": {
          "pose": [201],
          "SkillAnchorRangeMin": 8
        }
      },
      //爬塔特供DiveIn
      "114": {
        "name": "DiveIn",
        "stateIDs": ["DiveIn"],
        "flagTargetReachable": "11",
        "flagTargetInZone": "11",
        "flagSelfInZone": "11",
        "skillQueryingTime": 3.5,
        "initialCD": 10,
        "cd": 150,
        "castCondition": {
          "pose": [202]
        }
      },
      //普通rushAtk
      "121": {
        "name": "RushAtk",
        "stateIDs": ["RushAtk"],
        "flagTargetInZone": "10",
        "skillQueryingTime": 3.5,
        "initialCD": 5,
        "cd": 25,
        "castCondition": {
          "castRangeMin": 8,
          "pose": [202]
        }
      },
      //爬塔特供rushAtk
      "122": {
        "name": "RushAtk",
        "stateIDs": ["RushAtk"],
        "flagTargetInZone": "10",
        "skillQueryingTime": 3.5,
        "initialCD": 5,
        "cd": 20,
        "castCondition": {
          "castRangeMin": 8,
          "pose": [202]
        }
      },
      "131": {
        "name": "ReshapeEarth",
        "stateIDs": ["ReshapeEarth"],
        "flagTargetReachable": "11",
        "flagSelfInZone": "11",
        "initialCD": 5,
        "cd": 5,
        // "triggerGCD": false,
        "triggerCDOnFail": false,
        "priority": 1,
        "castCondition": {
          "pose": [201],
          "SkillAnchorRangeMax": 8
        }
      },
      "141": {
        "name": "Swipe",
        "stateIDs": ["Swipe"],
        "flagTargetReachable": "11",
        "flagSelfInZone": "11",
        "skillQueryingTime": 3.5,
        "initialCD": 5,
        "cd": 15,
        "cdUpperRange": 5,
        "castCondition": {
          "castRangeMax": 12,
          "castRangeMin": 0,
          "maxTargetAngleXZ": 90,
          "pose": [202]
        }
      },
      //爬塔特供swipe
      "142": {
        "name": "Swipe",
        "stateIDs": ["Swipe"],
        "flagTargetReachable": "11",
        "flagSelfInZone": "11",
        "skillQueryingTime": 3.5,
        "initialCD": 5,
        "cd": 12,
        "cdUpperRange": 5,
        "castCondition": {
          "castRangeMax": 12,
          "castRangeMin": 0,
          "maxTargetAngleXZ": 90,
          "pose": [202]
        }
      },
      "151": {
        "name": "SandTomb",
        "stateIDs": ["SandTomb"],
        "flagTargetReachable": "11",
        "flagSelfInZone": "11",
        "skillQueryingTime": 3.5,
        "priority": 3,
        "cd": 30,
        "castCondition": {
          "pose": [204]
        }
      },
      "161": {
        "name": "AbsorbEnergy",
        "stateIDs": ["AbsorbEnergy"],
        "flagTargetReachable": "11",
        "flagSelfInZone": "11",
        "priority": 1,
        "initialCD": 30,
        "cd": 30,
        // "triggerGCD": false,
        "triggerCDOnFail": false,
        "castCondition": {
          "pose": [203],
          "SkillAnchorRangeMax": 8
        }
      },
      "171": {
        "name": "EnergyBurst",
        "stateIDs": ["EnergyBurst"],
        "flagTargetReachable": "11",
        "flagSelfInZone": "11",
        "priority": 1,
        "initialCD": 30,
        "cd": 30,
        // "triggerGCD": false,
        "triggerCDOnFail": false,
        "castCondition": {
          "pose": [203],
          "SkillAnchorRangeMax": 8
        }
      },
      "201": {
        "name": "WeakEnd",
        "stateIDs": ["WeakEnd"],
        "flagTargetReachable": "11",
        "flagSelfInZone": "11",
        "skillQueryingTime": 3.5,
        "initialCD": 10,
        "triggerGCD": false,
        "castCondition": {
          "needReInitCD": true,
          "pose": [301]
        }
      }
    }
  },
  "inputKeys": [
    {
      "keyID": 1,
      "inputKeyCode": 257
    },
    {
      "keyID": 101,
      "inputKeyCode": 258
    },
    {
      "keyID": 111,
      "inputKeyCode": 259
    },
    {
      "keyID": 121,
      "inputKeyCode": 260
    },
    {
      "keyID": 131,
      "inputKeyCode": 261
    },
    {
      "keyID": 141,
      "inputKeyCode": 262
    },
    {
      "keyID": 152,
      "inputKeyCode": 263
    },
    {
      "keyID": 161,
      "inputKeyCode": 264
    },
    {
      "keyID": 171,
      "inputKeyCode": 265
    },
    {
      "keyID": 555,
      "inputKeyCode": 266
    },
    {
      "keyID": 211,
      "inputKeyCode": 267
    },
    {
      "keyID": 201,
      "inputKeyCode": 268
    }
  ],
  "audio": {
    "$type": "ConfigMonsterAudio",
    "animAudio": {
      "onTransitionOut": [
        {
          "currentStateName": "Standby",
          "audioEvent": { "text": "Stop_sfx_monster_Nithhoggr_standby_Loop" },
          "otherStateNames": [""],
          "usage": "Except"
        }
      ],
      "onTransitionIn": [
        {
          "currentStateName": "Standby",
          "audioEvent": { "text": "Play_sfx_monster_Nithhoggr_standby_Loop" },
          "otherStateNames": [""],
          "usage": "Any"
        }
      ]
    }
  }
}
