{
  "$type": "ConfigMonster",
  "headControl": {
    "$type": "ConfigHeadControl",
    "useHeadControl": true,
    "maxYawDegree": 60,
    "maxPitchDegree": 25,
    "speed": 4,
    "animStates": [
      "NormalIdle/Standby",
      "NormalMove/MoveForward",
      "NormalMove/MoveBack",
      "NormalMove/MoveLeft",
      "NormalMove/MoveRight",
      "Run/RunRandom_01",
      "Run/RunRandom_02"
    ]
  },
  "common": {
    "effectAttachShape": {
      "$type": "ConfigEffectAttachSkinnedMesh",
      "mesh": "EffectMesh"
    },
    "mass": 150.0,
    "useGrassDisplacement": false,
    "affectedByWorld": true,
    "checkInSurface": true,
    "scale": 1.0,
    "height": 1.0,
    "modelHeight": 2.8,
    "clearAnimatorOnSetLightDeactive": true,
    "clearAIOnSetLightDeactive": true
  },
  "move": {
    "$type": "ConfigAnimatorMove",
    "facingMove": "FourDirection",
    "moveOnWater": true,
    "handleCombatTaskImmediately": true,
    "velocityForce": {
      "excludeForces": ["WindZoneType", "AirflowType"]
    }
  },
  "model": {
    "bornEffect": "Eff_Monster_Common_Born",
    "canBakeMesh": false
  },
  "billboard": {
    "$type": "ConfigCombatBillboard",
    "offsetType": "Character",
    "offset": {
      "x": 0,
      "y": 0,
      "z": 0
    },
    "showHPBar": true,
    "radiusOffset": 0.35,
    "size": "Big"
  },
  "combat": {
    "property": {
      "weight": 150,
      "endureType": "Monster_Demiboss_Humanoid"
    },
    "combatLock": {
      "denyLockOn": false,
      "lockType": "Avatar&Monster_Lv4"
    },
    "beHit": {
      "hitBloodEffect": "",
      "muteAllHit": false,
      "muteAllHitEffect": false,
      "muteAllHitText": false
    },
    "die": {
      "hasAnimatorDie": true,
      "dieDisappearEffect": "",
      "dieDisappearEffectDelay": 0.0,
      "dieEndTime": 2.0,
      "dieForceDisappearTime": 4.0,
      "dieShaderData": "MonsterDie",
      "muteHitBox": true,
      "dieDenyLockOn": true,
      "dieIsGhostToEnemy": true,
      "dieIgnoreTriggerBullet": true,
      "muteBillboard": true,
      "mutePushCollider": true
    },
    "animEvents": {
      "WavePawL": {
        "attackPattern": {
          "$type": "ConfigAttackCircle",
          "triggerType": "TriggerNoRepeat",
          "fanAngle": 220.0,
          "radius": 3.3,
          "height": 3.5,
          "born": {
            "$type": "ConfigBornBySelf",
            "offset": {
              "x": -0.5,
              "y": -0.8,
              "z": 1.22
            },
            "direction": {
              "$type": "ConfigDirectionByDefault",
              "angleOffset": {
                "x": 10.76,
                "y": -40.17,
                "z": -6.62
              }
            }
          }
        },
        "attackInfo": {
          "attackTag": "Hound_Corruption_Tag",
          "attackProperty": {
            "damagePercentage": 0.85,
            "strikeType": "Default",
            "attackType": "Default",
            "elementType": "Electric",
            "elementDurability": 25,
            "enBreak": 1
          },
          "hitPattern": {
            "onHitEffectName": "Eff_Monster_Riftstalker_Hit",
            "hitImpulseType": "LV2",
            "hitHaltTime": 0.0,
            "hitHaltTimeScale": 0.05,
            "muteHitText": false
          }
        }
      },
      "WavePawR": {
        "attackPattern": {
          "$type": "ConfigAttackCircle",
          "triggerType": "TriggerNoRepeat",
          "fanAngle": 220.0,
          "radius": 3.4,
          "height": 3.8,
          "born": {
            "$type": "ConfigBornBySelf",
            "offset": {
              "x": -0.8,
              "y": -0.3,
              "z": 1.82
            },
            "direction": {
              "$type": "ConfigDirectionByDefault",
              "angleOffset": {
                "x": -5.33,
                "y": 14.2,
                "z": 22.0
              }
            }
          }
        },
        "attackInfo": {
          "attackTag": "Hound_Corruption_Tag",
          "attackProperty": {
            "damagePercentage": 0.85,
            "strikeType": "Default",
            "attackType": "Default",
            "elementType": "Electric",
            "elementDurability": 25,
            "enBreak": 1
          },
          "hitPattern": {
            "onHitEffectName": "Eff_Monster_Riftstalker_Hit",
            "hitImpulseType": "LV2",
            "hitHaltTime": 0.0,
            "hitHaltTimeScale": 0.05,
            "muteHitText": false
          }
        }
      },
      "Biting": {
        "attackPattern": {
          "$type": "ConfigAttackBox",
          "triggerType": "TriggerNoRepeat",
          "size": {
            "x": 3.55,
            "y": 3.7,
            "z": 4.92
          },
          "born": {
            "$type": "ConfigBornBySelf",
            "offset": {
              "x": 0.55,
              "y": 1.18,
              "z": 1.26
            }
          }
        },
        "attackInfo": {
          "attackTag": "Hound_Corruption_Tag",
          "attackProperty": {
            "damagePercentage": 0.9,
            "strikeType": "Default",
            "attackType": "Default",
            "elementType": "Electric",
            "elementDurability": 25,
            "enBreak": 20.0
          },
          "hitPattern": {
            "onHitEffectName": "Eff_Monster_Riftstalker_Hit",
            "hitImpulseType": "LV2",
            "hitHaltTime": 0,
            "hitHaltTimeScale": 0,
            "muteHitText": false
          },
          "forceCameraShake": true,
          "cameraShake": {
            "shakeType": "CustomVector",
            "shakeRange": 0.0,
            "shakeTime": 0.0,
            "shakeDistance": 0.0
          }
        }
      }
    }
  },
  "inputKeys": [
    {
      "keyID": 101,
      "inputKeyCode": 257
    },
    {
      "keyID": 201,
      "inputKeyCode": 258
    },
    {
      "keyID": 301,
      "inputKeyCode": 259
    },
    {
      "keyID": 401,
      "inputKeyCode": 260
    },
    {
      "keyID": 501,
      "inputKeyCode": 261
    },
    {
      "keyID": 601,
      "inputKeyCode": 262
    },
    {
      "keyID": 701,
      "inputKeyCode": 263
    },
    {
      "keyID": 801,
      "inputKeyCode": 264
    },
    {
      "keyID": 901,
      "inputKeyCode": 265
    },
    {
      "keyID": 1001,
      "inputKeyCode": 266
    }
  ],
  "stateLayers": {
    "defaultLayer": {
      "$type": "ConfigNormalStateLayer",
      "stateIDs": {
        "NormalIdle": {
          "$type": "ConfigMonsterStateIDInfo",
          "animatorStates": {
            "Standby": [],
            "StandbyFree": [],
            "Born": []
          },
          "canDoSkill": true,
          "canSyncMove": true,
          "resetAnimatorTriggerOnExit": ["DoSkill"]
        },
        "NormalMove": {
          "$type": "ConfigMonsterStateIDInfo",
          "animatorStates": {
            "MoveForward": [],
            "MoveBack": [],
            "MoveLeft": [],
            "MoveRight": []
          },
          "canDoSkill": true,
          "canSteer": true,
          "canSyncMove": true,
          "resetAnimatorTriggerOnExit": ["DoSkill"]
        },
        "Run": {
          "$type": "ConfigMonsterStateIDInfo",
          "animatorStates": {
            "RunRandom_01": [],
            "RunRandom_02": []
          },
          "canDoSkill": true,
          "canSteer": true,
          "canSyncMove": true,
          "resetAnimatorTriggerOnExit": ["DoSkill"]
        },
        "BeHit": {
          "$type": "ConfigMonsterStateIDInfo",
          "animatorStates": {
            "Hit_L": ["Audio_Monster_Riftstalker_Electric_Hit_L"],
            "Hit_H": ["Audio_Monster_Riftstalker_Electric_Hit_H"]
          },
          "resetAnimatorTriggerOnEnter": ["BeHit"],
          "resetAnimatorTriggerOnExit": ["DoSkill"]
        },
        "BeHitThrow": {
          "$type": "ConfigMonsterStateIDInfo",
          "animatorStates": {
            "HitThrow": ["Audio_Monster_Riftstalker_Electric_HitThrow_VO"],
            "HitThrowDrop": [],
            "HitThrowToGround": [
              "Audio_Monster_Riftstalker_Electric_HitToGround"
            ]
          },
          "resetAnimatorTriggerOnEnter": ["BeHit", "HitAir2HitDrop"],
          "resetAnimatorTriggerOnExit": ["DoSkill"]
        },
        "Die": {
          "$type": "ConfigMonsterStateIDInfo",
          "animatorStates": {
            "Die": [
              "Monster_Hound_Riftstalker_Electric_Die",
              "Audio_Monster_Riftstalker_Electric_Die"
            ]
          }
        },
        "Alert": {
          "$type": "ConfigMonsterStateIDInfo",
          "animatorStates": {
            "Alert": ["Audio_Monster_Riftstalker_Electric_Alert"]
          },
          "resetAnimatorTriggerOnExit": ["BeHit", "DoSkill"]
        },
        "WavePaw": {
          "$type": "ConfigMonsterStateIDInfo",
          "animatorStates": {
            "WavePaw": [
              "Monster_Hound_Riftstalker_Electric_WavePaw",
              "Audio_Monster_Riftstalker_Electric_WavePaw"
            ]
          },
          "canSteer": true,
          "canSyncMove": true,
          "resetAnimatorTriggerOnExit": ["BeHit", "DoSkill"]
        },
        "Strike_BS": {
          "$type": "ConfigMonsterStateIDInfo",
          "animatorStates": {
            "Strike_BS": [
              "Monster_Hound_Riftstalker_Electric_Strike_BS",
              "Audio_Monster_Riftstalker_Electric_Strike_BS"
            ]
          },
          "canSteer": true,
          "resetAnimatorTriggerOnExit": ["BeHit", "DoSkill"]
        },
        "Strike_Loop_01": {
          "$type": "ConfigMonsterStateIDInfo",
          "animatorStates": {
            "Strike_Loop_01": []
          },
          "canSteer": true,
          "canSyncMove": true,
          "resetAnimatorTriggerOnExit": ["BeHit", "DoSkill"]
        },
        "Strike_Loop_02": {
          "$type": "ConfigMonsterStateIDInfo",
          "animatorStates": {
            "Strike_Loop_02": []
          },
          "canSteer": true,
          "canSyncMove": true,
          "resetAnimatorTriggerOnExit": ["BeHit", "DoSkill"]
        },
        "Strike_Loop_03": {
          "$type": "ConfigMonsterStateIDInfo",
          "animatorStates": {
            "Strike_Loop_03": []
          },
          "canSteer": true,
          "canSyncMove": true,
          "resetAnimatorTriggerOnExit": ["BeHit", "DoSkill"]
        },
        "Strike_AS": {
          "$type": "ConfigMonsterStateIDInfo",
          "animatorStates": {
            "Strike_AS": [
              "Monster_Hound_Riftstalker_Electric_Strike_AS",
              "Audio_Monster_Riftstalker_Electric_Strike_AS"
            ]
          },
          "canSteer": true,
          "resetAnimatorTriggerOnExit": ["BeHit", "DoSkill"]
        },
        "Biting": {
          "$type": "ConfigMonsterStateIDInfo",
          "animatorStates": {
            "Biting": [
              "Monster_Hound_Riftstalker_Electric_Biting",
              "Audio_Monster_Riftstalker_Electric_Biting"
            ]
          },
          "canSteer": true,
          "canSyncMove": true,
          "resetAnimatorTriggerOnExit": ["BeHit", "DoSkill"]
        },
        "JumpBack": {
          "$type": "ConfigMonsterStateIDInfo",
          "animatorStates": {
            "JumpBack": ["Audio_Monster_Riftstalker_Rock_Rock_JumpBack"]
          },
          "canSteer": true,
          "resetAnimatorTriggerOnExit": ["BeHit", "DoSkill"]
        },
        "Howl": {
          "$type": "ConfigMonsterStateIDInfo",
          "animatorStates": {
            "Howl": [
              "Monster_Hound_Riftstalker_Electric_Howl",
              "Audio_Monster_Riftstalker_Rock_Rock_Howl"
            ]
          },
          "resetAnimatorTriggerOnExit": ["BeHit", "DoSkill"]
        },
        "ShockWave": {
          "$type": "ConfigMonsterStateIDInfo",
          "animatorStates": {
            "ShockWave": [
              "Monster_Hound_Riftstalker_Electric_ShockWave",
              "Audio_Monster_Riftstalker_Electric_ShockWave"
            ]
          },
          "canSteer": true,
          "resetAnimatorTriggerOnExit": ["BeHit", "DoSkill"]
        },
        "Smash_BS": {
          "$type": "ConfigMonsterStateIDInfo",
          "animatorStates": {
            "Smash_BS_01": [
              "Monster_Hound_Riftstalker_Electric_Smash_BS",
              "Audio_Monster_Riftstalker_Electric_Smash_BS"
            ],
            "Smash_BS_02": [
              "Monster_Hound_Riftstalker_Electric_Smash_BS",
              "Audio_Monster_Riftstalker_Electric_Smash_BS"
            ],
            "Smash_BS_03": [
              "Monster_Hound_Riftstalker_Electric_Smash_BS",
              "Audio_Monster_Riftstalker_Electric_Smash_BS"
            ]
          },
          "canSteer": true,
          "resetAnimatorTriggerOnExit": ["BeHit", "DoSkill"]
        },
        "Smash_Loop_01": {
          "$type": "ConfigMonsterStateIDInfo",
          "animatorStates": {
            "Smash_Loop_01": []
          },
          "canSteer": true,
          "resetAnimatorTriggerOnExit": ["BeHit", "DoSkill"]
        },
        "Smash_Loop_02": {
          "$type": "ConfigMonsterStateIDInfo",
          "animatorStates": {
            "Smash_Loop_02": []
          },
          "canSteer": true,
          "resetAnimatorTriggerOnExit": ["BeHit", "DoSkill"]
        },
        "Smash_Loop_03": {
          "$type": "ConfigMonsterStateIDInfo",
          "animatorStates": {
            "Smash_Loop_03": []
          },
          "canSteer": true,
          "resetAnimatorTriggerOnExit": ["BeHit", "DoSkill"]
        },
        "Smash_AS": {
          "$type": "ConfigMonsterStateIDInfo",
          "animatorStates": {
            "Smash_AS_01": ["Audio_Monster_Riftstalker_Electric_Smash_AS"],
            "Smash_AS_02": ["Audio_Monster_Riftstalker_Electric_Smash_AS"],
            "Smash_AS_03": ["Audio_Monster_Riftstalker_Electric_Smash_AS"]
          },
          "canSteer": true,
          "resetAnimatorTriggerOnExit": ["BeHit", "DoSkill"]
        },
        "Activated": {
          "$type": "ConfigMonsterStateIDInfo",
          "animatorStates": {
            "Activated": [
              "Monster_Hound_Riftstalker_Electric_Activated",
              "Audio_Monster_Riftstalker_Electric_Activated"
            ]
          },
          "resetAnimatorTriggerOnExit": ["BeHit", "DoSkill"]
        },
        "RandomWalk": {
          "$type": "ConfigMonsterStateIDInfo",
          "animatorStates": {
            "RandomWalk_Left": ["Audio_Monster_Riftstalker_Electric_Smash_AS"],
            "RandomWalk_Right": ["Audio_Monster_Riftstalker_Electric_Smash_AS"]
          },
          "canSyncMove": true,
          "resetAnimatorTriggerOnExit": ["BeHit", "DoSkill"]
        },
        // Crystallization
        "Alert_Crystallization_01": {
          "$type": "ConfigMonsterStateIDInfo",
          "animatorStates": {
            "Alert_Crystallization_01": []
          },
          "cullingModelAlwaysAnimate": true,
          "resetAnimatorTriggerOnEnter": ["BeHit"],
          "resetAnimatorTriggerOnExit": ["DoSkill"]
        },
        "Alert_Crystallization_02": {
          "$type": "ConfigMonsterStateIDInfo",
          "animatorStates": {
            "Alert_Crystallization_02": []
          },
          "cullingModelAlwaysAnimate": true,
          "resetAnimatorTriggerOnEnter": ["BeHit"],
          "resetAnimatorTriggerOnExit": ["DoSkill"]
        }
      }
    }
  },
  "abilities": [
    //////////////////////////////////////////////////
    //	Pose
    //////////////////////////////////////////////////
    {
      "abilityName": "Monster_Hound_Riftstalker_Electric_Pose"
    },
    //////////////////////////////////////////////////
    //	Steer
    //////////////////////////////////////////////////
    {
      "abilityName": "Monster_Hound_Riftstalker_Electric_Steer"
    },
    //////////////////////////////////////////////////
    //	Body Effect
    //////////////////////////////////////////////////
    {
      "abilityName": "Monster_Hound_Riftstalker_Electric_AddBodyEff"
    },
    {
      "abilityName": "Monster_Hound_Riftstalker_Electric_RemoveBodyEff"
    },
    //////////////////////////////////////////////////
    //	Strike
    //////////////////////////////////////////////////
    {
      "abilityName": "Monster_Hound_Riftstalker_Electric_Strike_State"
    },
    {
      "abilityName": "Monster_Hound_Riftstalker_Electric_Strike_FindBlinkPoint"
    },
    {
      "abilityName": "Monster_Hound_Riftstalker_Electric_Strike_DoBlink"
    },
    {
      "abilityName": "Monster_Hound_Riftstalker_Electric_Strike_Attack"
    },
    //////////////////////////////////////////////////
    //	JumpBack
    //////////////////////////////////////////////////
    {
      "abilityName": "Monster_Hound_Riftstalker_Electric_JumpBack"
    },
    //////////////////////////////////////////////////
    //	Howl
    //////////////////////////////////////////////////
    {
      "abilityName": "Monster_Hound_Riftstalker_Electric_Howl"
    },
    //////////////////////////////////////////////////
    //	ShockWave
    //////////////////////////////////////////////////
    {
      "abilityName": "Monster_Hound_Riftstalker_Electric_ShockWave_Bullet"
    },
    {
      "abilityName": "Monster_Hound_Riftstalker_Electric_ShockWave_Effect"
    },
    //////////////////////////////////////////////////
    //	Smash
    //////////////////////////////////////////////////
    {
      "abilityName": "Monster_Hound_Riftstalker_Electric_Smash"
    },
    //////////////////////////////////////////////////
    //	Activated
    //////////////////////////////////////////////////
    {
      "abilityName": "Monster_Hound_Riftstalker_Electric_Acitvated"
    },
    //////////////////////////////////////////////////
    //	Run State
    //////////////////////////////////////////////////
    {
      "abilityName": "Monster_Hound_Riftstalker_RunState"
    },
    //////////////////////////////////////////////////
    //	LoseHP
    //////////////////////////////////////////////////
    {
      "abilityName": "Monster_Hound_Corruption_LoseHP"
    },
    //////////////////////////////////////////////////
    //	ExitBattle
    //////////////////////////////////////////////////
    {
      "abilityName": "Monster_Hound_Riftstalker_ExitBattle"
    }
  ],
  "initialPoses": {
    "Default": {
      "initialPoseID": 101
    },
    "Crystallization_01": {
      "initialPoseID": 111,
      "initialPoseParams": {
        "boolParams": {
          "Crystallization_01": "true"
        }
      }
    },
    "Crystallization_02": {
      "initialPoseID": 112,
      "initialPoseParams": {
        "boolParams": {
          "Crystallization_02": "true"
        }
      }
    }
  },
  "aibeta": {
    "enable": true,
    "skillGCD": 5.0,
    "skillSetting": {
      "skillEliteSet": {}
    },
    "neurons": {
      "DefaultSetting": ["HIT"],
      "Crystallization": []
    },
    "sensing": {
      "settings": {
        "DefaultSetting": {
          "viewRange": 40.0,
          "feelRange": 25.0
        },
        "Crystallization": {
          "enableVision": false,
          "feelRange": 0.0,
          "hearAttractionRange": 0.0
        }
      },
      "templates": {
        "DefaultTemplate": {
          "DefaultPoses": "DefaultSetting"
        },
        "Crystallization": {
          "DefaultPoses": "DefaultSetting",
          "111": "Crystallization",
          "112": "Crystallization"
        }
      }
    },
    "defendArea": {
      "enable": true,
      "defendRange": 50
    },
    "threat": {
      "clearThreatTimerByDistance": 5.0,
      "clearThreatByLostPath": true,
      "clearThreatTimerByLostPath": 10,
      "viewAttenuation": [
        { "x": 10.0, "y": 2.0 },
        { "x": 15.0, "y": 1.4 },
        { "x": 20.0, "y": 1.0 },
        { "x": 25.0, "y": 0.7 },
        { "x": 30.0, "y": 0.5 },
        { "x": 35.0, "y": 0.3 }
      ]
    },
    "buddySetting": {
      "enable": true,
      "buddyFeatureTagIDs": [4011]
    },
    "returnToBornTactic": {
      "enable": true,
      "defaultSetting": {
        "speedLevel": 2
      }
    },
    "wanderTactic": {
      "enable": true,
      "condition": {
        "pose": [101]
      },
      "defaultSetting": {
        "speedLevel": 1,
        "cdMin": 5.0,
        "cdMax": 8.0,
        "distanceFromBorn": 15.0,
        "distanceFromCurrentMin": 3.5,
        "distanceFromCurrentMax": 9.5
      }
    },
    "meleeChargeTactic": {
      "enable": true,
      "condition": {
        "pose": [201, 401]
      },
      "defaultSetting": {
        "speedLevel": 2,
        "speedLevelInner": 0,
        "innerDistance": 0,
        "stopDistance": 8.5,
        "startDistanceMin": 15,
        "startDistanceMax": 50
      }
    },
    /* "facingMoveTactic":
		{
			"enable": true,
			"condition":
			{
				"pose": [201, 401],
			},
			"defaultSetting":
			{
				"speedLevel": 1,
				"rangeMin": 0,
				"rangeMax": 99,
				"restTimeMin": 10,
				"restTimeMax": 15,
				"facingMoveTurnInterval": 7.5,
				"facingMoveWeight":
				{
					"stop": 0,
					"forward": 0,
					"back": 0,
					"left": 1,
					"right": 1,
				},
			},
		}, */
    "skills": {
      //////////////////////////////////////////////////
      //	Alert
      //////////////////////////////////////////////////
      "101": {
        "name": "OnAlert",
        "stateIDs": ["Alert"],
        "skillType": "OnAlert",
        "skillQueryingTime": 3,
        "triggerGCD": false,
        "ignoreGCD": true,
        "faceTarget": true
      },
      // Crystallization
      "111": {
        "name": "OnAlert",
        "stateIDs": ["Alert_Crystallization_01"],
        "skillType": "OnAlert",
        "skillQueryingTime": 3,
        "triggerGCD": false,
        "castCondition": {
          "pose": [111]
        }
      },
      "112": {
        "name": "OnAlert",
        "stateIDs": ["Alert_Crystallization_02"],
        "skillType": "OnAlert",
        "skillQueryingTime": 3,
        "triggerGCD": false,
        "castCondition": {
          "pose": [112]
        }
      },
      //////////////////////////////////////////////////
      //	Skills
      //////////////////////////////////////////////////
      "201": {
        "cd": 10.5,
        "cdUpperRange": 1.0,
        "priority": 3,
        "name": "WavePaw",
        "stateIDs": ["WavePaw"],
        "enableSkillPrepare": true,
        "castCondition": {
          "pickRangeYMax": 4.5,
          "pickRangeMin": 0.0,
          "pickRangeMax": 4.5,
          "pose": [201]
        }
      },
      "202": {
        "cd": 7.5,
        "cdUpperRange": 1.0,
        "priority": 4,
        "name": "WavePaw",
        "stateIDs": ["WavePaw"],
        "enableSkillPrepare": true,
        "castCondition": {
          "pickRangeYMax": 4.5,
          "pickRangeMin": 0.0,
          "pickRangeMax": 4.5,
          "pose": [401]
        }
      },
      "301": {
        "cd": 18.5,
        "cdUpperRange": 4.0,
        "initialCD": 2.0,
        "initialCDUpperRange": 5.0,
        "priority": 4,
        "name": "Strike",
        "stateIDs": [
          "Strike_BS",
          "Strike_Loop_01",
          "Strike_Loop_02",
          "Strike_Loop_03",
          "Strike_AS"
        ],
        "flagTargetReachable": "11",
        "flagTargetInZone": "10",
        "publicCDGroup": "Hound_Strike",
        "castCondition": {
          "maxTargetAngleY": 30.0,
          "pickRangeYMax": 6.5,
          "pickRangeMin": 0.0,
          "pickRangeMax": 7.5,
          "pose": [201]
        }
      },
      "302": {
        "cd": 14.5,
        "cdUpperRange": 4.0,
        "initialCD": 2.0,
        "initialCDUpperRange": 5.0,
        "priority": 2,
        "name": "Strike",
        "stateIDs": [
          "Strike_BS",
          "Strike_Loop_01",
          "Strike_Loop_02",
          "Strike_Loop_03",
          "Strike_AS"
        ],
        "flagTargetReachable": "11",
        "flagTargetInZone": "10",
        "publicCDGroup": "Hound_Strike",
        "castCondition": {
          "maxTargetAngleY": 30.0,
          "pickRangeYMax": 6.5,
          "pickRangeMin": 7.5,
          "pickRangeMax": 15.5,
          "pose": [201]
        }
      },
      "303": {
        "cd": 8.5,
        "cdUpperRange": 4.0,
        "initialCD": 2.0,
        "initialCDUpperRange": 3.0,
        "priority": 3,
        "name": "Strike",
        "stateIDs": [
          "Strike_BS",
          "Strike_Loop_01",
          "Strike_Loop_02",
          "Strike_Loop_03",
          "Strike_AS"
        ],
        "flagTargetReachable": "11",
        "flagTargetInZone": "10",
        "publicCDGroup": "Hound_Strike",
        "castCondition": {
          "maxTargetAngleY": 30.0,
          "pickRangeYMax": 6.5,
          "pickRangeMin": 15.5,
          "pickRangeMax": 25.5,
          "pose": [201, 401]
        }
      },
      "304": {
        "cd": 16.5,
        "cdUpperRange": 4.0,
        "initialCD": 2.0,
        "initialCDUpperRange": 5.0,
        "priority": 4,
        "name": "Strike",
        "stateIDs": [
          "Strike_BS",
          "Strike_Loop_01",
          "Strike_Loop_02",
          "Strike_Loop_03",
          "Strike_AS"
        ],
        "flagTargetReachable": "11",
        "flagTargetInZone": "10",
        "publicCDGroup": "Hound_Strike",
        "castCondition": {
          "maxTargetAngleY": 30.0,
          "pickRangeYMax": 6.5,
          "pickRangeMin": 0.0,
          "pickRangeMax": 7.5,
          "pose": [401]
        }
      },
      "305": {
        "cd": 12.5,
        "cdUpperRange": 4.0,
        "initialCD": 2.0,
        "initialCDUpperRange": 5.0,
        "priority": 2,
        "name": "Strike",
        "stateIDs": [
          "Strike_BS",
          "Strike_Loop_01",
          "Strike_Loop_02",
          "Strike_Loop_03",
          "Strike_AS"
        ],
        "flagTargetReachable": "11",
        "flagTargetInZone": "10",
        "publicCDGroup": "Hound_Strike",
        "castCondition": {
          "maxTargetAngleY": 30.0,
          "pickRangeYMax": 6.5,
          "pickRangeMin": 7.5,
          "pickRangeMax": 15.5,
          "pose": [401]
        }
      },
      "401": {
        "cd": 9.5,
        "cdUpperRange": 2.0,
        "priority": 3,
        "name": "Biting",
        "stateIDs": ["Biting"],
        "flagSelfInZone": "11",
        "flagTargetReachable": "11",
        "castCondition": {
          "pickRangeYMax": 4.5,
          "pickRangeMin": 1.0,
          "pickRangeMax": 7.5,
          "pose": [201]
        }
      },
      "402": {
        "cd": 7.5,
        "cdUpperRange": 2.0,
        "priority": 4,
        "name": "Biting",
        "stateIDs": ["Biting"],
        "flagSelfInZone": "11",
        "flagTargetReachable": "11",
        "castCondition": {
          "pickRangeYMax": 4.5,
          "pickRangeMin": 1.0,
          "pickRangeMax": 7.5,
          "pose": [401]
        }
      },
      "501": {
        "cd": 8.5,
        "cdUpperRange": 3.0,
        "name": "JumpBack",
        "stateIDs": ["JumpBack"],
        "castCondition": {
          "pickRangeMin": 0,
          "pickRangeMax": 3.0,
          "pose": [201]
        }
      },
      "502": {
        "cd": 12.0,
        "cdUpperRange": 3.0,
        "name": "JumpBack",
        "stateIDs": ["JumpBack"],
        "castCondition": {
          "pickRangeMin": 0,
          "pickRangeMax": 3.0,
          "pose": [401]
        }
      },
      "601": {
        "cd": 25.0,
        "initialCD": 20.0,
        "name": "Howl",
        "stateIDs": ["Howl"],
        "skillType": "CombatBuddy",
        "skillQueryingTime": 3,
        "priority": 1,
        "publicCDGroup": "Riftstalker_Howl",
        "castCondition": {
          "pose": [201]
        },
        "buddySkillCondition": {
          "selectRange": 35,
          "buddyScoring": {
            "hpFactor": 0,
            "distFactor": -1,
            "roleScores": [1, 1, 1, 1]
          }
        }
      },
      "602": {
        "cd": 12.5,
        "initialCD": 20.0,
        "name": "Howl",
        "stateIDs": ["Howl"],
        "skillType": "CombatBuddy",
        "skillQueryingTime": 3,
        "priority": 4,
        "publicCDGroup": "Riftstalker_Howl",
        "castCondition": {
          "pose": [401]
        },
        "buddySkillCondition": {
          "selectRange": 35,
          "buddyScoring": {
            "hpFactor": 0,
            "distFactor": -1,
            "roleScores": [1, 1, 1, 1]
          }
        }
      },
      "701": {
        "cd": 12.5,
        "cdUpperRange": 3.0,
        "initialCD": 20.0,
        "priority": 3,
        "name": "ShockWave",
        "stateIDs": ["ShockWave"],
        "flagSelfInZone": "11",
        "flagTargetReachable": "10",
        "castCondition": {
          "pickRangeMin": 7.5,
          "pickRangeMax": 22.5,
          "pose": [201]
        }
      },
      "702": {
        "cd": 10.0,
        "cdUpperRange": 3.0,
        "initialCD": 5.0,
        "priority": 2,
        "name": "ShockWave",
        "stateIDs": ["ShockWave"],
        "flagSelfInZone": "11",
        "flagTargetReachable": "10",
        "faceTarget": true,
        "castCondition": {
          "pickRangeMin": 7.5,
          "pickRangeMax": 22.5,
          "pose": [401]
        }
      },
      "801": {
        "cd": 15.0,
        "cdUpperRange": 3.0,
        "priority": 2,
        "name": "Smash",
        "stateIDs": [
          "Smash_BS",
          "Smash_Loop_01",
          "Smash_Loop_02",
          "Smash_Loop_03",
          "Smash_AS"
        ],
        "faceTarget": true,
        "flagTargetReachable": "10",
        "castCondition": {
          "pickRangeMin": 5.0,
          "pickRangeMax": 10.5,
          "castRangeMin": 5.0,
          "castRangeMax": 10.5,
          "pose": [401]
        }
      },
      "901": {
        "cd": 999999.0,
        "cdUpperRange": 3.0,
        "name": "Activated",
        "stateIDs": ["Activated"],
        "faceTarget": true,
        "ignoreGCD": true,
        "triggerGCD": false,
        "triggerCDOnStart": true,
        "triggerCDOnFail": false,
        "flagSelfInZone": "11",
        "flagTargetReachable": "11",
        "castCondition": {
          "pose": [301]
        }
      },
      "1001": {
        "cd": 7.5,
        "name": "RandomWalk",
        "stateIDs": ["RandomWalk"],
        "ignoreGCD": true,
        "triggerGCD": false,
        "flagSelfInZone": "11",
        "flagSelfOnTemplateCollider": "11",
        "castCondition": {
          "minTargetAngleXZ": 135,
          "pose": [201, 401]
        }
      }
    }
  },
  "audio": {
    "$type": "ConfigMonsterAudio",
    "animAudio": {
      "onTransitionOut": [
        {
          "currentStateName": "BombCreate",
          "audioEvent": { "text": "Stop_sfx_monster_hili_build" },
          "otherStateNames": [""],
          "usage": "Any"
        },
        {
          "currentStateName": "Make",
          "audioEvent": { "text": "Stop_sfx_monster_hili_build" },
          "otherStateNames": [""],
          "usage": "Any"
        },
        {
          "currentStateName": "Build",
          "audioEvent": { "text": "Stop_sfx_monster_hili_build" },
          "otherStateNames": [""],
          "usage": "Any"
        },
        {
          "currentStateName": "Practice_Sword",
          "audioEvent": { "text": "Stop_sfx_monster_hili_practice_sword" },
          "otherStateNames": [""],
          "usage": "Any"
        },
        {
          "currentStateName": "Practice_NoWeapon",
          "audioEvent": { "text": "Stop_sfx_monster_hili_practice_sword" },
          "otherStateNames": [""],
          "usage": "Any"
        },
        {
          "currentStateName": "Practice_Sword_Back",
          "audioEvent": { "text": "Stop_sfx_monster_hili_practice_back" },
          "otherStateNames": [""],
          "usage": "Any"
        },
        {
          "currentStateName": "Practice_NoWeapon_Back",
          "audioEvent": { "text": "Stop_sfx_monster_hili_practice_back" },
          "otherStateNames": [""],
          "usage": "Any"
        },
        {
          "currentStateName": "Practice_Shoot_Aim",
          "audioEvent": { "text": "Stop_sfx_monster_hili_practice_shoot_aim" },
          "otherStateNames": ["Practice_Shoot_Attack"],
          "usage": "Except"
        },
        {
          "currentStateName": "Practice_Shoot_Attack",
          "audioEvent": { "text": "Stop_sfx_monster_hili_practice_shoot_aim" },
          "otherStateNames": [""],
          "usage": "Any"
        },
        {
          "currentStateName": "Dance",
          "audioEvent": { "text": "Stop_sfx_monster_hili_dance" },
          "otherStateNames": [""],
          "usage": "Any"
        },
        {
          "currentStateName": "SurroundFree01_Club",
          "audioEvent": { "text": "Stop_sfx_monster_hili_dance" },
          "otherStateNames": [""],
          "usage": "Any"
        },
        {
          "currentStateName": "SurroundFree01_NoWeapon",
          "audioEvent": { "text": "Stop_sfx_monster_hili_dance" },
          "otherStateNames": [""],
          "usage": "Any"
        },
        {
          "currentStateName": "ThreatFree01_NoWeapon",
          "audioEvent": { "text": "Stop_sfx_monster_hili_dance" },
          "otherStateNames": [""],
          "usage": "Any"
        },
        {
          "currentStateName": "ThreatFree02_NoWeapon",
          "audioEvent": { "text": "Stop_sfx_monster_hili_dance" },
          "otherStateNames": [""],
          "usage": "Any"
        },
        {
          "currentStateName": "ThreatFree01_Club",
          "audioEvent": { "text": "Stop_sfx_monster_hili_dance" },
          "otherStateNames": [""],
          "usage": "Any"
        },
        {
          "currentStateName": "ThreatFree02_Club",
          "audioEvent": { "text": "Stop_sfx_monster_hili_dance" },
          "otherStateNames": [""],
          "usage": "Any"
        }
      ],
      "onTransitionIn": [
        {
          "currentStateName": "OutOfBuild",
          "audioEvent": { "text": "Stop_sfx_monster_hili_build" },
          "otherStateNames": [],
          "usage": "Any"
        },
        {
          "currentStateName": "Alert",
          "audioEvent": { "text": "Stop_sfx_monster_hili_build" },
          "otherStateNames": [],
          "usage": "Any"
        },
        {
          "currentStateName": "BeHit",
          "audioEvent": { "text": "Stop_sfx_monster_hili_build" },
          "otherStateNames": [],
          "usage": "Any"
        },
        {
          "currentStateName": "Die",
          "audioEvent": { "text": "Stop_sfx_monster_hili_build" },
          "otherStateNames": [],
          "usage": "Any"
        },
        {
          "currentStateName": "Die1",
          "audioEvent": { "text": "Stop_sfx_monster_hili_build" },
          "otherStateNames": [],
          "usage": "Any"
        },
        {
          "currentStateName": "Die2",
          "audioEvent": { "text": "Stop_sfx_monster_hili_build" },
          "otherStateNames": [],
          "usage": "Any"
        },
        {
          "currentStateName": "OutOfMake",
          "audioEvent": { "text": "Stop_sfx_monster_hili_build" },
          "otherStateNames": [""],
          "usage": "Any"
        },
        {
          "currentStateName": "Practice_Sword_Back",
          "audioEvent": { "text": "Play_sfx_monster_hili_practice_back" },
          "otherStateNames": [""],
          "usage": "Any"
        },
        {
          "currentStateName": "Practice_NoWeapon_Back",
          "audioEvent": { "text": "Play_sfx_monster_hili_practice_back" },
          "otherStateNames": [""],
          "usage": "Any"
        },
        {
          "currentStateName": "Practice_Shoot_Aim",
          "audioEvent": { "text": "Play_sfx_monster_hili_practice_shoot_aim" },
          "otherStateNames": [""],
          "usage": "Any"
        },
        {
          "currentStateName": "Dance",
          "audioEvent": { "text": "Play_sfx_monster_hili_dance" },
          "otherStateNames": [""],
          "usage": "Any"
        },
        {
          "currentStateName": "OutOfDance",
          "audioEvent": { "text": "Stop_sfx_monster_hili_dance" },
          "otherStateNames": [""],
          "usage": "Any"
        },
        {
          "currentStateName": "SurroundFree01_Club",
          "audioEvent": { "text": "Play_sfx_monster_hili_dance" },
          "otherStateNames": [""],
          "usage": "Any"
        },
        {
          "currentStateName": "SurroundFree01_NoWeapon",
          "audioEvent": { "text": "Play_sfx_monster_hili_dance" },
          "otherStateNames": [""],
          "usage": "Any"
        },
        {
          "currentStateName": "OutOfSurround",
          "audioEvent": { "text": "Stop_sfx_monster_hili_dance" },
          "otherStateNames": [""],
          "usage": "Any"
        },
        {
          "currentStateName": "Alert",
          "audioEvent": { "text": "Stop_sfx_monster_hili_dance" },
          "otherStateNames": [],
          "usage": "Any"
        },
        {
          "currentStateName": "BeHit",
          "audioEvent": { "text": "Stop_sfx_monster_hili_dance" },
          "otherStateNames": [],
          "usage": "Any"
        },
        {
          "currentStateName": "Die",
          "audioEvent": { "text": "Stop_sfx_monster_hili_dance" },
          "otherStateNames": [],
          "usage": "Any"
        },
        {
          "currentStateName": "Die1",
          "audioEvent": { "text": "Stop_sfx_monster_hili_dance" },
          "otherStateNames": [],
          "usage": "Any"
        },
        {
          "currentStateName": "Die2",
          "audioEvent": { "text": "Stop_sfx_monster_hili_dance" },
          "otherStateNames": [],
          "usage": "Any"
        },
        {
          "currentStateName": "ThreatFree01_NoWeapon",
          "audioEvent": { "text": "Play_sfx_monster_hili_dance" },
          "otherStateNames": [""],
          "usage": "Any"
        },
        {
          "currentStateName": "ThreatFree02_NoWeapon",
          "audioEvent": { "text": "Play_sfx_monster_hili_dance" },
          "otherStateNames": [""],
          "usage": "Any"
        },
        {
          "currentStateName": "ThreatFree01_Club",
          "audioEvent": { "text": "Play_sfx_monster_hili_dance" },
          "otherStateNames": [""],
          "usage": "Any"
        },
        {
          "currentStateName": "ThreatFree02_Club",
          "audioEvent": { "text": "Play_sfx_monster_hili_dance" },
          "otherStateNames": [""],
          "usage": "Any"
        },
        {
          "currentStateName": "OutOfThreat",
          "audioEvent": { "text": "Stop_sfx_monster_hili_dance" },
          "otherStateNames": [""],
          "usage": "Any"
        }
      ]
    },
    "disableEvent": {
      "text": "Stop_sfx_monster_hili_dance"
    },
    "destroyEvent": {
      "text": "Stop_sfx_monster_hili_dance"
    }
  }
}
