{
  "$type": "ConfigMonster",
  "common": {
    "mass": 40.0,
    "height": 0.9,
    "modelHeight": 0.9,
    "affectedByWorld": true,
    "checkInSurface": true,
    "scale": 1.0,
    "viewSize": 1.0,
    "effectAttachShape": {
      "$type": "ConfigEffectAttachSkinnedMesh",
      "mesh": "EffectMesh"
    },
    "clearAIOnSetLightDeactive": true,
    "reconnectSupport": true,
    "recoverByInitPose": true
  },
  "move": {
    "$type": "ConfigAnimatorMove",
    "facingMove": "ForwardBackward",
    "airFacingMove": "AirBlend3D",
    "monsterSizeType": "SlimeType",
    "moveOnWater": false,
    "launchStates": ["Launch_Loop"],
    "landStates": ["Drop_Loop"],
    "raycasts": [
      {
        "raycastLength": 5.0,
        "raycastType": "DownToGroundAndWaterOnlyInAir"
      }
    ],
    "positionModifyExtra": true
  },
  "dither": {
    "showDitherDuration": 2.0
  },
  "billboard": {
    "$type": "ConfigCombatBillboard",
    "offset": {
      "x": 0,
      "y": 0.5,
      "z": 0
    },
    "radiusOffset": 1.0,
    "enableSelfAdapt": true,
    "showHPBar": true,
    "size": "Normal"
  },
  "model": {
    "canBakeMesh": false
  },
  "combat": {
    "property": {
      "endureType": "Monster_Fungus_Battle",
      "weight": 75 //weightLevel = 3
    },
    "combatLock": {
      "denyLockOn": false,
      "lockType": "Avatar&Monster_Lv4"
    },
    "beHit": {
      "hitBloodEffect": "",
      "hitAutoRedirect": true,
      "muteAllHit": false,
      "muteAllHitEffect": false,
      "muteAllHitText": false
    },
    "die": {
      "hasAnimatorDie": true,
      "dieDisappearEffect": "Eff_Death_Common",
      "dieDisappearEffectDelay": 0.0,
      "dieEndTime": 0.5,
      "dieForceDisappearTime": 1.5,
      "dieModelFadeDelay": 0.0,
      "dieShaderData": "MonsterDie",
      "muteHitBox": true,
      "dieDenyLockOn": true,
      "dieIsGhostToEnemy": true,
      "dieIgnoreTriggerBullet": true,
      "muteBillboard": true,
      "mutePushCollider": true
    },
    "animEvents": {}
  },
  "stateLayers": {
    "defaultLayer": {
      "$type": "ConfigNormalStateLayer",
      "stateIDs": {
        "Born": {
          "$type": "ConfigMonsterStateIDInfo",
          "animatorStates": {
            "Born": []
          },
          "canSyncMove": true,
          "resetAnimatorTriggerOnExit": ["DoSkill"]
        },
        "NormalIdle": {
          "$type": "ConfigMonsterStateIDInfo",
          "animatorStates": {
            "StandbyFree": [],
            "Standby": []
          },
          "canDoSkill": true,
          "canSteer": true,
          "autoSteer": true,
          "canSyncMove": true,
          "resetAnimatorTriggerOnExit": ["DoSkill"]
        },
        "NormalMove": {
          "$type": "ConfigMonsterStateIDInfo",
          "animatorStates": {
            "Walk": ["Audio_Monster_Fungus_Un_Gamma_Water_Walk"]
          },
          "canDoSkill": true,
          "canSteer": true,
          "canSyncMove": true,
          "resetAnimatorTriggerOnExit": ["DoSkill"],
          "setAnimatorFloat": [
            {
              "name": "FlyMotionHor",
              "normalizeStart": 0.0,
              "normalizeEnd": 0.0,
              "value": 0.0
            },
            {
              "name": "FlyMotionVer",
              "normalizeStart": 0.0,
              "normalizeEnd": 0.0,
              "value": 0.0
            }
          ]
        },
        "NormalFly": {
          "$type": "ConfigMonsterStateIDInfo",
          "animatorStates": {
            "Fly": []
          },
          "canDoSkill": true,
          "canSteer": true,
          "canSyncMove": true,
          "resetAnimatorTriggerOnExit": ["DoSkill"],
          "blendMove": "BlendMove3D",
          "airMoveFollowAnimation": true,
          "setAnimatorFloat": [
            {
              "name": "FlyMotionHor",
              "normalizeStart": 0.0,
              "normalizeEnd": 0.0,
              "value": 0.0
            },
            {
              "name": "FlyMotionVer",
              "normalizeStart": 0.0,
              "normalizeEnd": 0.0,
              "value": 0.0
            }
          ]
          // "setAnimatorBoolean": [
          // 	// 用于延迟释放大招的方案：蕈兽会在进入这个状态后再进大招。
          // 	// 飞行系列蕈兽有些特殊，要看大招合适的接续Pose，可能是飞行，可能是地面。水蕈兽是飞行，所以写到这里了
          // 	{
          // 		"name": "InStandby"
          // 	}
          // ]
        },
        "BeHit": {
          "$type": "ConfigMonsterStateIDInfo",
          "animatorStates": {
            "Hit_H": ["Audio_Monster_Fungus_Un_Gamma_Water_Hit"]
          },
          "canSyncMove": true,
          "resetAnimatorTriggerOnEnter": ["BeHit"],
          "resetAnimatorTriggerOnExit": ["DoSkill"],
          "airMoveFollowAnimation": true
        },
        "BeHitThrowAir": {
          "$type": "ConfigMonsterStateIDInfo",
          "animatorStates": {
            "HitThrow": ["Audio_Monster_Fungus_Un_Gamma_Water_Hit"],
            "HitThrowDrop": []
          },
          "remoteForceCloseAirMove": true,
          "resetAnimatorTriggerOnEnter": ["BeHit", "HitAir2HitDrop"],
          "resetAnimatorTriggerOnExit": ["DoSkill"],
          "setAnimatorBoolean": [
            {
              "name": "BurstUnavailable"
            }
          ]
        },
        "BeHitThrow": {
          "$type": "ConfigMonsterStateIDInfo",
          "animatorStates": {
            "HitThrowToGround": [
              "Monster_Fungus_Un_Gamma_Water_HitThrowToGround",
              "Audio_Monster_Fungus_Un_Gamma_Water_HitToGround"
            ]
          },
          "remoteForceCloseAirMove": true,
          "resetAnimatorTriggerOnEnter": ["BeHit"]
        },
        "Struggle": {
          "$type": "ConfigMonsterStateIDInfo",
          "animatorStates": {
            "Struggle": []
          },
          "canSyncMove": false,
          "resetAnimatorTriggerOnEnter": ["BeHit", "HitAir2HitDrop"],
          "resetAnimatorTriggerOnExit": ["DoSkill"],
          "setAnimatorBoolean": [
            {
              "name": "BurstUnavailable"
            }
          ]
        },
        "Die": {
          "$type": "ConfigMonsterStateIDInfo",
          "animatorStates": {
            "Die_BS": ["Audio_Monster_Fungus_Un_Gamma_Water_Die"],
            "Die": ["Monster_Fungus_Un_Die"],
            "AirDie": ["Monster_Fungus_Un_Die"],
            "SwimDie_BS": [],
            "SwimDie": ["Monster_Fungus_Un_Die"]
          }
        },
        "Warning": {
          "$type": "ConfigMonsterStateIDInfo",
          "animatorStates": {
            "Warning": ["Audio_Monster_Fungus_Un_Gamma_Water_Warning"]
          },
          "canSyncMove": true,
          "canSteer": true,
          "resetAnimatorTriggerOnExit": ["BeHit", "DoSkill"]
        },
        //Jump
        "Jump_BS": {
          "$type": "ConfigMonsterStateIDInfo",
          "animatorStates": {
            "Jump_BS": ["Audio_Monster_Fungus_Un_Gamma_Water_Jump_BS"]
          },
          "canDoSkill": false,
          "canSteer": true,
          "autoSteer": false,
          "canSyncMove": true,
          "airMoveFollowAnimation": true,
          "resetAnimatorTriggerOnExit": ["DoSkill"]
        },
        "JumpProcess": {
          "$type": "ConfigMonsterStateIDInfo",
          "animatorStates": {
            "Launch_Loop": [],
            "Jump_AS": ["Audio_Monster_Fungus_Un_Jump_AS"],
            "Drop_Loop": []
          },
          "canDoSkill": true,
          "canSteer": true,
          "autoSteer": false,
          "canSyncMove": true,
          "airMoveFollowAnimation": true,
          "resetAnimatorTriggerOnExit": ["DoSkill", "Launch"]
        },
        "Land_AS": {
          "$type": "ConfigMonsterStateIDInfo",
          "animatorStates": {
            "Land_AS": ["Audio_Monster_Fungus_Un_Jump_AS"]
          },
          "canDoSkill": false,
          "canSteer": true,
          "autoSteer": false,
          "canSyncMove": true,
          "airMoveFollowAnimation": true,
          "resetAnimatorTriggerOnEnter": ["Land", "BeHit", "HitAir2HitDrop"],
          "resetAnimatorTriggerOnExit": ["DoSkill", "Land"]
        },
        "ReturnToBorn": {
          "$type": "ConfigMonsterStateIDInfo",
          "animatorStates": {
            "ReturnToBorn_BS": [
              "Monster_Fungus_Un_ReturnToBorn_BS",
              "Audio_Monster_Fungus_Un_Gamma_Water_ReturnToBorn_BS"
            ],
            "ReturnToBorn_Loop": [],
            "ReturnToBorn_AS": [
              "Monster_Fungus_Un_ReturnToBorn_AS",
              "Audio_Monster_Fungus_Un_Gamma_Water_ReturnToBorn_AS"
            ]
          },
          "cullingModelAlwaysAnimate": true,
          "resetAnimatorTriggerOnExit": ["BeHit", "DoSkill"],
          "setAnimatorBoolean": [
            {
              "name": "BurstUnavailable"
            }
          ]
        },
        ////
        //      d8888b.  .d8b.  d888888b d888888b db      d88888b
        //      88  `8D d8' `8b `~~88~~' `~~88~~' 88      88'
        //      88oooY' 88ooo88    88       88    88      88ooooo
        //      88~~~b. 88~~~88    88       88    88      88~~~~~
        //      88   8D 88   88    88       88    88booo. 88.
        //      Y8888P' YP   YP    YP       YP    Y88888P Y88888P
        "NormalAttack": {
          "$type": "ConfigMonsterStateIDInfo",
          "animatorStates": {
            "Shoot_BS": ["Audio_Monster_Fungus_Un_Shoot_BS"],
            "Shoot_Loop": ["Audio_Monster_Fungus_Activity_Un_Delta_Wind_Shoot"],
            "Shoot_Attack": [
              "Monster_Fungus_Un_Wind_Bullet",
              "Audio_Monster_Fungus_Un_Wind_Shoot_Attack"
            ],
            "Shoot_AS": ["Audio_Monster_Fungus_Un_Shoot_AS"]
          },
          "addEndure": 0.8,
          "resetAnimatorTriggerOnExit": ["BeHit", "DoSkill"]
        },
        "ElementalAttack": {
          "$type": "ConfigMonsterStateIDInfo",
          "animatorStates": {
            "WindImpact_BS": ["Audio_Monster_Fungus_Un_Shoot_BS"],
            "WindImpact_Loop": [
              "Audio_Monster_Fungus_Activity_Un_Delta_Wind_WindImpact"
            ],
            "WindImpact_Attack": [
              "Monster_Fungus_Un_Wind_WindImpact",
              "Audio_Monster_Fungus_Un_Wind_Shoot_Attack"
            ],
            "WindImpact_AS": ["Audio_Monster_Fungus_Un_Shoot_BS"]
          },
          "addEndure": 0.5,
          "resetAnimatorTriggerOnExit": ["BeHit", "DoSkill"]
        },
        "UnionBurst": {
          "$type": "ConfigMonsterStateIDInfo",
          "animatorStates": {
            "WindZone": [
              "Monster_Fungus_Un_Wind_WindZone",
              "Audio_Monster_Fungus_Activity_Un_Delta_Wind_Zone"
            ]
          },
          "addEndure": 0,
          "resetAnimatorTriggerOnExit": ["BeHit", "DoSkill"]
        }
      }
    }
  },
  "abilities": [
    { "abilityName": "Monster_Fungus_Un_FlyStateManager" },
    { "abilityName": "Fungus_Un_BVB_Wind_Bullet_Trigger" }, // 普攻吐子弹
    { "abilityName": "Fungus_Un_BVB_Wind_WindImpact_Trigger" }, // 小技能风冲击
    { "abilityName": "Fungus_Un_BVB_Wind_WindZone" }, // 大招风场
    { "abilityName": "Fungus_BVB_Un_Water_Bubble_Reject" } // 水泡抵抗效果
  ],
  "initialPoses": {
    "Default": {
      "initialPoseID": 0
    }
  },
  "aibeta": {
    "enable": true,
    "moveSetting": {
      "useNavMesh": true,
      "almostReachedDistanceRun": 0.4
    },
    "sensing": {
      "settings": {
        "DefaultSetting": {
          "viewRange": 22.0,
          "feelRange": 8.75
        }
      },
      "templates": {
        "DefaultTemplate": {
          "DefaultPoses": "DefaultSetting"
        }
      }
    },
    "defendArea": {
      "defendRange": 50.0
    },
    "fly": {
      "enable": true,
      "floatingPoses": [201, 501, 551]
    },
    "threat": {
      "clearThreatTargetDistance": 30.0,
      "clearThreatTimerByDistance": 2.0,
      "clearThreatEdgeDistance": 5.0,
      "viewAttenuation": [
        { "x": 12.0, "y": 1.0 },
        { "x": 20.0, "y": 0.5 }
      ]
    },
    "spacialChaseTactic": {
      "enable": true,
      "condition": {
        "pose": [551]
      },
      "defaultSetting": {
        "speedLevel": 2,
        "chaseStartDistance": 7,
        "chaseStopDistance": 7,
        "yOffsetMin": 0.5,
        "yOffsetMax": 2,
        "canStartRangeByRaycast": [
          {
            "min": 0.45,
            "max": 3.0,
            "raycastType": "DownToGroundAndWaterOnlyInAir"
          }
        ]
      }
    },
    // 因为表现和大世界版本不一样，起飞只用MeleeCharge就可以了
    "meleeChargeTactic": {
      "enable": true,
      "condition": {
        "pose": [301]
      },
      "defaultSetting": {
        "speedLevel": 2,
        "speedLevelInner": 2,
        "innerDistance": 7,
        "stopDistance": 0.1,
        "startDistanceMin": 0.1,
        "startDistanceMax": 50
      }
    },
    "spacialFacingMoveTactic": {
      "enable": true,
      "condition": {
        "pose": [501]
      },
      "defaultSetting": {
        "speedLevel": 2,
        "rangeRadiusMin": 1.5,
        "rangeRadiusMax": 5.5,
        "restTimeMin": 0.6,
        "restTimeMax": 1.4,
        "facingMoveTurnInterval": 0.3,
        "facingMoveMinAvoidanceVelecity": 0.25,
        "obstacleDetectRange": 1.5,
        "obstacleUpRange": 3.0,
        "spacialFacingMoveProbability": {
          "stop": 0.1,
          "forward": 1,
          "forwardMin": 2.0,
          "forwardMax": 4.0,
          "backMin": 0.3,
          "backMax": 0.8,
          "right": 0.2,
          "rightMin": 2.0,
          "rightMax": 5.0,
          "leftMin": 2.0,
          "leftMax": 5.0,
          "up": 0.0,
          "upMin": 0.0,
          "upMax": 0.0,
          "downMin": 1.5,
          "downMax": 3.0,
          "bestHeight": 1.25,
          "minHeight": 0.0,
          "maxHeight": 4.0
        },
        "canStartRangeByRaycast": [
          {
            "min": 0.66,
            "max": 2.4,
            "raycastType": "DownToGroundAndWaterOnlyInAir"
          }
        ]
      }
    },
    "skillGCD": 1.8,
    "skills": {
      "100": {
        "name": "OnAlert",
        "stateIDs": ["Warning"],
        "skillType": "OnAlert",
        "skillQueryingTime": 3,
        "triggerGCD": false,
        "faceTarget": true
      },
      "201": {
        "cd": 0.0,
        "cdUpperRange": 3.0,
        "initialCD": 0.5,
        "initialCDUpperRange": 0.5,
        "priority": 4,
        "name": "NormalAttack",
        "stateIDs": ["NormalAttack"],
        "flagTargetReachable": "11",
        "flagSelfInZone": "11",
        "castCondition": {
          "pickRangeMax": 8.0,
          "pickRangeByRaycast": [
            {
              "min": 0.45,
              "max": 2.4,
              "raycastType": "DownToGroundAndWaterOnlyInAir"
            }
          ],
          "castRangeType": "RangeXZ_Y",
          "castRangeXZ_Y": {
            "castRangeXZMax": 12.0,
            "castRangeYMax": 8.0
          },
          "pose": [501]
        }
      },
      "301": {
        "cd": 5.0,
        "cdUpperRange": 5.0,
        "initialCD": 3,
        "initialCDUpperRange": 4,
        "priority": 3,
        "name": "ElementalAttack",
        "stateIDs": ["ElementalAttack"],
        "flagTargetReachable": "11",
        "flagSelfInZone": "11",
        "triggerCDOnFail": false,
        "castCondition": {
          "pickRangeMax": 8,
          "pickRangeByRaycast": [
            {
              "min": 0.45,
              "max": 2,
              "raycastType": "DownToGroundAndWaterOnlyInAir"
            }
          ],
          "castRangeType": "RangeXZ_Y",
          "castRangeXZ_Y": {
            "castRangeXZMax": 12.0,
            "castRangeYMax": 8.0
          },
          "pose": [501]
        }
      },
      "401": {
        "cd": 20,
        "cdUpperRange": 5,
        "initialCD": 5,
        "initialCDUpperRange": 7,
        "priority": 2,
        "name": "UnionBurst",
        "stateIDs": ["UnionBurst"],
        "flagTargetReachable": "11",
        "flagSelfInZone": "11",
        "triggerCDOnFail": false,
        "castCondition": {
          "pickRangeMax": 8,
          "pickRangeByRaycast": [
            {
              "min": 0.45,
              "max": 2,
              "raycastType": "DownToGroundAndWaterOnlyInAir"
            }
          ],
          "castRangeType": "RangeXZ_Y",
          "castRangeXZ_Y": {
            "castRangeXZMax": 12.0,
            "castRangeYMax": 8.0
          },
          "pose": [501]
        }
      }
    }
  },
  "inputKeys": [
    {
      // 普攻
      "keyID": 201,
      "inputKeyCode": 257 // 1
    },
    {
      // 小技能
      "keyID": 301,
      "inputKeyCode": 258 // 2
    },
    {
      // 必杀
      "keyID": 401,
      "inputKeyCode": 259 // 3
    }
  ]
}
